

[2020-11-15 12:37:29] Log session started
[2020-11-15 12:37:29] [0,0] SetSteamID( [U:1:0] )
[2020-11-15 12:37:29] [0,0] SetSteamID( [a:1:0] )
[2020-11-15 12:37:29] [0,0] SetSteamID( [a:1:0] )
[2020-11-15 12:37:29] [0,0] Server says 0% of connections should be websockets, we rolled 83 - using UDP as default.
[2020-11-15 12:37:29] CCMInterface::YieldingConnect -- no CMs cached locally, calling ISteamDirectory/GetCMList web api for launcher type 'steamcmd'. . .
[2020-11-15 12:37:30] CCMInterface::YieldingConnect -- got 100 CMs and 100 WebSocket CMS from ISteamDirectory/GetCMList.
[2020-11-15 12:37:30] [0,0] PingWebSocketCM() (cm4-lhr1.cm.steampowered.com:27035) starting...
[2020-11-15 12:37:30] [0,0] PingWebSocketCM() (cm4-lhr1.cm.steampowered.com:27031) starting...
[2020-11-15 12:37:30] [0,0] PingWebSocketCM() (cm4-lhr1.cm.steampowered.com:27028) starting...
[2020-11-15 12:37:30] [0,0] PingWebSocketCM() (cm3-lhr1.cm.steampowered.com:27036) starting...
[2020-11-15 12:37:30] [0,0] PingWebSocketCM() (cm4-lhr1.cm.steampowered.com:27031) results: 49.7121ms + load 47.0000
[2020-11-15 12:37:30] [0,0] PingWebSocketCM() (cm4-lhr1.cm.steampowered.com:27034) starting...
[2020-11-15 12:37:30] [0,0] PingWebSocketCM() (cm3-lhr1.cm.steampowered.com:27036) results: 49.9337ms + load 47.0000
[2020-11-15 12:37:30] [0,0] PingWebSocketCM() (cm2-lhr1.cm.steampowered.com:27035) starting...
[2020-11-15 12:37:30] [0,0] PingWebSocketCM() (cm4-lhr1.cm.steampowered.com:27035) results: 50.1606ms + load 46.0000
[2020-11-15 12:37:30] [0,0] PingWebSocketCM() (cm2-lhr1.cm.steampowered.com:27037) starting...
[2020-11-15 12:37:30] [0,0] PingWebSocketCM() (cm4-lhr1.cm.steampowered.com:27028) results: 50.3798ms + load 47.0000
[2020-11-15 12:37:30] [0,0] PingWebSocketCM() (cm2-lhr1.cm.steampowered.com:27031) starting...
[2020-11-15 12:37:30] [0,0] PingWebSocketCM() (cm4-lhr1.cm.steampowered.com:27034) results: 33.6121ms + load 46.0000
[2020-11-15 12:37:30] [0,0] PingWebSocketCM() stopping early for good host (cm4-lhr1.cm.steampowered.com:27034)
[2020-11-15 12:37:30] [0,0] PingWebSocketCM() (cm2-lhr1.cm.steampowered.com:27031) results: 49.4127ms + load 47.0000
[2020-11-15 12:37:30] [0,0] PingWebSocketCM() (cm2-lhr1.cm.steampowered.com:27035) results: 49.3863ms + load 45.0000
[2020-11-15 12:37:30] [0,0] PingWebSocketCM() (cm2-lhr1.cm.steampowered.com:27037) results: 49.5877ms + load 46.0000
[2020-11-15 12:37:30] [1,3] Connect() starting connection (eNetQOSLevelHigh, cm4-lhr1.cm.steampowered.com:27034, WebSocket)
[2020-11-15 12:37:30] [1,3] ConnectionCompleted() (162.254.196.84:27034, WebSocket)
[2020-11-15 12:37:30] [1,3] RecvMsgClientLogOnResponse() : [a:1:2267495738] 'OK'
[2020-11-15 12:37:31] IPv6 HTTP connectivity test (ipv6check-http.steamcontent.com / [2a01:bc80:5:105::9b85:fa4c]:80 ([2a01:bc80:5:105::9b85:fa4c]:80)) - TIMEOUT
[2020-11-15 12:37:33] IPv6 UDP connectivity test (ipv6check-udp.steamcontent.com / 2a01:bc80:5:101::9b85:fa37) - TIMEOUT
[2020-11-15 12:38:45] [3,3] ResetVoiceRecording() (was recording: 0) (last get voice time: 1605443925 seconds ago)
[2020-11-15 12:38:45] [3,3] LogOff()
[2020-11-15 12:38:45] [2,3] AsyncDisconnect()
[2020-11-15 12:38:45] [2,3] Log session ended


[2020-11-15 12:43:07] Log session started
[2020-11-15 12:43:07] [0,0] SetSteamID( [U:1:0] )
[2020-11-15 12:43:07] [0,0] SetSteamID( [a:1:0] )
[2020-11-15 12:43:07] [0,0] SetSteamID( [a:1:0] )
[2020-11-15 12:43:07] [0,0] Server says 50% of connections should be websockets, we rolled 69 - using UDP as default.
[2020-11-15 12:43:07] [0,0] Existing WebSocket ping data (cm4-lhr1.cm.steampowered.com:27035) results: 50.0000ms + load 46.0000 (337 seconds ago)
[2020-11-15 12:43:07] [0,0] Existing WebSocket ping data (cm2-lhr1.cm.steampowered.com:27031) results: 49.0000ms + load 47.0000 (337 seconds ago)
[2020-11-15 12:43:07] [0,0] Existing WebSocket ping data (cm2-lhr1.cm.steampowered.com:27037) results: 49.0000ms + load 46.0000 (337 seconds ago)
[2020-11-15 12:43:07] [0,0] Existing WebSocket ping data (cm3-lhr1.cm.steampowered.com:27036) results: 49.0000ms + load 47.0000 (337 seconds ago)
[2020-11-15 12:43:07] [0,0] Existing WebSocket ping data (cm2-lhr1.cm.steampowered.com:27035) results: 49.0000ms + load 45.0000 (337 seconds ago)
[2020-11-15 12:43:07] [0,0] Existing WebSocket ping data (cm4-lhr1.cm.steampowered.com:27031) results: 49.0000ms + load 47.0000 (337 seconds ago)
[2020-11-15 12:43:07] [0,0] Existing WebSocket ping data (cm4-lhr1.cm.steampowered.com:27034) results: 33.0000ms + load 46.0000 (337 seconds ago)
[2020-11-15 12:43:07] [0,0] PingWebSocketCM() stopping early for good host (cm4-lhr1.cm.steampowered.com:27034)
[2020-11-15 12:43:07] [1,3] Connect() starting connection (eNetQOSLevelHigh, cm4-lhr1.cm.steampowered.com:27034, WebSocket)
[2020-11-15 12:43:07] [1,3] ConnectionCompleted() (162.254.196.84:27034, WebSocket)
[2020-11-15 12:43:07] [1,3] RecvMsgClientLogOnResponse() : [a:1:2201089222] 'OK'
[2020-11-15 12:43:09] [3,3] ResetVoiceRecording() (was recording: 0) (last get voice time: 1605444189 seconds ago)
[2020-11-15 12:43:09] [3,3] LogOff()
[2020-11-15 12:43:09] [2,3] AsyncDisconnect()
[2020-11-15 12:43:09] [2,3] Log session ended


[2020-11-15 16:00:00] Log session started
[2020-11-15 16:00:00] [0,0] SetSteamID( [U:1:0] )
[2020-11-15 16:00:00] [0,0] SetSteamID( [a:1:0] )
[2020-11-15 16:00:00] [0,0] SetSteamID( [a:1:0] )
[2020-11-15 16:00:00] [0,0] Server says 50% of connections should be websockets, we rolled 54 - using UDP as default.
[2020-11-15 16:00:00] [0,0] PingWebSocketCM() (cm2-lhr1.cm.steampowered.com:27037) starting...
[2020-11-15 16:00:00] [0,0] PingWebSocketCM() (cm3-lhr1.cm.steampowered.com:27036) starting...
[2020-11-15 16:00:00] [0,0] PingWebSocketCM() (cm2-ams1.cm.steampowered.com:27022) starting...
[2020-11-15 16:00:00] [0,0] PingWebSocketCM() (cm2-ams1.cm.steampowered.com:27024) starting...
[2020-11-15 16:00:00] [0,0] PingWebSocketCM() (cm3-lhr1.cm.steampowered.com:27036) results: 37.8153ms + load 50.0000
[2020-11-15 16:00:00] [0,0] PingWebSocketCM() (cm1-par1.cm.steampowered.com:27022) starting...
[2020-11-15 16:00:00] [0,0] PingWebSocketCM() (cm2-lhr1.cm.steampowered.com:27037) results: 49.1609ms + load 49.0000
[2020-11-15 16:00:00] [0,0] PingWebSocketCM() (cm5-ams1.cm.steampowered.com:27036) starting...
[2020-11-15 16:00:00] [0,0] PingWebSocketCM() (cm2-ams1.cm.steampowered.com:27022) results: 49.0624ms + load 48.0000
[2020-11-15 16:00:00] [0,0] PingWebSocketCM() (cm5-ams1.cm.steampowered.com:27038) starting...
[2020-11-15 16:00:00] [0,0] PingWebSocketCM() (cm2-ams1.cm.steampowered.com:27024) results: 48.8996ms + load 49.0000
[2020-11-15 16:00:00] [0,0] PingWebSocketCM() (cm1-par1.cm.steampowered.com:27026) starting...
[2020-11-15 16:00:00] [0,0] PingWebSocketCM() (cm1-par1.cm.steampowered.com:27022) results: 50.1800ms + load 53.0000
[2020-11-15 16:00:00] [0,0] PingWebSocketCM() (cm6-ams1.cm.steampowered.com:27037) starting...
[2020-11-15 16:00:00] [0,0] PingWebSocketCM() (cm5-ams1.cm.steampowered.com:27036) results: 49.3079ms + load 49.0000
[2020-11-15 16:00:00] [0,0] PingWebSocketCM() (cm2-ams1.cm.steampowered.com:443) starting...
[2020-11-15 16:00:00] [0,0] PingWebSocketCM() (cm1-par1.cm.steampowered.com:27026) results: 49.6746ms + load 51.0000
[2020-11-15 16:00:00] [0,0] PingWebSocketCM() (cm1-ams1.cm.steampowered.com:27026) starting...
[2020-11-15 16:00:00] [0,0] PingWebSocketCM() (cm5-ams1.cm.steampowered.com:27038) results: 49.2982ms + load 51.0000
[2020-11-15 16:00:00] [0,0] PingWebSocketCM() (cm3-ams1.cm.steampowered.com:27023) starting...
[2020-11-15 16:00:00] [0,0] PingWebSocketCM() (cm1-ams1.cm.steampowered.com:27026) results: 47.4900ms + load 51.0000
[2020-11-15 16:00:00] [0,0] PingWebSocketCM() stopping after 400.00ms timeout and using good enough host (cm3-lhr1.cm.steampowered.com:27036)
[2020-11-15 16:00:00] [0,0] PingWebSocketCM() (cm2-ams1.cm.steampowered.com:443) results: 47.6320ms + load 50.0000
[2020-11-15 16:00:00] [0,0] PingWebSocketCM() (cm6-ams1.cm.steampowered.com:27037) results: 47.8570ms + load 49.0000
[2020-11-15 16:00:00] [0,0] PingWebSocketCM() (cm3-ams1.cm.steampowered.com:27023) results: 49.6980ms + load 49.0000
[2020-11-15 16:00:00] [1,3] Connect() starting connection (eNetQOSLevelHigh, cm3-lhr1.cm.steampowered.com:27036, WebSocket)
[2020-11-15 16:00:00] [1,3] ConnectionCompleted() (162.254.196.68:27036, WebSocket)
[2020-11-15 16:00:01] [1,3] RecvMsgClientLogOnResponse() : [a:1:3485947038] 'OK'
[2020-11-15 16:00:02] IPv6 HTTP connectivity test (ipv6check-http.steamcontent.com / [2a01:bc80:4:101::a2fe:c42b]:80 ([2a01:bc80:4:101::a2fe:c42b]:80)) - TIMEOUT
[2020-11-15 16:00:02] [3,3] ResetVoiceRecording() (was recording: 0) (last get voice time: 1605456002 seconds ago)
[2020-11-15 16:00:02] [3,3] LogOff()
[2020-11-15 16:00:02] [2,3] AsyncDisconnect()
[2020-11-15 16:00:02] [2,3] Log session ended


[2020-11-15 16:16:11] Log session started
[2020-11-15 16:16:11] [0,0] SetSteamID( [U:1:0] )
[2020-11-15 16:16:11] [0,0] SetSteamID( [a:1:0] )
[2020-11-15 16:16:11] [0,0] SetSteamID( [a:1:0] )
[2020-11-15 16:16:11] [0,0] Server says 50% of connections should be websockets, we rolled 70 - using UDP as default.
[2020-11-15 16:16:11] [0,0] Existing WebSocket ping data (cm5-ams1.cm.steampowered.com:27036) results: 49.0000ms + load 49.0000 (971 seconds ago)
[2020-11-15 16:16:11] [0,0] Existing WebSocket ping data (cm2-ams1.cm.steampowered.com:27022) results: 49.0000ms + load 48.0000 (971 seconds ago)
[2020-11-15 16:16:11] [0,0] Existing WebSocket ping data (cm6-ams1.cm.steampowered.com:27028) results: 49.0000ms + load 49.0000 (844 seconds ago)
[2020-11-15 16:16:11] [0,0] Existing WebSocket ping data (cm3-ams1.cm.steampowered.com:27023) results: 49.0000ms + load 49.0000 (971 seconds ago)
[2020-11-15 16:16:11] [0,0] Existing WebSocket ping data (cm1-par1.cm.steampowered.com:27026) results: 49.0000ms + load 51.0000 (971 seconds ago)
[2020-11-15 16:16:11] [0,0] Existing WebSocket ping data (cm6-ams1.cm.steampowered.com:27029) results: 49.0000ms + load 50.0000 (844 seconds ago)
[2020-11-15 16:16:11] [0,0] Existing WebSocket ping data (cm2-ams1.cm.steampowered.com:27024) results: 48.0000ms + load 49.0000 (971 seconds ago)
[2020-11-15 16:16:11] [0,0] Existing WebSocket ping data (cm1-ams1.cm.steampowered.com:27026) results: 47.0000ms + load 51.0000 (971 seconds ago)
[2020-11-15 16:16:11] [0,0] Existing WebSocket ping data (cm6-ams1.cm.steampowered.com:27037) results: 47.0000ms + load 49.0000 (971 seconds ago)
[2020-11-15 16:16:11] [0,0] Existing WebSocket ping data (cm2-ams1.cm.steampowered.com:443) results: 47.0000ms + load 50.0000 (971 seconds ago)
[2020-11-15 16:16:11] [0,0] PingWebSocketCM() (cm1-par1.cm.steampowered.com:27025) starting...
[2020-11-15 16:16:11] [0,0] PingWebSocketCM() (cm4-lhr1.cm.steampowered.com:27038) starting...
[2020-11-15 16:16:11] [0,0] PingWebSocketCM() (cm3-ams1.cm.steampowered.com:443) starting...
[2020-11-15 16:16:11] [0,0] PingWebSocketCM() (cm1-par1.cm.steampowered.com:27025) results: 45.4646ms + load 52.0000
[2020-11-15 16:16:11] [0,0] PingWebSocketCM() (cm4-lhr1.cm.steampowered.com:27038) results: 49.1713ms + load 49.0000
[2020-11-15 16:16:11] [0,0] PingWebSocketCM() (cm3-ams1.cm.steampowered.com:443) results: 49.6655ms + load 49.0000
[2020-11-15 16:16:11] [1,3] Connect() starting connection (eNetQOSLevelHigh, cm6-ams1.cm.steampowered.com:27037, WebSocket)
[2020-11-15 16:16:12] [1,3] ConnectionCompleted() (155.133.248.39:27037, WebSocket)
[2020-11-15 16:16:12] [1,3] RecvMsgClientLogOnResponse() : [a:1:3065026649] 'OK'
[2020-11-15 16:16:13] IPv6 HTTP connectivity test (ipv6check-http.steamcontent.com / [2a01:bc80:a:100::b919:b602]:80 ([2a01:bc80:a:100::b919:b602]:80)) - TIMEOUT
[2020-11-15 16:16:15] IPv6 UDP connectivity test (ipv6check-udp.steamcontent.com / 2a01:bc80:a:100::b919:b602) - TIMEOUT
[2020-11-15 16:16:39] [3,3] ResetVoiceRecording() (was recording: 0) (last get voice time: 1605456999 seconds ago)
[2020-11-15 16:16:39] [3,3] LogOff()
[2020-11-15 16:16:39] [2,3] AsyncDisconnect()
[2020-11-15 16:16:39] [2,3] Log session ended


[2020-11-19 16:55:33] Log session started
[2020-11-19 16:55:33] [0,0] SetSteamID( [U:1:0] )
[2020-11-19 16:55:33] [0,0] SetSteamID( [a:1:0] )
[2020-11-19 16:55:33] [0,0] SetSteamID( [a:1:0] )
[2020-11-19 16:55:33] [0,0] Server says 50% of connections should be websockets, we rolled 37 - using WebSockets as default.
[2020-11-19 16:55:33] [0,0] PingWebSocketCM() (cm6-ams1.cm.steampowered.com:27039) starting...
[2020-11-19 16:55:33] [0,0] PingWebSocketCM() (cm6-ams1.cm.steampowered.com:27031) starting...
[2020-11-19 16:55:33] [0,0] PingWebSocketCM() (cm1-lhr1.cm.steampowered.com:27030) starting...
[2020-11-19 16:55:33] [0,0] PingWebSocketCM() (cm1-ams1.cm.steampowered.com:27026) starting...
[2020-11-19 16:55:33] [0,0] PingWebSocketCM() (cm1-lhr1.cm.steampowered.com:27030) results: 32.6944ms + load 44.0000
[2020-11-19 16:55:33] [0,0] PingWebSocketCM() stopping early for good host (cm1-lhr1.cm.steampowered.com:27030)
[2020-11-19 16:55:33] [0,0] PingWebSocketCM() (cm6-ams1.cm.steampowered.com:27031) results: 49.7495ms + load 44.0000
[2020-11-19 16:55:33] [0,0] PingWebSocketCM() (cm6-ams1.cm.steampowered.com:27039) results: 50.0145ms + load 45.0000
[2020-11-19 16:55:33] [0,0] PingWebSocketCM() (cm1-ams1.cm.steampowered.com:27026) results: 49.6103ms + load 43.0000
[2020-11-19 16:55:33] [1,3] Connect() starting connection (eNetQOSLevelHigh, cm1-lhr1.cm.steampowered.com:27030, WebSocket)
[2020-11-19 16:55:33] [1,3] ConnectionCompleted() (162.254.196.67:27030, WebSocket)
[2020-11-19 16:55:33] [1,3] RecvMsgClientLogOnResponse() : [a:1:1438770344] 'OK'
[2020-11-19 16:55:35] IPv6 HTTP connectivity test (ipv6check-http.steamcontent.com / [2a01:bc80:5:101::9b85:fa26]:80 ([2a01:bc80:5:101::9b85:fa26]:80)) - TIMEOUT
[2020-11-19 16:55:37] IPv6 UDP connectivity test (ipv6check-udp.steamcontent.com / 2a01:bc80:7:100::9b85:f811) - TIMEOUT
[2020-11-19 16:55:37] [3,3] ResetVoiceRecording() (was recording: 0) (last get voice time: 1605804937 seconds ago)
[2020-11-19 16:55:37] [3,3] LogOff()
[2020-11-19 16:55:37] [2,3] AsyncDisconnect()
[2020-11-19 16:55:37] [2,3] Log session ended


[2020-11-26 16:52:31] Log session started
[2020-11-26 16:52:31] [0,0] SetSteamID( [U:1:0] )
[2020-11-26 16:52:31] [0,0] SetSteamID( [a:1:0] )
[2020-11-26 16:52:31] [0,0] SetSteamID( [a:1:0] )
[2020-11-26 16:52:31] [0,0] Server says 50% of connections should be websockets, we rolled 75 - using UDP as default.
[2020-11-26 16:52:31] [0,0] PingWebSocketCM() (cm2-lhr1.cm.steampowered.com:27036) starting...
[2020-11-26 16:52:31] [0,0] PingWebSocketCM() (cm4-lhr1.cm.steampowered.com:27029) starting...
[2020-11-26 16:52:31] [0,0] PingWebSocketCM() (cm4-lhr1.cm.steampowered.com:27036) starting...
[2020-11-26 16:52:31] [0,0] PingWebSocketCM() (cm2-lhr1.cm.steampowered.com:27039) starting...
[2020-11-26 16:52:31] [0,0] PingWebSocketCM() (cm2-lhr1.cm.steampowered.com:27039) results: 10.1713ms + load 44.0000
[2020-11-26 16:52:31] [0,0] PingWebSocketCM() (cm2-lhr1.cm.steampowered.com:27036) results: 10.2634ms + load 45.0000
[2020-11-26 16:52:31] [0,0] PingWebSocketCM() stopping early for good host (cm2-lhr1.cm.steampowered.com:27039)
[2020-11-26 16:52:31] [0,0] PingWebSocketCM() (cm4-lhr1.cm.steampowered.com:27029) results: 49.1737ms + load 45.0000
[2020-11-26 16:52:31] [0,0] PingWebSocketCM() (cm4-lhr1.cm.steampowered.com:27036) results: 49.3698ms + load 44.0000
[2020-11-26 16:52:31] [1,3] Connect() starting connection (eNetQOSLevelHigh, cm2-lhr1.cm.steampowered.com:27039, WebSocket)
[2020-11-26 16:52:31] [1,3] ConnectionCompleted() (162.254.196.83:27039, WebSocket)
[2020-11-26 16:52:32] [1,3] RecvMsgClientLogOnResponse() : [a:1:3215718451] 'OK'
[2020-11-26 16:52:33] IPv6 HTTP connectivity test (ipv6check-http.steamcontent.com / [2a01:bc80:a:100::b919:b603]:80 ([2a01:bc80:a:100::b919:b603]:80)) - TIMEOUT
[2020-11-26 16:52:35] IPv6 UDP connectivity test (ipv6check-udp.steamcontent.com / 2a01:bc80:a:100::b919:b603) - TIMEOUT
[2020-11-26 16:52:36] [3,3] ResetVoiceRecording() (was recording: 0) (last get voice time: 1606409556 seconds ago)
[2020-11-26 16:52:36] [3,3] LogOff()
[2020-11-26 16:52:36] [2,3] AsyncDisconnect()
[2020-11-26 16:52:36] [2,3] Log session ended


[2020-12-03 18:49:10] Log session started
[2020-12-03 18:49:10] [0,0] SetSteamID( [U:1:0] )
[2020-12-03 18:49:10] [0,0] SetSteamID( [a:1:0] )
[2020-12-03 18:49:10] [0,0] SetSteamID( [a:1:0] )
[2020-12-03 18:49:10] [0,0] Server says 50% of connections should be websockets, we rolled 61 - using UDP as default.
[2020-12-03 18:49:10] [0,0] PingWebSocketCM() (cm2-par1.cm.steampowered.com:27025) starting...
[2020-12-03 18:49:10] [0,0] PingWebSocketCM() (cm2-par1.cm.steampowered.com:27022) starting...
[2020-12-03 18:49:10] [0,0] PingWebSocketCM() (cm4-lhr1.cm.steampowered.com:27038) starting...
[2020-12-03 18:49:10] [0,0] PingWebSocketCM() (cm4-lhr1.cm.steampowered.com:443) starting...
[2020-12-03 18:49:11] [0,0] PingWebSocketCM() (cm2-par1.cm.steampowered.com:27025) results: 52.6454ms + load 49.0000
[2020-12-03 18:49:11] [0,0] PingWebSocketCM() (cm4-lhr1.cm.steampowered.com:27038) results: 49.2114ms + load 46.0000
[2020-12-03 18:49:11] [0,0] PingWebSocketCM() (cm3-lhr1.cm.steampowered.com:27037) starting...
[2020-12-03 18:49:11] [0,0] PingWebSocketCM() (cm2-lhr1.cm.steampowered.com:443) starting...
[2020-12-03 18:49:11] [0,0] PingWebSocketCM() (cm2-par1.cm.steampowered.com:27022) results: 49.4092ms + load 47.0000
[2020-12-03 18:49:11] [0,0] PingWebSocketCM() (cm4-lhr1.cm.steampowered.com:443) results: 43.5748ms + load 47.0000
[2020-12-03 18:49:11] [0,0] PingWebSocketCM() (cm4-lhr1.cm.steampowered.com:27032) starting...
[2020-12-03 18:49:11] [0,0] PingWebSocketCM() (cm3-lhr1.cm.steampowered.com:27029) starting...
[2020-12-03 18:49:11] [0,0] PingWebSocketCM() (cm3-lhr1.cm.steampowered.com:27037) results: 35.7098ms + load 47.0000
[2020-12-03 18:49:11] [0,0] PingWebSocketCM() (cm3-lhr1.cm.steampowered.com:27035) starting...
[2020-12-03 18:49:11] [0,0] PingWebSocketCM() (cm3-lhr1.cm.steampowered.com:27029) results: 33.6414ms + load 47.0000
[2020-12-03 18:49:11] [0,0] PingWebSocketCM() (cm3-lhr1.cm.steampowered.com:27034) starting...
[2020-12-03 18:49:11] [0,0] PingWebSocketCM() (cm2-lhr1.cm.steampowered.com:443) results: 49.8970ms + load 49.0000
[2020-12-03 18:49:11] [0,0] PingWebSocketCM() (cm6-ams1.cm.steampowered.com:27035) starting...
[2020-12-03 18:49:11] [0,0] PingWebSocketCM() (cm4-lhr1.cm.steampowered.com:27032) results: 49.8997ms + load 47.0000
[2020-12-03 18:49:11] [0,0] PingWebSocketCM() (cm1-ams1.cm.steampowered.com:27022) starting...
[2020-12-03 18:49:11] [0,0] PingWebSocketCM() (cm3-lhr1.cm.steampowered.com:27034) results: 49.5178ms + load 47.0000
[2020-12-03 18:49:11] [0,0] PingWebSocketCM() (cm6-ams1.cm.steampowered.com:27034) starting...
[2020-12-03 18:49:11] [0,0] PingWebSocketCM() (cm3-lhr1.cm.steampowered.com:27035) results: 49.9732ms + load 47.0000
[2020-12-03 18:49:11] [0,0] PingWebSocketCM() (cm6-ams1.cm.steampowered.com:27035) results: 49.7237ms + load 48.0000
[2020-12-03 18:49:11] [0,0] PingWebSocketCM() (cm1-ams1.cm.steampowered.com:27022) results: 49.5514ms + load 45.0000
[2020-12-03 18:49:11] [0,0] PingWebSocketCM() (cm6-ams1.cm.steampowered.com:27034) results: 49.6807ms + load 47.0000
[2020-12-03 18:49:11] [1,3] Connect() starting connection (eNetQOSLevelHigh, cm3-lhr1.cm.steampowered.com:27029, WebSocket)
[2020-12-03 18:49:11] [1,3] ConnectionCompleted() (162.254.196.68:27029, WebSocket)
[2020-12-03 18:49:11] [1,3] RecvMsgClientLogOnResponse() : [a:1:2221473908] 'OK'
[2020-12-03 18:49:12] IPv6 HTTP connectivity test (ipv6check-http.steamcontent.com / [2a01:bc80:5:100::9b85:fa0c]:80 ([2a01:bc80:5:100::9b85:fa0c]:80)) - TIMEOUT
[2020-12-03 18:49:15] IPv6 UDP connectivity test (ipv6check-udp.steamcontent.com / 2a01:bc80:5:105::9b85:fa46) - TIMEOUT
[2020-12-03 18:51:03] [3,3] ResetVoiceRecording() (was recording: 0) (last get voice time: 1607021463 seconds ago)
[2020-12-03 18:51:03] [3,3] LogOff()
[2020-12-03 18:51:03] [2,3] AsyncDisconnect()
[2020-12-03 18:51:03] [2,3] Log session ended


[2020-12-04 12:59:50] Log session started
[2020-12-04 12:59:50] [0,0] SetSteamID( [U:1:0] )
[2020-12-04 12:59:50] [0,0] SetSteamID( [a:1:0] )
[2020-12-04 12:59:50] [0,0] SetSteamID( [a:1:0] )
[2020-12-04 12:59:50] [0,0] Server says 50% of connections should be websockets, we rolled 50 - using UDP as default.
[2020-12-04 12:59:50] [0,0] PingWebSocketCM() (cm3-lhr1.cm.steampowered.com:27029) starting...
[2020-12-04 12:59:50] [0,0] PingWebSocketCM() (cm6-ams1.cm.steampowered.com:27035) starting...
[2020-12-04 12:59:50] [0,0] PingWebSocketCM() (cm4-lhr1.cm.steampowered.com:27032) starting...
[2020-12-04 12:59:50] [0,0] PingWebSocketCM() (cm3-ams1.cm.steampowered.com:27025) starting...
[2020-12-04 12:59:50] [0,0] PingWebSocketCM() (cm3-lhr1.cm.steampowered.com:27029) results: 35.4783ms + load 45.0000
[2020-12-04 12:59:50] [0,0] PingWebSocketCM() (cm4-lhr1.cm.steampowered.com:27038) starting...
[2020-12-04 12:59:50] [0,0] PingWebSocketCM() (cm4-lhr1.cm.steampowered.com:27032) results: 35.6476ms + load 45.0000
[2020-12-04 12:59:50] [0,0] PingWebSocketCM() (cm2-ams1.cm.steampowered.com:27025) starting...
[2020-12-04 12:59:50] [0,0] PingWebSocketCM() (cm6-ams1.cm.steampowered.com:27035) results: 49.5658ms + load 43.0000
[2020-12-04 12:59:50] [0,0] PingWebSocketCM() (cm2-par1.cm.steampowered.com:27022) starting...
[2020-12-04 12:59:50] [0,0] PingWebSocketCM() (cm3-ams1.cm.steampowered.com:27025) results: 54.9230ms + load 46.0000
[2020-12-04 12:59:50] [0,0] PingWebSocketCM() (cm4-ams1.cm.steampowered.com:27024) starting...
[2020-12-04 12:59:50] [0,0] PingWebSocketCM() (cm4-lhr1.cm.steampowered.com:27038) results: 23.5554ms + load 44.0000
[2020-12-04 12:59:50] [0,0] PingWebSocketCM() stopping early for good host (cm4-lhr1.cm.steampowered.com:27038)
[2020-12-04 12:59:50] [0,0] PingWebSocketCM() (cm2-ams1.cm.steampowered.com:27025) results: 57.2435ms + load 42.0000
[2020-12-04 12:59:50] [0,0] PingWebSocketCM() (cm2-par1.cm.steampowered.com:27022) results: 41.5242ms + load 46.0000
[2020-12-04 12:59:50] [0,0] PingWebSocketCM() (cm4-ams1.cm.steampowered.com:27024) results: 49.4064ms + load 42.0000
[2020-12-04 12:59:50] [1,3] Connect() starting connection (eNetQOSLevelHigh, cm4-lhr1.cm.steampowered.com:27038, WebSocket)
[2020-12-04 12:59:50] [1,3] ConnectionCompleted() (162.254.196.84:27038, WebSocket)
[2020-12-04 12:59:51] [1,3] RecvMsgClientLogOnResponse() : [a:1:3642435811] 'OK'
[2020-12-04 12:59:52] IPv6 HTTP connectivity test (ipv6check-http.steamcontent.com / [2a01:bc80:5:105::9b85:fa44]:80 ([2a01:bc80:5:105::9b85:fa44]:80)) - TIMEOUT
[2020-12-04 12:59:54] IPv6 UDP connectivity test (ipv6check-udp.steamcontent.com / 2a01:bc80:a:101::b919:b623) - TIMEOUT
[2020-12-04 13:00:11] [3,3] ResetVoiceRecording() (was recording: 0) (last get voice time: 1607086811 seconds ago)
[2020-12-04 13:00:11] [3,3] LogOff()
[2020-12-04 13:00:11] [2,3] AsyncDisconnect()
[2020-12-04 13:00:11] [2,3] Log session ended


[2020-12-07 09:51:31] Log session started
[2020-12-07 09:51:31] [0,0] SetSteamID( [U:1:0] )
[2020-12-07 09:51:31] [0,0] SetSteamID( [a:1:0] )
[2020-12-07 09:51:31] [0,0] SetSteamID( [a:1:0] )
[2020-12-07 09:51:31] [0,0] Server says 50% of connections should be websockets, we rolled 71 - using UDP as default.
[2020-12-07 09:51:31] [0,0] PingWebSocketCM() (cm4-lhr1.cm.steampowered.com:27038) starting...
[2020-12-07 09:51:31] [0,0] PingWebSocketCM() (cm2-par1.cm.steampowered.com:27022) starting...
[2020-12-07 09:51:31] [0,0] PingWebSocketCM() (cm6-ams1.cm.steampowered.com:27035) starting...
[2020-12-07 09:51:31] [0,0] PingWebSocketCM() (cm6-ams1.cm.steampowered.com:27034) starting...
[2020-12-07 09:51:31] [0,0] PingWebSocketCM() (cm2-par1.cm.steampowered.com:27022) results: 49.0365ms + load 41.0000
[2020-12-07 09:51:31] [0,0] PingWebSocketCM() (cm1-ams1.cm.steampowered.com:27022) starting...
[2020-12-07 09:51:31] [0,0] PingWebSocketCM() (cm4-lhr1.cm.steampowered.com:27038) results: 49.2919ms + load 43.0000
[2020-12-07 09:51:31] [0,0] PingWebSocketCM() (cm4-ams1.cm.steampowered.com:27024) starting...
[2020-12-07 09:51:31] [0,0] PingWebSocketCM() (cm6-ams1.cm.steampowered.com:27034) results: 49.1309ms + load 39.0000
[2020-12-07 09:51:31] [0,0] PingWebSocketCM() (cm2-par1.cm.steampowered.com:27025) starting...
[2020-12-07 09:51:31] [0,0] PingWebSocketCM() (cm6-ams1.cm.steampowered.com:27035) results: 49.4962ms + load 39.0000
[2020-12-07 09:51:31] [0,0] PingWebSocketCM() (cm3-ams1.cm.steampowered.com:27025) starting...
[2020-12-07 09:51:31] [0,0] PingWebSocketCM() (cm2-par1.cm.steampowered.com:27025) results: 48.9080ms + load 42.0000
[2020-12-07 09:51:31] [0,0] PingWebSocketCM() (cm2-ams1.cm.steampowered.com:27025) starting...
[2020-12-07 09:51:31] [0,0] PingWebSocketCM() (cm4-ams1.cm.steampowered.com:27024) results: 48.7854ms + load 42.0000
[2020-12-07 09:51:31] [0,0] PingWebSocketCM() (cm4-lhr1.cm.steampowered.com:27031) starting...
[2020-12-07 09:51:31] [0,0] PingWebSocketCM() (cm1-ams1.cm.steampowered.com:27022) results: 49.4048ms + load 41.0000
[2020-12-07 09:51:31] [0,0] PingWebSocketCM() (cm1-ams1.cm.steampowered.com:27025) starting...
[2020-12-07 09:51:31] [0,0] PingWebSocketCM() (cm3-ams1.cm.steampowered.com:27025) results: 49.8834ms + load 42.0000
[2020-12-07 09:51:31] [0,0] PingWebSocketCM() (cm1-lhr1.cm.steampowered.com:27037) starting...
[2020-12-07 09:51:31] [0,0] PingWebSocketCM() (cm4-lhr1.cm.steampowered.com:27031) results: 29.6971ms + load 43.0000
[2020-12-07 09:51:31] [0,0] PingWebSocketCM() stopping early for good host (cm4-lhr1.cm.steampowered.com:27031)
[2020-12-07 09:51:31] [0,0] PingWebSocketCM() (cm2-ams1.cm.steampowered.com:27025) results: 45.6227ms + load 43.0000
[2020-12-07 09:51:31] [0,0] PingWebSocketCM() (cm1-ams1.cm.steampowered.com:27025) results: 45.8660ms + load 41.0000
[2020-12-07 09:51:31] [0,0] PingWebSocketCM() (cm1-lhr1.cm.steampowered.com:27037) results: 49.6131ms + load 42.0000
[2020-12-07 09:51:31] [1,3] Connect() starting connection (eNetQOSLevelHigh, cm4-lhr1.cm.steampowered.com:27031, WebSocket)
[2020-12-07 09:51:31] [1,3] ConnectionCompleted() (162.254.196.84:27031, WebSocket)
[2020-12-07 09:51:33] IPv6 HTTP connectivity test (ipv6check-http.steamcontent.com / [2a01:bc80:5:101::9b85:fa26]:80 ([2a01:bc80:5:101::9b85:fa26]:80)) - TIMEOUT
[2020-12-07 09:51:35] IPv6 UDP connectivity test (ipv6check-udp.steamcontent.com / 2a01:bc80:5:101::9b85:fa22) - TIMEOUT
[2020-12-07 09:51:45] [1,3] RecvMsgClientLogOnResponse() : [a:1:2893606951] 'OK'
[2020-12-07 09:51:47] [3,3] ResetVoiceRecording() (was recording: 0) (last get voice time: 1607334707 seconds ago)
[2020-12-07 09:51:47] [3,3] LogOff()
[2020-12-07 09:51:47] [2,3] AsyncDisconnect()
[2020-12-07 09:51:47] [2,3] Log session ended


[2020-12-10 16:55:23] Log session started
[2020-12-10 16:55:23] [0,0] SetSteamID( [U:1:0] )
[2020-12-10 16:55:23] [0,0] SetSteamID( [a:1:0] )
[2020-12-10 16:55:23] [0,0] SetSteamID( [a:1:0] )
[2020-12-10 16:55:23] [0,0] Server says 50% of connections should be websockets, we rolled 70 - using UDP as default.
[2020-12-10 16:55:23] [0,0] PingWebSocketCM() (cm3-ams1.cm.steampowered.com:443) starting...
[2020-12-10 16:55:23] [0,0] PingWebSocketCM() (cm6-ams1.cm.steampowered.com:27031) starting...
[2020-12-10 16:55:23] [0,0] PingWebSocketCM() (cm2-ams1.cm.steampowered.com:27025) starting...
[2020-12-10 16:55:23] [0,0] PingWebSocketCM() (cm4-ams1.cm.steampowered.com:27025) starting...
[2020-12-10 16:55:23] [0,0] PingWebSocketCM() (cm3-ams1.cm.steampowered.com:443) results: 44.8932ms + load 47.0000
[2020-12-10 16:55:23] [0,0] PingWebSocketCM() (cm2-par1.cm.steampowered.com:443) starting...
[2020-12-10 16:55:23] [0,0] PingWebSocketCM() (cm6-ams1.cm.steampowered.com:27031) results: 49.5717ms + load 47.0000
[2020-12-10 16:55:23] [0,0] PingWebSocketCM() (cm2-par1.cm.steampowered.com:27025) starting...
[2020-12-10 16:55:23] [0,0] PingWebSocketCM() (cm2-ams1.cm.steampowered.com:27025) results: 49.8137ms + load 45.0000
[2020-12-10 16:55:23] [0,0] PingWebSocketCM() (cm4-ams1.cm.steampowered.com:27024) starting...
[2020-12-10 16:55:23] [0,0] PingWebSocketCM() (cm4-ams1.cm.steampowered.com:27025) results: 49.6099ms + load 45.0000
[2020-12-10 16:55:23] [0,0] PingWebSocketCM() (cm1-ams1.cm.steampowered.com:27022) starting...
[2020-12-10 16:55:23] [0,0] PingWebSocketCM() (cm2-par1.cm.steampowered.com:443) results: 43.3691ms + load 51.0000
[2020-12-10 16:55:23] [0,0] PingWebSocketCM() (cm2-par1.cm.steampowered.com:27022) starting...
[2020-12-10 16:55:23] [0,0] PingWebSocketCM() (cm2-par1.cm.steampowered.com:27025) results: 33.4229ms + load 48.0000
[2020-12-10 16:55:23] [0,0] PingWebSocketCM() (cm3-ams1.cm.steampowered.com:27025) starting...
[2020-12-10 16:55:23] [0,0] PingWebSocketCM() (cm1-ams1.cm.steampowered.com:27022) results: 49.5839ms + load 45.0000
[2020-12-10 16:55:23] [0,0] PingWebSocketCM() (cm1-lhr1.cm.steampowered.com:443) starting...
[2020-12-10 16:55:23] [0,0] PingWebSocketCM() (cm4-ams1.cm.steampowered.com:27024) results: 49.8229ms + load 45.0000
[2020-12-10 16:55:23] [0,0] PingWebSocketCM() (cm6-ams1.cm.steampowered.com:27037) starting...
[2020-12-10 16:55:23] [0,0] PingWebSocketCM() (cm2-par1.cm.steampowered.com:27022) results: 49.8931ms + load 47.0000
[2020-12-10 16:55:23] [0,0] PingWebSocketCM() stopping after 400.00ms timeout and using good enough host (cm2-par1.cm.steampowered.com:27025)
[2020-12-10 16:55:23] [0,0] PingWebSocketCM() (cm3-ams1.cm.steampowered.com:27025) results: 42.5962ms + load 45.0000
[2020-12-10 16:55:23] [0,0] PingWebSocketCM() (cm1-lhr1.cm.steampowered.com:443) results: 49.7416ms + load 45.0000
[2020-12-10 16:55:23] [0,0] PingWebSocketCM() (cm6-ams1.cm.steampowered.com:27037) results: 49.5225ms + load 46.0000
[2020-12-10 16:55:23] [1,3] Connect() starting connection (eNetQOSLevelHigh, cm2-par1.cm.steampowered.com:27025, WebSocket)
[2020-12-10 16:55:23] [1,3] ConnectionCompleted() (185.25.182.77:27025, WebSocket)
[2020-12-10 16:55:24] [1,3] RecvMsgClientLogOnResponse() : [a:1:1108763814] 'OK'
[2020-12-10 16:55:25] IPv6 HTTP connectivity test (ipv6check-http.steamcontent.com / [2a01:bc80:1:103::a2fe:c611]:80 ([2a01:bc80:1:103::a2fe:c611]:80)) - TIMEOUT
[2020-12-10 16:55:27] [3,3] ResetVoiceRecording() (was recording: 0) (last get voice time: 1607619327 seconds ago)
[2020-12-10 16:55:27] [3,3] LogOff()
[2020-12-10 16:55:27] [2,3] AsyncDisconnect()
[2020-12-10 16:55:27] [2,3] Log session ended


[2020-12-17 16:57:01] Log session started
[2020-12-17 16:57:01] [0,0] SetSteamID( [U:1:0] )
[2020-12-17 16:57:01] [0,0] SetSteamID( [a:1:0] )
[2020-12-17 16:57:01] [0,0] SetSteamID( [a:1:0] )
[2020-12-17 16:57:01] [0,0] Server says 50% of connections should be websockets, we rolled 58 - using UDP as default.
[2020-12-17 16:57:01] [0,0] PingWebSocketCM() (cm3-ams1.cm.steampowered.com:27024) starting...
[2020-12-17 16:57:01] [0,0] PingWebSocketCM() (cm5-ams1.cm.steampowered.com:27037) starting...
[2020-12-17 16:57:01] [0,0] PingWebSocketCM() (cm6-ams1.cm.steampowered.com:27032) starting...
[2020-12-17 16:57:01] [0,0] PingWebSocketCM() (cm1-lhr1.cm.steampowered.com:443) starting...
[2020-12-17 16:57:01] [0,0] PingWebSocketCM() (cm1-lhr1.cm.steampowered.com:443) results: 49.8788ms + load 45.0000
[2020-12-17 16:57:01] [0,0] PingWebSocketCM() (cm6-ams1.cm.steampowered.com:27032) results: 49.4801ms + load 43.0000
[2020-12-17 16:57:01] [0,0] PingWebSocketCM() (cm2-ams1.cm.steampowered.com:27022) starting...
[2020-12-17 16:57:01] [0,0] PingWebSocketCM() (cm2-lhr1.cm.steampowered.com:27035) starting...
[2020-12-17 16:57:01] [0,0] PingWebSocketCM() (cm3-ams1.cm.steampowered.com:27024) results: 49.8819ms + load 45.0000
[2020-12-17 16:57:01] [0,0] PingWebSocketCM() (cm5-ams1.cm.steampowered.com:27037) results: 49.7488ms + load 43.0000
[2020-12-17 16:57:01] [0,0] PingWebSocketCM() (cm5-ams1.cm.steampowered.com:27035) starting...
[2020-12-17 16:57:01] [0,0] PingWebSocketCM() (cm2-lhr1.cm.steampowered.com:443) starting...
[2020-12-17 16:57:01] [0,0] PingWebSocketCM() (cm2-lhr1.cm.steampowered.com:27035) results: 49.6351ms + load 44.0000
[2020-12-17 16:57:01] [0,0] PingWebSocketCM() (cm3-ams1.cm.steampowered.com:27023) starting...
[2020-12-17 16:57:01] [0,0] PingWebSocketCM() (cm2-lhr1.cm.steampowered.com:443) results: 49.8333ms + load 48.0000
[2020-12-17 16:57:01] [0,0] PingWebSocketCM() (cm5-ams1.cm.steampowered.com:27035) results: 49.5563ms + load 43.0000
[2020-12-17 16:57:01] [0,0] PingWebSocketCM() (cm6-ams1.cm.steampowered.com:27028) starting...
[2020-12-17 16:57:01] [0,0] PingWebSocketCM() (cm1-lhr1.cm.steampowered.com:27038) starting...
[2020-12-17 16:57:01] [0,0] PingWebSocketCM() (cm2-ams1.cm.steampowered.com:27022) results: 49.7431ms + load 43.0000
[2020-12-17 16:57:01] [0,0] PingWebSocketCM() (cm1-lhr1.cm.steampowered.com:27031) starting...
[2020-12-17 16:57:01] [0,0] PingWebSocketCM() (cm1-lhr1.cm.steampowered.com:27038) results: 31.4904ms + load 46.0000
[2020-12-17 16:57:01] [0,0] PingWebSocketCM() stopping early for good host (cm1-lhr1.cm.steampowered.com:27038)
[2020-12-17 16:57:01] [0,0] PingWebSocketCM() (cm1-lhr1.cm.steampowered.com:27031) results: 49.8415ms + load 45.0000
[2020-12-17 16:57:01] [0,0] PingWebSocketCM() (cm3-ams1.cm.steampowered.com:27023) results: 49.6082ms + load 43.0000
[2020-12-17 16:57:01] [0,0] PingWebSocketCM() (cm6-ams1.cm.steampowered.com:27028) results: 49.8165ms + load 44.0000
[2020-12-17 16:57:01] [1,3] Connect() starting connection (eNetQOSLevelHigh, cm1-lhr1.cm.steampowered.com:27038, WebSocket)
[2020-12-17 16:57:01] [1,3] ConnectionCompleted() (162.254.196.67:27038, WebSocket)
[2020-12-17 16:57:02] [1,3] RecvMsgClientLogOnResponse() : [a:1:3633541333] 'OK'
[2020-12-17 16:57:03] IPv6 HTTP connectivity test (ipv6check-http.steamcontent.com / [2a01:bc80:4:101::a2fe:c42c]:80 ([2a01:bc80:4:101::a2fe:c42c]:80)) - TIMEOUT
[2020-12-17 16:57:04] [3,3] ResetVoiceRecording() (was recording: 0) (last get voice time: 1608224224 seconds ago)
[2020-12-17 16:57:04] [3,3] LogOff()
[2020-12-17 16:57:04] [2,3] AsyncDisconnect()
[2020-12-17 16:57:04] [2,3] Log session ended


[2020-12-17 18:59:59] Log session started
[2020-12-17 18:59:59] [0,0] SetSteamID( [U:1:0] )
[2020-12-17 18:59:59] [0,0] SetSteamID( [a:1:0] )
[2020-12-17 18:59:59] [0,0] SetSteamID( [a:1:0] )
[2020-12-17 18:59:59] [0,0] Server says 50% of connections should be websockets, we rolled 24 - using WebSockets as default.
[2020-12-17 18:59:59] [0,0] PingWebSocketCM() (cm2-lhr1.cm.steampowered.com:27030) starting...
[2020-12-17 18:59:59] [0,0] PingWebSocketCM() (cm2-par1.cm.steampowered.com:27022) starting...
[2020-12-17 18:59:59] [0,0] PingWebSocketCM() (cm5-ams1.cm.steampowered.com:27032) starting...
[2020-12-17 18:59:59] [0,0] PingWebSocketCM() (cm4-ams1.cm.steampowered.com:27026) starting...
[2020-12-17 18:59:59] [0,0] PingWebSocketCM() (cm2-lhr1.cm.steampowered.com:27030) results: 39.5699ms + load 46.0000
[2020-12-17 18:59:59] [0,0] PingWebSocketCM() (cm1-lhr1.cm.steampowered.com:27038) starting...
[2020-12-17 18:59:59] [0,0] PingWebSocketCM() (cm2-par1.cm.steampowered.com:27022) results: 17.4250ms + load 51.0000
[2020-12-17 18:59:59] [0,0] PingWebSocketCM() stopping early for good host (cm2-par1.cm.steampowered.com:27022)
[2020-12-17 18:59:59] [0,0] PingWebSocketCM() (cm5-ams1.cm.steampowered.com:27032) results: 17.4217ms + load 49.0000
[2020-12-17 18:59:59] [0,0] PingWebSocketCM() (cm4-ams1.cm.steampowered.com:27026) results: 49.7686ms + load 48.0000
[2020-12-17 18:59:59] [0,0] PingWebSocketCM() (cm1-lhr1.cm.steampowered.com:27038) results: 48.9813ms + load 48.0000
[2020-12-17 18:59:59] [1,3] Connect() starting connection (eNetQOSLevelHigh, cm5-ams1.cm.steampowered.com:27032, WebSocket)
[2020-12-17 18:59:59] [1,3] ConnectionCompleted() (155.133.248.38:27032, WebSocket)
[2020-12-17 19:00:00] [1,3] RecvMsgClientLogOnResponse() : [a:1:3109183787] 'OK'
[2020-12-17 19:00:01] IPv6 HTTP connectivity test (ipv6check-http.steamcontent.com / [2a01:bc80:5:101::9b85:fa31]:80 ([2a01:bc80:5:101::9b85:fa31]:80)) - TIMEOUT
[2020-12-17 19:00:03] IPv6 UDP connectivity test (ipv6check-udp.steamcontent.com / 2a01:bc80:1:103::a2fe:c60e) - TIMEOUT
[2020-12-17 19:00:47] [3,3] ResetVoiceRecording() (was recording: 0) (last get voice time: 1608231647 seconds ago)
[2020-12-17 19:00:47] [3,3] LogOff()
[2020-12-17 19:00:47] [2,3] AsyncDisconnect()
[2020-12-17 19:00:47] [2,3] Log session ended


[2020-12-24 16:56:30] Log session started
[2020-12-24 16:56:30] [0,0] SetSteamID( [U:1:0] )
[2020-12-24 16:56:30] [0,0] SetSteamID( [a:1:0] )
[2020-12-24 16:56:30] [0,0] SetSteamID( [a:1:0] )
[2020-12-24 16:56:30] [0,0] Server says 50% of connections should be websockets, we rolled 89 - using UDP as default.
[2020-12-24 16:56:30] [0,0] PingWebSocketCM() (cm2-lhr1.cm.steampowered.com:27033) starting...
[2020-12-24 16:56:30] [0,0] PingWebSocketCM() (cm3-lhr1.cm.steampowered.com:27038) starting...
[2020-12-24 16:56:30] [0,0] PingWebSocketCM() (cm3-lhr1.cm.steampowered.com:27036) starting...
[2020-12-24 16:56:30] [0,0] PingWebSocketCM() (cm4-lhr1.cm.steampowered.com:27036) starting...
[2020-12-24 16:56:30] [0,0] PingWebSocketCM() (cm2-lhr1.cm.steampowered.com:27033) results: 37.5909ms + load 42.0000
[2020-12-24 16:56:30] [0,0] PingWebSocketCM() stopping early for good host (cm2-lhr1.cm.steampowered.com:27033)
[2020-12-24 16:56:30] [0,0] PingWebSocketCM() (cm4-lhr1.cm.steampowered.com:27036) results: 49.4616ms + load 42.0000
[2020-12-24 16:56:30] [0,0] PingWebSocketCM() (cm3-lhr1.cm.steampowered.com:27038) results: 49.9432ms + load 41.0000
[2020-12-24 16:56:30] [0,0] PingWebSocketCM() (cm3-lhr1.cm.steampowered.com:27036) results: 49.7744ms + load 42.0000
[2020-12-24 16:56:30] [1,3] Connect() starting connection (eNetQOSLevelHigh, cm2-lhr1.cm.steampowered.com:27033, WebSocket)
[2020-12-24 16:56:30] [1,3] ConnectionCompleted() (162.254.196.83:27033, WebSocket)
[2020-12-24 16:56:32] IPv6 HTTP connectivity test (ipv6check-http.steamcontent.com / [2a01:bc80:8:100::9b85:fc0a]:80 ([2a01:bc80:8:100::9b85:fc0a]:80)) - TIMEOUT
[2020-12-24 16:56:34] IPv6 UDP connectivity test (ipv6check-udp.steamcontent.com / 2a01:bc80:4:100::a2fe:c40c) - TIMEOUT
[2020-12-24 16:56:48] [1,3] RecvMsgClientLogOnResponse() : [a:1:2318650655] 'OK'
[2020-12-24 16:57:04] [3,3] ResetVoiceRecording() (was recording: 0) (last get voice time: 1608829024 seconds ago)
[2020-12-24 16:57:04] [3,3] LogOff()
[2020-12-24 16:57:04] [2,3] AsyncDisconnect()
[2020-12-24 16:57:04] [2,3] Log session ended


[2020-12-31 16:55:02] Log session started
[2020-12-31 16:55:02] [0,0] SetSteamID( [U:1:0] )
[2020-12-31 16:55:02] [0,0] SetSteamID( [a:1:0] )
[2020-12-31 16:55:02] [0,0] SetSteamID( [a:1:0] )
[2020-12-31 16:55:02] [0,0] Server says 50% of connections should be websockets, we rolled 2 - using WebSockets as default.
[2020-12-31 16:55:02] [0,0] PingWebSocketCM() (cm2-lhr1.cm.steampowered.com:27033) starting...
[2020-12-31 16:55:02] [0,0] PingWebSocketCM() (cm4-lhr1.cm.steampowered.com:27036) starting...
[2020-12-31 16:55:02] [0,0] PingWebSocketCM() (cm2-lhr1.cm.steampowered.com:27030) starting...
[2020-12-31 16:55:02] [0,0] PingWebSocketCM() (cm2-lhr1.cm.steampowered.com:27037) starting...
[2020-12-31 16:55:02] [0,0] PingWebSocketCM() (cm2-lhr1.cm.steampowered.com:27033) results: 16.1123ms + load 46.0000
[2020-12-31 16:55:02] [0,0] PingWebSocketCM() stopping early for good host (cm2-lhr1.cm.steampowered.com:27033)
[2020-12-31 16:55:02] [0,0] PingWebSocketCM() (cm2-lhr1.cm.steampowered.com:27030) results: 11.9119ms + load 44.0000
[2020-12-31 16:55:02] [0,0] PingWebSocketCM() (cm4-lhr1.cm.steampowered.com:27036) results: 49.8382ms + load 46.0000
[2020-12-31 16:55:02] [0,0] PingWebSocketCM() (cm2-lhr1.cm.steampowered.com:27037) results: 44.4729ms + load 45.0000
[2020-12-31 16:55:02] [1,3] Connect() starting connection (eNetQOSLevelHigh, cm2-lhr1.cm.steampowered.com:27030, WebSocket)
[2020-12-31 16:55:02] [1,3] ConnectionCompleted() (162.254.196.83:27030, WebSocket)
[2020-12-31 16:55:02] [1,3] RecvMsgClientLogOnResponse() : [a:1:1312774343] 'OK'
[2020-12-31 16:55:04] IPv6 HTTP connectivity test (ipv6check-http.steamcontent.com / [2a01:bc80:a:101::b919:b626]:80 ([2a01:bc80:a:101::b919:b626]:80)) - TIMEOUT
[2020-12-31 16:55:04] [3,3] ResetVoiceRecording() (was recording: 0) (last get voice time: 1609433704 seconds ago)
[2020-12-31 16:55:04] [3,3] LogOff()
[2020-12-31 16:55:04] [2,3] AsyncDisconnect()
[2020-12-31 16:55:04] [2,3] Log session ended


[2021-01-07 18:55:55] Log session started
[2021-01-07 18:55:55] [0,0] SetSteamID( [U:1:0] )
[2021-01-07 18:55:55] [0,0] SetSteamID( [a:1:0] )
[2021-01-07 18:55:55] [0,0] SetSteamID( [a:1:0] )
[2021-01-07 18:55:55] [0,0] Server says 50% of connections should be websockets, we rolled 44 - using WebSockets as default.
[2021-01-07 18:55:55] [0,0] PingWebSocketCM() (cm2-par1.cm.steampowered.com:27022) starting...
[2021-01-07 18:55:55] [0,0] PingWebSocketCM() (cm1-lhr1.cm.steampowered.com:27029) starting...
[2021-01-07 18:55:55] [0,0] PingWebSocketCM() (cm3-lhr1.cm.steampowered.com:443) starting...
[2021-01-07 18:55:55] [0,0] PingWebSocketCM() (cm1-lhr1.cm.steampowered.com:27032) starting...
[2021-01-07 18:55:55] [0,0] PingWebSocketCM() (cm1-lhr1.cm.steampowered.com:27029) results: 39.7105ms + load 50.0000
[2021-01-07 18:55:55] [0,0] PingWebSocketCM() (cm1-lhr1.cm.steampowered.com:27034) starting...
[2021-01-07 18:55:55] [0,0] PingWebSocketCM() (cm3-lhr1.cm.steampowered.com:443) results: 49.9037ms + load 49.0000
[2021-01-07 18:55:55] [0,0] PingWebSocketCM() (cm3-lhr1.cm.steampowered.com:27039) starting...
[2021-01-07 18:55:55] [0,0] PingWebSocketCM() (cm2-par1.cm.steampowered.com:27022) results: 50.1385ms + load 50.0000
[2021-01-07 18:55:55] [0,0] PingWebSocketCM() (cm2-lhr1.cm.steampowered.com:27030) starting...
[2021-01-07 18:55:55] [0,0] PingWebSocketCM() (cm1-lhr1.cm.steampowered.com:27032) results: 49.8438ms + load 49.0000
[2021-01-07 18:55:55] [0,0] PingWebSocketCM() (cm2-lhr1.cm.steampowered.com:27036) starting...
[2021-01-07 18:55:56] [0,0] PingWebSocketCM() (cm1-lhr1.cm.steampowered.com:27034) results: 39.8884ms + load 48.0000
[2021-01-07 18:55:56] [0,0] PingWebSocketCM() (cm2-lhr1.cm.steampowered.com:27028) starting...
[2021-01-07 18:55:56] [0,0] PingWebSocketCM() (cm3-lhr1.cm.steampowered.com:27039) results: 37.6908ms + load 49.0000
[2021-01-07 18:55:56] [0,0] PingWebSocketCM() (cm3-lhr1.cm.steampowered.com:27035) starting...
[2021-01-07 18:55:56] [0,0] PingWebSocketCM() (cm2-lhr1.cm.steampowered.com:27036) results: 50.0737ms + load 50.0000
[2021-01-07 18:55:56] [0,0] PingWebSocketCM() (cm6-ams1.cm.steampowered.com:27036) starting...
[2021-01-07 18:55:56] [0,0] PingWebSocketCM() (cm2-lhr1.cm.steampowered.com:27030) results: 49.9066ms + load 48.0000
[2021-01-07 18:55:56] [0,0] PingWebSocketCM() (cm4-ams1.cm.steampowered.com:27022) starting...
[2021-01-07 18:55:56] [0,0] PingWebSocketCM() (cm3-lhr1.cm.steampowered.com:27035) results: 49.4550ms + load 49.0000
[2021-01-07 18:55:56] [0,0] PingWebSocketCM() (cm6-ams1.cm.steampowered.com:27036) starting...
[2021-01-07 18:55:56] [0,0] PingWebSocketCM() (cm2-lhr1.cm.steampowered.com:27028) results: 49.3793ms + load 49.0000
[2021-01-07 18:55:56] [0,0] PingWebSocketCM() (cm4-ams1.cm.steampowered.com:27022) results: 49.8694ms + load 48.0000
[2021-01-07 18:55:56] [0,0] PingWebSocketCM() (cm6-ams1.cm.steampowered.com:27036) results: 50.1496ms + load 50.0000
[2021-01-07 18:55:56] [0,0] PingWebSocketCM() (cm6-ams1.cm.steampowered.com:27036) results: 49.8585ms + load 50.0000
[2021-01-07 18:55:56] [1,3] Connect() starting connection (eNetQOSLevelHigh, cm3-lhr1.cm.steampowered.com:27039, WebSocket)
[2021-01-07 18:55:56] [1,3] ConnectionCompleted() (162.254.196.68:27039, WebSocket)
[2021-01-07 18:55:56] [1,3] RecvMsgClientLogOnResponse() : [a:1:2757802272] 'OK'
[2021-01-07 18:55:57] IPv6 HTTP connectivity test (ipv6check-http.steamcontent.com / [2a01:bc80:7:100::9b85:f80e]:80 ([2a01:bc80:7:100::9b85:f80e]:80)) - TIMEOUT
[2021-01-07 18:55:59] IPv6 UDP connectivity test (ipv6check-udp.steamcontent.com / 2a01:bc80:1:104::a2fe:c653) - TIMEOUT
[2021-01-07 18:56:35] [3,3] ResetVoiceRecording() (was recording: 0) (last get voice time: 1610045795 seconds ago)
[2021-01-07 18:56:35] [3,3] LogOff()
[2021-01-07 18:56:35] [2,3] AsyncDisconnect()
[2021-01-07 18:56:35] [2,3] Log session ended


[2021-01-11 15:17:31] Log session started
[2021-01-11 15:17:31] [0,0] SetSteamID( [U:1:0] )
[2021-01-11 15:17:31] [0,0] SetSteamID( [a:1:0] )
[2021-01-11 15:17:31] [0,0] SetSteamID( [a:1:0] )
[2021-01-11 15:17:31] [0,0] Server says 50% of connections should be websockets, we rolled 66 - using UDP as default.
[2021-01-11 15:17:31] [0,0] PingWebSocketCM() (cm3-lhr1.cm.steampowered.com:27039) starting...
[2021-01-11 15:17:31] [0,0] PingWebSocketCM() (cm1-lhr1.cm.steampowered.com:27034) starting...
[2021-01-11 15:17:31] [0,0] PingWebSocketCM() (cm1-lhr1.cm.steampowered.com:27029) starting...
[2021-01-11 15:17:31] [0,0] PingWebSocketCM() (cm5-ams1.cm.steampowered.com:27030) starting...
[2021-01-11 15:17:31] [0,0] PingWebSocketCM() (cm3-lhr1.cm.steampowered.com:27039) results: 49.7562ms + load 46.0000
[2021-01-11 15:17:31] [0,0] PingWebSocketCM() (cm1-lhr1.cm.steampowered.com:27034) results: 49.6221ms + load 47.0000
[2021-01-11 15:17:31] [0,0] PingWebSocketCM() (cm3-lhr1.cm.steampowered.com:27035) starting...
[2021-01-11 15:17:31] [0,0] PingWebSocketCM() (cm2-lhr1.cm.steampowered.com:27030) starting...
[2021-01-11 15:17:31] [0,0] PingWebSocketCM() (cm1-lhr1.cm.steampowered.com:27029) results: 49.5655ms + load 45.0000
[2021-01-11 15:17:31] [0,0] PingWebSocketCM() (cm2-par1.cm.steampowered.com:27025) starting...
[2021-01-11 15:17:31] [0,0] PingWebSocketCM() (cm5-ams1.cm.steampowered.com:27030) results: 58.5245ms + load 44.0000
[2021-01-11 15:17:31] [0,0] PingWebSocketCM() (cm2-par1.cm.steampowered.com:27026) starting...
[2021-01-11 15:17:31] [0,0] PingWebSocketCM() (cm3-lhr1.cm.steampowered.com:27035) results: 49.8264ms + load 46.0000
[2021-01-11 15:17:31] [0,0] PingWebSocketCM() (cm6-ams1.cm.steampowered.com:27036) starting...
[2021-01-11 15:17:31] [0,0] PingWebSocketCM() (cm2-lhr1.cm.steampowered.com:27030) results: 49.7631ms + load 45.0000
[2021-01-11 15:17:31] [0,0] PingWebSocketCM() (cm3-lhr1.cm.steampowered.com:443) starting...
[2021-01-11 15:17:31] [0,0] PingWebSocketCM() (cm2-par1.cm.steampowered.com:27025) results: 49.6725ms + load 45.0000
[2021-01-11 15:17:31] [0,0] PingWebSocketCM() (cm3-lhr1.cm.steampowered.com:27036) starting...
[2021-01-11 15:17:31] [0,0] PingWebSocketCM() (cm2-par1.cm.steampowered.com:27026) results: 59.2299ms + load 45.0000
[2021-01-11 15:17:31] [0,0] PingWebSocketCM() stopping after 400.00ms timeout and using good enough host (cm1-lhr1.cm.steampowered.com:27029)
[2021-01-11 15:17:31] [0,0] PingWebSocketCM() (cm3-lhr1.cm.steampowered.com:443) results: 32.3826ms + load 46.0000
[2021-01-11 15:17:31] [0,0] PingWebSocketCM() (cm3-lhr1.cm.steampowered.com:27036) results: 49.4791ms + load 46.0000
[2021-01-11 15:17:31] [0,0] PingWebSocketCM() (cm6-ams1.cm.steampowered.com:27036) results: 49.7115ms + load 44.0000
[2021-01-11 15:17:31] [1,3] Connect() starting connection (eNetQOSLevelHigh, cm3-lhr1.cm.steampowered.com:443, WebSocket)
[2021-01-11 15:17:31] [1,3] ConnectionCompleted() (162.254.196.68:443, WebSocket)
[2021-01-11 15:17:32] [1,3] RecvMsgClientLogOnResponse() : [a:1:1549577444] 'OK'
[2021-01-11 15:17:33] IPv6 HTTP connectivity test (ipv6check-http.steamcontent.com / [2a01:bc80:5:100::9b85:fa04]:80 ([2a01:bc80:5:100::9b85:fa04]:80)) - TIMEOUT
[2021-01-11 15:17:35] IPv6 UDP connectivity test (ipv6check-udp.steamcontent.com / 2a01:bc80:5:101::9b85:fa26) - TIMEOUT
[2021-01-11 15:17:43] [3,3] ResetVoiceRecording() (was recording: 0) (last get voice time: 1610378263 seconds ago)
[2021-01-11 15:17:43] [3,3] LogOff()
[2021-01-11 15:17:43] [2,3] AsyncDisconnect()
[2021-01-11 15:17:43] [2,3] Log session ended


[2021-01-11 15:30:03] Log session started
[2021-01-11 15:30:03] [0,0] SetSteamID( [U:1:0] )
[2021-01-11 15:30:03] [0,0] SetSteamID( [a:1:0] )
[2021-01-11 15:30:03] [0,0] SetSteamID( [a:1:0] )
[2021-01-11 15:30:03] [0,0] Server says 50% of connections should be websockets, we rolled 8 - using WebSockets as default.
[2021-01-11 15:30:03] [0,0] Existing WebSocket ping data (cm6-ams1.cm.steampowered.com:27036) results: 49.0000ms + load 44.0000 (752 seconds ago)
[2021-01-11 15:30:03] [0,0] Existing WebSocket ping data (cm3-lhr1.cm.steampowered.com:27036) results: 49.0000ms + load 46.0000 (752 seconds ago)
[2021-01-11 15:30:03] [0,0] Existing WebSocket ping data (cm2-par1.cm.steampowered.com:443) results: 49.0000ms + load 46.0000 (610 seconds ago)
[2021-01-11 15:30:03] [0,0] Existing WebSocket ping data (cm4-lhr1.cm.steampowered.com:27039) results: 49.0000ms + load 45.0000 (611 seconds ago)
[2021-01-11 15:30:03] [0,0] Existing WebSocket ping data (cm2-lhr1.cm.steampowered.com:27030) results: 49.0000ms + load 45.0000 (752 seconds ago)
[2021-01-11 15:30:03] [0,0] Existing WebSocket ping data (cm1-lhr1.cm.steampowered.com:27029) results: 49.0000ms + load 45.0000 (752 seconds ago)
[2021-01-11 15:30:03] [0,0] Existing WebSocket ping data (cm2-par1.cm.steampowered.com:27025) results: 49.0000ms + load 45.0000 (752 seconds ago)
[2021-01-11 15:30:03] [0,0] Existing WebSocket ping data (cm4-ams1.cm.steampowered.com:27022) results: 48.0000ms + load 46.0000 (611 seconds ago)
[2021-01-11 15:30:03] [0,0] Existing WebSocket ping data (cm2-par1.cm.steampowered.com:27022) results: 48.0000ms + load 45.0000 (611 seconds ago)
[2021-01-11 15:30:03] [0,0] Existing WebSocket ping data (cm2-lhr1.cm.steampowered.com:27036) results: 48.0000ms + load 51.0000 (611 seconds ago)
[2021-01-11 15:30:03] [0,0] PingWebSocketCM() (cm2-lhr1.cm.steampowered.com:27039) starting...
[2021-01-11 15:30:03] [0,0] PingWebSocketCM() (cm3-ams1.cm.steampowered.com:27026) starting...
[2021-01-11 15:30:03] [0,0] PingWebSocketCM() (cm5-ams1.cm.steampowered.com:27035) starting...
[2021-01-11 15:30:03] [0,0] PingWebSocketCM() (cm2-lhr1.cm.steampowered.com:27039) results: 47.0531ms + load 48.0000
[2021-01-11 15:30:03] [0,0] PingWebSocketCM() (cm5-ams1.cm.steampowered.com:27035) results: 49.4751ms + load 46.0000
[2021-01-11 15:30:03] [0,0] PingWebSocketCM() (cm3-ams1.cm.steampowered.com:27026) results: 49.7295ms + load 44.0000
[2021-01-11 15:30:03] [1,3] Connect() starting connection (eNetQOSLevelHigh, cm6-ams1.cm.steampowered.com:27036, WebSocket)
[2021-01-11 15:30:03] [1,3] ConnectionCompleted() (155.133.248.39:27036, WebSocket)
[2021-01-11 15:30:04] [1,3] RecvMsgClientLogOnResponse() : [a:1:920473877] 'OK'
[2021-01-11 15:30:05] [3,3] ResetVoiceRecording() (was recording: 0) (last get voice time: 1610379005 seconds ago)
[2021-01-11 15:30:05] [3,3] LogOff()
[2021-01-11 15:30:05] [2,3] AsyncDisconnect()
[2021-01-11 15:30:05] [2,3] Log session ended


[2021-01-14 16:55:09] Log session started
[2021-01-14 16:55:09] [0,0] SetSteamID( [U:1:0] )
[2021-01-14 16:55:09] [0,0] SetSteamID( [a:1:0] )
[2021-01-14 16:55:09] [0,0] SetSteamID( [a:1:0] )
[2021-01-14 16:55:09] [0,0] Server says 50% of connections should be websockets, we rolled 79 - using UDP as default.
[2021-01-14 16:55:09] [0,0] PingWebSocketCM() (cm3-ams1.cm.steampowered.com:27024) starting...
[2021-01-14 16:55:09] [0,0] PingWebSocketCM() (cm6-ams1.cm.steampowered.com:27028) starting...
[2021-01-14 16:55:09] [0,0] PingWebSocketCM() (cm2-ams1.cm.steampowered.com:443) starting...
[2021-01-14 16:55:09] [0,0] PingWebSocketCM() (cm1-par1.cm.steampowered.com:443) starting...
[2021-01-14 16:55:10] [0,0] PingWebSocketCM() (cm1-par1.cm.steampowered.com:443) results: 49.5042ms + load 51.0000
[2021-01-14 16:55:10] [0,0] PingWebSocketCM() (cm5-ams1.cm.steampowered.com:27036) starting...
[2021-01-14 16:55:10] [0,0] PingWebSocketCM() (cm3-ams1.cm.steampowered.com:27024) results: 49.7005ms + load 48.0000
[2021-01-14 16:55:10] [0,0] PingWebSocketCM() (cm2-ams1.cm.steampowered.com:27023) starting...
[2021-01-14 16:55:10] [0,0] PingWebSocketCM() (cm6-ams1.cm.steampowered.com:27028) results: 49.8697ms + load 48.0000
[2021-01-14 16:55:10] [0,0] PingWebSocketCM() (cm2-ams1.cm.steampowered.com:443) results: 49.6073ms + load 48.0000
[2021-01-14 16:55:10] [0,0] PingWebSocketCM() (cm1-par1.cm.steampowered.com:27026) starting...
[2021-01-14 16:55:10] [0,0] PingWebSocketCM() (cm1-ams1.cm.steampowered.com:443) starting...
[2021-01-14 16:55:10] [0,0] PingWebSocketCM() (cm1-par1.cm.steampowered.com:27026) results: 48.9262ms + load 49.0000
[2021-01-14 16:55:10] [0,0] PingWebSocketCM() (cm3-lhr1.cm.steampowered.com:27028) starting...
[2021-01-14 16:55:10] [0,0] PingWebSocketCM() (cm5-ams1.cm.steampowered.com:27036) results: 44.7247ms + load 48.0000
[2021-01-14 16:55:10] [0,0] PingWebSocketCM() (cm2-ams1.cm.steampowered.com:27023) results: 44.5268ms + load 47.0000
[2021-01-14 16:55:10] [0,0] PingWebSocketCM() (cm4-lhr1.cm.steampowered.com:27038) starting...
[2021-01-14 16:55:10] [0,0] PingWebSocketCM() (cm6-ams1.cm.steampowered.com:27039) starting...
[2021-01-14 16:55:10] [0,0] PingWebSocketCM() (cm1-ams1.cm.steampowered.com:443) results: 51.6314ms + load 47.0000
[2021-01-14 16:55:10] [0,0] PingWebSocketCM() (cm2-par1.cm.steampowered.com:27026) starting...
[2021-01-14 16:55:10] [0,0] PingWebSocketCM() (cm3-lhr1.cm.steampowered.com:27028) results: 36.3027ms + load 47.0000
[2021-01-14 16:55:10] [0,0] PingWebSocketCM() (cm3-lhr1.cm.steampowered.com:27039) starting...
[2021-01-14 16:55:10] [0,0] PingWebSocketCM() (cm4-lhr1.cm.steampowered.com:27038) results: 49.8719ms + load 49.0000
[2021-01-14 16:55:10] [0,0] PingWebSocketCM() (cm6-ams1.cm.steampowered.com:27039) results: 45.8806ms + load 47.0000
[2021-01-14 16:55:10] [0,0] PingWebSocketCM() (cm2-par1.cm.steampowered.com:27026) results: 49.4061ms + load 55.0000
[2021-01-14 16:55:10] [0,0] PingWebSocketCM() (cm3-lhr1.cm.steampowered.com:27039) results: 49.2887ms + load 48.0000
[2021-01-14 16:55:10] [1,3] Connect() starting connection (eNetQOSLevelHigh, cm3-lhr1.cm.steampowered.com:27028, WebSocket)
[2021-01-14 16:55:10] [1,3] ConnectionCompleted() (162.254.196.68:27028, WebSocket)
[2021-01-14 16:55:10] [1,3] RecvMsgClientLogOnResponse() : [a:1:3799501040] 'OK'
[2021-01-14 16:55:11] IPv6 HTTP connectivity test (ipv6check-http.steamcontent.com / [2a01:bc80:5:100::9b85:fa05]:80 ([2a01:bc80:5:100::9b85:fa05]:80)) - TIMEOUT
[2021-01-14 16:55:12] [3,3] ResetVoiceRecording() (was recording: 0) (last get voice time: 1610643312 seconds ago)
[2021-01-14 16:55:12] [3,3] LogOff()
[2021-01-14 16:55:12] [2,3] AsyncDisconnect()
[2021-01-14 16:55:12] [2,3] Log session ended


[2021-01-21 16:52:03] Log session started
[2021-01-21 16:52:03] [0,0] SetSteamID( [U:1:0] )
[2021-01-21 16:52:03] [0,0] SetSteamID( [a:1:0] )
[2021-01-21 16:52:03] [0,0] SetSteamID( [a:1:0] )
[2021-01-21 16:52:03] [0,0] Server says 50% of connections should be websockets, we rolled 30 - using WebSockets as default.
[2021-01-21 16:52:03] [0,0] PingWebSocketCM() (cm4-lhr1.cm.steampowered.com:443) starting...
[2021-01-21 16:52:03] [0,0] PingWebSocketCM() (cm1-lhr1.cm.steampowered.com:27029) starting...
[2021-01-21 16:52:03] [0,0] PingWebSocketCM() (cm3-lhr1.cm.steampowered.com:27028) starting...
[2021-01-21 16:52:03] [0,0] PingWebSocketCM() (cm4-lhr1.cm.steampowered.com:27029) starting...
[2021-01-21 16:52:03] [0,0] PingWebSocketCM() (cm1-lhr1.cm.steampowered.com:27029) results: 41.5639ms + load 49.0000
[2021-01-21 16:52:03] [0,0] PingWebSocketCM() (cm2-lhr1.cm.steampowered.com:27034) starting...
[2021-01-21 16:52:03] [0,0] PingWebSocketCM() (cm4-lhr1.cm.steampowered.com:443) results: 8.4915ms + load 47.0000
[2021-01-21 16:52:03] [0,0] PingWebSocketCM() stopping early for good host (cm4-lhr1.cm.steampowered.com:443)
[2021-01-21 16:52:03] [0,0] PingWebSocketCM() (cm3-lhr1.cm.steampowered.com:27028) results: 8.6100ms + load 48.0000
[2021-01-21 16:52:03] [0,0] PingWebSocketCM() (cm4-lhr1.cm.steampowered.com:27029) results: 49.8200ms + load 49.0000
[2021-01-21 16:52:03] [0,0] PingWebSocketCM() (cm2-lhr1.cm.steampowered.com:27034) results: 49.4590ms + load 48.0000
[2021-01-21 16:52:03] [1,3] Connect() starting connection (eNetQOSLevelHigh, cm4-lhr1.cm.steampowered.com:443, WebSocket)
[2021-01-21 16:52:03] [1,3] ConnectionCompleted() (162.254.196.84:443, WebSocket)
[2021-01-21 16:52:04] [1,3] RecvMsgClientLogOnResponse() : [a:1:3472460833] 'OK'
[2021-01-21 16:52:05] IPv6 HTTP connectivity test (ipv6check-http.steamcontent.com / [2a01:bc80:5:101::9b85:fa23]:80 ([2a01:bc80:5:101::9b85:fa23]:80)) - TIMEOUT
[2021-01-21 16:52:07] IPv6 UDP connectivity test (ipv6check-udp.steamcontent.com / 2a01:bc80:5:106::9b85:fa68) - TIMEOUT
[2021-01-21 16:52:19] [3,3] ResetVoiceRecording() (was recording: 0) (last get voice time: 1611247939 seconds ago)
[2021-01-21 16:52:19] [3,3] LogOff()
[2021-01-21 16:52:19] [2,3] AsyncDisconnect()
[2021-01-21 16:52:19] [2,3] Log session ended


[2021-01-28 16:54:43] Log session started
[2021-01-28 16:54:43] [0,0] SetSteamID( [U:1:0] )
[2021-01-28 16:54:43] [0,0] SetSteamID( [a:1:0] )
[2021-01-28 16:54:43] [0,0] SetSteamID( [a:1:0] )
[2021-01-28 16:54:43] [0,0] Server says 50% of connections should be websockets, we rolled 63 - using UDP as default.
[2021-01-28 16:54:43] [0,0] PingWebSocketCM() (cm2-lhr1.cm.steampowered.com:27028) starting...
[2021-01-28 16:54:43] [0,0] PingWebSocketCM() (cm2-lhr1.cm.steampowered.com:27030) starting...
[2021-01-28 16:54:43] [0,0] PingWebSocketCM() (cm2-lhr1.cm.steampowered.com:27039) starting...
[2021-01-28 16:54:43] [0,0] PingWebSocketCM() (cm2-lhr1.cm.steampowered.com:27034) starting...
[2021-01-28 16:54:43] [0,0] PingWebSocketCM() (cm2-lhr1.cm.steampowered.com:27030) results: 8.3667ms + load 46.0000
[2021-01-28 16:54:43] [0,0] PingWebSocketCM() stopping early for good host (cm2-lhr1.cm.steampowered.com:27030)
[2021-01-28 16:54:43] [0,0] PingWebSocketCM() (cm2-lhr1.cm.steampowered.com:27028) results: 8.4653ms + load 44.0000
[2021-01-28 16:54:43] [0,0] PingWebSocketCM() (cm2-lhr1.cm.steampowered.com:27039) results: 43.4311ms + load 44.0000
[2021-01-28 16:54:43] [0,0] PingWebSocketCM() (cm2-lhr1.cm.steampowered.com:27034) results: 43.3755ms + load 45.0000
[2021-01-28 16:54:43] [1,3] Connect() starting connection (eNetQOSLevelHigh, cm2-lhr1.cm.steampowered.com:27028, WebSocket)
[2021-01-28 16:54:43] [1,3] ConnectionCompleted() (162.254.196.83:27028, WebSocket)
[2021-01-28 16:54:44] [1,3] RecvMsgClientLogOnResponse() : [a:1:2211369162] 'OK'
[2021-01-28 16:54:45] IPv6 HTTP connectivity test (ipv6check-http.steamcontent.com / [2a01:bc80:4:100::a2fe:c411]:80 ([2a01:bc80:4:100::a2fe:c411]:80)) - TIMEOUT
[2021-01-28 16:54:47] IPv6 UDP connectivity test (ipv6check-udp.steamcontent.com / 2a01:bc80:1:104::a2fe:c653) - TIMEOUT
[2021-01-28 16:54:53] [3,3] ResetVoiceRecording() (was recording: 0) (last get voice time: 1611852893 seconds ago)
[2021-01-28 16:54:53] [3,3] LogOff()
[2021-01-28 16:54:53] [2,3] AsyncDisconnect()
[2021-01-28 16:54:53] [2,3] Log session ended


[2021-02-04 18:57:55] Log session started
[2021-02-04 18:57:55] [0,0] SetSteamID( [U:1:0] )
[2021-02-04 18:57:55] [0,0] SetSteamID( [a:1:0] )
[2021-02-04 18:57:55] [0,0] SetSteamID( [a:1:0] )
[2021-02-04 18:57:55] [0,0] Server says 50% of connections should be websockets, we rolled 0 - using WebSockets as default.
[2021-02-04 18:57:55] [0,0] PingWebSocketCM() (cm4-lhr1.cm.steampowered.com:27037) starting...
[2021-02-04 18:57:55] [0,0] PingWebSocketCM() (cm2-lhr1.cm.steampowered.com:27039) starting...
[2021-02-04 18:57:55] [0,0] PingWebSocketCM() (cm4-lhr1.cm.steampowered.com:27038) starting...
[2021-02-04 18:57:55] [0,0] PingWebSocketCM() (cm1-lhr1.cm.steampowered.com:27028) starting...
[2021-02-04 18:57:55] [0,0] PingWebSocketCM() (cm2-lhr1.cm.steampowered.com:27039) results: 46.9329ms + load 50.0000
[2021-02-04 18:57:55] [0,0] PingWebSocketCM() (cm4-lhr1.cm.steampowered.com:27037) results: 47.0596ms + load 49.0000
[2021-02-04 18:57:55] [0,0] PingWebSocketCM() (cm4-lhr1.cm.steampowered.com:27032) starting...
[2021-02-04 18:57:55] [0,0] PingWebSocketCM() (cm1-lhr1.cm.steampowered.com:27030) starting...
[2021-02-04 18:57:55] [0,0] PingWebSocketCM() (cm4-lhr1.cm.steampowered.com:27038) results: 46.9878ms + load 68.0000
[2021-02-04 18:57:55] [0,0] PingWebSocketCM() (cm1-lhr1.cm.steampowered.com:27036) starting...
[2021-02-04 18:57:55] [0,0] PingWebSocketCM() (cm1-lhr1.cm.steampowered.com:27028) results: 49.8478ms + load 49.0000
[2021-02-04 18:57:55] [0,0] PingWebSocketCM() (cm4-lhr1.cm.steampowered.com:27039) starting...
[2021-02-04 18:57:55] [0,0] PingWebSocketCM() (cm1-lhr1.cm.steampowered.com:27036) results: 32.4771ms + load 67.0000
[2021-02-04 18:57:55] [0,0] PingWebSocketCM() (cm1-lhr1.cm.steampowered.com:27035) starting...
[2021-02-04 18:57:55] [0,0] PingWebSocketCM() (cm1-lhr1.cm.steampowered.com:27030) results: 49.5745ms + load 49.0000
[2021-02-04 18:57:55] [0,0] PingWebSocketCM() (cm1-lhr1.cm.steampowered.com:27033) starting...
[2021-02-04 18:57:55] [0,0] PingWebSocketCM() (cm4-lhr1.cm.steampowered.com:27032) results: 49.7275ms + load 47.0000
[2021-02-04 18:57:55] [0,0] PingWebSocketCM() (cm5-ams1.cm.steampowered.com:27036) starting...
[2021-02-04 18:57:55] [0,0] PingWebSocketCM() (cm4-lhr1.cm.steampowered.com:27039) results: 49.5915ms + load 49.0000
[2021-02-04 18:57:55] [0,0] PingWebSocketCM() (cm1-ams1.cm.steampowered.com:443) starting...
[2021-02-04 18:57:55] [0,0] PingWebSocketCM() (cm1-lhr1.cm.steampowered.com:27033) results: 42.5555ms + load 48.0000
[2021-02-04 18:57:55] [0,0] PingWebSocketCM() (cm2-ams1.cm.steampowered.com:27025) starting...
[2021-02-04 18:57:55] [0,0] PingWebSocketCM() (cm1-lhr1.cm.steampowered.com:27035) results: 47.9441ms + load 47.0000
[2021-02-04 18:57:55] [0,0] PingWebSocketCM() (cm5-ams1.cm.steampowered.com:27036) results: 45.8473ms + load 44.0000
[2021-02-04 18:57:55] [0,0] PingWebSocketCM() (cm1-ams1.cm.steampowered.com:443) results: 56.9961ms + load 51.0000
[2021-02-04 18:57:55] [0,0] PingWebSocketCM() (cm2-ams1.cm.steampowered.com:27025) results: 49.6958ms + load 47.0000
[2021-02-04 18:57:55] [1,3] Connect() starting connection (eNetQOSLevelHigh, cm5-ams1.cm.steampowered.com:27036, WebSocket)
[2021-02-04 18:57:55] [1,3] ConnectionCompleted() (155.133.248.38:27036, WebSocket)
[2021-02-04 18:57:56] [1,3] RecvMsgClientLogOnResponse() : [a:1:3352166439] 'OK'
[2021-02-04 18:57:57] IPv6 HTTP connectivity test (ipv6check-http.steamcontent.com / [2a01:bc80:8:103::9b85:fc12]:80 ([2a01:bc80:8:103::9b85:fc12]:80)) - TIMEOUT
[2021-02-04 18:57:59] IPv6 UDP connectivity test (ipv6check-udp.steamcontent.com / 2a01:bc80:a:101::b919:b624) - TIMEOUT
[2021-02-04 18:59:20] [3,3] ResetVoiceRecording() (was recording: 0) (last get voice time: 1612465160 seconds ago)
[2021-02-04 18:59:20] [3,3] LogOff()
[2021-02-04 18:59:20] [2,3] AsyncDisconnect()
[2021-02-04 18:59:20] [2,3] Log session ended


[2021-02-06 19:47:18] Log session started
[2021-02-06 19:47:18] [0,0] SetSteamID( [U:1:0] )
[2021-02-06 19:47:18] [0,0] SetSteamID( [a:1:0] )
[2021-02-06 19:47:18] [0,0] SetSteamID( [a:1:0] )
[2021-02-06 19:47:18] [0,0] Server says 50% of connections should be websockets, we rolled 89 - using UDP as default.
[2021-02-06 19:47:18] [0,0] PingWebSocketCM() (cm1-lhr1.cm.steampowered.com:27036) starting...
[2021-02-06 19:47:18] [0,0] PingWebSocketCM() (cm4-lhr1.cm.steampowered.com:27032) starting...
[2021-02-06 19:47:18] [0,0] PingWebSocketCM() (cm1-lhr1.cm.steampowered.com:27030) starting...
[2021-02-06 19:47:18] [0,0] PingWebSocketCM() (cm2-par1.cm.steampowered.com:27022) starting...
[2021-02-06 19:47:18] [0,0] PingWebSocketCM() (cm4-lhr1.cm.steampowered.com:27032) results: 46.8585ms + load 48.0000
[2021-02-06 19:47:18] [0,0] PingWebSocketCM() (cm1-lhr1.cm.steampowered.com:27036) results: 46.8895ms + load 46.0000
[2021-02-06 19:47:18] [0,0] PingWebSocketCM() (cm1-ams1.cm.steampowered.com:443) starting...
[2021-02-06 19:47:18] [0,0] PingWebSocketCM() (cm4-lhr1.cm.steampowered.com:27037) starting...
[2021-02-06 19:47:18] [0,0] PingWebSocketCM() (cm1-lhr1.cm.steampowered.com:27030) results: 46.9969ms + load 46.0000
[2021-02-06 19:47:18] [0,0] PingWebSocketCM() (cm1-lhr1.cm.steampowered.com:27029) starting...
[2021-02-06 19:47:18] [0,0] PingWebSocketCM() (cm2-par1.cm.steampowered.com:27022) results: 49.4217ms + load 47.0000
[2021-02-06 19:47:18] [0,0] PingWebSocketCM() (cm4-lhr1.cm.steampowered.com:443) starting...
[2021-02-06 19:47:19] [0,0] PingWebSocketCM() (cm4-lhr1.cm.steampowered.com:27037) results: 35.5942ms + load 47.0000
[2021-02-06 19:47:19] [0,0] PingWebSocketCM() (cm4-lhr1.cm.steampowered.com:27029) starting...
[2021-02-06 19:47:19] [0,0] PingWebSocketCM() (cm4-lhr1.cm.steampowered.com:443) results: 49.5071ms + load 47.0000
[2021-02-06 19:47:19] [0,0] PingWebSocketCM() (cm4-lhr1.cm.steampowered.com:27030) starting...
[2021-02-06 19:47:19] [0,0] PingWebSocketCM() (cm1-lhr1.cm.steampowered.com:27029) results: 49.9445ms + load 46.0000
[2021-02-06 19:47:19] [0,0] PingWebSocketCM() (cm4-lhr1.cm.steampowered.com:27038) starting...
[2021-02-06 19:47:19] [0,0] PingWebSocketCM() (cm1-ams1.cm.steampowered.com:443) results: 49.8044ms + load 47.0000
[2021-02-06 19:47:19] [0,0] PingWebSocketCM() (cm3-lhr1.cm.steampowered.com:27029) starting...
[2021-02-06 19:47:19] [0,0] PingWebSocketCM() (cm4-lhr1.cm.steampowered.com:27029) results: 44.8535ms + load 47.0000
[2021-02-06 19:47:19] [0,0] PingWebSocketCM() (cm1-par1.cm.steampowered.com:27024) starting...
[2021-02-06 19:47:19] [0,0] PingWebSocketCM() (cm4-lhr1.cm.steampowered.com:27030) results: 6.5273ms + load 46.0000
[2021-02-06 19:47:19] [0,0] PingWebSocketCM() (cm4-lhr1.cm.steampowered.com:27038) results: 49.7572ms + load 45.0000
[2021-02-06 19:47:19] [0,0] PingWebSocketCM() (cm3-lhr1.cm.steampowered.com:27029) results: 49.7379ms + load 46.0000
[2021-02-06 19:47:19] [0,0] PingWebSocketCM() (cm1-par1.cm.steampowered.com:27024) results: 49.3567ms + load 48.0000
[2021-02-06 19:47:19] [1,3] Connect() starting connection (eNetQOSLevelHigh, cm4-lhr1.cm.steampowered.com:27030, WebSocket)
[2021-02-06 19:47:19] [1,3] ConnectionCompleted() (162.254.196.84:27030, WebSocket)
[2021-02-06 19:47:19] [1,3] RecvMsgClientLogOnResponse() : [a:1:558344372] 'OK'
[2021-02-06 19:47:20] IPv6 HTTP connectivity test (ipv6check-http.steamcontent.com / [2a01:bc80:7:100::9b85:f81a]:80 ([2a01:bc80:7:100::9b85:f81a]:80)) - TIMEOUT
[2021-02-06 19:47:22] IPv6 UDP connectivity test (ipv6check-udp.steamcontent.com / 2a01:bc80:4:100::a2fe:c40f) - TIMEOUT
[2021-02-06 19:47:42] [3,3] ResetVoiceRecording() (was recording: 0) (last get voice time: 1612640862 seconds ago)
[2021-02-06 19:47:42] [3,3] LogOff()
[2021-02-06 19:47:42] [2,3] AsyncDisconnect()
[2021-02-06 19:47:42] [2,3] Log session ended


[2021-02-11 16:55:10] Log session started
[2021-02-11 16:55:10] [0,0] SetSteamID( [U:1:0] )
[2021-02-11 16:55:10] [0,0] SetSteamID( [a:1:0] )
[2021-02-11 16:55:10] [0,0] SetSteamID( [a:1:0] )
[2021-02-11 16:55:10] [0,0] Server says 50% of connections should be websockets, we rolled 85 - using UDP as default.
[2021-02-11 16:55:10] [0,0] PingWebSocketCM() (cm3-lhr1.cm.steampowered.com:27029) starting...
[2021-02-11 16:55:10] [0,0] PingWebSocketCM() (cm2-par1.cm.steampowered.com:27023) starting...
[2021-02-11 16:55:10] [0,0] PingWebSocketCM() (cm4-lhr1.cm.steampowered.com:27029) starting...
[2021-02-11 16:55:10] [0,0] PingWebSocketCM() (cm3-ams1.cm.steampowered.com:27024) starting...
[2021-02-11 16:55:10] [0,0] PingWebSocketCM() (cm3-lhr1.cm.steampowered.com:27029) results: 37.5682ms + load 46.0000
[2021-02-11 16:55:10] [0,0] PingWebSocketCM() (cm1-ams1.cm.steampowered.com:443) starting...
[2021-02-11 16:55:10] [0,0] PingWebSocketCM() (cm4-lhr1.cm.steampowered.com:27029) results: 7.8275ms + load 47.0000
[2021-02-11 16:55:10] [0,0] PingWebSocketCM() stopping early for good host (cm4-lhr1.cm.steampowered.com:27029)
[2021-02-11 16:55:10] [0,0] PingWebSocketCM() (cm2-par1.cm.steampowered.com:27023) results: 49.2785ms + load 46.0000
[2021-02-11 16:55:10] [0,0] PingWebSocketCM() (cm3-ams1.cm.steampowered.com:27024) results: 49.1661ms + load 45.0000
[2021-02-11 16:55:10] [0,0] PingWebSocketCM() (cm1-ams1.cm.steampowered.com:443) results: 49.7508ms + load 45.0000
[2021-02-11 16:55:10] [1,3] Connect() starting connection (eNetQOSLevelHigh, cm4-lhr1.cm.steampowered.com:27029, WebSocket)
[2021-02-11 16:55:10] [1,3] ConnectionCompleted() (162.254.196.84:27029, WebSocket)
[2021-02-11 16:55:11] [1,3] RecvMsgClientLogOnResponse() : [a:1:1396605184] 'OK'
[2021-02-11 16:55:12] IPv6 HTTP connectivity test (ipv6check-http.steamcontent.com / [2a01:bc80:7:100::9b85:f817]:80 ([2a01:bc80:7:100::9b85:f817]:80)) - TIMEOUT
[2021-02-11 16:55:14] IPv6 UDP connectivity test (ipv6check-udp.steamcontent.com / 2a01:bc80:5:101::9b85:fa23) - TIMEOUT
[2021-02-11 16:55:42] [3,3] ResetVoiceRecording() (was recording: 0) (last get voice time: 1613062542 seconds ago)
[2021-02-11 16:55:42] [3,3] LogOff()
[2021-02-11 16:55:42] [2,3] AsyncDisconnect()
[2021-02-11 16:55:42] [2,3] Log session ended


[2021-02-18 16:56:52] Log session started
[2021-02-18 16:56:52] [0,0] SetSteamID( [U:1:0] )
[2021-02-18 16:56:52] [0,0] SetSteamID( [a:1:0] )
[2021-02-18 16:56:52] [0,0] SetSteamID( [a:1:0] )
[2021-02-18 16:56:52] [0,0] Server says 50% of connections should be websockets, we rolled 27 - using WebSockets as default.
[2021-02-18 16:56:52] [0,0] PingWebSocketCM() (cm1-lhr1.cm.steampowered.com:443) starting...
[2021-02-18 16:56:52] [0,0] PingWebSocketCM() (cm2-ams1.cm.steampowered.com:443) starting...
[2021-02-18 16:56:52] [0,0] PingWebSocketCM() (cm4-lhr1.cm.steampowered.com:443) starting...
[2021-02-18 16:56:52] [0,0] PingWebSocketCM() (cm2-lhr1.cm.steampowered.com:27038) starting...
[2021-02-18 16:56:52] [0,0] PingWebSocketCM() (cm1-lhr1.cm.steampowered.com:443) results: 41.0850ms + load 64.0000
[2021-02-18 16:56:52] [0,0] PingWebSocketCM() (cm2-lhr1.cm.steampowered.com:27039) starting...
[2021-02-18 16:56:52] [0,0] PingWebSocketCM() (cm4-lhr1.cm.steampowered.com:443) results: 49.4116ms + load 64.0000
[2021-02-18 16:56:52] [0,0] PingWebSocketCM() (cm2-lhr1.cm.steampowered.com:27028) starting...
[2021-02-18 16:56:52] [0,0] PingWebSocketCM() (cm2-lhr1.cm.steampowered.com:27038) results: 49.3466ms + load 62.0000
[2021-02-18 16:56:52] [0,0] PingWebSocketCM() (cm2-lhr1.cm.steampowered.com:27036) starting...
[2021-02-18 16:56:52] [0,0] PingWebSocketCM() (cm2-ams1.cm.steampowered.com:443) results: 49.1439ms + load 61.0000
[2021-02-18 16:56:52] [0,0] PingWebSocketCM() (cm2-lhr1.cm.steampowered.com:27035) starting...
[2021-02-18 16:56:52] [0,0] PingWebSocketCM() (cm2-lhr1.cm.steampowered.com:27039) results: 41.3789ms + load 63.0000
[2021-02-18 16:56:52] [0,0] PingWebSocketCM() (cm1-lhr1.cm.steampowered.com:27034) starting...
[2021-02-18 16:56:52] [0,0] PingWebSocketCM() (cm2-lhr1.cm.steampowered.com:27036) results: 49.3173ms + load 62.0000
[2021-02-18 16:56:52] [0,0] PingWebSocketCM() (cm2-lhr1.cm.steampowered.com:27031) starting...
[2021-02-18 16:56:52] [0,0] PingWebSocketCM() (cm2-lhr1.cm.steampowered.com:27028) results: 49.6723ms + load 61.0000
[2021-02-18 16:56:52] [0,0] PingWebSocketCM() (cm5-ams1.cm.steampowered.com:27030) starting...
[2021-02-18 16:56:52] [0,0] PingWebSocketCM() (cm2-lhr1.cm.steampowered.com:27035) results: 49.1579ms + load 63.0000
[2021-02-18 16:56:52] [0,0] PingWebSocketCM() (cm2-lhr1.cm.steampowered.com:27032) starting...
[2021-02-18 16:56:53] [0,0] PingWebSocketCM() (cm1-lhr1.cm.steampowered.com:27034) results: 38.4528ms + load 65.0000
[2021-02-18 16:56:53] [0,0] PingWebSocketCM() stopping after 400.00ms timeout and using good enough host (cm1-lhr1.cm.steampowered.com:27034)
[2021-02-18 16:56:53] [0,0] PingWebSocketCM() (cm2-lhr1.cm.steampowered.com:27031) results: 35.6896ms + load 62.0000
[2021-02-18 16:56:53] [0,0] PingWebSocketCM() (cm2-lhr1.cm.steampowered.com:27032) results: 49.7262ms + load 63.0000
[2021-02-18 16:56:53] [0,0] PingWebSocketCM() (cm5-ams1.cm.steampowered.com:27030) results: 49.6446ms + load 60.0000
[2021-02-18 16:56:53] [1,3] Connect() starting connection (eNetQOSLevelHigh, cm2-lhr1.cm.steampowered.com:27031, WebSocket)
[2021-02-18 16:56:53] [1,3] ConnectionCompleted() (162.254.196.83:27031, WebSocket)
[2021-02-18 16:56:53] [1,3] RecvMsgClientLogOnResponse() : [a:1:1696054597] 'OK'
[2021-02-18 16:56:54] IPv6 HTTP connectivity test (ipv6check-http.steamcontent.com / [2a01:bc80:5:101::9b85:fa2f]:80 ([2a01:bc80:5:101::9b85:fa2f]:80)) - TIMEOUT
[2021-02-18 16:56:56] IPv6 UDP connectivity test (ipv6check-udp.steamcontent.com / 2a01:bc80:7:100::9b85:f816) - TIMEOUT
[2021-02-18 16:57:09] [3,3] ResetVoiceRecording() (was recording: 0) (last get voice time: 1613667429 seconds ago)
[2021-02-18 16:57:09] [3,3] LogOff()
[2021-02-18 16:57:09] [2,3] AsyncDisconnect()
[2021-02-18 16:57:09] [2,3] Log session ended


[2021-02-25 16:58:36] Log session started
[2021-02-25 16:58:36] [0,0] SetSteamID( [U:1:0] )
[2021-02-25 16:58:36] [0,0] SetSteamID( [a:1:0] )
[2021-02-25 16:58:36] [0,0] SetSteamID( [a:1:0] )
[2021-02-25 16:58:36] [0,0] Server says 50% of connections should be websockets, we rolled 36 - using WebSockets as default.
[2021-02-25 16:58:36] [0,0] PingWebSocketCM() (cm2-lhr1.cm.steampowered.com:27032) starting...
[2021-02-25 16:58:36] [0,0] PingWebSocketCM() (cm3-lhr1.cm.steampowered.com:27033) starting...
[2021-02-25 16:58:36] [0,0] PingWebSocketCM() (cm4-lhr1.cm.steampowered.com:27038) starting...
[2021-02-25 16:58:36] [0,0] PingWebSocketCM() (cm3-lhr1.cm.steampowered.com:27036) starting...
[2021-02-25 16:58:36] [0,0] PingWebSocketCM() (cm3-lhr1.cm.steampowered.com:27033) results: 39.7165ms + load 45.0000
[2021-02-25 16:58:36] [0,0] PingWebSocketCM() (cm2-lhr1.cm.steampowered.com:27039) starting...
[2021-02-25 16:58:36] [0,0] PingWebSocketCM() (cm3-lhr1.cm.steampowered.com:27036) results: 49.8351ms + load 44.0000
[2021-02-25 16:58:36] [0,0] PingWebSocketCM() (cm1-lhr1.cm.steampowered.com:27028) starting...
[2021-02-25 16:58:36] [0,0] PingWebSocketCM() (cm2-lhr1.cm.steampowered.com:27032) results: 50.1063ms + load 44.0000
[2021-02-25 16:58:36] [0,0] PingWebSocketCM() (cm4-lhr1.cm.steampowered.com:27031) starting...
[2021-02-25 16:58:36] [0,0] PingWebSocketCM() (cm4-lhr1.cm.steampowered.com:27038) results: 49.7667ms + load 45.0000
[2021-02-25 16:58:36] [0,0] PingWebSocketCM() (cm1-lhr1.cm.steampowered.com:27038) starting...
[2021-02-25 16:58:37] [0,0] PingWebSocketCM() (cm2-lhr1.cm.steampowered.com:27039) results: 48.1181ms + load 44.0000
[2021-02-25 16:58:37] [0,0] PingWebSocketCM() (cm4-lhr1.cm.steampowered.com:27033) starting...
[2021-02-25 16:58:37] [0,0] PingWebSocketCM() (cm1-lhr1.cm.steampowered.com:27028) results: 48.8384ms + load 45.0000
[2021-02-25 16:58:37] [0,0] PingWebSocketCM() (cm3-lhr1.cm.steampowered.com:27035) starting...
[2021-02-25 16:58:37] [0,0] PingWebSocketCM() (cm4-lhr1.cm.steampowered.com:27031) results: 48.7231ms + load 46.0000
[2021-02-25 16:58:37] [0,0] PingWebSocketCM() (cm6-ams1.cm.steampowered.com:27032) starting...
[2021-02-25 16:58:37] [0,0] PingWebSocketCM() (cm1-lhr1.cm.steampowered.com:27038) results: 49.2673ms + load 44.0000
[2021-02-25 16:58:37] [0,0] PingWebSocketCM() (cm5-ams1.cm.steampowered.com:27037) starting...
[2021-02-25 16:58:37] [0,0] PingWebSocketCM() (cm4-lhr1.cm.steampowered.com:27033) results: 48.4496ms + load 44.0000
[2021-02-25 16:58:37] [0,0] PingWebSocketCM() stopping after 400.00ms timeout and using good enough host (cm3-lhr1.cm.steampowered.com:27033)
[2021-02-25 16:58:37] [0,0] PingWebSocketCM() (cm3-lhr1.cm.steampowered.com:27035) results: 49.8130ms + load 45.0000
[2021-02-25 16:58:37] [0,0] PingWebSocketCM() (cm6-ams1.cm.steampowered.com:27032) results: 46.3718ms + load 44.0000
[2021-02-25 16:58:37] [0,0] PingWebSocketCM() (cm5-ams1.cm.steampowered.com:27037) results: 49.3121ms + load 44.0000
[2021-02-25 16:58:37] [1,3] Connect() starting connection (eNetQOSLevelHigh, cm3-lhr1.cm.steampowered.com:27033, WebSocket)
[2021-02-25 16:58:37] [1,3] ConnectionCompleted() (162.254.196.68:27033, WebSocket)
[2021-02-25 16:58:37] [1,3] RecvMsgClientLogOnResponse() : [a:1:3772003425] 'OK'
[2021-02-25 16:58:38] IPv6 HTTP connectivity test (ipv6check-http.steamcontent.com / [2a01:bc80:5:100::9b85:fa08]:80 ([2a01:bc80:5:100::9b85:fa08]:80)) - TIMEOUT
[2021-02-25 16:58:39] [3,3] ResetVoiceRecording() (was recording: 0) (last get voice time: 1614272319 seconds ago)
[2021-02-25 16:58:39] [3,3] LogOff()
[2021-02-25 16:58:39] [2,3] AsyncDisconnect()
[2021-02-25 16:58:39] [2,3] Log session ended


[2021-03-04 18:58:56] Log session started
[2021-03-04 18:58:56] [0,0] SetSteamID( [U:1:0] )
[2021-03-04 18:58:56] [0,0] SetSteamID( [a:1:0] )
[2021-03-04 18:58:56] [0,0] SetSteamID( [a:1:0] )
[2021-03-04 18:58:56] [0,0] Server says 50% of connections should be websockets, we rolled 16 - using WebSockets as default.
[2021-03-04 18:58:56] [0,0] PingWebSocketCM() (cm2-lhr1.cm.steampowered.com:27028) starting...
[2021-03-04 18:58:56] [0,0] PingWebSocketCM() (cm3-ams1.cm.steampowered.com:443) starting...
[2021-03-04 18:58:56] [0,0] PingWebSocketCM() (cm1-ams1.cm.steampowered.com:27025) starting...
[2021-03-04 18:58:56] [0,0] PingWebSocketCM() (cm2-lhr1.cm.steampowered.com:27039) starting...
[2021-03-04 18:58:56] [0,0] PingWebSocketCM() (cm2-lhr1.cm.steampowered.com:27028) results: 38.6250ms + load 47.0000
[2021-03-04 18:58:56] [0,0] PingWebSocketCM() (cm2-lhr1.cm.steampowered.com:27036) starting...
[2021-03-04 18:58:56] [0,0] PingWebSocketCM() (cm2-lhr1.cm.steampowered.com:27039) results: 49.2547ms + load 46.0000
[2021-03-04 18:58:56] [0,0] PingWebSocketCM() (cm2-lhr1.cm.steampowered.com:27035) starting...
[2021-03-04 18:58:56] [0,0] PingWebSocketCM() (cm1-ams1.cm.steampowered.com:27025) results: 48.7241ms + load 46.0000
[2021-03-04 18:58:56] [0,0] PingWebSocketCM() (cm2-lhr1.cm.steampowered.com:27034) starting...
[2021-03-04 18:58:56] [0,0] PingWebSocketCM() (cm3-ams1.cm.steampowered.com:443) results: 49.0166ms + load 48.0000
[2021-03-04 18:58:56] [0,0] PingWebSocketCM() (cm2-lhr1.cm.steampowered.com:27029) starting...
[2021-03-04 18:58:56] [0,0] PingWebSocketCM() (cm2-lhr1.cm.steampowered.com:27035) results: 34.4393ms + load 46.0000
[2021-03-04 18:58:56] [0,0] PingWebSocketCM() (cm2-lhr1.cm.steampowered.com:443) starting...
[2021-03-04 18:58:56] [0,0] PingWebSocketCM() (cm2-lhr1.cm.steampowered.com:27036) results: 35.1066ms + load 46.0000
[2021-03-04 18:58:56] [0,0] PingWebSocketCM() (cm1-lhr1.cm.steampowered.com:27028) starting...
[2021-03-04 18:58:56] [0,0] PingWebSocketCM() (cm2-lhr1.cm.steampowered.com:27034) results: 6.7513ms + load 47.0000
[2021-03-04 18:58:56] [0,0] PingWebSocketCM() stopping early for good host (cm2-lhr1.cm.steampowered.com:27034)
[2021-03-04 18:58:56] [0,0] PingWebSocketCM() (cm2-lhr1.cm.steampowered.com:27029) results: 48.9497ms + load 46.0000
[2021-03-04 18:58:56] [0,0] PingWebSocketCM() (cm2-lhr1.cm.steampowered.com:443) results: 47.5111ms + load 48.0000
[2021-03-04 18:58:56] [0,0] PingWebSocketCM() (cm1-lhr1.cm.steampowered.com:27028) results: 49.5123ms + load 46.0000
[2021-03-04 18:58:56] [1,3] Connect() starting connection (eNetQOSLevelHigh, cm2-lhr1.cm.steampowered.com:27034, WebSocket)
[2021-03-04 18:58:56] [1,3] ConnectionCompleted() (162.254.196.83:27034, WebSocket)
[2021-03-04 18:58:57] [1,3] RecvMsgClientLogOnResponse() : [a:1:3878586432] 'OK'
[2021-03-04 18:58:58] IPv6 HTTP connectivity test (ipv6check-http.steamcontent.com / [2a01:bc80:7:100::9b85:f817]:80 ([2a01:bc80:7:100::9b85:f817]:80)) - TIMEOUT
[2021-03-04 18:59:00] IPv6 UDP connectivity test (ipv6check-udp.steamcontent.com / 2a01:bc80:5:100::9b85:fa07) - TIMEOUT
[2021-03-04 19:04:38] [3,3] ResetVoiceRecording() (was recording: 0) (last get voice time: 1614884678 seconds ago)
[2021-03-04 19:04:38] [3,3] LogOff()
[2021-03-04 19:04:38] [2,3] AsyncDisconnect()
[2021-03-04 19:04:38] [2,3] Log session ended


[2021-03-06 04:50:38] Log session started
[2021-03-06 04:50:38] [0,0] SetSteamID( [U:1:0] )
[2021-03-06 04:50:38] [0,0] SetSteamID( [a:1:0] )
[2021-03-06 04:50:38] [0,0] SetSteamID( [a:1:0] )
[2021-03-06 04:50:38] [0,0] Server says 50% of connections should be websockets, we rolled 90 - using UDP as default.
[2021-03-06 04:50:38] [0,0] PingWebSocketCM() (cm2-lhr1.cm.steampowered.com:27034) starting...
[2021-03-06 04:50:38] [0,0] PingWebSocketCM() (cm2-lhr1.cm.steampowered.com:27036) starting...
[2021-03-06 04:50:38] [0,0] PingWebSocketCM() (cm2-lhr1.cm.steampowered.com:27029) starting...
[2021-03-06 04:50:38] [0,0] PingWebSocketCM() (cm1-ams1.cm.steampowered.com:27025) starting...
[2021-03-06 04:50:38] [0,0] PingWebSocketCM() (cm2-lhr1.cm.steampowered.com:27036) results: 8.5099ms + load 39.0000
[2021-03-06 04:50:38] [0,0] PingWebSocketCM() stopping early for good host (cm2-lhr1.cm.steampowered.com:27036)
[2021-03-06 04:50:38] [0,0] PingWebSocketCM() (cm2-lhr1.cm.steampowered.com:27029) results: 52.7639ms + load 39.0000
[2021-03-06 04:50:38] [0,0] PingWebSocketCM() (cm2-lhr1.cm.steampowered.com:27034) results: 52.9538ms + load 39.0000
[2021-03-06 04:50:38] [0,0] PingWebSocketCM() (cm1-ams1.cm.steampowered.com:27025) results: 49.6091ms + load 39.0000
[2021-03-06 04:50:38] [1,3] Connect() starting connection (eNetQOSLevelHigh, cm2-lhr1.cm.steampowered.com:27036, WebSocket)
[2021-03-06 04:50:38] [1,3] ConnectionCompleted() (162.254.196.83:27036, WebSocket)
[2021-03-06 04:50:38] [1,3] RecvMsgClientLogOnResponse() : [a:1:761786441] 'OK'
[2021-03-06 04:50:40] IPv6 HTTP connectivity test (ipv6check-http.steamcontent.com / [2a01:bc80:8:100::9b85:fc09]:80 ([2a01:bc80:8:100::9b85:fc09]:80)) - TIMEOUT
[2021-03-06 04:50:42] IPv6 UDP connectivity test (ipv6check-udp.steamcontent.com / 2a01:bc80:7:100::9b85:f81b) - TIMEOUT
[2021-03-06 04:50:46] [3,3] ResetVoiceRecording() (was recording: 0) (last get voice time: 1615006246 seconds ago)
[2021-03-06 04:50:46] [3,3] LogOff()
[2021-03-06 04:50:46] [2,3] AsyncDisconnect()
[2021-03-06 04:50:46] [2,3] Log session ended


[2021-03-11 16:54:26] Log session started
[2021-03-11 16:54:26] [0,0] SetSteamID( [U:1:0] )
[2021-03-11 16:54:26] [0,0] SetSteamID( [a:1:0] )
[2021-03-11 16:54:26] [0,0] SetSteamID( [a:1:0] )
[2021-03-11 16:54:26] [0,0] Server says 50% of connections should be websockets, we rolled 26 - using WebSockets as default.
[2021-03-11 16:54:26] [0,0] PingWebSocketCM() (cm5-ams1.cm.steampowered.com:27038) starting...
[2021-03-11 16:54:26] [0,0] PingWebSocketCM() (cm2-par1.cm.steampowered.com:443) starting...
[2021-03-11 16:54:26] [0,0] PingWebSocketCM() (cm4-lhr1.cm.steampowered.com:27038) starting...
[2021-03-11 16:54:26] [0,0] PingWebSocketCM() (cm1-lhr1.cm.steampowered.com:27029) starting...
[2021-03-11 16:54:26] [0,0] PingWebSocketCM() (cm4-lhr1.cm.steampowered.com:27038) results: 49.0001ms + load 47.0000
[2021-03-11 16:54:26] [0,0] PingWebSocketCM() (cm2-lhr1.cm.steampowered.com:27032) starting...
[2021-03-11 16:54:26] [0,0] PingWebSocketCM() (cm2-par1.cm.steampowered.com:443) results: 49.3708ms + load 47.0000
[2021-03-11 16:54:26] [0,0] PingWebSocketCM() (cm1-ams1.cm.steampowered.com:27025) starting...
[2021-03-11 16:54:26] [0,0] PingWebSocketCM() (cm1-lhr1.cm.steampowered.com:27029) results: 48.8250ms + load 44.0000
[2021-03-11 16:54:26] [0,0] PingWebSocketCM() (cm4-lhr1.cm.steampowered.com:27029) starting...
[2021-03-11 16:54:26] [0,0] PingWebSocketCM() (cm5-ams1.cm.steampowered.com:27038) results: 49.1779ms + load 44.0000
[2021-03-11 16:54:26] [0,0] PingWebSocketCM() (cm4-lhr1.cm.steampowered.com:27028) starting...
[2021-03-11 16:54:26] [0,0] PingWebSocketCM() (cm4-lhr1.cm.steampowered.com:27029) results: 49.5643ms + load 45.0000
[2021-03-11 16:54:26] [0,0] PingWebSocketCM() (cm1-lhr1.cm.steampowered.com:27038) starting...
[2021-03-11 16:54:26] [0,0] PingWebSocketCM() (cm4-lhr1.cm.steampowered.com:27028) results: 49.7492ms + load 45.0000
[2021-03-11 16:54:26] [0,0] PingWebSocketCM() (cm2-ams1.cm.steampowered.com:443) starting...
[2021-03-11 16:54:26] [0,0] PingWebSocketCM() (cm2-lhr1.cm.steampowered.com:27032) results: 49.9228ms + load 45.0000
[2021-03-11 16:54:26] [0,0] PingWebSocketCM() (cm5-ams1.cm.steampowered.com:27032) starting...
[2021-03-11 16:54:26] [0,0] PingWebSocketCM() (cm1-ams1.cm.steampowered.com:27025) results: 49.7107ms + load 44.0000
[2021-03-11 16:54:26] [0,0] PingWebSocketCM() (cm6-ams1.cm.steampowered.com:27039) starting...
[2021-03-11 16:54:26] [0,0] PingWebSocketCM() (cm1-lhr1.cm.steampowered.com:27038) results: 35.3580ms + load 46.0000
[2021-03-11 16:54:26] [0,0] PingWebSocketCM() (cm1-lhr1.cm.steampowered.com:27035) starting...
[2021-03-11 16:54:26] [0,0] PingWebSocketCM() (cm5-ams1.cm.steampowered.com:27032) results: 49.5035ms + load 45.0000
[2021-03-11 16:54:26] [0,0] PingWebSocketCM() (cm2-ams1.cm.steampowered.com:443) results: 49.7719ms + load 44.0000
[2021-03-11 16:54:26] [0,0] PingWebSocketCM() (cm6-ams1.cm.steampowered.com:27039) results: 49.7474ms + load 44.0000
[2021-03-11 16:54:26] [0,0] PingWebSocketCM() (cm1-lhr1.cm.steampowered.com:27035) results: 49.7814ms + load 46.0000
[2021-03-11 16:54:26] [1,3] Connect() starting connection (eNetQOSLevelHigh, cm1-lhr1.cm.steampowered.com:27038, WebSocket)
[2021-03-11 16:54:26] [1,3] ConnectionCompleted() (162.254.196.67:27038, WebSocket)
[2021-03-11 16:54:26] [1,3] RecvMsgClientLogOnResponse() : [a:1:1898785792] 'OK'
[2021-03-11 16:54:28] IPv6 HTTP connectivity test (ipv6check-http.steamcontent.com / [2a01:bc80:1:104::a2fe:c653]:80 ([2a01:bc80:1:104::a2fe:c653]:80)) - TIMEOUT
[2021-03-11 16:54:30] IPv6 UDP connectivity test (ipv6check-udp.steamcontent.com / 2a01:bc80:5:101::9b85:fa30) - TIMEOUT
[2021-03-11 16:54:49] [3,3] ResetVoiceRecording() (was recording: 0) (last get voice time: 1615481689 seconds ago)
[2021-03-11 16:54:49] [3,3] LogOff()
[2021-03-11 16:54:49] [2,3] AsyncDisconnect()
[2021-03-11 16:54:49] [2,3] Log session ended


[2021-03-18 16:53:39] Log session started
[2021-03-18 16:53:39] [0,0] SetSteamID( [U:1:0] )
[2021-03-18 16:53:39] [0,0] SetSteamID( [a:1:0] )
[2021-03-18 16:53:39] [0,0] SetSteamID( [a:1:0] )
[2021-03-18 16:53:39] [0,0] Server says 50% of connections should be websockets, we rolled 50 - using UDP as default.
[2021-03-18 16:53:39] [0,0] PingWebSocketCM() (cm2-ams1.cm.steampowered.com:27022) starting...
[2021-03-18 16:53:39] [0,0] PingWebSocketCM() (cm1-ams1.cm.steampowered.com:27022) starting...
[2021-03-18 16:53:39] [0,0] PingWebSocketCM() (cm2-par1.cm.steampowered.com:27025) starting...
[2021-03-18 16:53:39] [0,0] PingWebSocketCM() (cm4-ams1.cm.steampowered.com:27023) starting...
[2021-03-18 16:53:39] [0,0] PingWebSocketCM() (cm2-par1.cm.steampowered.com:27025) results: 49.2757ms + load 47.0000
[2021-03-18 16:53:39] [0,0] PingWebSocketCM() (cm1-par1.cm.steampowered.com:27023) starting...
[2021-03-18 16:53:39] [0,0] PingWebSocketCM() (cm2-ams1.cm.steampowered.com:27022) results: 49.2444ms + load 45.0000
[2021-03-18 16:53:39] [0,0] PingWebSocketCM() (cm2-ams1.cm.steampowered.com:27023) starting...
[2021-03-18 16:53:39] [0,0] PingWebSocketCM() (cm1-ams1.cm.steampowered.com:27022) results: 49.1590ms + load 45.0000
[2021-03-18 16:53:39] [0,0] PingWebSocketCM() (cm2-par1.cm.steampowered.com:27024) starting...
[2021-03-18 16:53:39] [0,0] PingWebSocketCM() (cm4-ams1.cm.steampowered.com:27023) results: 49.0492ms + load 46.0000
[2021-03-18 16:53:39] [0,0] PingWebSocketCM() (cm1-par1.cm.steampowered.com:27026) starting...
[2021-03-18 16:53:39] [0,0] PingWebSocketCM() (cm1-par1.cm.steampowered.com:27026) results: 49.5374ms + load 49.0000
[2021-03-18 16:53:39] [0,0] PingWebSocketCM() (cm6-ams1.cm.steampowered.com:27035) starting...
[2021-03-18 16:53:39] [0,0] PingWebSocketCM() (cm1-par1.cm.steampowered.com:27023) results: 49.7789ms + load 48.0000
[2021-03-18 16:53:39] [0,0] PingWebSocketCM() (cm3-ams1.cm.steampowered.com:27022) starting...
[2021-03-18 16:53:39] [0,0] PingWebSocketCM() (cm2-ams1.cm.steampowered.com:27023) results: 49.6683ms + load 46.0000
[2021-03-18 16:53:39] [0,0] PingWebSocketCM() (cm1-ams1.cm.steampowered.com:27025) starting...
[2021-03-18 16:53:39] [0,0] PingWebSocketCM() (cm2-par1.cm.steampowered.com:27024) results: 50.0761ms + load 48.0000
[2021-03-18 16:53:39] [0,0] PingWebSocketCM() (cm5-ams1.cm.steampowered.com:27032) starting...
[2021-03-18 16:53:39] [0,0] PingWebSocketCM() (cm6-ams1.cm.steampowered.com:27035) results: 33.4440ms + load 46.0000
[2021-03-18 16:53:39] [0,0] PingWebSocketCM() stopping early for good host (cm6-ams1.cm.steampowered.com:27035)
[2021-03-18 16:53:39] [0,0] PingWebSocketCM() (cm5-ams1.cm.steampowered.com:27032) results: 49.4415ms + load 45.0000
[2021-03-18 16:53:39] [0,0] PingWebSocketCM() (cm1-ams1.cm.steampowered.com:27025) results: 49.7106ms + load 45.0000
[2021-03-18 16:53:39] [0,0] PingWebSocketCM() (cm3-ams1.cm.steampowered.com:27022) results: 49.6657ms + load 45.0000
[2021-03-18 16:53:39] [1,3] Connect() starting connection (eNetQOSLevelHigh, cm6-ams1.cm.steampowered.com:27035, WebSocket)
[2021-03-18 16:53:39] [1,3] ConnectionCompleted() (155.133.248.39:27035, WebSocket)
[2021-03-18 16:53:40] [1,3] RecvMsgClientLogOnResponse() : [a:1:2207666333] 'OK'
[2021-03-18 16:53:41] IPv6 HTTP connectivity test (ipv6check-http.steamcontent.com / [2a01:bc80:7:100::9b85:f80e]:80 ([2a01:bc80:7:100::9b85:f80e]:80)) - TIMEOUT
[2021-03-18 16:53:43] IPv6 UDP connectivity test (ipv6check-udp.steamcontent.com / 2a01:bc80:5:100::9b85:fa0c) - TIMEOUT
[2021-03-18 16:54:12] [3,3] ResetVoiceRecording() (was recording: 0) (last get voice time: 1616086452 seconds ago)
[2021-03-18 16:54:12] [3,3] LogOff()
[2021-03-18 16:54:12] [2,3] AsyncDisconnect()
[2021-03-18 16:54:12] [2,3] Log session ended


[2021-03-25 16:57:09] Log session started
[2021-03-25 16:57:09] [0,0] SetSteamID( [U:1:0] )
[2021-03-25 16:57:09] [0,0] SetSteamID( [a:1:0] )
[2021-03-25 16:57:09] [0,0] SetSteamID( [a:1:0] )
[2021-03-25 16:57:09] [0,0] Server says 50% of connections should be websockets, we rolled 20 - using WebSockets as default.
[2021-03-25 16:57:09] [0,0] PingWebSocketCM() (cm1-lhr1.cm.steampowered.com:27035) starting...
[2021-03-25 16:57:09] [0,0] PingWebSocketCM() (cm2-par1.cm.steampowered.com:27025) starting...
[2021-03-25 16:57:09] [0,0] PingWebSocketCM() (cm4-lhr1.cm.steampowered.com:27037) starting...
[2021-03-25 16:57:09] [0,0] PingWebSocketCM() (cm1-lhr1.cm.steampowered.com:27037) starting...
[2021-03-25 16:57:09] [0,0] PingWebSocketCM() (cm1-lhr1.cm.steampowered.com:27035) results: 58.3053ms + load 46.0000
[2021-03-25 16:57:09] [0,0] PingWebSocketCM() (cm2-par1.cm.steampowered.com:27025) results: 57.2185ms + load 46.0000
[2021-03-25 16:57:09] [0,0] PingWebSocketCM() (cm1-lhr1.cm.steampowered.com:27032) starting...
[2021-03-25 16:57:09] [0,0] PingWebSocketCM() (cm3-lhr1.cm.steampowered.com:27028) starting...
[2021-03-25 16:57:09] [0,0] PingWebSocketCM() (cm4-lhr1.cm.steampowered.com:27037) results: 46.8070ms + load 45.0000
[2021-03-25 16:57:09] [0,0] PingWebSocketCM() (cm1-lhr1.cm.steampowered.com:443) starting...
[2021-03-25 16:57:09] [0,0] PingWebSocketCM() (cm1-lhr1.cm.steampowered.com:27037) results: 48.5525ms + load 48.0000
[2021-03-25 16:57:09] [0,0] PingWebSocketCM() (cm3-lhr1.cm.steampowered.com:27036) starting...
[2021-03-25 16:57:09] [0,0] PingWebSocketCM() (cm1-lhr1.cm.steampowered.com:27032) results: 49.6542ms + load 46.0000
[2021-03-25 16:57:09] [0,0] PingWebSocketCM() (cm3-lhr1.cm.steampowered.com:27031) starting...
[2021-03-25 16:57:09] [0,0] PingWebSocketCM() (cm3-lhr1.cm.steampowered.com:27036) results: 47.3253ms + load 46.0000
[2021-03-25 16:57:09] [0,0] PingWebSocketCM() (cm1-lhr1.cm.steampowered.com:27029) starting...
[2021-03-25 16:57:09] [0,0] PingWebSocketCM() (cm3-lhr1.cm.steampowered.com:27028) results: 44.9351ms + load 44.0000
[2021-03-25 16:57:09] [0,0] PingWebSocketCM() (cm6-ams1.cm.steampowered.com:27038) starting...
[2021-03-25 16:57:09] [0,0] PingWebSocketCM() (cm1-lhr1.cm.steampowered.com:443) results: 42.0979ms + load 46.0000
[2021-03-25 16:57:09] [0,0] PingWebSocketCM() (cm4-lhr1.cm.steampowered.com:27032) starting...
[2021-03-25 16:57:09] [0,0] PingWebSocketCM() (cm3-lhr1.cm.steampowered.com:27031) results: 39.6984ms + load 48.0000
[2021-03-25 16:57:09] [0,0] PingWebSocketCM() (cm5-ams1.cm.steampowered.com:27032) starting...
[2021-03-25 16:57:09] [0,0] PingWebSocketCM() (cm1-lhr1.cm.steampowered.com:27029) results: 13.2164ms + load 46.0000
[2021-03-25 16:57:09] [0,0] PingWebSocketCM() (cm4-lhr1.cm.steampowered.com:27032) results: 42.0347ms + load 44.0000
[2021-03-25 16:57:09] [0,0] PingWebSocketCM() (cm6-ams1.cm.steampowered.com:27038) results: 33.3507ms + load 44.0000
[2021-03-25 16:57:09] [0,0] PingWebSocketCM() (cm5-ams1.cm.steampowered.com:27032) results: 46.7391ms + load 47.0000
[2021-03-25 16:57:09] [1,3] Connect() starting connection (eNetQOSLevelHigh, cm1-lhr1.cm.steampowered.com:27029, WebSocket)
[2021-03-25 16:57:09] [1,3] ConnectionCompleted() (162.254.196.67:27029, WebSocket)
[2021-03-25 16:57:10] [1,3] RecvMsgClientLogOnResponse() : [a:1:3449873483] 'OK'
[2021-03-25 16:57:11] IPv6 HTTP connectivity test (ipv6check-http.steamcontent.com / [2a01:bc80:5:100::9b85:fa0f]:80 ([2a01:bc80:5:100::9b85:fa0f]:80)) - TIMEOUT
[2021-03-25 16:57:12] [3,3] ResetVoiceRecording() (was recording: 0) (last get voice time: 1616691432 seconds ago)
[2021-03-25 16:57:12] [3,3] LogOff()
[2021-03-25 16:57:12] [2,3] AsyncDisconnect()
[2021-03-25 16:57:12] [2,3] Log session ended
