v 0.08739431 0.7834847 0.04442674
v 0.0533135 0.7297049 0.0745585
v 0.09726657 0.7468507 0.05590852
v 0.04180468 0.7720311 0.06392764
v -1.099587E-05 0.7251717 0.07860471
v 0.0696695 0.8178235 0.03527979
v 0.1272376 0.8084511 0.0155841
v -6.875992E-06 0.7696111 0.0665361
v -0.0533349 0.7297031 0.07422639
v -0.04181851 0.7720311 0.06365544
v -0.09728511 0.7468489 0.05479743
v -0.08740701 0.7834904 0.0436803
v -0.03458976 0.8105483 0.05033053
v -6.29425E-06 0.8081576 0.05073942
v 0.03457699 0.810544 0.05048374
v 0.02685374 0.8444664 0.03239857
v -1.06585E-05 0.8437527 0.03487115
v 0.05685005 0.8473802 0.01767802
v 0.09904446 0.8329659 0.006568067
v 0.1191883 0.8495716 -0.03291145
v 0.1578103 0.8384417 -0.03204862
v 0.1549224 0.8489022 -0.08022921
v 0.07863217 0.8527337 -0.008024914
v 0.1229934 0.8711405 -0.07922336
v 0.1209202 0.8328952 -0.1275055
v 0.09239767 0.8655257 -0.03201286
v 0.1006425 0.8666852 -0.110599
v 0.0661118 0.8163165 -0.1492589
v 0.09989443 0.8876513 -0.06569833
v 0.05730699 0.8500675 -0.1338649
v -5.331039E-06 0.7976243 -0.1502277
v -3.986359E-06 0.8441907 -0.137008
v 0.04921863 0.8876978 -0.1135043
v 1.050234E-06 0.8801485 -0.1215054
v 0.04497414 0.9061008 -0.1004528
v -3.541708E-06 0.9042438 -0.1065062
v 0.07712094 0.9043815 -0.08183811
v 0.08360521 0.8902026 -0.09623866
v 0.08743229 0.8943755 -0.0562265
v 0.07857962 0.8729596 -0.02732612
v 0.06606936 0.8646263 -0.008883906
v 0.05071252 0.8597665 0.01248354
v 0.02580412 0.8572052 0.02343603
v -8.741617E-06 0.8556141 0.02732934
v -0.02582132 0.857208 0.02339336
v -0.02687456 0.8444672 0.03233214
v -0.05072951 0.8597772 0.01240619
v -0.06968702 0.8178409 0.03494867
v -0.09906142 0.8330447 0.00616098
v -0.1272481 0.8085132 0.01465922
v -0.1578187 0.8388424 -0.03265164
v -0.05687115 0.8473948 0.01753402
v -0.06608498 0.8646799 -0.008974926
v -0.07864814 0.8528112 -0.008211973
v -0.07858547 0.873075 -0.0273961
v -0.09240498 0.8656982 -0.03213841
v -0.08741539 0.8945144 -0.05622602
v -0.1191968 0.8498453 -0.03322345
v -0.1549305 0.8498834 -0.08056135
v -0.09987334 0.8879039 -0.06570482
v -0.08358734 0.8904967 -0.09622946
v -0.0771022 0.9044583 -0.08180775
v -0.04497093 0.9061303 -0.1004279
v -0.1230005 0.8717091 -0.07931099
v -0.1006595 0.8674356 -0.1106845
v -0.1209287 0.834348 -0.127681
v -0.05731462 0.8506855 -0.1338999
v -0.06612098 0.8172046 -0.1492618
v -0.04921174 0.8879136 -0.1135106
v -3.541708E-06 0.9042438 -0.1065062
v 1.050234E-06 0.8801485 -0.1215054
v -3.986359E-06 0.8441907 -0.137008
v -5.331039E-06 0.7976243 -0.1502277
v -0.0533349 0.7297031 0.07422639
v -0.05333931 0.7036386 0.08123203
v -1.430511E-05 0.6991156 0.08526289
v -1.099587E-05 0.7251717 0.07860471
v -1.099587E-05 0.7251717 0.07860471
v -1.430511E-05 0.6991156 0.08526289
v 0.05331116 0.7036416 0.08136217
v 0.0533135 0.7297049 0.0745585
vt 0.7515 0.1954
vt 0.7798 0.1233
vt 0.7432 0.1512
vt 0.7896 0.1732
vt 0.8227 0.1161
vt 0.7673 0.2344
vt 0.7181 0.2378
vt 0.8228 0.1691
vt 0.8655 0.1229
vt 0.8561 0.1729
vt 0.9023 0.1504
vt 0.8942 0.1947
vt 0.85 0.2188
vt 0.823 0.2166
vt 0.796 0.219
vt 0.8024 0.2615
vt 0.8231 0.2601
vt 0.7779 0.273
vt 0.7407 0.2665
vt 0.7192 0.3116
vt 0.6885 0.298
vt 0.6818 0.3534
vt 0.7559 0.2958
vt 0.711 0.3683
vt 0.6804 0.4208
vt 0.7425 0.325
vt 0.7139 0.4098
vt 0.6952 0.4864
vt 0.7356 0.3684
vt 0.7228 0.465
vt 0.7199 0.5549
vt 0.7498 0.5164
vt 0.7525 0.4393
vt 0.7732 0.4857
vt 0.768 0.4258
vt 0.7897 0.4636
vt 0.7544 0.3936
vt 0.739 0.4033
vt 0.7491 0.3667
vt 0.756 0.328
vt 0.7681 0.307
vt 0.7839 0.2881
vt 0.8032 0.279
vt 0.8232 0.2757
vt 0.8431 0.2789
vt 0.8438 0.2614
vt 0.8625 0.288
vt 0.8787 0.2339
vt 0.9056 0.2655
vt 0.9279 0.2363
vt 0.9583 0.2955
vt 0.8684 0.2727
vt 0.8786 0.3067
vt 0.8908 0.2952
vt 0.8912 0.3277
vt 0.9046 0.3242
vt 0.899 0.3663
vt 0.9278 0.3099
vt 0.9659 0.3503
vt 0.9124 0.3674
vt 0.91 0.4025
vt 0.8944 0.3936
vt 0.8816 0.4266
vt 0.9371 0.3663
vt 0.9352 0.4079
vt 0.969 0.4174
vt 0.9278 0.4636
vt 0.9559 0.4835
vt 0.8975 0.4393
vt 0.8609 0.4655
vt 0.878 0.4867
vt 0.9022 0.5162
vt 0.933 0.5532
vt 0.8655 0.1229
vt 0.8653 0.0912
vt 0.8226 0.0846
vt 0.8227 0.1161
vt 0.8227 0.1161
vt 0.8226 0.0846
vt 0.7799 0.0917
vt 0.7798 0.1233
vn 0.3083201 0.4053772 0.8605859
vn 0.1642308 0.2955658 0.9410999
vn 0.2795341 0.3283637 0.9022405
vn 0.1563982 0.3284093 0.9314972
vn -0.003031192 0.2591983 0.9658194
vn 0.3287411 0.5175777 0.7899636
vn 0.3364826 0.6398258 0.6909431
vn -0.002860499 0.3053934 0.952222
vn -0.1732869 0.2944712 0.9398183
vn -0.1643009 0.3267411 0.9307231
vn -0.2916112 0.3259802 0.8992774
vn -0.3172848 0.4009197 0.8594148
vn -0.1582412 0.4246455 0.8914235
vn -0.002138232 0.3963751 0.9180861
vn 0.1531854 0.4266598 0.8913449
vn 0.1662295 0.5205926 0.8374671
vn -0.001247787 0.4981673 0.8670801
vn 0.3926939 0.5940004 0.7021077
vn 0.3647136 0.6692815 0.6473379
vn 0.4213052 0.7702748 0.4787259
vn 0.3692083 0.8207792 0.4358977
vn 0.5057639 0.8599226 -0.0688178
vn 0.4644172 0.6567352 0.5941511
vn 0.5642055 0.8190606 -0.1039801
vn 0.3686824 0.587099 -0.7206859
vn 0.5271949 0.6541793 0.5423238
vn 0.3985797 0.6412955 -0.655648
vn 0.0841485 0.4136402 -0.9065433
vn 0.6382502 0.7609138 0.1168204
vn 0.1190182 0.4565308 -0.8817111
vn 0.002026345 0.3323325 -0.9431601
vn 0.002254446 0.3838807 -0.9233799
vn 0.1817939 0.5616995 -0.8071213
vn 0.001560426 0.4929114 -0.8700781
vn 0.2113953 0.6210348 -0.7547369
vn 0.0008097124 0.5566269 -0.8307622
vn 0.536396 0.7464857 -0.3937491
vn 0.4487624 0.7107394 -0.5417213
vn 0.6680764 0.6917122 0.274241
vn 0.556165 0.5826281 0.5926424
vn 0.549237 0.5867181 0.5950634
vn 0.4503447 0.5664569 0.6901568
vn 0.2078167 0.5480621 0.8102099
vn -0.0008824046 0.5590973 0.8291016
vn -0.2096491 0.5467669 0.8106129
vn -0.1688439 0.5192937 0.8377504
vn -0.4516541 0.5644144 0.6909739
vn -0.3341267 0.5133887 0.7904375
vn -0.3679463 0.6644443 0.650484
vn -0.3410431 0.6340809 0.6939964
vn -0.3677641 0.8176891 0.4428703
vn -0.3949249 0.5916747 0.7028195
vn -0.5500167 0.5845237 0.5965012
vn -0.4652746 0.6541885 0.5962861
vn -0.5556283 0.5811307 0.5946127
vn -0.5259788 0.6527294 0.5452436
vn -0.664956 0.6934758 0.2773529
vn -0.4199888 0.7672758 0.4846619
vn -0.5000456 0.8639766 -0.05915121
vn -0.6339483 0.7638011 0.1213159
vn -0.4437999 0.7168314 -0.5377681
vn -0.53257 0.7514485 -0.3894796
vn -0.2091853 0.6248556 -0.7521948
vn -0.5585631 0.8238083 -0.09668082
vn -0.3927028 0.6487304 -0.6518691
vn -0.3625529 0.5945702 -0.717664
vn -0.1137693 0.4597613 -0.8807247
vn -0.07769363 0.415384 -0.9063222
vn -0.1782874 0.5656646 -0.8051317
vn 0.0008097124 0.5566269 -0.8307622
vn 0.001560426 0.4929114 -0.8700781
vn 0.002254446 0.3838807 -0.9233799
vn 0.002026345 0.3323325 -0.9431601
vn -0.0546599 0.2532169 0.9658641
vn -0.05465991 0.2532169 0.9658641
vn -0.05465991 0.2532168 0.9658641
vn -0.05465991 0.2532168 0.9658641
vn 0.05083876 0.2497529 0.9669741
vn 0.05083875 0.2497529 0.9669741
vn 0.05083876 0.2497529 0.9669741
vn 0.05083876 0.2497529 0.9669741
f 1/1/1 2/2/2 3/3/3
f 1/1/1 4/4/4 2/2/2
f 4/4/4 5/5/5 2/2/2
f 6/6/6 4/4/4 1/1/1
f 7/7/7 6/6/6 1/1/1
f 4/4/4 8/8/8 5/5/5
f 8/8/8 9/9/9 5/5/5
f 8/8/8 10/10/10 9/9/9
f 10/10/10 11/11/11 9/9/9
f 10/10/10 12/12/12 11/11/11
f 13/13/13 10/10/10 8/8/8
f 13/13/13 12/12/12 10/10/10
f 4/4/4 14/14/14 8/8/8
f 13/13/13 8/8/8 14/14/14
f 6/6/6 15/15/15 4/4/4
f 4/4/4 15/15/15 14/14/14
f 16/16/16 14/14/14 15/15/15
f 17/17/17 13/13/13 14/14/14
f 16/16/16 17/17/17 14/14/14
f 18/18/18 15/15/15 6/6/6
f 18/18/18 16/16/16 15/15/15
f 7/7/7 19/19/19 6/6/6
f 20/20/20 19/19/19 7/7/7
f 20/20/20 7/7/7 21/21/21
f 22/22/22 20/20/20 21/21/21
f 23/23/23 6/6/6 19/19/19
f 23/23/23 18/18/18 6/6/6
f 23/23/23 19/19/19 20/20/20
f 22/22/22 24/24/24 20/20/20
f 24/24/24 22/22/22 25/25/25
f 23/23/23 20/20/20 26/26/26
f 26/26/26 20/20/20 24/24/24
f 24/24/24 25/25/25 27/27/27
f 28/28/28 27/27/27 25/25/25
f 26/26/26 24/24/24 29/29/29
f 29/29/29 24/24/24 27/27/27
f 28/28/28 30/30/30 27/27/27
f 30/30/30 28/28/28 31/31/31
f 30/30/30 31/31/31 32/32/32
f 33/33/33 30/30/30 32/32/32
f 33/33/33 27/27/27 30/30/30
f 33/33/33 32/32/32 34/34/34
f 35/35/35 33/33/33 34/34/34
f 35/35/35 34/34/34 36/36/36
f 37/37/37 33/33/33 35/35/35
f 33/33/33 38/38/38 27/27/27
f 37/37/37 38/38/38 33/33/33
f 29/29/29 27/27/27 38/38/38
f 37/37/37 29/29/29 38/38/38
f 37/37/37 39/39/39 29/29/29
f 40/40/40 29/29/29 39/39/39
f 40/40/40 26/26/26 29/29/29
f 41/41/41 26/26/26 40/40/40
f 41/41/41 23/23/23 26/26/26
f 42/42/42 23/23/23 41/41/41
f 42/42/42 18/18/18 23/23/23
f 43/43/43 18/18/18 42/42/42
f 43/43/43 16/16/16 18/18/18
f 44/44/44 16/16/16 43/43/43
f 44/44/44 17/17/17 16/16/16
f 17/17/17 44/44/44 45/45/45
f 17/17/17 45/45/45 46/46/46
f 17/17/17 46/46/46 13/13/13
f 46/46/46 45/45/45 47/47/47
f 46/46/46 48/48/48 13/13/13
f 13/13/13 48/48/48 12/12/12
f 49/49/49 12/12/12 48/48/48
f 49/49/49 50/50/50 12/12/12
f 49/49/49 51/51/51 50/50/50
f 46/46/46 47/47/47 52/52/52
f 46/46/46 52/52/52 48/48/48
f 52/52/52 49/49/49 48/48/48
f 52/52/52 47/47/47 53/53/53
f 52/52/52 53/53/53 54/54/54
f 52/52/52 54/54/54 49/49/49
f 54/54/54 53/53/53 55/55/55
f 54/54/54 55/55/55 56/56/56
f 49/49/49 54/54/54 56/56/56
f 56/56/56 55/55/55 57/57/57
f 49/49/49 58/58/58 51/51/51
f 49/49/49 56/56/56 58/58/58
f 58/58/58 59/59/59 51/51/51
f 56/56/56 57/57/57 60/60/60
f 58/58/58 56/56/56 60/60/60
f 57/57/57 61/61/61 60/60/60
f 57/57/57 62/62/62 61/61/61
f 61/61/61 62/62/62 63/63/63
f 58/58/58 60/60/60 64/64/64
f 58/58/58 64/64/64 59/59/59
f 64/64/64 60/60/60 61/61/61
f 59/59/59 64/64/64 65/65/65
f 64/64/64 61/61/61 65/65/65
f 59/59/59 65/65/65 66/66/66
f 67/67/67 66/66/66 65/65/65
f 61/61/61 67/67/67 65/65/65
f 67/67/67 68/68/68 66/66/66
f 61/61/61 63/63/63 69/69/69
f 61/61/61 69/69/69 67/67/67
f 69/69/69 63/63/63 70/70/70
f 69/69/69 70/70/70 71/71/71
f 67/67/67 69/69/69 71/71/71
f 67/67/67 71/71/71 72/72/72
f 68/68/68 67/67/67 72/72/72
f 68/68/68 72/72/72 73/73/73
f 74/74/74 75/75/75 76/76/76
f 74/74/74 76/76/76 77/77/77
f 78/78/78 79/79/79 80/80/80
f 78/78/78 80/80/80 81/81/81
