v 0.02778747 0.07818902 1.201602
v 0.02807781 0.09236527 1.201556
v -0.002059384 0.09508887 1.201576
v -0.002059386 0.09331626 1.201582
v -0.002059597 -0.1551864 1.20239
v 0.02279895 -0.1551864 1.20239
v 0.02670814 -0.3296465 1.203214
v -0.002059757 -0.3417484 1.203272
v 0.02807741 -0.3434777 1.20328
v -0.00205976 -0.3434778 1.20328
v 0.03411726 -1.053452 0.00488166
v -0.002059542 -1.055432 0.2961164
v -0.002059276 -1.053452 0.00488641
v 0.02458754 -1.055432 0.2961164
v 0.0535363 -1.032438 0.02572384
v -0.00206013 -1.054495 0.938498
v 0.02458707 -1.054495 0.9384981
v 0.01434935 -1.050741 1.18896
v -0.002060354 -1.050741 1.188953
v 0.03570657 -1.028395 1.17237
v 0.0462014 -1.031269 0.2983617
v 0.04620089 -1.030028 0.9359338
v 0.04714843 -1.007324 0.935971
v 0.04711644 -1.009645 0.2982935
v 0.05491346 -0.8212744 0.9362764
v 0.03574686 -1.006588 1.17251
v 0.03516016 -1.006549 1.184681
v 0.01434935 -1.050741 1.18896
v 0.03603321 -0.8203142 1.173704
v 0.01384613 -1.028796 1.201271
v -0.002060354 -1.050741 1.188953
v -0.002060348 -1.028796 1.201271
v 0.01384635 -0.8203716 1.201271
v -0.00206017 -0.8203715 1.201271
v -0.00205976 -0.3434778 1.20328
v 0.03516037 -0.8202698 1.184681
v 0.02807741 -0.3434777 1.20328
v 0.03637694 -0.3550922 1.181374
v 0.03288429 -0.3550922 1.191145
v 0.03288431 -0.3434776 1.191145
v 0.0777518 -0.3403461 1.192771
v 0.07775179 -0.341626 1.178124
v 0.03637698 -0.3434777 1.181374
v 0.07916513 -0.3396894 0.9570363
v 0.05302786 -0.3434777 0.9507272
v 0.07916517 -0.3377815 0.9451501
v 0.05302782 -0.3550922 0.9507272
v 0.05131662 -0.3434777 0.9362767
v 0.07916518 -0.3207175 0.9451587
v 0.05131659 -0.3550922 0.9362767
v 0.05158861 -0.3434771 0.2977005
v 0.05508731 -0.8212883 0.2977002
v 0.05165174 -0.3021395 0.9362769
v 0.0791637 -0.08624991 0.941154
v 0.05132218 -0.3434777 0.9232365
v 0.05164382 -0.3017047 0.9237477
v 0.06270792 0.0209926 0.9362769
v 0.07775231 0.08319585 0.9440922
v 0.06256182 0.0209926 0.925972
v 0.05113527 -0.2588001 0.2977006
v 0.05365621 0.0209933 0.2977008
v 0.06919203 0.06947229 0.9238955
v 0.05136198 -0.3011386 0.2977005
v 0.05950727 -0.2993506 0.02588042
v 0.06948115 0.06958658 0.9362772
v 0.07775231 0.09579949 0.9452123
v 0.07415678 0.1080645 0.924616
v 0.07450409 0.1080957 0.9362772
v 0.07234796 0.1081329 0.950723
v 0.07775228 0.0970794 0.9598594
v 0.05457042 0.06368991 0.2977008
v 0.0600936 0.06526534 0.02576401
v 0.07453083 0.1209286 0.9362772
v 0.06553101 0.7402897 0.2980796
v 0.05548464 0.1063867 0.2977008
v 0.03856842 0.1043918 1.1813
v 0.07916516 0.09514267 1.180947
v 0.03684657 0.1044216 1.192836
v 0.07916515 0.09323484 1.192833
v 0.02807781 0.09236527 1.201556
v 0.03716959 0.1188109 1.192836
v 0.0388806 0.118838 1.181293
v 0.07241903 0.1213176 0.950431
v 0.07074988 0.7603526 0.9362775
v 0.02296472 0.7958978 1.205783
v -0.002059384 0.09508887 1.201576
v -0.00205879 0.7958978 1.200879
v 0.04732482 0.7989886 1.188579
v 0.0229649 1.009977 1.205783
v -0.002058608 1.009977 1.200879
v 0.04491074 1.009977 1.188579
v 0.04842563 0.7971731 1.176723
v 0.05093334 0.9928881 0.9362776
v 0.04539267 0.9934452 1.17622
v 0.04952704 1.00939 0.9362776
v 0.02296493 1.027451 1.188579
v 0.0229649 1.009977 1.205783
v -0.002058608 1.009977 1.200879
v -0.002058581 1.027451 1.188579
v -0.002058351 1.026865 0.9362777
v 0.02296509 1.026865 0.9362776
v -0.002057829 1.025895 0.3635859
v 0.03473848 1.029772 0.363573
v 0.06130051 1.001028 0.3635665
v 0.03305624 1.027413 0.2319415
v -0.00205771 1.024098 0.2318461
v 0.05809516 1.00028 0.2319724
v 0.03361096 1.018464 0.01340675
v -0.002057515 1.018464 0.01340677
v 0.03361095 1.00099 -0.003039476
v -0.002057515 1.00099 -0.00303938
v 0.05357928 1.000989 0.01340676
v 0.06180349 0.9845256 0.3635685
v 0.0582808 0.9837772 0.2319874
v 0.05393424 0.9844474 0.02557484
v 0.04846653 0.7993153 0.02584806
v 0.04706293 0.8011732 0.01340666
v 0.03361095 1.00099 -0.003039476
v 0.04843317 0.1190603 0.02623299
v 0.03361075 0.7980824 -0.003039503
v -0.002057515 1.00099 -0.00303938
v -0.002057688 0.7980822 -0.003039484
v 0.04758115 0.1190751 0.01340618
v 0.03872388 0.09591468 0.004685664
v -0.002058318 0.06869907 0.004685677
v 0.03872383 0.06494048 0.004685659
v -0.002058321 0.06494053 0.004685676
v -0.002058324 0.06118198 0.004685676
v 0.04833397 0.1059528 0.02624046
v 0.04749262 0.1059323 0.01340618
v 0.06047162 0.0954531 0.02574074
v 0.06021499 0.09495703 0.01340619
v 0.03872381 0.03396606 0.004685617
v -0.002058624 -0.2954878 0.0001185967
v 0.05986083 0.06533796 0.01340618
v 0.05950675 0.03571929 0.01340606
v 0.05971553 0.03507773 0.02578727
v 0.04733639 0.02099334 0.02630313
v 0.04653015 0.02099334 0.01340606
v 0.04650397 0.01069022 0.01340606
v 0.03872353 -0.2681105 0.0005124129
v 0.03872352 -0.299269 6.414367E-05
v -0.002058627 -0.2992689 6.427486E-05
v -0.002058631 -0.3030498 9.800486E-06
v 0.04730733 0.01068984 0.02630698
v 0.04657681 -0.2484965 0.02640284
v 0.04584403 -0.2484964 0.01340594
v 0.04581779 -0.2587998 0.01340594
v 0.04654777 -0.2587999 0.02640662
v 0.05914512 -0.2709686 0.02588825
v 0.0590241 -0.2715272 0.01340591
v 0.03872348 -0.3304272 -0.000383973
v -0.002059065 -0.8203998 -0.007432132
v 0.05939253 -0.2992689 0.01340591
v 0.059761 -0.3270105 0.0134059
v 0.05986942 -0.3277327 0.0258726
v 0.04752296 -0.343477 0.02638761
v 0.04681909 -0.343477 0.01340589
v 0.04810793 -0.3570011 0.02636678
v 0.04740893 -0.3569999 0.01340578
v 0.02954601 -0.8203998 -0.007432116
v 0.05391885 -0.8203709 0.02565441
v 0.05338693 -0.8203297 0.01340545
v 0.05357579 -1.010683 0.02571671
v 0.05338677 -1.01073 0.01340531
v 0.03288686 -1.031608 -0.00743218
v -0.002059245 -1.031608 -0.007432198
v 0.03411726 -1.053452 0.00488166
v -0.002059276 -1.053452 0.00488641
v 0.07775231 0.08319585 0.9440922
v 0.07775231 0.09579949 0.9452123
v 0.08648811 0.09081662 0.9464862
v 0.08648812 0.07778969 0.9465497
v 0.08931429 -0.08488219 0.9460084
v 0.07916533 -0.08624999 0.9411545
v 0.08648802 0.07778428 0.9584864
v 0.07916532 -0.09439391 0.9547954
v 0.07916521 -0.3249962 0.9610718
v 0.07916518 -0.3207175 0.9451587
v 0.07916517 -0.3377815 0.9451501
v 0.07916513 -0.3396894 0.9570363
v 0.07775179 -0.341626 1.178124
v 0.07916493 -0.3291721 1.177166
v 0.0777518 -0.3403461 1.192771
v 0.07775179 -0.3277425 1.193891
v 0.079165 -0.0883203 1.194422
v 0.079165 -0.09129996 1.184265
v 0.08931397 -0.08176386 1.191366
v 0.07916515 0.07617082 1.192824
v 0.08931399 -0.07275552 1.18142
v 0.08931404 0.08040981 1.191235
v 0.08931427 -0.07136348 0.954501
v 0.08931406 0.0804169 1.182015
v 0.08931404 0.09123462 1.191288
v 0.07916515 0.09323484 1.192833
v 0.07916516 0.09514267 1.180947
v 0.08931402 0.09123455 1.182066
v 0.07775228 0.0970794 0.9598594
v 0.08648808 0.09081662 0.9585086
v 0.07775231 0.09579949 0.9452123
v 0.02670814 -0.3296465 1.203214
v 0.02807741 -0.3434777 1.20328
v 0.0777518 -0.3403461 1.192771
v 0.07775179 -0.3277425 1.193891
v 0.02279895 -0.1551864 1.20239
v 0.07916475 -0.08832034 1.194422
v 0.07916515 0.07617082 1.192824
v 0.02778747 0.07818902 1.201602
v 0.07916515 0.09323484 1.192833
v 0.02807781 0.09236527 1.201556
v 0.08645961 0.01522551 1.024571
v 0.09589475 2.956143E-06 1.021857
v 0.08645961 2.900572E-06 1.021857
v 0.09589472 0.01522558 1.024571
v 0.08645958 0.02861206 1.032385
v 0.1076177 2.876402E-06 1.032354
v 0.09589469 0.02861206 1.032385
v 0.08645958 0.0385479 1.044356
v 0.1076177 0.01167448 1.034435
v 0.1076177 2.85489E-06 1.050667
v 0.09589467 0.03854785 1.044356
v 0.08645961 0.04383449 1.059042
v 0.1076177 0.02193817 1.040426
v 0.1076177 0.005479615 1.051643
v 0.1296738 2.927327E-06 1.050666
v 0.1296738 0.005479611 1.051643
v 0.1076177 0.01029567 1.054454
v 0.1296738 0.01029567 1.054454
v 0.09589475 0.04383457 1.059042
v 0.08645956 0.04383449 1.07467
v 0.1076177 0.02955615 1.049605
v 0.1076177 0.01387035 1.058761
v 0.1296737 0.01387034 1.058761
v 0.09589468 0.04383449 1.07467
v 0.08645947 0.03854785 1.089355
v 0.1076177 0.03360965 1.060865
v 0.1076177 0.0157722 1.064045
v 0.1296737 0.01577227 1.064045
v 0.09589458 0.03854785 1.089355
v 0.0864595 0.02861194 1.101327
v 0.1076177 0.03360972 1.072847
v 0.1076177 0.0157722 1.069667
v 0.1296737 0.0157722 1.069667
v 0.0958946 0.02861201 1.101326
v 0.08645948 0.01522538 1.113398
v 0.1076177 0.02955615 1.084106
v 0.1076177 0.01387012 1.07495
v 0.1296737 0.01387034 1.07495
v 0.09589462 0.01522546 1.113398
v 0.08645948 2.907095E-06 1.116111
v 0.1076177 0.0219382 1.093286
v 0.1076177 0.01029565 1.079257
v 0.1296737 0.01029566 1.079257
v 0.0958946 2.829151E-06 1.116111
v 0.08645944 -0.01521979 1.113398
v 0.1076176 0.01167443 1.099276
v 0.1076176 0.005479516 1.082069
v 0.1296737 0.005479607 1.082068
v 0.09589456 -0.01521964 1.113398
v 0.08645953 -0.02860616 1.101327
v 0.1076176 2.90536E-06 1.101357
v 0.1076176 2.907798E-06 1.083045
v 0.1296737 2.923016E-06 1.083045
v 0.09589461 -0.02860618 1.101327
v 0.08645944 -0.03854207 1.089355
v 0.1076176 -0.01166862 1.099276
v 0.1076176 -0.005473776 1.082069
v 0.1296737 -0.005473761 1.082068
v 0.09589458 -0.03854199 1.089355
v 0.08645956 -0.04382859 1.07467
v 0.1076177 -0.02193237 1.093285
v 0.1076176 -0.01028983 1.079257
v 0.1296737 -0.01028974 1.079257
v 0.09589466 -0.04382863 1.07467
v 0.08645957 -0.04382857 1.059042
v 0.1076176 -0.02955047 1.084106
v 0.1076177 -0.01386434 1.07495
v 0.1296737 -0.01386426 1.07495
v 0.09589469 -0.04382864 1.059042
v 0.08645954 -0.03854193 1.044356
v 0.1076176 -0.03360387 1.072847
v 0.1076177 -0.01576642 1.069667
v 0.1296737 -0.01576635 1.069667
v 0.09589468 -0.03854197 1.044356
v 0.08645958 -0.02860594 1.032385
v 0.1076177 -0.03360387 1.060865
v 0.1076177 -0.01576642 1.064045
v 0.1296737 -0.01576642 1.064045
v 0.09589471 -0.02860613 1.032385
v 0.08645961 -0.01521957 1.024571
v 0.1076177 -0.02955044 1.049605
v 0.1076177 -0.01386433 1.058761
v 0.1296737 -0.01386418 1.058761
v 0.09589472 -0.01521967 1.024571
v 0.08645961 2.900572E-06 1.021857
v 0.09589475 2.956143E-06 1.021857
v 0.1076177 -0.02193242 1.040426
v 0.1076177 -0.01028973 1.054454
v 0.1296737 -0.01028974 1.054454
v 0.1076177 -0.01166857 1.034435
v 0.1076177 2.876402E-06 1.032354
v 0.1076177 -0.005473754 1.051643
v 0.1296737 -0.005473757 1.051643
v 0.1076177 2.85489E-06 1.050667
v 0.1296738 2.927327E-06 1.050666
v -0.002059384 0.09508887 1.201576
v -0.02875448 0.09236528 1.201556
v -0.02846417 0.07818902 1.201602
v -0.002059386 0.09331626 1.201582
v -0.002059597 -0.1551864 1.20239
v -0.02347605 -0.1551863 1.20239
v -0.02738553 -0.3296464 1.203214
v -0.002059757 -0.3417484 1.203272
v -0.02875483 -0.3434777 1.20328
v -0.00205976 -0.3434778 1.20328
v -0.002059542 -1.055432 0.2961164
v -0.04230068 -1.053452 0.00488162
v -0.002059276 -1.053452 0.00488641
v -0.0293294 -1.055432 0.2961164
v -0.00206013 -1.054495 0.938498
v -0.06171973 -1.032437 0.02572371
v -0.0293301 -1.054495 0.9384982
v -0.01909285 -1.050741 1.18896
v -0.002060354 -1.050741 1.188953
v -0.04044998 -1.028395 1.17237
v -0.05094323 -1.031269 0.2983617
v -0.05094389 -1.030028 0.9359336
v -0.05189141 -1.007324 0.9359708
v -0.05185824 -1.009645 0.2982935
v -0.05965609 -0.8212742 0.9362762
v -0.04049025 -1.006587 1.17251
v -0.03990359 -1.006549 1.184681
v -0.01909285 -1.050741 1.18896
v -0.04077626 -0.8203142 1.173704
v -0.0185896 -1.028796 1.201271
v -0.002060354 -1.050741 1.188953
v -0.002060348 -1.028796 1.201271
v -0.01858946 -0.8203716 1.201271
v -0.00206017 -0.8203715 1.201271
v -0.02875483 -0.3434777 1.20328
v -0.03990345 -0.8202698 1.184681
v -0.03705435 -0.3550922 1.181374
v -0.03356172 -0.3550922 1.191145
v -0.0335617 -0.3434776 1.191145
v -0.07842918 -0.3403461 1.192771
v -0.07842917 -0.3416259 1.178124
v -0.03705435 -0.3434777 1.181374
v -0.07984212 -0.3396893 0.9570361
v -0.05370483 -0.3434775 0.950727
v -0.0798421 -0.3377814 0.9451499
v -0.05370482 -0.3550921 0.950727
v -0.05199359 -0.3434775 0.9362766
v -0.07984208 -0.3207174 0.9451586
v -0.05199358 -0.3550921 0.9362766
v -0.05226439 -0.343477 0.2977004
v -0.05982877 -0.8212881 0.2977002
v -0.05232863 -0.3021393 0.9362767
v -0.07984023 -0.08624977 0.9411538
v -0.0519991 -0.3434776 0.9232364
v -0.05232069 -0.3017045 0.9237476
v -0.06338424 0.02099274 0.9362767
v -0.07842855 0.08319603 0.9440919
v -0.06323813 0.02099274 0.9259719
v -0.05181091 -0.2588001 0.2977005
v -0.05433136 0.02099343 0.2977008
v -0.06986825 0.06947247 0.9238953
v -0.05203769 -0.3011386 0.2977004
v -0.06362456 -0.2993505 0.02588028
v -0.07015739 0.06958675 0.9362769
v -0.07842851 0.09579963 0.9452122
v -0.07483293 0.1080647 0.9246159
v -0.07518027 0.1080959 0.9362769
v -0.07302416 0.108133 0.9507229
v -0.07842852 0.09707955 0.9598593
v -0.0552455 0.06369004 0.2977008
v -0.06421027 0.06526543 0.02576387
v -0.07520698 0.1209287 0.9362769
v -0.06826341 0.7402897 0.2980797
v -0.05615965 0.1063868 0.2977008
v -0.03924504 0.1043918 1.1813
v -0.07984179 0.09514287 1.180947
v -0.03752322 0.1044216 1.192836
v -0.0798418 0.09323506 1.192833
v -0.02875448 0.09236528 1.201556
v -0.03784622 0.1188109 1.192836
v -0.03955721 0.1188381 1.181293
v -0.07309519 0.1213178 0.9504309
v -0.07348342 0.7603527 0.9362773
v -0.02569869 0.7958979 1.205783
v -0.002059384 0.09508887 1.201576
v -0.00205879 0.7958978 1.200879
v -0.05005875 0.7989886 1.188579
v -0.0256985 1.009977 1.205783
v -0.04764434 1.009977 1.188579
v -0.05115955 0.7971731 1.176723
v -0.05366652 0.9928881 0.9362774
v -0.04812627 0.9934452 1.17622
v -0.05226018 1.00939 0.9362774
v -0.02569848 1.027451 1.188579
v -0.0256985 1.009977 1.205783
v -0.002058608 1.009977 1.200879
v -0.002058581 1.027451 1.188579
v -0.002058351 1.026865 0.9362777
v -0.0256982 1.026865 0.9362776
v -0.002057829 1.025895 0.3635859
v -0.03747053 1.029772 0.3635729
v -0.06403258 1.001028 0.3635665
v -0.03578805 1.027413 0.2319414
v -0.00205771 1.024098 0.2318461
v -0.06082699 1.00028 0.2319722
v -0.03978446 1.018464 0.01340672
v -0.002057515 1.018464 0.01340677
v -0.03978444 1.00099 -0.003039515
v -0.002057515 1.00099 -0.00303938
v -0.05975281 1.00099 0.01340663
v -0.06453562 0.9845258 0.3635685
v -0.06101268 0.9837772 0.2319873
v -0.06010782 0.9844475 0.02557471
v -0.05464042 0.7993154 0.02584793
v -0.0532368 0.8011733 0.01340653
v -0.03978444 1.00099 -0.003039515
v -0.05254976 0.1190604 0.0262329
v -0.0397846 0.7980825 -0.003039541
v -0.002057515 1.00099 -0.00303938
v -0.002057688 0.7980822 -0.003039484
v -0.05169772 0.1190753 0.01340609
v -0.04284047 0.09591481 0.004685621
v -0.002058318 0.06869907 0.004685677
v -0.04284047 0.06494061 0.004685617
v -0.002058321 0.06494053 0.004685676
v -0.002058324 0.06118198 0.004685676
v -0.05245057 0.1059529 0.02624037
v -0.05160921 0.1059324 0.01340609
v -0.06458823 0.0954532 0.0257406
v -0.0643316 0.09495713 0.01340604
v -0.0428405 0.03396618 0.004685575
v -0.002058624 -0.2954878 0.0001185967
v -0.06397749 0.06533807 0.01340604
v -0.06362344 0.03571938 0.01340592
v -0.06383226 0.03507783 0.02578713
v -0.05145314 0.02099343 0.02630304
v -0.05064689 0.02099343 0.01340597
v -0.05062071 0.01069031 0.01340597
v -0.04284073 -0.2681104 0.0005123701
v -0.04284078 -0.2992689 6.410089E-05
v -0.002058627 -0.2992689 6.427486E-05
v -0.002058631 -0.3030498 9.800486E-06
v -0.0514241 0.01068991 0.02630689
v -0.05069401 -0.2484965 0.02640276
v -0.04996122 -0.2484963 0.01340585
v -0.04993501 -0.2587997 0.01340585
v -0.05066499 -0.2587998 0.02640653
v -0.06326234 -0.2709685 0.02588811
v -0.06314132 -0.2715271 0.01340577
v -0.04284078 -0.3304272 -0.0003840157
v -0.002059065 -0.8203998 -0.007432132
v -0.06350981 -0.2992689 0.01340577
v -0.06387831 -0.3270104 0.01340576
v -0.06398676 -0.3277326 0.02587246
v -0.05164033 -0.3434769 0.02638752
v -0.05093645 -0.3434769 0.0134058
v -0.05222533 -0.357001 0.02636669
v -0.05152632 -0.3569999 0.01340569
v -0.037729 -0.8203998 -0.007432151
v -0.0621019 -0.8203708 0.02565427
v -0.06156997 -0.8203295 0.01340531
v -0.06175919 -1.010683 0.02571658
v -0.06157014 -1.01073 0.01340517
v -0.04107021 -1.031608 -0.007432219
v -0.002059245 -1.031608 -0.007432198
v -0.04230068 -1.053452 0.00488162
v -0.002059276 -1.053452 0.00488641
v -0.08716431 0.09081677 0.9464862
v -0.07842851 0.09579963 0.9452122
v -0.07842855 0.08319603 0.9440919
v -0.08716439 0.07778988 0.9465497
v -0.08999079 -0.08488205 0.9460082
v -0.07984184 -0.08624984 0.9411542
v -0.08716433 0.07778446 0.9584863
v -0.07984188 -0.09439378 0.9547953
v -0.0798422 -0.3249961 0.9610717
v -0.07984208 -0.3207174 0.9451586
v -0.0798421 -0.3377814 0.9451499
v -0.07984212 -0.3396893 0.9570361
v -0.07842917 -0.3416259 1.178124
v -0.07984232 -0.3291719 1.177166
v -0.07842918 -0.3403461 1.192771
v -0.07842917 -0.3277423 1.193891
v -0.07984195 -0.08832023 1.194422
v -0.07984195 -0.0912998 1.184265
v -0.08999091 -0.08176367 1.191366
v -0.07984184 0.076171 1.192824
v -0.08999097 -0.07275534 1.18142
v -0.08999069 0.08040991 1.191234
v -0.0899908 -0.07136329 0.9545008
v -0.08999073 0.08041713 1.182015
v -0.08999069 0.0912348 1.191288
v -0.0798418 0.09323506 1.192833
v -0.07984179 0.09514287 1.180947
v -0.08999067 0.09123469 1.182066
v -0.07842852 0.09707955 0.9598593
v -0.08716433 0.09081677 0.9585084
v -0.07842851 0.09579963 0.9452122
v -0.07842918 -0.3403461 1.192771
v -0.02875483 -0.3434777 1.20328
v -0.02738553 -0.3296464 1.203214
v -0.07842917 -0.3277423 1.193891
v -0.02347605 -0.1551863 1.20239
v -0.0798417 -0.08832023 1.194421
v -0.07984184 0.076171 1.192824
v -0.02846417 0.07818902 1.201602
v -0.0798418 0.09323506 1.192833
v -0.02875448 0.09236528 1.201556
v -0.0871361 0.01522563 1.02457
v -0.08713611 3.007219E-06 1.021857
v -0.09657125 3.085162E-06 1.021857
v -0.09657119 0.01522571 1.02457
v -0.08713607 0.02861232 1.032385
v -0.1082943 3.104888E-06 1.032354
v -0.09657119 0.02861232 1.032384
v -0.0871361 0.03854808 1.044356
v -0.1082942 0.0116747 1.034435
v -0.1082943 3.102449E-06 1.050666
v -0.09657118 0.03854808 1.044356
v -0.08713608 0.04383475 1.059042
v -0.1082942 0.02193843 1.040426
v -0.1082943 0.005479787 1.051643
v -0.1303503 3.144453E-06 1.050666
v -0.1303503 0.005479828 1.051643
v -0.1082942 0.01029592 1.054454
v -0.1303503 0.01029596 1.054454
v -0.09657122 0.04383479 1.059042
v -0.08713606 0.04383475 1.07467
v -0.1082942 0.02955638 1.049605
v -0.1082942 0.01387059 1.058761
v -0.1303503 0.01387062 1.058761
v -0.09657118 0.04383475 1.074669
v -0.08713607 0.03854803 1.089354
v -0.1082942 0.03360988 1.060865
v -0.1082942 0.01577243 1.064044
v -0.1303503 0.01577247 1.064044
v -0.09657117 0.03854803 1.089354
v -0.08713611 0.02861212 1.101326
v -0.1082942 0.03361003 1.072847
v -0.1082943 0.01577243 1.069667
v -0.1303503 0.01577247 1.069667
v -0.09657121 0.02861227 1.101326
v -0.08713611 0.01522551 1.113397
v -0.1082942 0.02955634 1.084106
v -0.1082943 0.01387027 1.07495
v -0.1303502 0.01387061 1.07495
v -0.09657124 0.01522565 1.113397
v -0.08713617 3.032815E-06 1.116111
v -0.1082943 0.02193839 1.093285
v -0.1082942 0.01029589 1.079257
v -0.1303503 0.01029594 1.079257
v -0.09657129 3.024928E-06 1.116111
v -0.08713617 -0.01521959 1.113397
v -0.1082943 0.01167468 1.099276
v -0.1082943 0.005479764 1.082068
v -0.1303503 0.005479806 1.082068
v -0.09657129 -0.01521944 1.113398
v -0.08713624 -0.02860597 1.101326
v -0.1082943 3.076626E-06 1.101357
v -0.1082943 3.079064E-06 1.083045
v -0.1303503 3.121068E-06 1.083045
v -0.09657132 -0.02860597 1.101326
v -0.08713614 -0.03854188 1.089354
v -0.1082943 -0.01166837 1.099276
v -0.1082943 -0.005473605 1.082068
v -0.1303503 -0.005473563 1.082068
v -0.09657128 -0.03854188 1.089354
v -0.08713625 -0.04382844 1.07467
v -0.1082943 -0.02193219 1.093285
v -0.1082943 -0.01028958 1.079257
v -0.1303504 -0.01028954 1.079257
v -0.09657135 -0.04382842 1.074669
v -0.08713624 -0.04382842 1.059042
v -0.1082943 -0.0295503 1.084106
v -0.1082943 -0.01386411 1.07495
v -0.1303503 -0.01386407 1.07495
v -0.09657136 -0.04382849 1.059041
v -0.08713619 -0.03854178 1.044356
v -0.1082943 -0.03360364 1.072846
v -0.1082943 -0.01576627 1.069667
v -0.1303503 -0.01576607 1.069667
v -0.09657133 -0.03854184 1.044356
v -0.08713616 -0.02860577 1.032385
v -0.1082943 -0.03360362 1.060864
v -0.1082943 -0.01576627 1.064044
v -0.1303503 -0.01576622 1.064044
v -0.09657128 -0.02860592 1.032384
v -0.08713614 -0.01521947 1.02457
v -0.1082943 -0.02955027 1.049605
v -0.1082943 -0.01386409 1.058761
v -0.1303503 -0.01386391 1.058761
v -0.09657126 -0.01521954 1.02457
v -0.08713611 3.007219E-06 1.021857
v -0.09657125 3.085162E-06 1.021857
v -0.1082943 -0.02193217 1.040426
v -0.1082943 -0.01028956 1.054454
v -0.1303503 -0.01028952 1.054454
v -0.1082942 -0.01166834 1.034435
v -0.1082943 3.104888E-06 1.032354
v -0.1082943 -0.005473582 1.051643
v -0.1303503 -0.00547354 1.051643
v -0.1082943 3.102449E-06 1.050666
v -0.1303503 3.144453E-06 1.050666
vt 0.4808151 0.9124147
vt 0.486411 0.9125195
vt 0.4874818 0.8967274
vt 0.4867821 0.8967284
vt 0.388781 0.8967769
vt 0.388781 0.910558
vt 0.3199802 0.91206
vt 0.3152072 0.8967862
vt 0.314522 0.912594
vt 0.3145248 0.8967866
vt 0.02967294 0.02887042
vt 0.1395099 0.00720779
vt 0.02939897 0.007377968
vt 0.1397331 0.02761935
vt 0.0376169 0.04001319
vt 0.3824714 0.006972192
vt 0.3824475 0.0252289
vt 0.4771013 0.02251398
vt 0.477263 0.007081735
vt 0.4709671 0.03474334
vt 0.1407548 0.04030759
vt 0.3815874 0.03799132
vt 0.3817164 0.04693772
vt 0.1410174 0.04885834
vt 0.3832237 0.1206899
vt 0.4708125 0.04368247
vt 0.475111 0.04348462
vt 0.4818614 0.02519725
vt 0.4732149 0.1173962
vt 0.4844534 0.03436276
vt 0.4996746 0.022998
vt 0.499958 0.03305095
vt 0.4875068 0.1160346
vt 0.5003168 0.11552
vt 0.500433 0.3036347
vt 0.4773775 0.1166887
vt 0.4884911 0.3034188
vt 0.4790961 0.3007916
vt 0.4832008 0.2998788
vt 0.4838843 0.3040238
vt 0.486471 0.3201249
vt 0.480145 0.3201053
vt 0.4800121 0.3049495
vt 0.3967893 0.3168181
vt 0.3932447 0.3084947
vt 0.3944847 0.3178275
vt 0.3924547 0.3043681
vt 0.3862374 0.3117563
vt 0.3937156 0.3250223
vt 0.385751 0.3059161
vt 0.142926 0.31218
vt 0.1418214 0.1233318
vt 0.3830663 0.33007
vt 0.3890909 0.4177589
vt 0.380222 0.311709
vt 0.3790633 0.3298659
vt 0.3813414 0.4591056
vt 0.3882177 0.4852272
vt 0.378578 0.4588848
vt 0.1423526 0.346299
vt 0.1416726 0.4570163
vt 0.3784364 0.4794751
vt 0.1428832 0.3292327
vt 0.04045769 0.3296332
vt 0.3829239 0.4793719
vt 0.3893401 0.4901968
vt 0.3794253 0.4959234
vt 0.3845818 0.4957029
vt 0.390621 0.496468
vt 0.3939808 0.4913128
vt 0.141948 0.474314
vt 0.03955088 0.4739054
vt 0.3842236 0.501781
vt 0.1376606 0.7419069
vt 0.1417568 0.4915969
vt 0.4776725 0.5027651
vt 0.4735772 0.4885095
vt 0.4830419 0.5022628
vt 0.4778457 0.4867354
vt 0.4890508 0.4988644
vt 0.4826173 0.5078883
vt 0.4776759 0.5071784
vt 0.3904487 0.5027938
vt 0.3787403 0.7551943
vt 0.4852661 0.7754981
vt 0.5004636 0.5021901
vt 0.500052 0.7760621
vt 0.4739767 0.7758893
vt 0.4819352 0.8595812
vt 0.4995957 0.860388
vt 0.4714758 0.8587251
vt 0.4694313 0.7742043
vt 0.3763307 0.8475636
vt 0.4668929 0.8517813
vt 0.3761306 0.8541578
vt 0.4706137 0.8692847
vt 0.4793008 0.8676323
vt 0.4791454 0.8840839
vt 0.4708654 0.8847907
vt 0.3754254 0.8824421
vt 0.3757444 0.8665779
vt 0.1587726 0.8807773
vt 0.1594673 0.8603712
vt 0.1599853 0.8451607
vt 0.1100036 0.858228
vt 0.1085075 0.8779321
vt 0.1105331 0.843856
vt 0.0279098 0.8535751
vt 0.02589673 0.8689974
vt 0.01960202 0.8509952
vt 0.01676399 0.8670836
vt 0.02768629 0.8434378
vt 0.1602129 0.8387201
vt 0.1106609 0.8374656
vt 0.03248138 0.8368108
vt 0.03378906 0.7636939
vt 0.02899274 0.7645171
vt 0.0179647 0.8430707
vt 0.03825069 0.4956409
vt 0.02100199 0.763127
vt 0.004425053 0.8425153
vt 0.004851639 0.762639
vt 0.03295947 0.4954645
vt 0.02780267 0.4862496
vt 0.005676892 0.4751159
vt 0.02717217 0.4737444
vt 0.005600383 0.4735985
vt 0.005695935 0.4720884
vt 0.03856025 0.4911171
vt 0.03319359 0.4903035
vt 0.03946811 0.4854165
vt 0.03568968 0.4848189
vt 0.0279596 0.4613002
vt 0.005702517 0.3314906
vt 0.035319 0.4739401
vt 0.03564517 0.4630193
vt 0.0394882 0.4623727
vt 0.03860008 0.4555289
vt 0.03323172 0.4562646
vt 0.03315452 0.4522372
vt 0.02801376 0.3422446
vt 0.02725517 0.3297103
vt 0.005610464 0.3299696
vt 0.005672827 0.3284533
vt 0.03845431 0.4520099
vt 0.03918151 0.3502593
vt 0.03391632 0.3500533
vt 0.03407671 0.3460994
vt 0.03940812 0.3467732
vt 0.0402124 0.3404321
vt 0.03624754 0.3398201
vt 0.02776909 0.3172146
vt 0.004781077 0.1244511
vt 0.0361219 0.3296341
vt 0.03650085 0.3194219
vt 0.04052291 0.3188324
vt 0.039808 0.3114744
vt 0.03439779 0.3119937
vt 0.03961033 0.3066845
vt 0.03428942 0.3067454
vt 0.02235828 0.1241163
vt 0.03885198 0.1239947
vt 0.03424022 0.1239612
vt 0.03818902 0.04883229
vt 0.03381342 0.04898132
vt 0.02312933 0.04116785
vt 0.004728657 0.04072489
vt 0.02539627 0.03194775
vt 0.00491023 0.03065799
vt 0.4902637 0.3256698
vt 0.4900011 0.3202781
vt 0.4856265 0.3229509
vt 0.4862493 0.327436
vt 0.4832406 0.390599
vt 0.4861728 0.3915946
vt 0.4817726 0.3278995
vt 0.4800823 0.3948921
vt 0.4736345 0.4844663
vt 0.4786821 0.4827241
vt 0.4778457 0.4867354
vt 0.4735772 0.4885095
vt 0.3939808 0.4913128
vt 0.3938595 0.4852271
vt 0.3893401 0.4901968
vt 0.3882177 0.4852272
vt 0.3904053 0.3897594
vt 0.3943872 0.391509
vt 0.3929168 0.3866883
vt 0.3937156 0.3250223
vt 0.3967406 0.3836088
vt 0.3969091 0.3236696
vt 0.4807427 0.3860754
vt 0.3994735 0.323592
vt 0.3968449 0.320243
vt 0.3944847 0.3178275
vt 0.3967893 0.3168181
vt 0.3991779 0.3198293
vt 0.480145 0.3201053
vt 0.4812553 0.3237081
vt 0.486471 0.3201249
vt 0.4111072 0.3231111
vt 0.410593 0.3177486
vt 0.3923963 0.3191407
vt 0.3924079 0.3245046
vt 0.4125536 0.3907053
vt 0.3916781 0.4165512
vt 0.3912405 0.4805512
vt 0.4107657 0.4811255
vt 0.3912227 0.4859655
vt 0.4106648 0.4866233
vt 0.01112628 0.8875019
vt 0.0225076 0.8795558
vt 0.01574029 0.8766303
vt 0.01775811 0.8897398
vt 0.008472674 0.8993496
vt 0.03281155 0.8865606
vt 0.01540287 0.9003727
vt 0.008441827 0.9114273
vt 0.02869607 0.8940914
vt 0.04229239 0.8962936
vt 0.01544298 0.9111049
vt 0.01066774 0.9230674
vt 0.02707498 0.9024095
vt 0.04112094 0.9003846
vt 0.05796085 0.897276
vt 0.05754894 0.901328
vt 0.04072385 0.9053679
vt 0.05720548 0.9052327
vt 0.01748915 0.9215348
vt 0.01463599 0.9339524
vt 0.02731807 0.9109041
vt 0.04122131 0.9110041
vt 0.05752711 0.9091411
vt 0.02112343 0.9314098
vt 0.01990631 0.9439849
vt 0.02911676 0.9193186
vt 0.04272553 0.9169992
vt 0.05859558 0.9131483
vt 0.02598516 0.9406224
vt 0.02615078 0.9531828
vt 0.03221954 0.9274711
vt 0.04521424 0.9231117
vt 0.06039806 0.9172866
vt 0.03179066 0.949155
vt 0.03315276 0.9616151
vt 0.03639138 0.9352438
vt 0.0485862 0.9291663
vt 0.06289092 0.9215339
vt 0.03834086 0.9570355
vt 0.04079872 0.9693529
vt 0.04142347 0.9425735
vt 0.05270549 0.9350402
vt 0.06600272 0.9258202
vt 0.04551641 0.9642952
vt 0.049061 0.9764312
vt 0.04714794 0.9494308
vt 0.05743813 0.9406473
vt 0.0696402 0.9300483
vt 0.05326914 0.9709385
vt 0.05797094 0.9828185
vt 0.05344603 0.955795
vt 0.06266621 0.945911
vt 0.07368639 0.9340972
vt 0.06159632 0.9769136
vt 0.06759118 0.9883959
vt 0.06024194 0.9616258
vt 0.06828877 0.9507532
vt 0.07801401 0.9378466
vt 0.07052216 0.9821019
vt 0.0779771 0.992946
vt 0.06749068 0.9668505
vt 0.07421885 0.955077
vt 0.08249051 0.9411761
vt 0.08006065 0.9863017
vt 0.08912221 0.9961374
vt 0.0751612 0.9713518
vt 0.08037255 0.9587707
vt 0.08698931 0.9439775
vt 0.09017442 0.9892318
vt 0.1008986 0.9975401
vt 0.08321409 0.9749653
vt 0.08665451 0.9617067
vt 0.09140459 0.9461637
vt 0.1007295 0.990539
vt 0.1129545 0.9966628
vt 0.09157093 0.9774866
vt 0.09293244 0.9637598
vt 0.09566351 0.9476711
vt 0.1114475 0.9898272
vt 0.1245969 0.9931887
vt 0.1000979 0.9786895
vt 0.0990235 0.9648386
vt 0.09974008 0.9484553
vt 0.1218981 0.986735
vt 0.1351269 0.9878275
vt 0.1317326 0.9812875
vt 0.1085964 0.978336
vt 0.1046854 0.9649392
vt 0.1036646 0.9485019
vt 0.1167879 0.9761382
vt 0.1240171 0.9715077
vt 0.109633 0.9641945
vt 0.1075387 0.9478857
vt 0.1136356 0.9627398
vt 0.1115548 0.9471912
vt 0.5126051 0.8967274
vt 0.5136759 0.9125195
vt 0.5192719 0.9124147
vt 0.5133048 0.8967284
vt 0.611306 0.8967769
vt 0.611306 0.910558
vt 0.6801067 0.91206
vt 0.6848797 0.8967862
vt 0.6855649 0.912594
vt 0.6855621 0.8967866
vt 0.860577 0.00720779
vt 0.970414 0.02887042
vt 0.9706879 0.007377968
vt 0.8603538 0.02761935
vt 0.6176156 0.006972192
vt 0.96247 0.04001319
vt 0.6176394 0.0252289
vt 0.5229856 0.02251398
vt 0.5228239 0.007081735
vt 0.5291198 0.03474334
vt 0.8593321 0.04030759
vt 0.6184995 0.03799132
vt 0.6183705 0.04693772
vt 0.8590695 0.04885834
vt 0.6168632 0.1206899
vt 0.5292743 0.04368247
vt 0.5249759 0.04348462
vt 0.5182256 0.02519725
vt 0.526872 0.1173962
vt 0.5156336 0.03436276
vt 0.5004123 0.022998
vt 0.5001289 0.03305095
vt 0.5125802 0.1160346
vt 0.4997701 0.11552
vt 0.5115958 0.3034188
vt 0.5227094 0.1166887
vt 0.5209908 0.3007916
vt 0.5168861 0.2998788
vt 0.5162026 0.3040238
vt 0.513616 0.3201249
vt 0.5199419 0.3201053
vt 0.5200748 0.3049495
vt 0.6032976 0.3168181
vt 0.6068423 0.3084947
vt 0.6056023 0.3178275
vt 0.6076322 0.3043681
vt 0.6138495 0.3117563
vt 0.6063713 0.3250223
vt 0.6143359 0.3059161
vt 0.8571609 0.31218
vt 0.8582655 0.1233318
vt 0.6170206 0.33007
vt 0.610996 0.4177589
vt 0.6198649 0.311709
vt 0.6210235 0.3298659
vt 0.6187455 0.4591056
vt 0.6118692 0.4852272
vt 0.621509 0.4588848
vt 0.8577343 0.346299
vt 0.8584143 0.4570163
vt 0.6216505 0.4794751
vt 0.8572037 0.3292327
vt 0.9596292 0.3296332
vt 0.617163 0.4793719
vt 0.6107467 0.4901968
vt 0.6206616 0.4959234
vt 0.6155051 0.4957029
vt 0.6094659 0.496468
vt 0.6061062 0.4913128
vt 0.8581389 0.474314
vt 0.960536 0.4739054
vt 0.6158633 0.501781
vt 0.8624263 0.7419069
vt 0.8583301 0.4915969
vt 0.5224143 0.5027651
vt 0.5265098 0.4885095
vt 0.517045 0.5022628
vt 0.5222412 0.4867354
vt 0.5110361 0.4988644
vt 0.5174696 0.5078883
vt 0.522411 0.5071784
vt 0.6096382 0.5027938
vt 0.6213466 0.7551943
vt 0.5148208 0.7754981
vt 0.4996233 0.5021901
vt 0.5000349 0.7760621
vt 0.5261102 0.7758893
vt 0.5181516 0.8595812
vt 0.5286111 0.8587251
vt 0.5306556 0.7742043
vt 0.6237562 0.8475636
vt 0.533194 0.8517813
vt 0.6239563 0.8541578
vt 0.5294732 0.8692847
vt 0.5207862 0.8676323
vt 0.5209415 0.8840839
vt 0.5292215 0.8847907
vt 0.6246614 0.8824421
vt 0.6243424 0.8665779
vt 0.8413143 0.8807773
vt 0.8406196 0.8603712
vt 0.8401016 0.8451607
vt 0.8900833 0.858228
vt 0.8915794 0.8779321
vt 0.8895538 0.843856
vt 0.9721771 0.8535751
vt 0.9741902 0.8689974
vt 0.9804849 0.8509952
vt 0.9833229 0.8670836
vt 0.9724006 0.8434378
vt 0.839874 0.8387201
vt 0.889426 0.8374656
vt 0.9676055 0.8368108
vt 0.9662979 0.7636939
vt 0.9710942 0.7645171
vt 0.9821222 0.8430707
vt 0.9618362 0.4956409
vt 0.9790849 0.763127
vt 0.9956619 0.8425153
vt 0.9952353 0.762639
vt 0.9671274 0.4954645
vt 0.9722843 0.4862496
vt 0.99441 0.4751159
vt 0.9729148 0.4737444
vt 0.9944865 0.4735985
vt 0.994391 0.4720884
vt 0.9615266 0.4911171
vt 0.9668933 0.4903035
vt 0.9606188 0.4854165
vt 0.9643972 0.4848189
vt 0.9721273 0.4613002
vt 0.9943844 0.3314906
vt 0.9647679 0.4739401
vt 0.9644417 0.4630193
vt 0.9605987 0.4623727
vt 0.9614868 0.4555289
vt 0.9668552 0.4562646
vt 0.9669324 0.4522372
vt 0.9720731 0.3422446
vt 0.9728317 0.3297103
vt 0.9944764 0.3299696
vt 0.9944141 0.3284533
vt 0.9616326 0.4520099
vt 0.9609054 0.3502593
vt 0.9661706 0.3500533
vt 0.9660102 0.3460994
vt 0.9606788 0.3467732
vt 0.9598745 0.3404321
vt 0.9638394 0.3398201
vt 0.9723178 0.3172146
vt 0.9953058 0.1244511
vt 0.963965 0.3296341
vt 0.963586 0.3194219
vt 0.959564 0.3188324
vt 0.9602789 0.3114744
vt 0.9656891 0.3119937
vt 0.9604766 0.3066845
vt 0.9657975 0.3067454
vt 0.9777286 0.1241163
vt 0.9612349 0.1239947
vt 0.9658467 0.1239612
vt 0.9618979 0.04883229
vt 0.9662735 0.04898132
vt 0.9769576 0.04116785
vt 0.9953582 0.04072489
vt 0.9746906 0.03194775
vt 0.9951767 0.03065799
vt 0.5144604 0.3229509
vt 0.5100858 0.3202781
vt 0.5098232 0.3256698
vt 0.5138376 0.327436
vt 0.5168463 0.390599
vt 0.5139141 0.3915946
vt 0.5183142 0.3278995
vt 0.5200046 0.3948921
vt 0.5264524 0.4844663
vt 0.5214049 0.4827241
vt 0.5222412 0.4867354
vt 0.5265098 0.4885095
vt 0.6061062 0.4913128
vt 0.6062274 0.4852271
vt 0.6107467 0.4901968
vt 0.6118692 0.4852272
vt 0.6096816 0.3897594
vt 0.6056997 0.391509
vt 0.6071701 0.3866883
vt 0.6063713 0.3250223
vt 0.6033463 0.3836088
vt 0.6031778 0.3236696
vt 0.5193442 0.3860754
vt 0.6006134 0.323592
vt 0.603242 0.320243
vt 0.6056023 0.3178275
vt 0.6032976 0.3168181
vt 0.600909 0.3198293
vt 0.5199419 0.3201053
vt 0.5188316 0.3237081
vt 0.513616 0.3201249
vt 0.6076906 0.3191407
vt 0.5894939 0.3177486
vt 0.5889797 0.3231111
vt 0.607679 0.3245046
vt 0.5875333 0.3907053
vt 0.6084088 0.4165512
vt 0.6088464 0.4805512
vt 0.5893212 0.4811255
vt 0.6088642 0.4859655
vt 0.5894221 0.4866233
vt 0.9889606 0.8875019
vt 0.9843466 0.8766303
vt 0.9775793 0.8795558
vt 0.9823288 0.8897398
vt 0.9916142 0.8993496
vt 0.9672754 0.8865606
vt 0.9846841 0.9003727
vt 0.9916451 0.9114273
vt 0.9713908 0.8940914
vt 0.9577945 0.8962936
vt 0.9846439 0.9111049
vt 0.9894192 0.9230674
vt 0.9730119 0.9024095
vt 0.958966 0.9003846
vt 0.942126 0.897276
vt 0.942538 0.901328
vt 0.959363 0.9053679
vt 0.9428814 0.9052327
vt 0.9825978 0.9215348
vt 0.9854509 0.9339524
vt 0.9727688 0.9109041
vt 0.9588656 0.9110041
vt 0.9425598 0.9091411
vt 0.9789635 0.9314098
vt 0.9801806 0.9439849
vt 0.9709702 0.9193186
vt 0.9573613 0.9169992
vt 0.9414913 0.9131483
vt 0.9741017 0.9406224
vt 0.9739361 0.9531828
vt 0.9678674 0.9274711
vt 0.9548727 0.9231117
vt 0.9396889 0.9172866
vt 0.9682962 0.949155
vt 0.9669341 0.9616151
vt 0.9636955 0.9352438
vt 0.9515007 0.9291663
vt 0.937196 0.9215339
vt 0.961746 0.9570355
vt 0.9592882 0.9693529
vt 0.9586635 0.9425735
vt 0.9473814 0.9350402
vt 0.9340842 0.9258202
vt 0.9545705 0.9642952
vt 0.9510259 0.9764312
vt 0.952939 0.9494308
vt 0.9426488 0.9406473
vt 0.9304467 0.9300483
vt 0.9468178 0.9709385
vt 0.942116 0.9828185
vt 0.9466408 0.955795
vt 0.9374207 0.945911
vt 0.9264005 0.9340972
vt 0.9384906 0.9769136
vt 0.9324957 0.9883959
vt 0.939845 0.9616258
vt 0.9317981 0.9507532
vt 0.9220729 0.9378466
vt 0.9295647 0.9821019
vt 0.9221098 0.992946
vt 0.9325962 0.9668505
vt 0.925868 0.955077
vt 0.9175964 0.9411761
vt 0.9200262 0.9863017
vt 0.9109647 0.9961374
vt 0.9249257 0.9713518
vt 0.9197143 0.9587707
vt 0.9130976 0.9439775
vt 0.9099125 0.9892318
vt 0.8991883 0.9975401
vt 0.9168728 0.9749653
vt 0.9134324 0.9617067
vt 0.9086823 0.9461637
vt 0.8993574 0.990539
vt 0.8871324 0.9966628
vt 0.908516 0.9774866
vt 0.9071544 0.9637598
vt 0.9044234 0.9476711
vt 0.8886394 0.9898272
vt 0.87549 0.9931887
vt 0.899989 0.9786895
vt 0.9010634 0.9648386
vt 0.9003468 0.9484553
vt 0.8781888 0.986735
vt 0.86496 0.9878275
vt 0.8683543 0.9812875
vt 0.8914905 0.978336
vt 0.8954015 0.9649392
vt 0.8964223 0.9485019
vt 0.8832991 0.9761382
vt 0.8760698 0.9715077
vt 0.8904539 0.9641945
vt 0.8925482 0.9478857
vt 0.8864513 0.9627398
vt 0.8885321 0.9471912
vn 0.08056662 0.00253733 0.9967459
vn 0.130011 0.07666989 0.9885438
vn 0.002373995 3.435291E-05 0.9999973
vn -5.642619E-05 0.003236593 0.9999948
vn -1.78282E-05 0.004015632 0.999992
vn 0.07750944 0.003119257 0.9969867
vn 0.08620867 -0.004176036 0.9962683
vn 1.514535E-06 0.004716991 0.9999889
vn 0.2899219 -0.1796912 0.9400299
vn 6.374336E-07 0.0002502917 1
vn 0.4267136 -0.771678 -0.4716233
vn -2.091417E-06 -0.9999964 -0.002669282
vn -3.874581E-06 -0.8617606 -0.5073153
vn 0.4012879 -0.9159399 0.004690659
vn 0.9218851 -0.3566665 -0.1513828
vn -1.751963E-06 -0.9999663 0.008222021
vn 0.4122777 -0.9109161 0.01609532
vn 0.3944216 -0.7818868 0.4827885
vn -3.023958E-06 -0.8591988 0.5116418
vn 0.906598 -0.3572855 0.2245598
vn 0.9268459 -0.3752351 0.0124626
vn 0.9287412 -0.3700494 0.02243147
vn 0.9991046 -0.03205275 0.02761677
vn 0.9994498 -0.0319667 0.008844884
vn 0.999319 -0.01411381 0.03409233
vn 0.9983985 -0.01182795 0.05532194
vn 0.8801475 -0.06826721 0.469766
vn 0.3944216 -0.7818868 0.4827885
vn 0.9947814 -0.005984969 0.1018523
vn 0.3729806 -0.2546418 0.8922125
vn -3.023958E-06 -0.8591988 0.5116418
vn -7.595611E-07 -0.2529115 0.9674895
vn 0.3599313 -0.005228974 0.9329641
vn 1.115444E-06 -0.002105823 0.9999979
vn 6.374336E-07 0.0002502917 1
vn 0.8873565 -0.004640869 0.4610606
vn 0.2899219 -0.1796912 0.9400299
vn 0.9847524 -0.0003171385 0.1739617
vn 0.8958164 -0.006102284 0.4443823
vn 0.6792104 -0.6836939 0.2669008
vn 0.6386552 -0.5649596 0.5224367
vn 0.7020522 -0.7111799 0.03668608
vn 0.685526 -0.7104619 0.1590536
vn 0.729453 -0.6836091 -0.02401557
vn 0.7400202 -0.6708897 -0.04771898
vn 0.7149583 -0.4897421 -0.4989862
vn 0.9997773 0.001847808 -0.02102556
vn 0.9392077 -0.200544 -0.2786952
vn 0.805667 -0.003079306 -0.5923606
vn 0.9982659 0.004638917 -0.05868357
vn 0.9999869 -0.0009072077 0.005055525
vn 0.9999319 -0.01165996 0.0003989108
vn 0.8002372 -0.01840745 -0.5994009
vn 0.2732803 -0.01064548 -0.9618756
vn 0.9999999 0.0006086229 0.0001502031
vn 0.9998616 -0.01616528 -0.003929134
vn 0.840034 -0.04526614 -0.540642
vn 0.5654551 -0.01954847 -0.8245474
vn 0.9974962 -0.06949999 -0.01307946
vn 0.9999943 0.003377336 -0.0002129283
vn 0.9992034 -0.03931368 -0.006856697
vn 0.9942778 -0.1045258 -0.02204813
vn 0.9998755 0.005217206 0.01489115
vn 0.9998884 0.01067006 0.01044998
vn 0.9337606 -0.1225545 -0.336261
vn 0.8533949 0.3314243 -0.402337
vn 0.9983426 -0.05238509 -0.02382868
vn 0.9992486 0.02062038 -0.03281757
vn 0.9500016 0.2938811 0.1055032
vn 0.5526987 0.8332735 0.01339496
vn 0.9988663 -0.0475939 -0.0009793525
vn 0.9998875 -0.01498485 0.0006499339
vn 0.9979987 -0.001206901 0.06322284
vn 0.999602 0.007910904 -0.02707957
vn 0.9996716 -0.01836791 -0.01786796
vn 0.8050284 0.5779573 0.1337708
vn 0.3530519 0.9340637 0.05366093
vn 0.6685443 0.3965802 0.6291046
vn 0.2706745 0.6367332 0.7220154
vn 0.130011 0.07666989 0.9885438
vn 0.8713047 -0.01173988 0.490602
vn 0.9911045 -0.01296587 0.1324526
vn 0.9902611 -0.003110142 0.1391879
vn 0.9989178 0.02214265 0.04090011
vn 0.2513461 -0.0005493307 0.9678972
vn 0.002373995 3.435291E-05 0.9999973
vn 0.004856258 -0.001401197 0.9999872
vn 0.877116 0.001068126 0.4802776
vn 0.2155173 0.3240745 0.9211559
vn 0.004095125 0.3583148 0.9335919
vn 0.8222805 0.403479 0.4013223
vn 0.9961352 0.01293524 0.08687525
vn 0.9983361 0.0523325 0.02421477
vn 0.9984431 0.03606526 0.04255401
vn 0.8877698 0.46006 0.01447119
vn 0.2634751 0.8904412 0.3710732
vn 0.2155173 0.3240745 0.9211559
vn 0.004095125 0.3583148 0.9335919
vn 0.001199723 0.9077127 0.4195906
vn 0.000731718 0.9999995 -0.0006478198
vn 0.3118541 0.9501247 0.003195445
vn 0.001723537 0.9999738 -0.007036465
vn 0.3402972 0.9402916 -0.007042327
vn 0.9145188 0.4045134 -0.004940173
vn 0.3540279 0.934906 -0.02479783
vn 0.0008738151 0.9997017 -0.0244075
vn 0.9245372 0.3803579 -0.02363835
vn 0.3169254 0.8712248 -0.3748675
vn -0.0001190242 0.9110927 -0.4122016
vn 0.3272578 0.3347365 -0.8836594
vn 4.977713E-07 0.3686452 -0.9295702
vn 0.8666672 0.3374168 -0.3674749
vn 0.9992363 0.03856079 -0.006306661
vn 0.9994752 0.01122052 -0.03038774
vn 0.9983672 -0.01004853 -0.05623006
vn 0.997621 -0.009408848 -0.06829124
vn 0.909593 -0.01234056 -0.415317
vn 0.3272578 0.3347365 -0.8836594
vn 0.9983735 -0.005521304 -0.05674317
vn 0.3958353 -0.005954678 -0.9183022
vn 4.977713E-07 0.3686452 -0.9295702
vn 2.51321E-05 -0.005390538 -0.9999855
vn 0.9189411 -0.002486318 -0.3943869
vn 0.2540581 0.05074822 -0.9658567
vn 1.593353E-05 -0.003371148 -0.9999944
vn 0.1944473 -0.001135492 -0.9809123
vn 5.245377E-07 6.823048E-07 -1
vn 5.282029E-07 0.004149383 -0.9999914
vn 0.9090083 0.4145993 -0.04255815
vn 0.7982424 0.3016488 -0.5213608
vn 0.9131525 0.4072582 -0.01712383
vn 0.7968723 0.3342524 -0.5032592
vn 0.2587467 -0.05193499 -0.9645479
vn 5.374929E-07 0.01403504 -0.9999015
vn 0.8257434 -0.008653811 -0.5639794
vn 0.8105342 -0.2881463 -0.509908
vn 0.9333258 -0.3586569 -0.0163772
vn 0.9337371 -0.3557157 -0.04001646
vn 0.8392945 -0.2454876 -0.4850986
vn 0.9422938 -0.000105758 -0.3347873
vn 0.3525286 0.08776104 -0.9316767
vn 0.2826683 0.01259788 -0.959135
vn 5.373069E-07 0.01438316 -0.9998965
vn 5.390797E-07 0.01438327 -0.9998965
vn 0.9991444 -0.003579575 -0.04120275
vn 0.9992666 -0.003579201 -0.03812371
vn 0.9492566 -0.0002907487 -0.3145023
vn 0.8774679 0.3146695 -0.361985
vn 0.9196271 0.3913538 -0.03359159
vn 0.9190381 0.3940819 -0.008279759
vn 0.8407885 0.3290654 -0.4298727
vn 0.3379515 -0.05445449 -0.9395869
vn 5.33526E-07 0.007191966 -0.9999741
vn 0.8758885 0.01295083 -0.4823397
vn 0.8605703 -0.2621895 -0.4366642
vn 0.9472292 -0.3204429 -0.00855123
vn 0.951036 -0.3073314 -0.03283396
vn 0.9051659 -0.223649 -0.3614636
vn 0.9991357 0.0270492 -0.03156374
vn 0.9287948 0.01946718 -0.3700828
vn 0.3781866 0.00616296 -0.9257089
vn 0.9998137 -3.910563E-05 -0.01930284
vn 0.9164737 0.005416835 -0.400058
vn 0.9999292 -0.01165446 -0.002398141
vn 0.9098099 -0.06089073 -0.4105342
vn 0.4040917 -0.2424865 -0.8819922
vn -1.86236E-06 -0.2538862 -0.967234
vn 0.4267136 -0.771678 -0.4716233
vn -3.874581E-06 -0.8617606 -0.5073153
vn 0.5654551 -0.01954847 -0.8245474
vn 0.8533949 0.3314243 -0.402337
vn 0.7541845 0.3837963 -0.5328284
vn 0.8109313 0.01963408 -0.584812
vn 0.7713573 -0.3903849 -0.5026008
vn 0.6676861 -0.3377196 -0.663431
vn 0.9999462 0.006926007 -0.007719392
vn 0.9288024 -0.366331 -0.05592662
vn 0.9998851 -0.01514199 0.0007235451
vn 0.805667 -0.003079306 -0.5923606
vn 0.7149583 -0.4897421 -0.4989862
vn 0.729453 -0.6836091 -0.02401557
vn 0.7020522 -0.7111799 0.03668608
vn 0.9992566 -0.02893851 0.02547177
vn 0.6386552 -0.5649596 0.5224367
vn 0.740397 -0.02623156 0.6716577
vn 0.79195 -0.3904443 0.469434
vn 0.92185 -0.3833194 0.0570867
vn 0.7744022 -0.327718 0.5412044
vn 0.1774458 0.002136669 0.9841283
vn 0.9999961 0.00235737 -0.00157129
vn 0.7683011 0.0003710889 0.6400885
vn 0.9999292 0.009923499 -0.006574031
vn 0.9999859 0.00234733 -0.004752074
vn 0.6792653 0.4806832 0.554565
vn 0.2706745 0.6367332 0.7220154
vn 0.3530519 0.9340637 0.05366093
vn 0.8303319 0.5567659 0.02368062
vn 0.5526987 0.8332735 0.01339496
vn 0.8687805 0.4949208 -0.01654808
vn 0.8533949 0.3314243 -0.402337
vn 0.08620867 -0.004176036 0.9962683
vn 0.2899219 -0.1796912 0.9400299
vn 0.6386552 -0.5649596 0.5224367
vn 0.740397 -0.02623156 0.6716577
vn 0.07750944 0.003119257 0.9969867
vn 0.1527035 0.003499553 0.9882658
vn 0.1774458 0.002136669 0.9841283
vn 0.08056662 0.00253733 0.9967459
vn 0.2706745 0.6367332 0.7220154
vn 0.130011 0.07666989 0.9885438
vn -4.662125E-06 0.3451417 -0.9385507
vn 0.3444253 1.582377E-07 -0.9388137
vn -2.872974E-07 -9.171592E-07 -1
vn 0.3441744 0.3238933 -0.8812702
vn -5.900264E-06 0.6466691 -0.7627706
vn 0.8956578 -1.955319E-06 -0.4447439
vn 0.3435441 0.6071059 -0.7165192
vn -2.383012E-06 0.8682441 -0.4961374
vn 0.8955505 0.153816 -0.4175283
vn 0.7488162 9.98316E-07 -0.6627777
vn 0.3428278 0.8155099 -0.4662754
vn -2.755193E-06 0.9851119 -0.1719143
vn 0.8952792 0.2883914 -0.3395671
vn 0.7487114 0.2287896 -0.6221629
vn -6.394221E-06 6.261627E-06 -1
vn -3.167022E-06 0.3451338 -0.9385535
vn 0.7484468 0.4288681 -0.5058651
vn 1.27133E-06 0.6466698 -0.7627701
vn 0.3423594 0.9255645 -0.1616179
vn -5.781332E-07 0.9851102 0.1719242
vn 0.8949696 0.3875143 -0.221048
vn 0.7481273 0.5761325 -0.3292064
vn -1.901174E-06 0.8682497 -0.4961276
vn 0.342358 0.9255639 0.1616241
vn 2.32454E-06 0.8682436 0.4961381
vn 0.8947668 0.4399083 -0.07663596
vn 0.7479239 0.6539032 -0.114107
vn -2.928308E-06 0.9851134 -0.1719059
vn 0.3428232 0.8155119 0.4662752
vn 2.59174E-06 0.7214663 0.6924495
vn 0.8947646 0.4399118 0.07664069
vn 0.7479257 0.6539 0.1141139
vn -2.084584E-06 0.9851124 0.1719115
vn 0.3656209 0.6601489 0.6561438
vn 7.683589E-06 0.439537 0.8982245
vn 0.8949663 0.3875189 0.2210528
vn 0.748127 0.576126 0.3292185
vn -2.471327E-06 0.8682432 0.4961389
vn 0.3927801 0.3872209 0.8341365
vn 5.900156E-06 4.520984E-06 1
vn 0.9024645 0.2997324 0.3093837
vn 0.7484348 0.4288751 0.5058771
vn 2.489584E-07 0.6466708 0.7627692
vn 0.4167291 2.172805E-06 0.9090307
vn -8.350006E-07 -0.4395427 0.8982218
vn 0.9235774 0.1630628 0.347009
vn 0.7487221 0.2287907 0.6221495
vn 4.406224E-06 0.3451476 0.9385484
vn 0.3927773 -0.3872195 0.8341385
vn 0 -0.7214703 0.6924454
vn 0.9323342 1.235388E-06 0.3615979
vn 0.7488239 6.174336E-07 0.662769
vn 6.239282E-06 3.775445E-07 1
vn 0.365623 -0.6601501 0.6561415
vn 3.136056E-06 -0.8682454 0.4961349
vn 0.9235777 -0.1630645 0.3470074
vn 0.7487229 -0.2287929 0.6221478
vn 5.922294E-06 -0.3451499 0.9385475
vn 0.3428241 -0.8155123 0.4662739
vn -9.831009E-07 -0.9851109 0.1719203
vn 0.902468 -0.2997288 0.309377
vn 0.7484353 -0.428881 0.5058712
vn 5.627965E-06 -0.646678 0.7627631
vn 0.3423561 -0.9255654 0.1616204
vn -7.448597E-06 -0.9851118 -0.1719151
vn 0.8949643 -0.3875228 0.221054
vn 0.7481293 -0.5761222 0.3292199
vn 5.334095E-06 -0.8682393 0.4961456
vn 0.342354 -0.9255662 -0.1616201
vn -1.153934E-05 -0.8682422 -0.4961407
vn 0.8947647 -0.4399121 0.07663902
vn 0.7479278 -0.6538963 0.1141212
vn 3.159577E-06 -0.9851099 0.1719254
vn 0.3428186 -0.815513 -0.4662769
vn -1.45024E-05 -0.6466672 -0.7627722
vn 0.8947654 -0.4399114 -0.07663441
vn 0.7479313 -0.6538929 -0.1141182
vn 6.637436E-07 -0.9851096 -0.1719278
vn 0.3435349 -0.6071072 -0.7165226
vn -7.180104E-06 -0.3451431 -0.93855
vn 0.8949677 -0.3875192 -0.2210466
vn 0.7481201 -0.5761397 -0.3292101
vn -2.036414E-06 -0.868248 -0.4961303
vn 0.3441707 -0.323892 -0.8812721
vn -2.872974E-07 -9.171592E-07 -1
vn 0.3444253 1.582377E-07 -0.9388137
vn 0.895274 -0.2883945 -0.3395779
vn 0.7484451 -0.4288748 -0.5058619
vn -3.244094E-06 -0.6466795 -0.7627619
vn 0.895551 -0.1538117 -0.4175288
vn 0.8956578 -1.955319E-06 -0.4447439
vn 0.7487183 -0.2287795 -0.6221582
vn -3.526476E-06 -0.3451231 -0.9385574
vn 0.7488162 9.98316E-07 -0.6627777
vn -6.394221E-06 6.261627E-06 -1
vn 0.002373995 3.435291E-05 0.9999973
vn -0.1280762 0.07659363 0.9888023
vn -0.08061138 0.00253648 0.9967424
vn -5.642619E-05 0.003236593 0.9999948
vn -1.78282E-05 0.004015632 0.999992
vn -0.07753048 0.003119426 0.9969851
vn -0.08620989 -0.004178846 0.9962682
vn 1.514535E-06 0.004716991 0.9999889
vn -0.2895237 -0.1786543 0.9403504
vn 6.374336E-07 0.0002502917 1
vn -2.091417E-06 -0.9999964 -0.002669282
vn -0.4281323 -0.7717764 -0.4701742
vn -3.874581E-06 -0.8617606 -0.5073153
vn -0.3992174 -0.9168286 0.007115435
vn -1.751963E-06 -0.9999663 0.008222021
vn -0.9225617 -0.3576151 -0.144884
vn -0.4122798 -0.9109151 0.01609465
vn -0.3944255 -0.7818871 0.4827849
vn -3.023958E-06 -0.8591988 0.5116418
vn -0.906599 -0.357284 0.2245586
vn -0.9262571 -0.3764569 0.0181045
vn -0.9287418 -0.3700484 0.02242984
vn -0.9991047 -0.03205133 0.02761494
vn -0.9993744 -0.03195338 0.01515527
vn -0.9993702 -0.009811917 0.0341032
vn -0.9983986 -0.01182651 0.05531956
vn -0.8801498 -0.06826541 0.4697617
vn -0.3944255 -0.7818871 0.4827849
vn -0.9948006 -0.001660994 0.1018285
vn -0.3729831 -0.2546403 0.8922119
vn -3.023958E-06 -0.8591988 0.5116418
vn -7.595611E-07 -0.2529115 0.9674895
vn -0.3613273 -0.003552916 0.9324322
vn 1.115444E-06 -0.002105823 0.9999979
vn -0.2895237 -0.1786543 0.9403504
vn -0.8877428 -0.0006377448 0.4603395
vn -0.9847417 0.004025321 0.1739757
vn -0.8960171 -0.00153642 0.4440168
vn -0.6792111 -0.6836936 0.2668994
vn -0.6386567 -0.5649619 0.5224324
vn -0.7020528 -0.7111794 0.0366837
vn -0.6855271 -0.7104616 0.1590496
vn -0.7294529 -0.6836092 -0.02401836
vn -0.7400206 -0.6708891 -0.04772069
vn -0.7149568 -0.4897413 -0.4989893
vn -0.9997594 0.006212972 -0.02103539
vn -0.9392071 -0.2005423 -0.2786982
vn -0.8056648 -0.003077964 -0.5923637
vn -0.9982296 0.009925299 -0.05864603
vn -0.99993 0.003315286 0.01135411
vn -0.9999504 -0.007373079 0.00670116
vn -0.8002352 -0.0184062 -0.5994039
vn -0.2732758 -0.01064521 -0.9618769
vn -0.9999925 0.003879188 0.0001776204
vn -0.9998616 -0.01616361 -0.003931442
vn -0.840032 -0.04526473 -0.5406452
vn -0.5654604 -0.01954478 -0.8245438
vn -0.9974963 -0.06949829 -0.01308164
vn -0.9999757 0.003372325 0.006117282
vn -0.999227 -0.0393073 -0.0005273635
vn -0.9942778 -0.1045242 -0.02205013
vn -0.9997614 0.005216811 0.02121118
vn -0.9998024 0.01067068 0.01677104
vn -0.9337606 -0.1225531 -0.3362617
vn -0.8533948 0.3314274 -0.4023346
vn -0.9982811 -0.05355889 -0.02379721
vn -0.9992484 0.0206218 -0.03282008
vn -0.9500011 0.2938834 0.1055009
vn -0.5526983 0.8332738 0.01339351
vn -0.9988525 -0.04759458 0.005345052
vn -0.9998635 -0.01498037 0.006971937
vn -0.9979906 -0.003219259 0.06328043
vn -0.9997568 0.006598967 -0.02104529
vn -0.9997339 -0.01992901 -0.01161974
vn -0.8050269 0.5779595 0.1337693
vn -0.3530514 0.9340639 0.05365978
vn -0.6685453 0.3965805 0.6291035
vn -0.2706757 0.6367327 0.7220153
vn -0.1280762 0.07659363 0.9888023
vn -0.8714427 -0.01338889 0.4903147
vn -0.9910691 -0.01448683 0.1325599
vn -0.9902446 -0.004698704 0.1392609
vn -0.9989496 0.02050736 0.04097855
vn -0.2472982 -0.00104769 0.9689388
vn 0.002373995 3.435291E-05 0.9999973
vn 0.004856258 -0.001401197 0.9999872
vn -0.877324 -0.0001436587 0.4798984
vn -0.2116398 0.3240255 0.9220716
vn -0.8222806 0.40348 0.401321
vn -0.9961441 0.01141228 0.08698688
vn -0.998336 0.05233448 0.02421296
vn -0.9984431 0.03606696 0.04255208
vn -0.8877692 0.4600613 0.01446962
vn -0.2622508 0.8907674 0.3711575
vn -0.2116398 0.3240255 0.9220716
vn 0.004095125 0.3583148 0.9335919
vn 0.001199723 0.9077127 0.4195906
vn 0.000731718 0.9999995 -0.0006478198
vn -0.3111567 0.9503532 0.003187709
vn 0.001723537 0.9999738 -0.007036465
vn -0.3386944 0.94087 -0.007048404
vn -0.9145179 0.4045152 -0.004942055
vn -0.3515084 0.9359273 -0.02195163
vn 0.0008738151 0.9997017 -0.0244075
vn -0.9238288 0.3824582 -0.01630768
vn -0.3194918 0.871475 -0.3720975
vn -0.0001190242 0.9110927 -0.4122016
vn -0.3272548 0.3347366 -0.8836604
vn 4.977713E-07 0.3686452 -0.9295702
vn -0.8685475 0.3382359 -0.3622454
vn -0.9992362 0.0385631 -0.006308523
vn -0.999667 0.01337877 -0.02206096
vn -0.9988726 -0.007380619 -0.04689376
vn -0.9980502 -0.01026523 -0.06156608
vn -0.909768 -0.01359198 -0.4148946
vn -0.3272548 0.3347366 -0.8836604
vn -0.9986946 -0.00707875 -0.05058737
vn -0.3965426 -0.006608665 -0.9179925
vn 4.977713E-07 0.3686452 -0.9295702
vn 2.51321E-05 -0.005390538 -0.9999855
vn -0.9191527 -0.004268277 -0.3938782
vn -0.2538394 0.0505529 -0.9659244
vn 1.593353E-05 -0.003371148 -0.9999944
vn -0.1944445 -0.001135187 -0.9809129
vn 5.245377E-07 6.823048E-07 -1
vn 5.282029E-07 0.004149383 -0.9999914
vn -0.9089634 0.4152516 -0.0367647
vn -0.7982407 0.3016503 -0.5213625
vn -0.9135173 0.4066418 -0.01134131
vn -0.7968706 0.3342535 -0.5032611
vn -0.2587438 -0.05193441 -0.9645488
vn 5.374929E-07 0.01403504 -0.9999015
vn -0.8257421 -0.008652493 -0.5639815
vn -0.810533 -0.2881454 -0.5099103
vn -0.9335876 -0.3581966 -0.01046853
vn -0.9337935 -0.356187 -0.03406496
vn -0.8392931 -0.2454867 -0.4851015
vn -0.9422928 -0.0001043014 -0.3347898
vn -0.3525262 0.08776174 -0.9316776
vn -0.282666 0.01259832 -0.9591357
vn 5.373069E-07 0.01438316 -0.9998965
vn 5.390797E-07 0.01438327 -0.9998965
vn -0.9993855 -0.003577155 -0.03486863
vn -0.9994882 -0.003576427 -0.03178718
vn -0.9492558 -0.000288945 -0.3145047
vn -0.8774668 0.3146707 -0.3619868
vn -0.9195813 0.3919209 -0.02771652
vn -0.919313 0.3935195 -0.002464072
vn -0.8407873 0.3290663 -0.4298745
vn -0.3374664 -0.05381221 -0.9397982
vn 5.33526E-07 0.007191966 -0.9999741
vn -0.8758875 0.0129523 -0.4823415
vn -0.8605694 -0.2621883 -0.4366664
vn -0.9474025 -0.3200341 -0.002565849
vn -0.9510978 -0.3077284 -0.02676119
vn -0.9051651 -0.2236477 -0.3614661
vn -0.9991851 0.03146554 -0.02527738
vn -0.9291027 0.02449613 -0.3690097
vn -0.3798723 0.007813646 -0.925006
vn -0.9999058 0.004315817 -0.0130264
vn -0.9169513 0.009442366 -0.3988873
vn -0.9999247 -0.01164034 0.003911176
vn -0.9098088 -0.06088946 -0.4105368
vn -0.4040922 -0.2424851 -0.8819923
vn -1.86236E-06 -0.2538862 -0.967234
vn -0.4281323 -0.7717764 -0.4701742
vn -3.874581E-06 -0.8617606 -0.5073153
vn -0.7541845 0.3837993 -0.5328262
vn -0.8533948 0.3314274 -0.4023346
vn -0.5654604 -0.01954478 -0.8245438
vn -0.8109323 0.01963767 -0.5848104
vn -0.7713575 -0.3903846 -0.5026006
vn -0.6676888 -0.3377178 -0.6634292
vn -0.9999462 0.006928703 -0.007722712
vn -0.9288029 -0.3663292 -0.055928
vn -0.9998851 -0.01514066 0.0007207268
vn -0.8056648 -0.003077964 -0.5923637
vn -0.7149568 -0.4897413 -0.4989893
vn -0.7294529 -0.6836092 -0.02401836
vn -0.7020528 -0.7111794 0.0366837
vn -0.9992567 -0.02893742 0.02547069
vn -0.6386567 -0.5649619 0.5224324
vn -0.7403996 -0.02623215 0.6716549
vn -0.7919547 -0.3904422 0.4694279
vn -0.9218508 -0.3833177 0.05708448
vn -0.7744019 -0.3277167 0.5412055
vn -0.1774459 0.002135169 0.9841283
vn -0.9999961 0.002357014 -0.00157111
vn -0.7682984 0.0003708409 0.6400917
vn -0.9999292 0.009923252 -0.006577447
vn -0.9999859 0.002349026 -0.004751756
vn -0.6792663 0.4806832 0.5545637
vn -0.2706757 0.6367327 0.7220153
vn -0.3530514 0.9340639 0.05365978
vn -0.8303329 0.5567644 0.02367898
vn -0.5526983 0.8332738 0.01339351
vn -0.8687797 0.4949222 -0.01655068
vn -0.8533948 0.3314274 -0.4023346
vn -0.6386567 -0.5649619 0.5224324
vn -0.2895237 -0.1786543 0.9403504
vn -0.08620989 -0.004178846 0.9962682
vn -0.7403996 -0.02623215 0.6716549
vn -0.07753048 0.003119426 0.9969851
vn -0.152709 0.003499849 0.988265
vn -0.1774459 0.002135169 0.9841283
vn -0.08061138 0.00253648 0.9967424
vn -0.2706757 0.6367327 0.7220153
vn -0.1280762 0.07659363 0.9888023
vn 5.858163E-06 0.3451396 -0.9385514
vn 1.245588E-06 -1.052063E-06 -1
vn -0.3444252 5.830546E-07 -0.9388137
vn -0.3441736 0.3238916 -0.8812712
vn 7.725509E-06 0.6466685 -0.7627712
vn -0.8956581 2.683011E-07 -0.4447433
vn -0.3435436 0.6071056 -0.7165198
vn 4.005868E-06 0.8682441 -0.4961372
vn -0.8955505 0.153816 -0.4175283
vn -0.748818 4.057424E-06 -0.6627756
vn -0.3428278 0.8155102 -0.4662749
vn 2.253988E-06 0.9851117 -0.1719159
vn -0.8952792 0.2883917 -0.3395665
vn -0.7487116 0.2287875 -0.6221632
vn 2.254276E-06 6.868662E-06 -1
vn -1.541646E-07 0.3451309 -0.9385545
vn -0.7484483 0.4288675 -0.5058635
vn -3.811678E-06 0.6466705 -0.7627696
vn -0.3423589 0.9255643 -0.1616202
vn -2.837672E-07 0.9851099 0.1719255
vn -0.8949693 0.3875151 -0.2210475
vn -0.7481276 0.576133 -0.3292047
vn -1.084479E-07 0.8682516 -0.496124
vn -0.3423566 0.9255644 0.1616245
vn -9.593966E-07 0.8682431 0.4961389
vn -0.8947667 0.4399081 -0.07663804
vn -0.7479233 0.6539035 -0.1141092
vn 2.354349E-06 0.9851133 -0.1719061
vn -0.3428226 0.8155119 0.4662755
vn 2.546146E-06 0.7214655 0.6924503
vn -0.8947633 0.4399147 0.07664003
vn -0.7479263 0.6538997 0.1141119
vn 5.089763E-06 0.9851122 0.171912
vn -0.3656178 0.6601502 0.6561443
vn -1.559225E-06 0.4395341 0.8982259
vn -0.8949665 0.3875194 0.2210513
vn -0.748123 0.5761314 0.3292181
vn 8.519691E-06 0.8682429 0.4961395
vn -0.3927754 0.3872206 0.8341389
vn -2.573589E-06 3.740472E-06 1
vn -0.9024645 0.2997344 0.3093818
vn -0.748435 0.4288771 0.5058749
vn 4.656001E-06 0.6466687 0.762771
vn -0.4167275 3.440627E-06 0.9090315
vn 2.80653E-06 -0.4395399 0.8982231
vn -0.9235767 0.1630651 0.3470097
vn -0.7487206 0.2287904 0.6221514
vn -1.563247E-06 0.3451419 0.9385505
vn -0.3927762 -0.3872166 0.8341403
vn 1.394944E-06 -0.7214687 0.692447
vn -0.9323338 2.959527E-06 0.3615988
vn -0.7488232 1.288021E-06 0.6627699
vn -3.984016E-06 0 1
vn -0.365623 -0.660149 0.6561427
vn -2.281806E-06 -0.8682454 0.496135
vn -0.9235782 -0.1630622 0.347007
vn -0.7487231 -0.2287918 0.6221479
vn -2.879056E-06 -0.3451486 0.938548
vn -0.3428248 -0.8155129 0.4662724
vn -5.928961E-07 -0.9851108 0.171921
vn -0.9024686 -0.2997283 0.3093759
vn -0.7484335 -0.4288836 0.5058717
vn -1.630237E-06 -0.6466777 0.7627633
vn -0.3423585 -0.9255644 0.1616202
vn 6.222991E-06 -0.985112 -0.1719139
vn -0.8949656 -0.3875215 0.2210516
vn -0.74813 -0.5761217 0.329219
vn -3.564177E-06 -0.8682394 0.4961454
vn -0.3423566 -0.9255654 -0.1616194
vn 1.184226E-05 -0.8682415 -0.4961416
vn -0.8947663 -0.4399091 0.07663718
vn -0.74793 -0.6538933 0.1141234
vn -5.373704E-06 -0.9851091 0.1719304
vn -0.3428213 -0.8155113 -0.4662777
vn 1.389839E-05 -0.6466671 -0.7627723
vn -0.8947674 -0.4399073 -0.07663539
vn -0.7479342 -0.6538885 -0.1141238
vn -3.797601E-06 -0.985109 -0.1719309
vn -0.3435369 -0.6071055 -0.7165231
vn 7.07598E-06 -0.3451442 -0.9385497
vn -0.8949685 -0.3875167 -0.2210484
vn -0.7481185 -0.5761391 -0.3292151
vn -5.876923E-07 -0.8682472 -0.496132
vn -0.3441716 -0.3238921 -0.8812717
vn 1.245588E-06 -1.052063E-06 -1
vn -0.3444252 5.830546E-07 -0.9388137
vn -0.8952753 -0.2883914 -0.3395771
vn -0.7484475 -0.4288751 -0.5058582
vn 2.302083E-07 -0.6466831 -0.7627589
vn -0.8955517 -0.1538095 -0.417528
vn -0.8956581 2.683011E-07 -0.4447433
vn -0.7487195 -0.2287748 -0.6221585
vn -1.648378E-07 -0.3451197 -0.9385588
vn -0.748818 4.057424E-06 -0.6627756
vn 2.254276E-06 6.868662E-06 -1
f 1/1/1 2/2/2 3/3/3
f 1/1/1 3/3/3 4/4/4
f 1/1/1 4/4/4 5/5/5
f 1/1/1 5/5/5 6/6/6
f 5/5/5 7/7/7 6/6/6
f 5/5/5 8/8/8 7/7/7
f 9/9/9 7/7/7 8/8/8
f 9/9/9 8/8/8 10/10/10
f 11/11/11 12/12/12 13/13/13
f 11/11/11 14/14/14 12/12/12
f 15/15/15 14/14/14 11/11/11
f 14/14/14 16/16/16 12/12/12
f 14/14/14 17/17/17 16/16/16
f 18/18/18 16/16/16 17/17/17
f 18/18/18 19/19/19 16/16/16
f 17/17/17 20/20/20 18/18/18
f 21/21/21 17/17/17 14/14/14
f 15/15/15 21/21/21 14/14/14
f 17/17/17 22/22/22 20/20/20
f 21/21/21 22/22/22 17/17/17
f 21/21/21 23/23/23 22/22/22
f 20/20/20 22/22/22 23/23/23
f 15/15/15 24/24/24 21/21/21
f 21/21/21 24/24/24 23/23/23
f 25/25/25 23/23/23 24/24/24
f 20/20/20 23/23/23 26/26/26
f 25/25/25 26/26/26 23/23/23
f 20/20/20 26/26/26 27/27/27
f 27/27/27 28/28/28 20/20/20
f 25/25/25 29/29/29 26/26/26
f 27/27/27 26/26/26 29/29/29
f 27/27/27 30/30/30 28/28/28
f 30/30/30 31/31/31 28/28/28
f 30/30/30 32/32/32 31/31/31
f 33/33/33 32/32/32 30/30/30
f 27/27/27 33/33/33 30/30/30
f 33/33/33 34/34/34 32/32/32
f 33/33/33 35/35/35 34/34/34
f 27/27/27 36/36/36 33/33/33
f 27/27/27 29/29/29 36/36/36
f 33/33/33 37/37/37 35/35/35
f 36/36/36 37/37/37 33/33/33
f 36/36/36 29/29/29 38/38/38
f 36/36/36 39/39/39 37/37/37
f 36/36/36 38/38/38 39/39/39
f 40/40/40 37/37/37 39/39/39
f 40/40/40 41/41/41 37/37/37
f 40/40/40 42/42/42 41/41/41
f 39/39/39 43/43/43 40/40/40
f 40/40/40 43/43/43 42/42/42
f 39/39/39 38/38/38 43/43/43
f 44/44/44 42/42/42 43/43/43
f 44/44/44 43/43/43 45/45/45
f 38/38/38 45/45/45 43/43/43
f 46/46/46 44/44/44 45/45/45
f 29/29/29 47/47/47 38/38/38
f 38/38/38 47/47/47 45/45/45
f 29/29/29 25/25/25 47/47/47
f 46/46/46 45/45/45 48/48/48
f 49/49/49 46/46/46 48/48/48
f 50/50/50 45/45/45 47/47/47
f 50/50/50 47/47/47 25/25/25
f 50/50/50 48/48/48 45/45/45
f 51/51/51 50/50/50 25/25/25
f 25/25/25 52/52/52 51/51/51
f 25/25/25 24/24/24 52/52/52
f 49/49/49 48/48/48 53/53/53
f 54/54/54 49/49/49 53/53/53
f 50/50/50 55/55/55 48/48/48
f 51/51/51 55/55/55 50/50/50
f 48/48/48 55/55/55 56/56/56
f 48/48/48 56/56/56 53/53/53
f 54/54/54 53/53/53 57/57/57
f 54/54/54 57/57/57 58/58/58
f 53/53/53 59/59/59 57/57/57
f 53/53/53 56/56/56 59/59/59
f 59/59/59 56/56/56 60/60/60
f 59/59/59 60/60/60 61/61/61
f 61/61/61 62/62/62 59/59/59
f 63/63/63 56/56/56 55/55/55
f 63/63/63 55/55/55 51/51/51
f 60/60/60 56/56/56 63/63/63
f 51/51/51 64/64/64 63/63/63
f 60/60/60 63/63/63 64/64/64
f 65/65/65 58/58/58 57/57/57
f 59/59/59 65/65/65 57/57/57
f 59/59/59 62/62/62 65/65/65
f 66/66/66 58/58/58 65/65/65
f 65/65/65 62/62/62 67/67/67
f 66/66/66 65/65/65 68/68/68
f 65/65/65 67/67/67 68/68/68
f 69/69/69 66/66/66 68/68/68
f 69/69/69 70/70/70 66/66/66
f 71/71/71 67/67/67 62/62/62
f 61/61/61 71/71/71 62/62/62
f 61/61/61 72/72/72 71/71/71
f 67/67/67 73/73/73 68/68/68
f 73/73/73 69/69/69 68/68/68
f 74/74/74 73/73/73 67/67/67
f 67/67/67 75/75/75 74/74/74
f 71/71/71 75/75/75 67/67/67
f 75/75/75 71/71/71 72/72/72
f 76/76/76 70/70/70 69/69/69
f 76/76/76 77/77/77 70/70/70
f 78/78/78 77/77/77 76/76/76
f 78/78/78 79/79/79 77/77/77
f 80/80/80 79/79/79 78/78/78
f 76/76/76 81/81/81 78/78/78
f 81/81/81 80/80/80 78/78/78
f 69/69/69 82/82/82 76/76/76
f 76/76/76 82/82/82 81/81/81
f 73/73/73 83/83/83 69/69/69
f 69/69/69 83/83/83 82/82/82
f 84/84/84 83/83/83 73/73/73
f 84/84/84 82/82/82 83/83/83
f 74/74/74 84/84/84 73/73/73
f 85/85/85 80/80/80 81/81/81
f 85/85/85 86/86/86 80/80/80
f 85/85/85 87/87/87 86/86/86
f 88/88/88 81/81/81 82/82/82
f 85/85/85 81/81/81 88/88/88
f 89/89/89 87/87/87 85/85/85
f 89/89/89 85/85/85 88/88/88
f 89/89/89 90/90/90 87/87/87
f 89/89/89 88/88/88 91/91/91
f 84/84/84 92/92/92 82/82/82
f 88/88/88 82/82/82 92/92/92
f 93/93/93 92/92/92 84/84/84
f 74/74/74 93/93/93 84/84/84
f 88/88/88 92/92/92 94/94/94
f 88/88/88 94/94/94 91/91/91
f 93/93/93 94/94/94 92/92/92
f 95/95/95 91/91/91 94/94/94
f 95/95/95 94/94/94 93/93/93
f 96/96/96 91/91/91 95/95/95
f 96/96/96 97/97/97 91/91/91
f 96/96/96 98/98/98 97/97/97
f 96/96/96 99/99/99 98/98/98
f 96/96/96 100/100/100 99/99/99
f 96/96/96 101/101/101 100/100/100
f 96/96/96 95/95/95 101/101/101
f 101/101/101 102/102/102 100/100/100
f 103/103/103 101/101/101 95/95/95
f 101/101/101 103/103/103 102/102/102
f 104/104/104 95/95/95 93/93/93
f 103/103/103 95/95/95 104/104/104
f 105/105/105 102/102/102 103/103/103
f 105/105/105 106/106/106 102/102/102
f 107/107/107 105/105/105 103/103/103
f 107/107/107 103/103/103 104/104/104
f 108/108/108 106/106/106 105/105/105
f 108/108/108 105/105/105 107/107/107
f 108/108/108 109/109/109 106/106/106
f 110/110/110 109/109/109 108/108/108
f 110/110/110 111/111/111 109/109/109
f 110/110/110 108/108/108 112/112/112
f 108/108/108 107/107/107 112/112/112
f 104/104/104 93/93/93 113/113/113
f 74/74/74 113/113/113 93/93/93
f 104/104/104 113/113/113 114/114/114
f 104/104/104 114/114/114 107/107/107
f 74/74/74 114/114/114 113/113/113
f 107/107/107 115/115/115 112/112/112
f 107/107/107 114/114/114 115/115/115
f 116/116/116 114/114/114 74/74/74
f 116/116/116 115/115/115 114/114/114
f 117/117/117 112/112/112 115/115/115
f 117/117/117 115/115/115 116/116/116
f 118/118/118 112/112/112 117/117/117
f 74/74/74 119/119/119 116/116/116
f 74/74/74 75/75/75 119/119/119
f 118/118/118 117/117/117 120/120/120
f 120/120/120 121/121/121 118/118/118
f 120/120/120 122/122/122 121/121/121
f 116/116/116 123/123/123 117/117/117
f 116/116/116 119/119/119 123/123/123
f 120/120/120 117/117/117 123/123/123
f 124/124/124 122/122/122 120/120/120
f 120/120/120 123/123/123 124/124/124
f 124/124/124 125/125/125 122/122/122
f 126/126/126 125/125/125 124/124/124
f 126/126/126 127/127/127 125/125/125
f 128/128/128 127/127/127 126/126/126
f 129/129/129 119/119/119 75/75/75
f 129/129/129 123/123/123 119/119/119
f 124/124/124 123/123/123 130/130/130
f 129/129/129 130/130/130 123/123/123
f 131/131/131 129/129/129 75/75/75
f 130/130/130 129/129/129 131/131/131
f 75/75/75 72/72/72 131/131/131
f 132/132/132 124/124/124 130/130/130
f 130/130/130 131/131/131 132/132/132
f 126/126/126 124/124/124 132/132/132
f 132/132/132 131/131/131 72/72/72
f 128/128/128 126/126/126 133/133/133
f 133/133/133 134/134/134 128/128/128
f 126/126/126 132/132/132 135/135/135
f 132/132/132 72/72/72 135/135/135
f 126/126/126 135/135/135 136/136/136
f 136/136/136 135/135/135 72/72/72
f 126/126/126 136/136/136 133/133/133
f 136/136/136 72/72/72 137/137/137
f 61/61/61 137/137/137 72/72/72
f 136/136/136 137/137/137 138/138/138
f 138/138/138 137/137/137 61/61/61
f 133/133/133 136/136/136 139/139/139
f 136/136/136 138/138/138 139/139/139
f 140/140/140 133/133/133 139/139/139
f 138/138/138 140/140/140 139/139/139
f 133/133/133 141/141/141 134/134/134
f 140/140/140 141/141/141 133/133/133
f 142/142/142 134/134/134 141/141/141
f 142/142/142 143/143/143 134/134/134
f 144/144/144 143/143/143 142/142/142
f 61/61/61 145/145/145 138/138/138
f 138/138/138 145/145/145 140/140/140
f 61/61/61 146/146/146 145/145/145
f 61/61/61 60/60/60 146/146/146
f 147/147/147 140/140/140 145/145/145
f 140/140/140 147/147/147 141/141/141
f 147/147/147 145/145/145 146/146/146
f 148/148/148 141/141/141 147/147/147
f 148/148/148 147/147/147 146/146/146
f 60/60/60 149/149/149 146/146/146
f 148/148/148 146/146/146 149/149/149
f 150/150/150 149/149/149 60/60/60
f 148/148/148 149/149/149 150/150/150
f 60/60/60 64/64/64 150/150/150
f 151/151/151 141/141/141 148/148/148
f 148/148/148 150/150/150 151/151/151
f 142/142/142 141/141/141 151/151/151
f 151/151/151 150/150/150 64/64/64
f 144/144/144 142/142/142 152/152/152
f 153/153/153 144/144/144 152/152/152
f 142/142/142 151/151/151 154/154/154
f 151/151/151 64/64/64 154/154/154
f 142/142/142 154/154/154 155/155/155
f 155/155/155 154/154/154 64/64/64
f 142/142/142 155/155/155 152/152/152
f 155/155/155 64/64/64 156/156/156
f 51/51/51 156/156/156 64/64/64
f 155/155/155 156/156/156 157/157/157
f 157/157/157 156/156/156 51/51/51
f 152/152/152 155/155/155 158/158/158
f 155/155/155 157/157/157 158/158/158
f 51/51/51 159/159/159 157/157/157
f 52/52/52 159/159/159 51/51/51
f 160/160/160 158/158/158 157/157/157
f 152/152/152 158/158/158 160/160/160
f 160/160/160 157/157/157 159/159/159
f 153/153/153 152/152/152 161/161/161
f 161/161/161 152/152/152 160/160/160
f 52/52/52 162/162/162 159/159/159
f 24/24/24 162/162/162 52/52/52
f 163/163/163 160/160/160 159/159/159
f 163/163/163 159/159/159 162/162/162
f 161/161/161 160/160/160 163/163/163
f 24/24/24 164/164/164 162/162/162
f 164/164/164 163/163/163 162/162/162
f 15/15/15 164/164/164 24/24/24
f 164/164/164 165/165/165 163/163/163
f 161/161/161 163/163/163 165/165/165
f 165/165/165 164/164/164 15/15/15
f 166/166/166 153/153/153 161/161/161
f 161/161/161 165/165/165 166/166/166
f 15/15/15 166/166/166 165/165/165
f 166/166/166 167/167/167 153/153/153
f 15/15/15 168/168/168 166/166/166
f 166/166/166 169/169/169 167/167/167
f 166/166/166 168/168/168 169/169/169
f 170/170/170 171/171/171 172/172/172
f 170/170/170 172/172/172 173/173/173
f 170/170/170 173/173/173 174/174/174
f 170/170/170 174/174/174 175/175/175
f 172/172/172 176/176/176 173/173/173
f 174/174/174 173/173/173 176/176/176
f 174/174/174 177/177/177 175/175/175
f 175/175/175 177/177/177 178/178/178
f 175/175/175 178/178/178 179/179/179
f 180/180/180 179/179/179 178/178/178
f 180/180/180 178/178/178 181/181/181
f 182/182/182 181/181/181 178/178/178
f 182/182/182 178/178/178 183/183/183
f 184/184/184 182/182/182 183/183/183
f 184/184/184 183/183/183 185/185/185
f 186/186/186 185/185/185 183/183/183
f 187/187/187 183/183/183 178/178/178
f 187/187/187 178/178/178 177/177/177
f 186/186/186 183/183/183 187/187/187
f 177/177/177 188/188/188 187/187/187
f 187/187/187 188/188/188 186/186/186
f 177/177/177 174/174/174 188/188/188
f 189/189/189 186/186/186 188/188/188
f 174/174/174 190/190/190 188/188/188
f 189/189/189 188/188/188 191/191/191
f 190/190/190 191/191/191 188/188/188
f 174/174/174 192/192/192 190/190/190
f 174/174/174 176/176/176 192/192/192
f 192/192/192 193/193/193 190/190/190
f 192/192/192 176/176/176 193/193/193
f 190/190/190 193/193/193 191/191/191
f 189/189/189 191/191/191 194/194/194
f 189/189/189 194/194/194 195/195/195
f 196/196/196 195/195/195 194/194/194
f 197/197/197 194/194/194 191/191/191
f 196/196/196 194/194/194 197/197/197
f 197/197/197 191/191/191 193/193/193
f 198/198/198 196/196/196 197/197/197
f 199/199/199 193/193/193 176/176/176
f 199/199/199 197/197/197 193/193/193
f 198/198/198 197/197/197 199/199/199
f 172/172/172 199/199/199 176/176/176
f 198/198/198 199/199/199 172/172/172
f 198/198/198 172/172/172 200/200/200
f 201/201/201 202/202/202 203/203/203
f 201/201/201 203/203/203 204/204/204
f 205/205/205 201/201/201 204/204/204
f 205/205/205 204/204/204 206/206/206
f 205/205/205 206/206/206 207/207/207
f 205/205/205 207/207/207 208/208/208
f 208/208/208 207/207/207 209/209/209
f 208/208/208 209/209/209 210/210/210
f 211/211/211 212/212/212 213/213/213
f 211/211/211 214/214/214 212/212/212
f 215/215/215 214/214/214 211/211/211
f 214/214/214 216/216/216 212/212/212
f 215/215/215 217/217/217 214/214/214
f 218/218/218 217/217/217 215/215/215
f 214/214/214 219/219/219 216/216/216
f 217/217/217 219/219/219 214/214/214
f 219/219/219 220/220/220 216/216/216
f 218/218/218 221/221/221 217/217/217
f 222/222/222 221/221/221 218/218/218
f 217/217/217 223/223/223 219/219/219
f 221/221/221 223/223/223 217/217/217
f 219/219/219 224/224/224 220/220/220
f 223/223/223 224/224/224 219/219/219
f 224/224/224 225/225/225 220/220/220
f 224/224/224 226/226/226 225/225/225
f 227/227/227 226/226/226 224/224/224
f 223/223/223 227/227/227 224/224/224
f 227/227/227 228/228/228 226/226/226
f 222/222/222 229/229/229 221/221/221
f 230/230/230 229/229/229 222/222/222
f 221/221/221 231/231/231 223/223/223
f 231/231/231 227/227/227 223/223/223
f 229/229/229 231/231/231 221/221/221
f 232/232/232 228/228/228 227/227/227
f 231/231/231 232/232/232 227/227/227
f 232/232/232 233/233/233 228/228/228
f 230/230/230 234/234/234 229/229/229
f 235/235/235 234/234/234 230/230/230
f 229/229/229 236/236/236 231/231/231
f 236/236/236 232/232/232 231/231/231
f 234/234/234 236/236/236 229/229/229
f 237/237/237 233/233/233 232/232/232
f 236/236/236 237/237/237 232/232/232
f 237/237/237 238/238/238 233/233/233
f 235/235/235 239/239/239 234/234/234
f 240/240/240 239/239/239 235/235/235
f 234/234/234 241/241/241 236/236/236
f 241/241/241 237/237/237 236/236/236
f 239/239/239 241/241/241 234/234/234
f 242/242/242 238/238/238 237/237/237
f 241/241/241 242/242/242 237/237/237
f 242/242/242 243/243/243 238/238/238
f 240/240/240 244/244/244 239/239/239
f 245/245/245 244/244/244 240/240/240
f 239/239/239 246/246/246 241/241/241
f 246/246/246 242/242/242 241/241/241
f 244/244/244 246/246/246 239/239/239
f 247/247/247 243/243/243 242/242/242
f 246/246/246 247/247/247 242/242/242
f 247/247/247 248/248/248 243/243/243
f 245/245/245 249/249/249 244/244/244
f 250/250/250 249/249/249 245/245/245
f 244/244/244 251/251/251 246/246/246
f 251/251/251 247/247/247 246/246/246
f 249/249/249 251/251/251 244/244/244
f 252/252/252 248/248/248 247/247/247
f 251/251/251 252/252/252 247/247/247
f 252/252/252 253/253/253 248/248/248
f 250/250/250 254/254/254 249/249/249
f 255/255/255 254/254/254 250/250/250
f 249/249/249 256/256/256 251/251/251
f 256/256/256 252/252/252 251/251/251
f 254/254/254 256/256/256 249/249/249
f 257/257/257 253/253/253 252/252/252
f 256/256/256 257/257/257 252/252/252
f 257/257/257 258/258/258 253/253/253
f 255/255/255 259/259/259 254/254/254
f 260/260/260 259/259/259 255/255/255
f 254/254/254 261/261/261 256/256/256
f 261/261/261 257/257/257 256/256/256
f 259/259/259 261/261/261 254/254/254
f 262/262/262 258/258/258 257/257/257
f 261/261/261 262/262/262 257/257/257
f 262/262/262 263/263/263 258/258/258
f 260/260/260 264/264/264 259/259/259
f 265/265/265 264/264/264 260/260/260
f 259/259/259 266/266/266 261/261/261
f 266/266/266 262/262/262 261/261/261
f 264/264/264 266/266/266 259/259/259
f 267/267/267 263/263/263 262/262/262
f 266/266/266 267/267/267 262/262/262
f 267/267/267 268/268/268 263/263/263
f 265/265/265 269/269/269 264/264/264
f 270/270/270 269/269/269 265/265/265
f 264/264/264 271/271/271 266/266/266
f 271/271/271 267/267/267 266/266/266
f 269/269/269 271/271/271 264/264/264
f 272/272/272 268/268/268 267/267/267
f 271/271/271 272/272/272 267/267/267
f 272/272/272 273/273/273 268/268/268
f 270/270/270 274/274/274 269/269/269
f 275/275/275 274/274/274 270/270/270
f 269/269/269 276/276/276 271/271/271
f 276/276/276 272/272/272 271/271/271
f 274/274/274 276/276/276 269/269/269
f 277/277/277 273/273/273 272/272/272
f 276/276/276 277/277/277 272/272/272
f 277/277/277 278/278/278 273/273/273
f 275/275/275 279/279/279 274/274/274
f 280/280/280 279/279/279 275/275/275
f 274/274/274 281/281/281 276/276/276
f 281/281/281 277/277/277 276/276/276
f 279/279/279 281/281/281 274/274/274
f 282/282/282 278/278/278 277/277/277
f 281/281/281 282/282/282 277/277/277
f 282/282/282 283/283/283 278/278/278
f 280/280/280 284/284/284 279/279/279
f 285/285/285 284/284/284 280/280/280
f 279/279/279 286/286/286 281/281/281
f 286/286/286 282/282/282 281/281/281
f 284/284/284 286/286/286 279/279/279
f 287/287/287 283/283/283 282/282/282
f 286/286/286 287/287/287 282/282/282
f 287/287/287 288/288/288 283/283/283
f 285/285/285 289/289/289 284/284/284
f 290/290/290 289/289/289 285/285/285
f 284/284/284 291/291/291 286/286/286
f 291/291/291 287/287/287 286/286/286
f 289/289/289 291/291/291 284/284/284
f 292/292/292 288/288/288 287/287/287
f 291/291/291 292/292/292 287/287/287
f 292/292/292 293/293/293 288/288/288
f 290/290/290 294/294/294 289/289/289
f 295/295/295 294/294/294 290/290/290
f 295/295/295 296/296/296 294/294/294
f 289/289/289 297/297/297 291/291/291
f 297/297/297 292/292/292 291/291/291
f 294/294/294 297/297/297 289/289/289
f 298/298/298 293/293/293 292/292/292
f 297/297/297 298/298/298 292/292/292
f 298/298/298 299/299/299 293/293/293
f 296/296/296 300/300/300 294/294/294
f 294/294/294 300/300/300 297/297/297
f 300/300/300 298/298/298 297/297/297
f 296/296/296 301/301/301 300/300/300
f 302/302/302 299/299/299 298/298/298
f 300/300/300 302/302/302 298/298/298
f 301/301/301 302/302/302 300/300/300
f 302/302/302 303/303/303 299/299/299
f 301/301/301 304/304/304 302/302/302
f 304/304/304 303/303/303 302/302/302
f 304/304/304 305/305/305 303/303/303
f 306/306/306 307/307/307 308/308/308
f 306/306/306 308/308/308 309/309/309
f 308/308/308 310/310/310 309/309/309
f 308/308/308 311/311/311 310/310/310
f 310/310/310 311/311/311 312/312/312
f 310/310/310 312/312/312 313/313/313
f 313/313/313 312/312/312 314/314/314
f 313/313/313 314/314/314 315/315/315
f 316/316/316 317/317/317 318/318/318
f 316/316/316 319/319/319 317/317/317
f 320/320/320 319/319/319 316/316/316
f 319/319/319 321/321/321 317/317/317
f 320/320/320 322/322/322 319/319/319
f 320/320/320 323/323/323 322/322/322
f 320/320/320 324/324/324 323/323/323
f 322/322/322 323/323/323 325/325/325
f 322/322/322 326/326/326 319/319/319
f 319/319/319 326/326/326 321/321/321
f 322/322/322 325/325/325 327/327/327
f 322/322/322 327/327/327 326/326/326
f 328/328/328 326/326/326 327/327/327
f 328/328/328 327/327/327 325/325/325
f 321/321/321 326/326/326 329/329/329
f 328/328/328 329/329/329 326/326/326
f 329/329/329 328/328/328 330/330/330
f 328/328/328 325/325/325 331/331/331
f 331/331/331 330/330/330 328/328/328
f 325/325/325 332/332/332 331/331/331
f 332/332/332 325/325/325 333/333/333
f 331/331/331 334/334/334 330/330/330
f 334/334/334 331/331/331 332/332/332
f 332/332/332 333/333/333 335/335/335
f 335/335/335 333/333/333 336/336/336
f 335/335/335 336/336/336 337/337/337
f 337/337/337 338/338/338 335/335/335
f 332/332/332 335/335/335 338/338/338
f 337/337/337 339/339/339 338/338/338
f 35/35/35 338/338/338 339/339/339
f 35/35/35 340/340/340 338/338/338
f 332/332/332 338/338/338 341/341/341
f 334/334/334 332/332/332 341/341/341
f 340/340/340 341/341/341 338/338/338
f 342/342/342 334/334/334 341/341/341
f 340/340/340 343/343/343 341/341/341
f 342/342/342 341/341/341 343/343/343
f 344/344/344 343/343/343 340/340/340
f 344/344/344 340/340/340 345/345/345
f 346/346/346 344/344/344 345/345/345
f 343/343/343 344/344/344 347/347/347
f 346/346/346 347/347/347 344/344/344
f 343/343/343 347/347/347 342/342/342
f 347/347/347 346/346/346 348/348/348
f 347/347/347 348/348/348 349/349/349
f 342/342/342 347/347/347 349/349/349
f 349/349/349 348/348/348 350/350/350
f 351/351/351 334/334/334 342/342/342
f 342/342/342 349/349/349 351/351/351
f 351/351/351 330/330/330 334/334/334
f 349/349/349 350/350/350 352/352/352
f 352/352/352 350/350/350 353/353/353
f 349/349/349 354/354/354 351/351/351
f 354/354/354 330/330/330 351/351/351
f 349/349/349 352/352/352 354/354/354
f 330/330/330 354/354/354 355/355/355
f 355/355/355 356/356/356 330/330/330
f 329/329/329 330/330/330 356/356/356
f 352/352/352 353/353/353 357/357/357
f 357/357/357 353/353/353 358/358/358
f 354/354/354 352/352/352 359/359/359
f 354/354/354 359/359/359 355/355/355
f 360/360/360 359/359/359 352/352/352
f 360/360/360 352/352/352 357/357/357
f 357/357/357 358/358/358 361/361/361
f 358/358/358 362/362/362 361/361/361
f 363/363/363 357/357/357 361/361/361
f 363/363/363 360/360/360 357/357/357
f 363/363/363 364/364/364 360/360/360
f 363/363/363 365/365/365 364/364/364
f 366/366/366 365/365/365 363/363/363
f 359/359/359 360/360/360 367/367/367
f 359/359/359 367/367/367 355/355/355
f 364/364/364 367/367/367 360/360/360
f 368/368/368 355/355/355 367/367/367
f 368/368/368 367/367/367 364/364/364
f 369/369/369 361/361/361 362/362/362
f 363/363/363 361/361/361 369/369/369
f 363/363/363 369/369/369 366/366/366
f 369/369/369 362/362/362 370/370/370
f 371/371/371 366/366/366 369/369/369
f 369/369/369 370/370/370 372/372/372
f 371/371/371 369/369/369 372/372/372
f 373/373/373 372/372/372 370/370/370
f 373/373/373 370/370/370 374/374/374
f 371/371/371 375/375/375 366/366/366
f 366/366/366 375/375/375 365/365/365
f 376/376/376 365/365/365 375/375/375
f 371/371/371 372/372/372 377/377/377
f 377/377/377 372/372/372 373/373/373
f 371/371/371 377/377/377 378/378/378
f 378/378/378 379/379/379 371/371/371
f 371/371/371 379/379/379 375/375/375
f 376/376/376 375/375/375 379/379/379
f 380/380/380 373/373/373 374/374/374
f 380/380/380 374/374/374 381/381/381
f 382/382/382 380/380/380 381/381/381
f 382/382/382 381/381/381 383/383/383
f 384/384/384 382/382/382 383/383/383
f 385/385/385 380/380/380 382/382/382
f 385/385/385 382/382/382 384/384/384
f 386/386/386 373/373/373 380/380/380
f 385/385/385 386/386/386 380/380/380
f 377/377/377 373/373/373 387/387/387
f 386/386/386 387/387/387 373/373/373
f 388/388/388 377/377/377 387/387/387
f 386/386/386 388/388/388 387/387/387
f 377/377/377 388/388/388 378/378/378
f 385/385/385 384/384/384 389/389/389
f 390/390/390 389/389/389 384/384/384
f 390/390/390 391/391/391 389/389/389
f 386/386/386 385/385/385 392/392/392
f 385/385/385 389/389/389 392/392/392
f 391/391/391 393/393/393 389/389/389
f 392/392/392 389/389/389 393/393/393
f 391/391/391 90/90/90 393/393/393
f 392/392/392 393/393/393 394/394/394
f 386/386/386 395/395/395 388/388/388
f 386/386/386 392/392/392 395/395/395
f 396/396/396 388/388/388 395/395/395
f 396/396/396 378/378/378 388/388/388
f 392/392/392 397/397/397 395/395/395
f 392/392/392 394/394/394 397/397/397
f 396/396/396 395/395/395 397/397/397
f 397/397/397 394/394/394 398/398/398
f 397/397/397 398/398/398 396/396/396
f 399/399/399 398/398/398 394/394/394
f 399/399/399 394/394/394 400/400/400
f 401/401/401 399/399/399 400/400/400
f 401/401/401 402/402/402 399/399/399
f 403/403/403 399/399/399 402/402/402
f 403/403/403 404/404/404 399/399/399
f 399/399/399 404/404/404 398/398/398
f 405/405/405 404/404/404 403/403/403
f 398/398/398 404/404/404 406/406/406
f 405/405/405 406/406/406 404/404/404
f 396/396/396 398/398/398 407/407/407
f 398/398/398 406/406/406 407/407/407
f 408/408/408 406/406/406 405/405/405
f 408/408/408 405/405/405 409/409/409
f 410/410/410 406/406/406 408/408/408
f 410/410/410 407/407/407 406/406/406
f 409/409/409 411/411/411 408/408/408
f 411/411/411 410/410/410 408/408/408
f 409/409/409 412/412/412 411/411/411
f 412/412/412 413/413/413 411/411/411
f 412/412/412 414/414/414 413/413/413
f 413/413/413 415/415/415 411/411/411
f 411/411/411 415/415/415 410/410/410
f 396/396/396 407/407/407 416/416/416
f 396/396/396 416/416/416 378/378/378
f 407/407/407 417/417/417 416/416/416
f 407/407/407 410/410/410 417/417/417
f 378/378/378 416/416/416 417/417/417
f 418/418/418 410/410/410 415/415/415
f 418/418/418 417/417/417 410/410/410
f 419/419/419 378/378/378 417/417/417
f 419/419/419 417/417/417 418/418/418
f 418/418/418 415/415/415 420/420/420
f 418/418/418 420/420/420 419/419/419
f 421/421/421 420/420/420 415/415/415
f 422/422/422 378/378/378 419/419/419
f 422/422/422 379/379/379 378/378/378
f 421/421/421 423/423/423 420/420/420
f 424/424/424 423/423/423 421/421/421
f 424/424/424 425/425/425 423/423/423
f 426/426/426 419/419/419 420/420/420
f 426/426/426 422/422/422 419/419/419
f 423/423/423 426/426/426 420/420/420
f 425/425/425 427/427/427 423/423/423
f 423/423/423 427/427/427 426/426/426
f 425/425/425 428/428/428 427/427/427
f 428/428/428 429/429/429 427/427/427
f 428/428/428 430/430/430 429/429/429
f 431/431/431 429/429/429 430/430/430
f 432/432/432 379/379/379 422/422/422
f 426/426/426 432/432/432 422/422/422
f 427/427/427 433/433/433 426/426/426
f 426/426/426 433/433/433 432/432/432
f 434/434/434 379/379/379 432/432/432
f 434/434/434 432/432/432 433/433/433
f 376/376/376 379/379/379 434/434/434
f 435/435/435 433/433/433 427/427/427
f 434/434/434 433/433/433 435/435/435
f 435/435/435 427/427/427 429/429/429
f 376/376/376 434/434/434 435/435/435
f 431/431/431 436/436/436 429/429/429
f 437/437/437 436/436/436 431/431/431
f 435/435/435 429/429/429 438/438/438
f 376/376/376 435/435/435 438/438/438
f 429/429/429 439/439/439 438/438/438
f 376/376/376 438/438/438 439/439/439
f 429/429/429 436/436/436 439/439/439
f 376/376/376 439/439/439 440/440/440
f 376/376/376 440/440/440 365/365/365
f 439/439/439 441/441/441 440/440/440
f 441/441/441 365/365/365 440/440/440
f 436/436/436 442/442/442 439/439/439
f 439/439/439 442/442/442 441/441/441
f 443/443/443 442/442/442 436/436/436
f 443/443/443 441/441/441 442/442/442
f 437/437/437 444/444/444 436/436/436
f 444/444/444 443/443/443 436/436/436
f 437/437/437 445/445/445 444/444/444
f 437/437/437 446/446/446 445/445/445
f 447/447/447 445/445/445 446/446/446
f 365/365/365 441/441/441 448/448/448
f 443/443/443 448/448/448 441/441/441
f 449/449/449 365/365/365 448/448/448
f 449/449/449 364/364/364 365/365/365
f 448/448/448 443/443/443 450/450/450
f 444/444/444 450/450/450 443/443/443
f 448/448/448 450/450/450 449/449/449
f 451/451/451 450/450/450 444/444/444
f 449/449/449 450/450/450 451/451/451
f 364/364/364 449/449/449 452/452/452
f 449/449/449 451/451/451 452/452/452
f 453/453/453 364/364/364 452/452/452
f 453/453/453 452/452/452 451/451/451
f 368/368/368 364/364/364 453/453/453
f 454/454/454 451/451/451 444/444/444
f 453/453/453 451/451/451 454/454/454
f 454/454/454 444/444/444 445/445/445
f 368/368/368 453/453/453 454/454/454
f 447/447/447 455/455/455 445/445/445
f 456/456/456 455/455/455 447/447/447
f 454/454/454 445/445/445 457/457/457
f 368/368/368 454/454/454 457/457/457
f 445/445/445 458/458/458 457/457/457
f 368/368/368 457/457/457 458/458/458
f 445/445/445 455/455/455 458/458/458
f 368/368/368 458/458/458 459/459/459
f 368/368/368 459/459/459 355/355/355
f 458/458/458 460/460/460 459/459/459
f 460/460/460 355/355/355 459/459/459
f 455/455/455 461/461/461 458/458/458
f 458/458/458 461/461/461 460/460/460
f 355/355/355 460/460/460 462/462/462
f 462/462/462 356/356/356 355/355/355
f 460/460/460 461/461/461 463/463/463
f 455/455/455 463/463/463 461/461/461
f 460/460/460 463/463/463 462/462/462
f 456/456/456 464/464/464 455/455/455
f 463/463/463 455/455/455 464/464/464
f 462/462/462 465/465/465 356/356/356
f 465/465/465 329/329/329 356/356/356
f 462/462/462 463/463/463 466/466/466
f 462/462/462 466/466/466 465/465/465
f 463/463/463 464/464/464 466/466/466
f 465/465/465 467/467/467 329/329/329
f 466/466/466 467/467/467 465/465/465
f 321/321/321 329/329/329 467/467/467
f 466/466/466 468/468/468 467/467/467
f 464/464/464 468/468/468 466/466/466
f 468/468/468 321/321/321 467/467/467
f 456/456/456 469/469/469 464/464/464
f 464/464/464 469/469/469 468/468/468
f 321/321/321 468/468/468 469/469/469
f 456/456/456 470/470/470 469/469/469
f 321/321/321 469/469/469 471/471/471
f 472/472/472 469/469/469 470/470/470
f 472/472/472 471/471/471 469/469/469
f 473/473/473 474/474/474 475/475/475
f 473/473/473 475/475/475 476/476/476
f 475/475/475 477/477/477 476/476/476
f 475/475/475 478/478/478 477/477/477
f 479/479/479 473/473/473 476/476/476
f 479/479/479 476/476/476 477/477/477
f 477/477/477 478/478/478 480/480/480
f 481/481/481 480/480/480 478/478/478
f 481/481/481 478/478/478 482/482/482
f 481/481/481 482/482/482 483/483/483
f 481/481/481 483/483/483 484/484/484
f 481/481/481 484/484/484 485/485/485
f 481/481/481 485/485/485 486/486/486
f 486/486/486 485/485/485 487/487/487
f 486/486/486 487/487/487 488/488/488
f 486/486/486 488/488/488 489/489/489
f 481/481/481 486/486/486 490/490/490
f 481/481/481 490/490/490 480/480/480
f 486/486/486 489/489/489 490/490/490
f 480/480/480 490/490/490 491/491/491
f 490/490/490 489/489/489 491/491/491
f 480/480/480 491/491/491 477/477/477
f 491/491/491 489/489/489 492/492/492
f 493/493/493 477/477/477 491/491/491
f 491/491/491 492/492/492 494/494/494
f 494/494/494 493/493/493 491/491/491
f 493/493/493 495/495/495 477/477/477
f 479/479/479 477/477/477 495/495/495
f 496/496/496 495/495/495 493/493/493
f 496/496/496 479/479/479 495/495/495
f 494/494/494 496/496/496 493/493/493
f 492/492/492 497/497/497 494/494/494
f 492/492/492 498/498/498 497/497/497
f 497/497/497 498/498/498 499/499/499
f 494/494/494 497/497/497 500/500/500
f 497/497/497 499/499/499 500/500/500
f 494/494/494 500/500/500 496/496/496
f 500/500/500 499/499/499 501/501/501
f 496/496/496 502/502/502 479/479/479
f 496/496/496 500/500/500 502/502/502
f 500/500/500 501/501/501 502/502/502
f 479/479/479 502/502/502 473/473/473
f 501/501/501 473/473/473 502/502/502
f 501/501/501 503/503/503 473/473/473
f 504/504/504 505/505/505 506/506/506
f 504/504/504 506/506/506 507/507/507
f 507/507/507 506/506/506 508/508/508
f 507/507/507 508/508/508 509/509/509
f 508/508/508 510/510/510 509/509/509
f 508/508/508 511/511/511 510/510/510
f 511/511/511 512/512/512 510/510/510
f 511/511/511 513/513/513 512/512/512
f 514/514/514 515/515/515 516/516/516
f 514/514/514 516/516/516 517/517/517
f 518/518/518 514/514/514 517/517/517
f 517/517/517 516/516/516 519/519/519
f 518/518/518 517/517/517 520/520/520
f 521/521/521 518/518/518 520/520/520
f 517/517/517 519/519/519 522/522/522
f 520/520/520 517/517/517 522/522/522
f 522/522/522 519/519/519 523/523/523
f 521/521/521 520/520/520 524/524/524
f 525/525/525 521/521/521 524/524/524
f 520/520/520 522/522/522 526/526/526
f 524/524/524 520/520/520 526/526/526
f 522/522/522 523/523/523 527/527/527
f 526/526/526 522/522/522 527/527/527
f 527/527/527 523/523/523 528/528/528
f 527/527/527 528/528/528 529/529/529
f 530/530/530 527/527/527 529/529/529
f 526/526/526 527/527/527 530/530/530
f 530/530/530 529/529/529 531/531/531
f 525/525/525 524/524/524 532/532/532
f 533/533/533 525/525/525 532/532/532
f 524/524/524 526/526/526 534/534/534
f 534/534/534 526/526/526 530/530/530
f 532/532/532 524/524/524 534/534/534
f 535/535/535 530/530/530 531/531/531
f 534/534/534 530/530/530 535/535/535
f 535/535/535 531/531/531 536/536/536
f 533/533/533 532/532/532 537/537/537
f 538/538/538 533/533/533 537/537/537
f 532/532/532 534/534/534 539/539/539
f 539/539/539 534/534/534 535/535/535
f 537/537/537 532/532/532 539/539/539
f 540/540/540 535/535/535 536/536/536
f 539/539/539 535/535/535 540/540/540
f 540/540/540 536/536/536 541/541/541
f 538/538/538 537/537/537 542/542/542
f 543/543/543 538/538/538 542/542/542
f 537/537/537 539/539/539 544/544/544
f 544/544/544 539/539/539 540/540/540
f 542/542/542 537/537/537 544/544/544
f 545/545/545 540/540/540 541/541/541
f 544/544/544 540/540/540 545/545/545
f 545/545/545 541/541/541 546/546/546
f 543/543/543 542/542/542 547/547/547
f 548/548/548 543/543/543 547/547/547
f 542/542/542 544/544/544 549/549/549
f 549/549/549 544/544/544 545/545/545
f 547/547/547 542/542/542 549/549/549
f 550/550/550 545/545/545 546/546/546
f 549/549/549 545/545/545 550/550/550
f 550/550/550 546/546/546 551/551/551
f 548/548/548 547/547/547 552/552/552
f 553/553/553 548/548/548 552/552/552
f 547/547/547 549/549/549 554/554/554
f 554/554/554 549/549/549 550/550/550
f 552/552/552 547/547/547 554/554/554
f 555/555/555 550/550/550 551/551/551
f 554/554/554 550/550/550 555/555/555
f 555/555/555 551/551/551 556/556/556
f 553/553/553 552/552/552 557/557/557
f 558/558/558 553/553/553 557/557/557
f 552/552/552 554/554/554 559/559/559
f 559/559/559 554/554/554 555/555/555
f 557/557/557 552/552/552 559/559/559
f 560/560/560 555/555/555 556/556/556
f 559/559/559 555/555/555 560/560/560
f 560/560/560 556/556/556 561/561/561
f 558/558/558 557/557/557 562/562/562
f 563/563/563 558/558/558 562/562/562
f 557/557/557 559/559/559 564/564/564
f 564/564/564 559/559/559 560/560/560
f 562/562/562 557/557/557 564/564/564
f 565/565/565 560/560/560 561/561/561
f 564/564/564 560/560/560 565/565/565
f 565/565/565 561/561/561 566/566/566
f 563/563/563 562/562/562 567/567/567
f 568/568/568 563/563/563 567/567/567
f 562/562/562 564/564/564 569/569/569
f 569/569/569 564/564/564 565/565/565
f 567/567/567 562/562/562 569/569/569
f 570/570/570 565/565/565 566/566/566
f 569/569/569 565/565/565 570/570/570
f 570/570/570 566/566/566 571/571/571
f 568/568/568 567/567/567 572/572/572
f 573/573/573 568/568/568 572/572/572
f 567/567/567 569/569/569 574/574/574
f 574/574/574 569/569/569 570/570/570
f 572/572/572 567/567/567 574/574/574
f 575/575/575 570/570/570 571/571/571
f 574/574/574 570/570/570 575/575/575
f 575/575/575 571/571/571 576/576/576
f 573/573/573 572/572/572 577/577/577
f 578/578/578 573/573/573 577/577/577
f 572/572/572 574/574/574 579/579/579
f 579/579/579 574/574/574 575/575/575
f 577/577/577 572/572/572 579/579/579
f 580/580/580 575/575/575 576/576/576
f 579/579/579 575/575/575 580/580/580
f 580/580/580 576/576/576 581/581/581
f 578/578/578 577/577/577 582/582/582
f 583/583/583 578/578/578 582/582/582
f 577/577/577 579/579/579 584/584/584
f 584/584/584 579/579/579 580/580/580
f 582/582/582 577/577/577 584/584/584
f 585/585/585 580/580/580 581/581/581
f 584/584/584 580/580/580 585/585/585
f 585/585/585 581/581/581 586/586/586
f 583/583/583 582/582/582 587/587/587
f 588/588/588 583/583/583 587/587/587
f 582/582/582 584/584/584 589/589/589
f 589/589/589 584/584/584 585/585/585
f 587/587/587 582/582/582 589/589/589
f 590/590/590 585/585/585 586/586/586
f 589/589/589 585/585/585 590/590/590
f 590/590/590 586/586/586 591/591/591
f 588/588/588 587/587/587 592/592/592
f 593/593/593 588/588/588 592/592/592
f 587/587/587 589/589/589 594/594/594
f 594/594/594 589/589/589 590/590/590
f 592/592/592 587/587/587 594/594/594
f 595/595/595 590/590/590 591/591/591
f 594/594/594 590/590/590 595/595/595
f 595/595/595 591/591/591 596/596/596
f 593/593/593 592/592/592 597/597/597
f 598/598/598 593/593/593 597/597/597
f 598/598/598 597/597/597 599/599/599
f 592/592/592 594/594/594 600/600/600
f 600/600/600 594/594/594 595/595/595
f 597/597/597 592/592/592 600/600/600
f 601/601/601 595/595/595 596/596/596
f 600/600/600 595/595/595 601/601/601
f 601/601/601 596/596/596 602/602/602
f 599/599/599 597/597/597 603/603/603
f 597/597/597 600/600/600 603/603/603
f 603/603/603 600/600/600 601/601/601
f 599/599/599 603/603/603 604/604/604
f 605/605/605 601/601/601 602/602/602
f 603/603/603 601/601/601 605/605/605
f 604/604/604 603/603/603 605/605/605
f 605/605/605 602/602/602 606/606/606
f 604/604/604 605/605/605 607/607/607
f 607/607/607 605/605/605 606/606/606
f 607/607/607 606/606/606 608/608/608
