v -0.00205634 0.09509031 -1.201459
v 0.02808085 0.09236667 -1.201439
v 0.02779052 0.07819042 -1.201485
v -0.002056341 0.09331769 -1.201465
v -0.002056501 -0.1551849 -1.202273
v 0.02280205 -0.1551849 -1.202273
v 0.02671128 -0.329645 -1.203098
v -0.002056622 -0.3417469 -1.203155
v 0.02808055 -0.3434762 -1.203163
v -0.002056624 -0.3434763 -1.203163
v -0.002058529 -1.055431 -0.2961178
v 0.03411755 -1.053452 -0.004882968
v -0.002058994 -1.053452 -0.004887812
v 0.02458856 -1.055431 -0.2961177
v -0.002057504 -1.054493 -0.9384993
v 0.05353663 -1.032438 -0.02572507
v 0.0245897 -1.054493 -0.9384995
v 0.01435261 -1.050739 -1.188961
v -0.0020571 -1.05074 -1.188954
v 0.03570978 -1.028394 -1.172371
v 0.04620242 -1.031269 -0.2983629
v 0.04620352 -1.030027 -0.9359349
v 0.04715105 -1.007323 -0.935972
v 0.04711745 -1.009645 -0.2982948
v 0.05491604 -0.8212731 -0.9362773
v 0.03575006 -1.006586 -1.172511
v 0.0351634 -1.006548 -1.184682
v 0.01435261 -1.050739 -1.188961
v 0.03603639 -0.8203127 -1.173705
v 0.01384941 -1.028795 -1.201272
v -0.0020571 -1.05074 -1.188954
v -0.002057068 -1.028794 -1.201273
v 0.01384959 -0.8203701 -1.201272
v -0.002056931 -0.82037 -1.201272
v -0.002056624 -0.3434763 -1.203163
v 0.03516358 -0.8202683 -1.184682
v 0.02808055 -0.3434762 -1.203163
v 0.03638002 -0.3550908 -1.181257
v 0.0328874 -0.3550908 -1.191028
v 0.03288741 -0.3434762 -1.191028
v 0.07775491 -0.3403446 -1.192654
v 0.07775486 -0.3416245 -1.178007
v 0.03638006 -0.3434763 -1.181257
v 0.07916767 -0.3396882 -0.9570363
v 0.05303038 -0.3434765 -0.9507273
v 0.07916766 -0.3377804 -0.9451501
v 0.05303035 -0.355091 -0.9507273
v 0.05131911 -0.3434765 -0.9362769
v 0.07916767 -0.3207164 -0.9451588
v 0.05131908 -0.355091 -0.9362769
v 0.05158949 -0.3434768 -0.2977008
v 0.05508829 -0.821288 -0.2977011
v 0.05165422 -0.3021383 -0.936277
v 0.07916616 -0.08624879 -0.9411538
v 0.05132463 -0.3434766 -0.9232367
v 0.05164627 -0.3017035 -0.9237478
v 0.06271034 0.0209937 -0.9362767
v 0.07775472 0.08319695 -0.9440916
v 0.06256422 0.02099369 -0.9259718
v 0.05113612 -0.2587998 -0.2977008
v 0.05365702 0.02099359 -0.2977005
v 0.0691944 0.06947338 -0.923895
v 0.05136285 -0.3011383 -0.2977007
v 0.05950746 -0.2993506 -0.02588063
v 0.06948356 0.06958768 -0.9362767
v 0.07775474 0.0958006 -0.9452118
v 0.07415915 0.1080656 -0.9246154
v 0.07450649 0.1080968 -0.9362766
v 0.0723504 0.108134 -0.9507226
v 0.07775474 0.09708051 -0.959859
v 0.05457121 0.0636902 -0.2977005
v 0.06009372 0.06526524 -0.02576368
v 0.07453322 0.1209297 -0.9362766
v 0.06553167 0.7402898 -0.2980784
v 0.05548543 0.106387 -0.2977005
v 0.03857141 0.1043932 -1.181183
v 0.07916816 0.0951441 -1.18083
v 0.03684959 0.104423 -1.192719
v 0.07916819 0.09323629 -1.192716
v 0.02808085 0.09236667 -1.201439
v 0.0371726 0.1188123 -1.192719
v 0.03888359 0.1188394 -1.181176
v 0.07242146 0.1213187 -0.9504305
v 0.07075215 0.7603535 -0.9362761
v 0.02296765 0.7958991 -1.205782
v -0.00205634 0.09509031 -1.201459
v -0.002055876 0.7958991 -1.200877
v 0.04732771 0.7989898 -1.188578
v 0.02296778 1.009978 -1.205782
v -0.002055736 1.009978 -1.200877
v 0.0449136 1.009978 -1.188578
v 0.04842849 0.7971743 -1.176721
v 0.05093556 0.992889 -0.936276
v 0.04539549 0.9934465 -1.176218
v 0.04952926 1.009391 -0.936276
v 0.02296777 1.027452 -1.188578
v 0.02296778 1.009978 -1.205782
v -0.002055736 1.009978 -1.200877
v -0.002055744 1.027452 -1.188578
v -0.002056147 1.026866 -0.9362761
v 0.0229673 1.026866 -0.9362759
v -0.002057062 1.025895 -0.3635844
v 0.03473926 1.029772 -0.3635714
v 0.06130129 1.001028 -0.3635649
v 0.03305668 1.027413 -0.2319399
v -0.002057274 1.024098 -0.2318446
v 0.05809562 1.00028 -0.2319708
v 0.03361085 1.018463 -0.01340517
v -0.002057626 1.018464 -0.01340528
v 0.0336108 1.00099 0.003041011
v -0.002057664 1.000989 0.003040821
v 0.05357918 1.000989 -0.01340516
v 0.06180428 0.9845258 -0.3635669
v 0.05828126 0.9837772 -0.2319858
v 0.05393417 0.9844472 -0.02557325
v 0.0484665 0.799315 -0.02584674
v 0.04706286 0.8011729 -0.01340533
v 0.0336108 1.00099 0.003041011
v 0.04843328 0.1190602 -0.02623261
v 0.03361065 0.7980821 0.003040763
v -0.002057664 1.000989 0.003040821
v -0.002057797 0.7980819 0.003040649
v 0.04758123 0.119075 -0.01340581
v 0.03872393 0.09591457 -0.004685392
v -0.002058261 0.06869892 -0.004685524
v 0.0387239 0.06494037 -0.004685407
v -0.002058263 0.06494038 -0.004685526
v -0.002058266 0.06118183 -0.004685528
v 0.04833408 0.1059527 -0.02624009
v 0.0474927 0.1059322 -0.01340581
v 0.06047173 0.09545299 -0.0257404
v 0.06021507 0.09495692 -0.01340584
v 0.03872388 0.03396595 -0.004685422
v -0.002058506 -0.2954879 -0.0001189691
v 0.05986091 0.06533786 -0.01340586
v 0.05950684 0.03571918 -0.0134058
v 0.05971566 0.03507763 -0.02578701
v 0.04733652 0.02099324 -0.02630289
v 0.04653025 0.02099323 -0.01340582
v 0.04650406 0.01069012 -0.01340582
v 0.03872365 -0.2681106 -0.0005126665
v 0.03872364 -0.2992691 -6.44161E-05
v -0.002058509 -0.299269 -6.464962E-05
v -0.002058511 -0.3030499 -1.017753E-05
v 0.04730746 0.01068974 -0.02630674
v 0.04657698 -0.2484966 -0.026403
v 0.04584418 -0.2484965 -0.0134061
v 0.04581794 -0.2587999 -0.0134061
v 0.04654795 -0.2587999 -0.02640678
v 0.0591453 -0.2709686 -0.02588843
v 0.05902425 -0.2715273 -0.01340609
v 0.03872361 -0.3304273 0.0003836817
v -0.002058861 -0.8203998 0.007431061
v 0.05939269 -0.299269 -0.01340611
v 0.05976116 -0.3270106 -0.01340612
v 0.05986962 -0.3277328 -0.02587282
v 0.04752316 -0.343477 -0.02638786
v 0.04681926 -0.343477 -0.01340614
v 0.04810813 -0.3570012 -0.02636708
v 0.04740911 -0.357 -0.01340607
v 0.02954622 -0.8203998 0.007431095
v 0.05391914 -0.8203709 -0.02565531
v 0.05338719 -0.8203297 -0.01340636
v 0.05357612 -1.010683 -0.02571793
v 0.05338707 -1.01073 -0.01340652
v 0.0328871 -1.031608 0.007430884
v -0.002058999 -1.031608 0.007430809
v 0.03411755 -1.053452 -0.004882968
v -0.002058994 -1.053452 -0.004887812
v 0.08649053 0.09081773 -0.9464857
v 0.07775474 0.0958006 -0.9452118
v 0.07775472 0.08319695 -0.9440916
v 0.08649053 0.0777908 -0.9465492
v 0.08931673 -0.08488104 -0.9460082
v 0.07916779 -0.08624886 -0.9411542
v 0.08649049 0.0777854 -0.958486
v 0.07916781 -0.09439275 -0.9547951
v 0.07916777 -0.324995 -0.9610719
v 0.07916767 -0.3207164 -0.9451588
v 0.07916766 -0.3377804 -0.9451501
v 0.07916767 -0.3396882 -0.9570363
v 0.07775486 -0.3416245 -1.178007
v 0.07916801 -0.3291706 -1.177049
v 0.07775491 -0.3403446 -1.192654
v 0.07775491 -0.327741 -1.193774
v 0.07916807 -0.08831884 -1.194305
v 0.07916807 -0.09129852 -1.184148
v 0.08931702 -0.08176241 -1.191249
v 0.07916817 0.07617225 -1.192707
v 0.08931705 -0.07275409 -1.181303
v 0.08931705 0.08041126 -1.191117
v 0.08931675 -0.07136232 -0.9545008
v 0.08931708 0.08041836 -1.181898
v 0.08931705 0.09123608 -1.19117
v 0.07916819 0.09323629 -1.192716
v 0.07916816 0.0951441 -1.18083
v 0.08931703 0.091236 -1.181948
v 0.07775474 0.09708051 -0.959859
v 0.08649054 0.09081773 -0.9585081
v 0.07775474 0.0958006 -0.9452118
v 0.07775491 -0.3403446 -1.192654
v 0.02808055 -0.3434762 -1.203163
v 0.02671128 -0.329645 -1.203098
v 0.07775491 -0.327741 -1.193774
v 0.02280205 -0.1551849 -1.202273
v 0.07916782 -0.08831888 -1.194304
v 0.07916817 0.07617225 -1.192707
v 0.02779052 0.07819042 -1.201485
v 0.07916819 0.09323629 -1.192716
v 0.02808085 0.09236667 -1.201439
v 0.08646224 0.01522672 -1.02457
v 0.08646223 4.109135E-06 -1.021857
v 0.09589737 4.18378E-06 -1.021857
v 0.09589735 0.01522681 -1.02457
v 0.08646223 0.02861329 -1.032385
v 0.1076204 4.110379E-06 -1.032354
v 0.09589735 0.02861329 -1.032384
v 0.08646226 0.03854914 -1.044356
v 0.1076204 0.01167571 -1.034434
v 0.1076204 4.119003E-06 -1.050666
v 0.09589734 0.03854913 -1.044356
v 0.08646231 0.04383578 -1.059041
v 0.1076204 0.02193944 -1.040426
v 0.1076204 0.00548088 -1.051643
v 0.1296765 4.210514E-06 -1.050666
v 0.1296765 0.005480895 -1.051642
v 0.1076204 0.01029694 -1.054453
v 0.1296765 0.01029695 -1.054454
v 0.09589745 0.04383585 -1.059041
v 0.0864623 0.04383579 -1.074669
v 0.1076204 0.02955744 -1.049605
v 0.1076204 0.01387161 -1.058761
v 0.1296764 0.01387163 -1.058761
v 0.09589741 0.04383578 -1.074669
v 0.08646227 0.03854916 -1.089354
v 0.1076204 0.03361094 -1.060864
v 0.1076204 0.01577347 -1.064044
v 0.1296765 0.01577356 -1.064044
v 0.09589738 0.03854915 -1.089354
v 0.08646233 0.02861325 -1.101326
v 0.1076204 0.03361102 -1.072846
v 0.1076205 0.01577348 -1.069666
v 0.1296765 0.01577349 -1.069666
v 0.09589742 0.02861332 -1.101326
v 0.08646231 0.01522672 -1.10914
v 0.1076204 0.02955745 -1.084106
v 0.1076205 0.01387139 -1.07495
v 0.1296764 0.01387164 -1.07495
v 0.09589745 0.01522679 -1.10914
v 0.08646234 4.246885E-06 -1.111854
v 0.1076205 0.02193951 -1.093285
v 0.1076204 0.01029695 -1.079257
v 0.1296765 0.01029696 -1.079257
v 0.09589747 4.168941E-06 -1.111853
v 0.0864623 -0.01521846 -1.10914
v 0.1076204 0.01167576 -1.099276
v 0.1076204 0.005480837 -1.082068
v 0.1296765 0.00548091 -1.082068
v 0.09589742 -0.01521831 -1.10914
v 0.08646236 -0.02860484 -1.101326
v 0.1076204 4.238242E-06 -1.101357
v 0.1076204 4.229618E-06 -1.083044
v 0.1296765 4.225762E-06 -1.083044
v 0.09589744 -0.02860484 -1.101326
v 0.08646224 -0.03854076 -1.089354
v 0.1076204 -0.01166729 -1.099276
v 0.1076204 -0.005472456 -1.082068
v 0.1296765 -0.005472459 -1.082068
v 0.09589738 -0.03854069 -1.089354
v 0.08646233 -0.04382729 -1.074669
v 0.1076205 -0.02193104 -1.093285
v 0.1076204 -0.01028853 -1.079257
v 0.1296765 -0.01028844 -1.079257
v 0.09589744 -0.04382733 -1.074669
v 0.0864623 -0.0438273 -1.059041
v 0.1076204 -0.02954914 -1.084106
v 0.1076204 -0.01386306 -1.07495
v 0.1296765 -0.01386296 -1.07495
v 0.09589742 -0.04382735 -1.059041
v 0.08646223 -0.03854067 -1.044356
v 0.1076204 -0.03360259 -1.072846
v 0.1076204 -0.01576514 -1.069666
v 0.1296764 -0.01576505 -1.069666
v 0.09589737 -0.03854073 -1.044356
v 0.08646224 -0.0286047 -1.032385
v 0.1076204 -0.0336026 -1.060864
v 0.1076204 -0.01576515 -1.064044
v 0.1296764 -0.01576513 -1.064044
v 0.09589737 -0.02860489 -1.032384
v 0.08646224 -0.01521836 -1.02457
v 0.1076204 -0.02954918 -1.049605
v 0.1076204 -0.01386307 -1.058761
v 0.1296765 -0.0138629 -1.058761
v 0.09589735 -0.01521844 -1.02457
v 0.08646223 4.109135E-06 -1.021857
v 0.09589737 4.18378E-06 -1.021857
v 0.1076204 -0.02193116 -1.040425
v 0.1076204 -0.01028847 -1.054453
v 0.1296765 -0.01028845 -1.054453
v 0.1076203 -0.01166734 -1.034434
v 0.1076204 4.110379E-06 -1.032354
v 0.1076204 -0.005472489 -1.051642
v 0.1296765 -0.005472473 -1.051642
v 0.1076204 4.119003E-06 -1.050666
v 0.1296765 4.210514E-06 -1.050666
v -0.02846113 0.07819045 -1.201485
v -0.02875144 0.09236667 -1.201439
v -0.00205634 0.09509031 -1.201459
v -0.002056341 0.09331769 -1.201465
v -0.002056501 -0.1551849 -1.202273
v -0.02347296 -0.1551849 -1.202273
v -0.0273824 -0.329645 -1.203098
v -0.002056622 -0.3417469 -1.203155
v -0.0287517 -0.3434762 -1.203163
v -0.002056624 -0.3434763 -1.203163
v -0.0423004 -1.053452 -0.004883124
v -0.002058529 -1.055431 -0.2961178
v -0.002058994 -1.053452 -0.004887812
v -0.02932839 -1.055431 -0.2961179
v -0.0617194 -1.032437 -0.02572527
v -0.002057504 -1.054493 -0.9384993
v -0.02932747 -1.054493 -0.9384995
v -0.0190896 -1.050739 -1.188961
v -0.0020571 -1.05074 -1.188954
v -0.04044678 -1.028394 -1.172371
v -0.05094222 -1.031269 -0.2983631
v -0.05094128 -1.030027 -0.935935
v -0.0518888 -1.007323 -0.9359721
v -0.05185724 -1.009645 -0.2982949
v -0.05965351 -0.821273 -0.9362774
v -0.04048706 -1.006586 -1.172511
v -0.03990036 -1.006548 -1.184682
v -0.0190896 -1.050739 -1.188961
v -0.04077309 -0.8203126 -1.173705
v -0.01858632 -1.028794 -1.201272
v -0.0020571 -1.05074 -1.188954
v -0.002057068 -1.028794 -1.201273
v -0.01858623 -0.8203701 -1.201272
v -0.002056931 -0.82037 -1.201272
v -0.0287517 -0.3434762 -1.203163
v -0.03990026 -0.8202682 -1.184682
v -0.03705128 -0.3550908 -1.181257
v -0.03355862 -0.3550907 -1.191028
v -0.0335586 -0.3434761 -1.191028
v -0.07842609 -0.3403446 -1.192654
v -0.07842611 -0.3416245 -1.178007
v -0.03705128 -0.3434762 -1.181257
v -0.0798396 -0.3396882 -0.9570367
v -0.05370231 -0.3434764 -0.9507276
v -0.0798396 -0.3377803 -0.9451504
v -0.0537023 -0.3550909 -0.9507276
v -0.05199111 -0.3434764 -0.9362771
v -0.0798396 -0.3207163 -0.9451591
v -0.05199111 -0.3550909 -0.9362771
v -0.05226352 -0.3434768 -0.2977009
v -0.0598278 -0.8212878 -0.2977014
v -0.05232616 -0.3021382 -0.9362772
v -0.07983779 -0.08624867 -0.941154
v -0.05199666 -0.3434766 -0.9232369
v -0.05231824 -0.3017034 -0.923748
v -0.06338184 0.0209938 -0.9362767
v -0.07842615 0.08319709 -0.9440919
v -0.06323575 0.02099379 -0.9259718
v -0.05181006 -0.2587998 -0.2977009
v -0.05433056 0.02099369 -0.2977008
v -0.06986589 0.06947352 -0.9238952
v -0.05203682 -0.3011383 -0.2977009
v -0.06362438 -0.2993506 -0.02588083
v -0.070155 0.06958782 -0.9362769
v -0.07842612 0.09580071 -0.9452121
v -0.07483058 0.1080657 -0.9246157
v -0.07517789 0.1080969 -0.9362769
v -0.07302175 0.1081341 -0.9507229
v -0.07842609 0.09708062 -0.9598592
v -0.05524471 0.0636903 -0.2977008
v -0.06421017 0.0652653 -0.02576389
v -0.0752046 0.1209298 -0.9362767
v -0.06826276 0.7402899 -0.2980787
v -0.05615887 0.1063871 -0.2977007
v -0.03924206 0.1043932 -1.181183
v -0.07983881 0.09514426 -1.18083
v -0.03752021 0.104423 -1.192719
v -0.07983878 0.09323648 -1.192716
v -0.02875144 0.09236667 -1.201439
v -0.03784321 0.1188123 -1.192719
v -0.03955423 0.1188395 -1.181176
v -0.07309278 0.1213189 -0.9504308
v -0.07348116 0.7603537 -0.9362763
v -0.02569576 0.7958992 -1.205782
v -0.00205634 0.09509031 -1.201459
v -0.002055876 0.7958991 -1.200877
v -0.05005587 0.7989898 -1.188578
v -0.02569562 1.009978 -1.205782
v -0.0476415 1.009978 -1.188578
v -0.0511567 0.7971743 -1.176722
v -0.05366431 0.9928892 -0.9362761
v -0.04812346 0.9934465 -1.176218
v -0.05225797 1.009392 -0.9362761
v -0.02569565 1.027452 -1.188578
v -0.02569562 1.009978 -1.205782
v -0.002055736 1.009978 -1.200877
v -0.002055744 1.027452 -1.188578
v -0.002056147 1.026866 -0.9362761
v -0.025696 1.026866 -0.9362759
v -0.002057062 1.025895 -0.3635844
v -0.03746977 1.029772 -0.3635715
v -0.06403182 1.001028 -0.3635651
v -0.03578762 1.027413 -0.23194
v -0.002057274 1.024098 -0.2318446
v -0.06082655 1.00028 -0.231971
v -0.03978458 1.018463 -0.01340532
v -0.002057626 1.018464 -0.01340528
v -0.0397846 1.00099 0.003040858
v -0.002057664 1.000989 0.003040821
v -0.05975293 1.000989 -0.01340535
v -0.06453485 0.984526 -0.3635671
v -0.06101223 0.9837773 -0.231986
v -0.06010789 0.9844472 -0.02557344
v -0.05464046 0.7993152 -0.02584692
v -0.05323687 0.8011731 -0.01340552
v -0.0397846 1.00099 0.003040858
v -0.05254967 0.1190602 -0.0262328
v -0.03978471 0.7980822 0.00304061
v -0.002057664 1.000989 0.003040821
v -0.002057797 0.7980819 0.003040649
v -0.05169766 0.1190752 -0.01340599
v -0.04284042 0.09591465 -0.004685554
v -0.002058261 0.06869892 -0.004685524
v -0.04284042 0.06494046 -0.004685569
v -0.002058263 0.06494038 -0.004685526
v -0.002058266 0.06118183 -0.004685528
v -0.05245047 0.1059528 -0.02624028
v -0.05160914 0.1059322 -0.013406
v -0.06458814 0.09545306 -0.02574061
v -0.06433154 0.09495698 -0.01340605
v -0.04284044 0.03396603 -0.004685584
v -0.002058506 -0.2954879 -0.0001189691
v -0.06397742 0.06533793 -0.01340606
v -0.06362336 0.03571924 -0.013406
v -0.06383215 0.03507769 -0.02578721
v -0.05145302 0.02099329 -0.02630307
v -0.05064681 0.02099328 -0.013406
v -0.05062063 0.01069017 -0.013406
v -0.04284063 -0.2681105 -0.0005128284
v -0.04284067 -0.2992691 -6.457796E-05
v -0.002058509 -0.299269 -6.464962E-05
v -0.002058511 -0.3030499 -1.017753E-05
v -0.05142398 0.01068979 -0.02630692
v -0.05069384 -0.2484966 -0.02640318
v -0.04996108 -0.2484964 -0.01340627
v -0.04993487 -0.2587998 -0.01340628
v -0.05066483 -0.2587999 -0.02640696
v -0.06326217 -0.2709686 -0.02588863
v -0.06314118 -0.2715272 -0.0134063
v -0.04284066 -0.3304273 0.0003835199
v -0.002058861 -0.8203998 0.007431061
v -0.06350967 -0.299269 -0.01340631
v -0.06387816 -0.3270105 -0.01340633
v -0.06398657 -0.3277327 -0.02587302
v -0.05164014 -0.343477 -0.02638804
v -0.0509363 -0.343477 -0.01340632
v -0.05222514 -0.3570012 -0.02636726
v -0.05152616 -0.357 -0.01340625
v -0.03772881 -0.8203998 0.007431024
v -0.06210161 -0.8203708 -0.02565551
v -0.06156972 -0.8203295 -0.01340656
v -0.06175886 -1.010683 -0.02571812
v -0.06156985 -1.01073 -0.01340672
v -0.04106997 -1.031608 0.00743073
v -0.002058999 -1.031608 0.007430809
v -0.0423004 -1.053452 -0.004883124
v -0.002058994 -1.053452 -0.004887812
v -0.07842615 0.08319709 -0.9440919
v -0.07842612 0.09580071 -0.9452121
v -0.08716191 0.09081784 -0.9464861
v -0.08716199 0.07779095 -0.9465496
v -0.08998837 -0.08488093 -0.9460084
v -0.07983942 -0.08624874 -0.9411545
v -0.0871619 0.07778554 -0.9584863
v -0.07983942 -0.09439265 -0.9547955
v -0.07983967 -0.324995 -0.9610721
v -0.0798396 -0.3207163 -0.9451591
v -0.0798396 -0.3377803 -0.9451504
v -0.0798396 -0.3396882 -0.9570367
v -0.07842611 -0.3416245 -1.178007
v -0.07983927 -0.3291705 -1.17705
v -0.07842609 -0.3403446 -1.192654
v -0.07842608 -0.3277408 -1.193775
v -0.0798389 -0.08831879 -1.194305
v -0.07983892 -0.09129839 -1.184149
v -0.08998789 -0.08176225 -1.191249
v -0.07983883 0.07617242 -1.192707
v -0.08998793 -0.07275393 -1.181303
v -0.0899877 0.08041133 -1.191118
v -0.08998834 -0.07136218 -0.954501
v -0.08998773 0.08041853 -1.181898
v -0.0899877 0.09123622 -1.19117
v -0.07983878 0.09323648 -1.192716
v -0.07983881 0.09514426 -1.18083
v -0.08998767 0.0912361 -1.181949
v -0.07842609 0.09708062 -0.9598592
v -0.08716189 0.09081784 -0.9585084
v -0.07842612 0.09580071 -0.9452121
v -0.0273824 -0.329645 -1.203098
v -0.0287517 -0.3434762 -1.203163
v -0.07842609 -0.3403446 -1.192654
v -0.07842608 -0.3277408 -1.193775
v -0.02347296 -0.1551849 -1.202273
v -0.07983866 -0.08831879 -1.194305
v -0.07983883 0.07617242 -1.192707
v -0.02846113 0.07819045 -1.201485
v -0.07983878 0.09323648 -1.192716
v -0.02875144 0.09236667 -1.201439
v -0.08713349 0.01522682 -1.024571
v -0.09656866 4.274652E-06 -1.021857
v -0.08713352 4.196708E-06 -1.021857
v -0.09656859 0.0152269 -1.024571
v -0.08713344 0.02861351 -1.032385
v -0.1082916 4.300719E-06 -1.032354
v -0.09656856 0.02861352 -1.032385
v -0.08713345 0.03854928 -1.044356
v -0.1082916 0.0116759 -1.034435
v -0.1082916 4.328416E-06 -1.050667
v -0.09656853 0.03854928 -1.044356
v -0.08713339 0.043836 -1.059042
v -0.1082916 0.02193963 -1.040426
v -0.1082916 0.005481014 -1.051643
v -0.1303477 4.351346E-06 -1.050667
v -0.1303476 0.005481036 -1.051643
v -0.1082915 0.01029715 -1.054454
v -0.1303476 0.01029717 -1.054454
v -0.09656853 0.043836 -1.059042
v -0.08713333 0.04383601 -1.07467
v -0.1082915 0.02955759 -1.049605
v -0.1082915 0.01387182 -1.058761
v -0.1303476 0.01387185 -1.058761
v -0.09656845 0.04383601 -1.07467
v -0.08713328 0.0385493 -1.089355
v -0.1082915 0.03361109 -1.060865
v -0.1082915 0.01577368 -1.064045
v -0.1303476 0.0157737 -1.064045
v -0.09656838 0.0385493 -1.089355
v -0.08713331 0.02861339 -1.101327
v -0.1082915 0.03361125 -1.072847
v -0.1082915 0.01577368 -1.069667
v -0.1303476 0.01577371 -1.069667
v -0.09656841 0.02861355 -1.101326
v -0.08713329 0.01522681 -1.10914
v -0.1082915 0.02955764 -1.084106
v -0.1082915 0.01387153 -1.07495
v -0.1303475 0.01387186 -1.07495
v -0.09656842 0.01522696 -1.10914
v -0.08713333 4.334457E-06 -1.111854
v -0.1082915 0.0219397 -1.093285
v -0.1082915 0.01029716 -1.079257
v -0.1303476 0.0102972 -1.079257
v -0.09656845 4.336107E-06 -1.111854
v -0.08713333 -0.01521829 -1.10914
v -0.1082915 0.01167595 -1.099276
v -0.1082915 0.005481028 -1.082068
v -0.1303476 0.005481069 -1.082068
v -0.09656845 -0.01521814 -1.109141
v -0.08713342 -0.02860468 -1.101327
v -0.1082915 4.352287E-06 -1.101357
v -0.1082915 4.343663E-06 -1.083045
v -0.1303476 4.385667E-06 -1.083045
v -0.0965685 -0.02860468 -1.101327
v -0.08713336 -0.0385406 -1.089355
v -0.1082915 -0.0116671 -1.099276
v -0.1082915 -0.005472341 -1.082068
v -0.1303476 -0.005472299 -1.082068
v -0.0965685 -0.03854059 -1.089355
v -0.08713349 -0.04382718 -1.07467
v -0.1082915 -0.02193092 -1.093285
v -0.1082915 -0.01028832 -1.079257
v -0.1303476 -0.01028828 -1.079257
v -0.09656859 -0.04382716 -1.07467
v -0.08713352 -0.04382719 -1.059042
v -0.1082915 -0.02954903 -1.084106
v -0.1082915 -0.01386285 -1.07495
v -0.1303476 -0.01386282 -1.07495
v -0.09656864 -0.04382727 -1.059042
v -0.08713352 -0.03854056 -1.044356
v -0.1082916 -0.03360238 -1.072847
v -0.1082916 -0.01576501 -1.069667
v -0.1303476 -0.01576483 -1.069667
v -0.09656866 -0.03854064 -1.044356
v -0.08713353 -0.02860458 -1.032385
v -0.1082916 -0.03360239 -1.060865
v -0.1082916 -0.01576501 -1.064045
v -0.1303476 -0.01576499 -1.064045
v -0.09656865 -0.02860473 -1.032385
v -0.08713354 -0.01521828 -1.024571
v -0.1082916 -0.02954905 -1.049605
v -0.1082916 -0.01386285 -1.058761
v -0.1303476 -0.01386268 -1.058761
v -0.09656866 -0.01521835 -1.024571
v -0.08713352 4.196708E-06 -1.021857
v -0.09656866 4.274652E-06 -1.021857
v -0.1082917 -0.02193097 -1.040426
v -0.1082916 -0.01028833 -1.054454
v -0.1303476 -0.01028831 -1.054454
v -0.1082916 -0.01166715 -1.034435
v -0.1082916 4.300719E-06 -1.032354
v -0.1082916 -0.005472356 -1.051643
v -0.1303476 -0.005472333 -1.051643
v -0.1082916 4.328416E-06 -1.050667
v -0.1303477 4.351346E-06 -1.050667
vt 0.5126051 0.8967274
vt 0.5136759 0.9125195
vt 0.5192718 0.9124147
vt 0.5133048 0.8967284
vt 0.6113059 0.8967769
vt 0.611306 0.910558
vt 0.6801067 0.91206
vt 0.6848797 0.8967862
vt 0.6855649 0.912594
vt 0.6855621 0.8967866
vt 0.860577 0.00720779
vt 0.970414 0.02887042
vt 0.9706879 0.007377968
vt 0.8603538 0.02761935
vt 0.6176155 0.006972192
vt 0.96247 0.04001319
vt 0.6176395 0.0252289
vt 0.5229856 0.02251398
vt 0.5228239 0.007081735
vt 0.5291198 0.03474334
vt 0.8593321 0.04030759
vt 0.6184995 0.03799132
vt 0.6183705 0.04693772
vt 0.8590695 0.04885834
vt 0.6168632 0.1206899
vt 0.5292744 0.04368247
vt 0.5249759 0.04348462
vt 0.5182255 0.02519725
vt 0.526872 0.1173962
vt 0.5156335 0.03436276
vt 0.5004123 0.022998
vt 0.5001289 0.03305095
vt 0.5125801 0.1160346
vt 0.4997701 0.11552
vt 0.499654 0.3036347
vt 0.5227094 0.1166887
vt 0.5115958 0.3034188
vt 0.5209908 0.3007916
vt 0.5168861 0.2998788
vt 0.5162026 0.3040238
vt 0.5136159 0.3201249
vt 0.5199419 0.3201053
vt 0.5200748 0.3049495
vt 0.6032975 0.3168181
vt 0.6068422 0.3084947
vt 0.6056022 0.3178275
vt 0.6076322 0.3043681
vt 0.6138496 0.3117563
vt 0.6063713 0.3250223
vt 0.6143359 0.3059161
vt 0.8571609 0.31218
vt 0.8582655 0.1233318
vt 0.6170205 0.33007
vt 0.6109959 0.4177589
vt 0.6198649 0.311709
vt 0.6210236 0.3298659
vt 0.6187455 0.4591056
vt 0.6118693 0.4852272
vt 0.6215089 0.4588848
vt 0.8577343 0.346299
vt 0.8584143 0.4570163
vt 0.6216505 0.4794751
vt 0.8572037 0.3292327
vt 0.9596292 0.3296332
vt 0.617163 0.4793719
vt 0.6107468 0.4901968
vt 0.6206617 0.4959234
vt 0.615505 0.4957029
vt 0.6094659 0.496468
vt 0.6061061 0.4913128
vt 0.858139 0.474314
vt 0.960536 0.4739054
vt 0.6158633 0.501781
vt 0.8624263 0.7419069
vt 0.8583301 0.4915969
vt 0.5224144 0.5027651
vt 0.5265097 0.4885095
vt 0.517045 0.5022628
vt 0.5222412 0.4867354
vt 0.5110361 0.4988644
vt 0.5174696 0.5078883
vt 0.5224109 0.5071784
vt 0.6096383 0.5027938
vt 0.6213466 0.7551943
vt 0.5148208 0.7754981
vt 0.4996233 0.5021901
vt 0.5000349 0.7760621
vt 0.5261102 0.7758893
vt 0.5181517 0.8595812
vt 0.5004912 0.860388
vt 0.5286111 0.8587251
vt 0.5306557 0.7742043
vt 0.6237562 0.8475636
vt 0.533194 0.8517813
vt 0.6239563 0.8541578
vt 0.5294731 0.8692847
vt 0.5207861 0.8676323
vt 0.5209415 0.8840839
vt 0.5292215 0.8847907
vt 0.6246615 0.8824421
vt 0.6243425 0.8665779
vt 0.8413143 0.8807773
vt 0.8406196 0.8603712
vt 0.8401016 0.8451607
vt 0.8900833 0.858228
vt 0.8915794 0.8779321
vt 0.8895537 0.843856
vt 0.9721771 0.8535751
vt 0.9741902 0.8689974
vt 0.9804849 0.8509952
vt 0.9833229 0.8670836
vt 0.9724006 0.8434378
vt 0.839874 0.8387201
vt 0.889426 0.8374656
vt 0.9676055 0.8368108
vt 0.9662979 0.7636939
vt 0.9710942 0.7645171
vt 0.9821222 0.8430707
vt 0.9618362 0.4956409
vt 0.9790849 0.763127
vt 0.9956619 0.8425153
vt 0.9952353 0.762639
vt 0.9671274 0.4954645
vt 0.9722843 0.4862496
vt 0.99441 0.4751159
vt 0.9729148 0.4737444
vt 0.9944865 0.4735985
vt 0.994391 0.4720884
vt 0.9615266 0.4911171
vt 0.9668933 0.4903035
vt 0.9606188 0.4854165
vt 0.9643973 0.4848189
vt 0.9721273 0.4613002
vt 0.9943844 0.3314906
vt 0.9647679 0.4739401
vt 0.9644417 0.4630193
vt 0.9605987 0.4623727
vt 0.9614868 0.4555289
vt 0.9668552 0.4562646
vt 0.9669324 0.4522372
vt 0.9720731 0.3422446
vt 0.9728317 0.3297103
vt 0.9944764 0.3299696
vt 0.9944141 0.3284533
vt 0.9616326 0.4520099
vt 0.9609054 0.3502593
vt 0.9661706 0.3500533
vt 0.9660102 0.3460994
vt 0.9606788 0.3467732
vt 0.9598745 0.3404321
vt 0.9638394 0.3398201
vt 0.9723178 0.3172146
vt 0.9953058 0.1244511
vt 0.963965 0.3296341
vt 0.963586 0.3194219
vt 0.959564 0.3188324
vt 0.9602789 0.3114744
vt 0.9656891 0.3119937
vt 0.9604766 0.3066845
vt 0.9657975 0.3067454
vt 0.9777286 0.1241163
vt 0.9612349 0.1239947
vt 0.9658467 0.1239612
vt 0.9618979 0.04883229
vt 0.9662735 0.04898132
vt 0.9769576 0.04116785
vt 0.9953582 0.04072489
vt 0.9746906 0.03194775
vt 0.9951767 0.03065799
vt 0.5144604 0.3229509
vt 0.5100859 0.3202781
vt 0.5098231 0.3256698
vt 0.5138376 0.327436
vt 0.5168463 0.390599
vt 0.513914 0.3915946
vt 0.5183143 0.3278995
vt 0.5200046 0.3948921
vt 0.5264524 0.4844663
vt 0.5214048 0.4827241
vt 0.5222412 0.4867354
vt 0.5265097 0.4885095
vt 0.6061061 0.4913128
vt 0.6062273 0.4852271
vt 0.6107468 0.4901968
vt 0.6118693 0.4852272
vt 0.6096817 0.3897594
vt 0.6056997 0.391509
vt 0.6071702 0.3866883
vt 0.6063713 0.3250223
vt 0.6033463 0.3836088
vt 0.6031777 0.3236696
vt 0.5193443 0.3860754
vt 0.6006134 0.323592
vt 0.603242 0.320243
vt 0.6056022 0.3178275
vt 0.6032975 0.3168181
vt 0.600909 0.3198293
vt 0.5199419 0.3201053
vt 0.5188317 0.3237081
vt 0.5136159 0.3201249
vt 0.6076906 0.3191407
vt 0.5894939 0.3177486
vt 0.5889797 0.3231111
vt 0.607679 0.3245046
vt 0.5875333 0.3907053
vt 0.6084088 0.4165512
vt 0.6088464 0.4805512
vt 0.5893212 0.4811255
vt 0.6088642 0.4859655
vt 0.5894221 0.4866233
vt 0.9889606 0.8875019
vt 0.9843466 0.8766303
vt 0.9775793 0.8795558
vt 0.9823288 0.8897398
vt 0.9916142 0.8993496
vt 0.9672754 0.8865606
vt 0.9846841 0.9003727
vt 0.9916451 0.9114273
vt 0.9713908 0.8940914
vt 0.9577945 0.8962936
vt 0.9846439 0.9111049
vt 0.9894192 0.9230674
vt 0.9730119 0.9024095
vt 0.958966 0.9003846
vt 0.942126 0.897276
vt 0.942538 0.901328
vt 0.959363 0.9053679
vt 0.9428814 0.9052327
vt 0.9825978 0.9215348
vt 0.9854509 0.9339524
vt 0.9727688 0.9109041
vt 0.9588656 0.9110041
vt 0.9425598 0.9091411
vt 0.9789635 0.9314098
vt 0.9801806 0.9439849
vt 0.9709702 0.9193186
vt 0.9573614 0.9169992
vt 0.9414913 0.9131483
vt 0.9741017 0.9406224
vt 0.9739361 0.9531828
vt 0.9678674 0.9274711
vt 0.9548727 0.9231117
vt 0.9396889 0.9172866
vt 0.9682962 0.949155
vt 0.9669341 0.9616151
vt 0.9636955 0.9352438
vt 0.9515007 0.9291663
vt 0.937196 0.9215339
vt 0.961746 0.9570355
vt 0.9592882 0.9693529
vt 0.9586634 0.9425735
vt 0.9473814 0.9350402
vt 0.9340842 0.9258202
vt 0.9545705 0.9642952
vt 0.9510259 0.9764312
vt 0.952939 0.9494308
vt 0.9426488 0.9406473
vt 0.9304467 0.9300483
vt 0.9468178 0.9709385
vt 0.942116 0.9828185
vt 0.9466408 0.955795
vt 0.9374207 0.945911
vt 0.9264005 0.9340972
vt 0.9384906 0.9769136
vt 0.9324957 0.9883959
vt 0.939845 0.9616258
vt 0.9317982 0.9507532
vt 0.9220729 0.9378466
vt 0.9295648 0.9821019
vt 0.9221098 0.992946
vt 0.9325962 0.9668505
vt 0.925868 0.955077
vt 0.9175964 0.9411761
vt 0.9200262 0.9863017
vt 0.9109647 0.9961374
vt 0.9249257 0.9713518
vt 0.9197143 0.9587707
vt 0.9130976 0.9439775
vt 0.9099125 0.9892318
vt 0.8991883 0.9975401
vt 0.9168728 0.9749653
vt 0.9134324 0.9617067
vt 0.9086823 0.9461637
vt 0.8993574 0.990539
vt 0.8871324 0.9966628
vt 0.908516 0.9774866
vt 0.9071544 0.9637598
vt 0.9044234 0.9476711
vt 0.8886394 0.9898272
vt 0.87549 0.9931887
vt 0.899989 0.9786895
vt 0.9010634 0.9648386
vt 0.9003468 0.9484553
vt 0.8781888 0.986735
vt 0.86496 0.9878275
vt 0.8683543 0.9812875
vt 0.8914905 0.978336
vt 0.8954015 0.9649392
vt 0.8964223 0.9485019
vt 0.8832991 0.9761382
vt 0.8760697 0.9715077
vt 0.8904539 0.9641945
vt 0.8925482 0.9478857
vt 0.8864513 0.9627398
vt 0.8885321 0.9471912
vt 0.4808151 0.9124147
vt 0.486411 0.9125195
vt 0.4874818 0.8967274
vt 0.4867821 0.8967284
vt 0.388781 0.8967769
vt 0.388781 0.910558
vt 0.3199802 0.91206
vt 0.3152072 0.8967862
vt 0.314522 0.912594
vt 0.3145248 0.8967866
vt 0.02967292 0.02887042
vt 0.1395099 0.00720779
vt 0.02939898 0.007377968
vt 0.1397331 0.02761935
vt 0.03761691 0.04001319
vt 0.3824714 0.006972192
vt 0.3824474 0.0252289
vt 0.4771013 0.02251398
vt 0.477263 0.007081735
vt 0.4709671 0.03474334
vt 0.1407548 0.04030759
vt 0.3815874 0.03799132
vt 0.3817164 0.04693772
vt 0.1410174 0.04885834
vt 0.3832237 0.1206899
vt 0.4708125 0.04368247
vt 0.475111 0.04348462
vt 0.4818614 0.02519725
vt 0.4732149 0.1173962
vt 0.4844534 0.03436276
vt 0.4996746 0.022998
vt 0.499958 0.03305095
vt 0.4875068 0.1160346
vt 0.5003167 0.11552
vt 0.4884911 0.3034188
vt 0.4773775 0.1166887
vt 0.4790961 0.3007916
vt 0.4832008 0.2998788
vt 0.4838843 0.3040238
vt 0.486471 0.3201249
vt 0.480145 0.3201053
vt 0.4800121 0.3049495
vt 0.3967894 0.3168181
vt 0.3932447 0.3084947
vt 0.3944847 0.3178275
vt 0.3924547 0.3043681
vt 0.3862373 0.3117563
vt 0.3937156 0.3250223
vt 0.385751 0.3059161
vt 0.142926 0.31218
vt 0.1418214 0.1233318
vt 0.3830664 0.33007
vt 0.389091 0.4177589
vt 0.380222 0.311709
vt 0.3790633 0.3298659
vt 0.3813414 0.4591056
vt 0.3882176 0.4852272
vt 0.378578 0.4588848
vt 0.1423526 0.346299
vt 0.1416726 0.4570163
vt 0.3784364 0.4794751
vt 0.1428832 0.3292327
vt 0.04045767 0.3296332
vt 0.3829239 0.4793719
vt 0.3893401 0.4901968
vt 0.3794252 0.4959234
vt 0.3845819 0.4957029
vt 0.390621 0.496468
vt 0.3939808 0.4913128
vt 0.1419479 0.474314
vt 0.0395509 0.4739054
vt 0.3842236 0.501781
vt 0.1376606 0.7419069
vt 0.1417568 0.4915969
vt 0.4776725 0.5027651
vt 0.4735772 0.4885095
vt 0.4830419 0.5022628
vt 0.4778457 0.4867354
vt 0.4890508 0.4988644
vt 0.4826173 0.5078883
vt 0.477676 0.5071784
vt 0.3904486 0.5027938
vt 0.3787403 0.7551943
vt 0.4852661 0.7754981
vt 0.5004636 0.5021901
vt 0.500052 0.7760621
vt 0.4739767 0.7758893
vt 0.4819352 0.8595812
vt 0.4714758 0.8587251
vt 0.4694312 0.7742043
vt 0.3763307 0.8475636
vt 0.4668929 0.8517813
vt 0.3761306 0.8541578
vt 0.4706138 0.8692847
vt 0.4793008 0.8676323
vt 0.4791454 0.8840839
vt 0.4708654 0.8847907
vt 0.3754254 0.8824421
vt 0.3757444 0.8665779
vt 0.1587726 0.8807773
vt 0.1594673 0.8603712
vt 0.1599853 0.8451607
vt 0.1100037 0.858228
vt 0.1085075 0.8779321
vt 0.1105332 0.843856
vt 0.02790982 0.8535751
vt 0.02589673 0.8689974
vt 0.019602 0.8509952
vt 0.01676399 0.8670836
vt 0.0276863 0.8434378
vt 0.1602129 0.8387201
vt 0.1106609 0.8374656
vt 0.03248137 0.8368108
vt 0.03378904 0.7636939
vt 0.02899271 0.7645171
vt 0.01796472 0.8430707
vt 0.03825068 0.4956409
vt 0.02100199 0.763127
vt 0.004425049 0.8425153
vt 0.004851639 0.762639
vt 0.03295946 0.4954645
vt 0.02780265 0.4862496
vt 0.005676866 0.4751159
vt 0.02717215 0.4737444
vt 0.005600393 0.4735985
vt 0.005695939 0.4720884
vt 0.03856027 0.4911171
vt 0.03319359 0.4903035
vt 0.03946811 0.4854165
vt 0.03568965 0.4848189
vt 0.02795959 0.4613002
vt 0.005702496 0.3314906
vt 0.03531903 0.4739401
vt 0.03564519 0.4630193
vt 0.0394882 0.4623727
vt 0.03860009 0.4555289
vt 0.03323174 0.4562646
vt 0.03315455 0.4522372
vt 0.02801377 0.3422446
vt 0.02725518 0.3297103
vt 0.005610466 0.3299696
vt 0.005672812 0.3284533
vt 0.03845429 0.4520099
vt 0.03918153 0.3502593
vt 0.03391629 0.3500533
vt 0.03407669 0.3460994
vt 0.03940815 0.3467732
vt 0.04021239 0.3404321
vt 0.03624755 0.3398201
vt 0.02776909 0.3172146
vt 0.004781067 0.1244511
vt 0.0361219 0.3296341
vt 0.03650087 0.3194219
vt 0.04052293 0.3188324
vt 0.03980798 0.3114744
vt 0.03439778 0.3119937
vt 0.03961033 0.3066845
vt 0.03428942 0.3067454
vt 0.0223583 0.1241163
vt 0.03885198 0.1239947
vt 0.03424025 0.1239612
vt 0.03818899 0.04883229
vt 0.03381342 0.04898132
vt 0.02312934 0.04116785
vt 0.004728675 0.04072489
vt 0.02539629 0.03194775
vt 0.004910231 0.03065799
vt 0.4902638 0.3256698
vt 0.490001 0.3202781
vt 0.4856265 0.3229509
vt 0.4862493 0.327436
vt 0.4832406 0.390599
vt 0.4861729 0.3915946
vt 0.4817726 0.3278995
vt 0.4800823 0.3948921
vt 0.4736345 0.4844663
vt 0.4786821 0.4827241
vt 0.4778457 0.4867354
vt 0.4735772 0.4885095
vt 0.3939808 0.4913128
vt 0.3938596 0.4852271
vt 0.3893401 0.4901968
vt 0.3882176 0.4852272
vt 0.3904052 0.3897594
vt 0.3943872 0.391509
vt 0.3929167 0.3866883
vt 0.3937156 0.3250223
vt 0.3967406 0.3836088
vt 0.3969092 0.3236696
vt 0.4807426 0.3860754
vt 0.3994735 0.323592
vt 0.3968449 0.320243
vt 0.3944847 0.3178275
vt 0.3967894 0.3168181
vt 0.3991779 0.3198293
vt 0.480145 0.3201053
vt 0.4812552 0.3237081
vt 0.486471 0.3201249
vt 0.4111072 0.3231111
vt 0.410593 0.3177486
vt 0.3923963 0.3191407
vt 0.3924079 0.3245046
vt 0.4125536 0.3907053
vt 0.3916781 0.4165512
vt 0.3912405 0.4805512
vt 0.4107657 0.4811255
vt 0.3912227 0.4859655
vt 0.4106648 0.4866233
vt 0.01112628 0.8875019
vt 0.02250761 0.8795558
vt 0.01574028 0.8766303
vt 0.01775813 0.8897398
vt 0.008472681 0.8993496
vt 0.03281152 0.8865606
vt 0.01540285 0.9003727
vt 0.008441806 0.9114273
vt 0.02869606 0.8940914
vt 0.04229242 0.8962936
vt 0.01544297 0.9111049
vt 0.01066774 0.9230674
vt 0.02707499 0.9024095
vt 0.04112095 0.9003846
vt 0.05796087 0.897276
vt 0.05754894 0.901328
vt 0.04072386 0.9053679
vt 0.0572055 0.9052327
vt 0.01748914 0.9215348
vt 0.01463598 0.9339524
vt 0.02731806 0.9109041
vt 0.04122132 0.9110041
vt 0.05752712 0.9091411
vt 0.02112341 0.9314098
vt 0.01990628 0.9439849
vt 0.02911675 0.9193186
vt 0.0427255 0.9169992
vt 0.0585956 0.9131483
vt 0.02598518 0.9406224
vt 0.02615076 0.9531828
vt 0.03221953 0.9274711
vt 0.04521424 0.9231117
vt 0.06039804 0.9172866
vt 0.03179067 0.949155
vt 0.03315276 0.9616151
vt 0.03639138 0.9352438
vt 0.04858619 0.9291663
vt 0.06289095 0.9215339
vt 0.03834087 0.9570355
vt 0.04079872 0.9693529
vt 0.0414235 0.9425735
vt 0.05270547 0.9350402
vt 0.06600273 0.9258202
vt 0.04551643 0.9642952
vt 0.049061 0.9764312
vt 0.04714793 0.9494308
vt 0.05743814 0.9406473
vt 0.06964022 0.9300483
vt 0.05326915 0.9709385
vt 0.05797094 0.9828185
vt 0.05344605 0.955795
vt 0.06266624 0.945911
vt 0.07368642 0.9340972
vt 0.06159633 0.9769136
vt 0.06759119 0.9883959
vt 0.06024194 0.9616258
vt 0.06828874 0.9507532
vt 0.07801402 0.9378466
vt 0.07052213 0.9821019
vt 0.07797712 0.992946
vt 0.0674907 0.9668505
vt 0.07421887 0.955077
vt 0.0824905 0.9411761
vt 0.08006066 0.9863017
vt 0.08912224 0.9961374
vt 0.07516122 0.9713518
vt 0.08037257 0.9587707
vt 0.08698934 0.9439775
vt 0.09017444 0.9892318
vt 0.1008986 0.9975401
vt 0.0832141 0.9749653
vt 0.08665448 0.9617067
vt 0.09140462 0.9461637
vt 0.1007295 0.990539
vt 0.1129545 0.9966628
vt 0.09157091 0.9774866
vt 0.09293246 0.9637598
vt 0.09566349 0.9476711
vt 0.1114475 0.9898272
vt 0.124597 0.9931887
vt 0.1000979 0.9786895
vt 0.09902352 0.9648386
vt 0.09974009 0.9484553
vt 0.1218981 0.986735
vt 0.1351269 0.9878275
vt 0.1317326 0.9812875
vt 0.1085964 0.978336
vt 0.1046854 0.9649392
vt 0.1036646 0.9485019
vt 0.1167879 0.9761382
vt 0.1240172 0.9715077
vt 0.109633 0.9641945
vt 0.1075387 0.9478857
vt 0.1136356 0.9627398
vt 0.1115548 0.9471912
vn 0.002376206 -4.847483E-05 -0.9999973
vn 0.1300275 0.07662429 -0.9885452
vn 0.08056948 0.002542488 -0.9967457
vn -5.479572E-05 0.003243543 -0.9999948
vn -1.904388E-05 0.004016657 -0.999992
vn 0.07751182 0.003120417 -0.9969866
vn 0.08621041 -0.004175467 -0.9962682
vn -5.477253E-07 0.004718828 -0.9999889
vn 0.2899517 -0.179598 -0.9400386
vn -4.948549E-07 0.0003749944 -1
vn -7.77265E-07 -0.9999964 0.002667946
vn 0.4267133 -0.7716779 0.4716238
vn -4.183255E-06 -0.8617612 0.5073143
vn 0.4012892 -0.9159394 -0.00469088
vn -5.919878E-07 -0.9999663 -0.00822341
vn 0.9218848 -0.3566667 0.1513849
vn 0.4122788 -0.9109156 -0.01609549
vn 0.3944233 -0.7818871 -0.4827867
vn -3.124523E-06 -0.8591981 -0.5116431
vn 0.9065986 -0.3572851 -0.2245583
vn 0.9268459 -0.3752349 -0.01246078
vn 0.9287414 -0.3700491 -0.02242962
vn 0.9991046 -0.03205246 -0.02761429
vn 0.9994498 -0.03196644 -0.008842419
vn 0.999319 -0.01411137 -0.03409455
vn 0.9983986 -0.01182761 -0.05531942
vn 0.8801496 -0.06826637 -0.4697622
vn 0.3944233 -0.7818871 -0.4827867
vn 0.9947808 -0.005969583 -0.1018599
vn 0.3729819 -0.2546416 -0.892212
vn -3.124523E-06 -0.8591981 -0.5116431
vn -1.98198E-06 -0.2529113 -0.9674895
vn 0.3599333 -0.005115874 -0.932964
vn 1.600405E-07 -0.001981691 -0.9999981
vn -4.948549E-07 0.0003749944 -1
vn 0.8873557 -0.004582075 -0.4610628
vn 0.2899517 -0.179598 -0.9400386
vn 0.9847513 -0.0003010159 -0.173968
vn 0.8958349 -0.006024694 -0.4443462
vn 0.6792102 -0.6836933 -0.2669027
vn 0.6386579 -0.5649586 -0.5224346
vn 0.7020515 -0.7111806 -0.03668596
vn 0.6855294 -0.7104559 -0.1590653
vn 0.7294536 -0.6836085 0.02401706
vn 0.7400165 -0.6708945 0.04770901
vn 0.7149557 -0.4897429 0.4989891
vn 0.9997775 0.00185028 0.02101398
vn 0.9392065 -0.2005451 0.2786984
vn 0.8056646 -0.003080028 0.592364
vn 0.9982658 0.004638901 0.0586861
vn 0.9999869 -0.0009072227 -0.005053005
vn 0.9999319 -0.01165977 -0.0003964181
vn 0.8002346 -0.01840815 0.5994044
vn 0.2732734 -0.01064665 0.9618774
vn 0.9999999 0.0006087918 -0.0001475945
vn 0.9998616 -0.0161651 0.003931723
vn 0.8400306 -0.04526664 0.5406473
vn 0.5654525 -0.01954821 0.8245491
vn 0.9974962 -0.06949984 0.01308199
vn 0.9999943 0.003377538 0.0002154376
vn 0.9992034 -0.03931367 0.006859158
vn 0.9942778 -0.1045256 0.0220506
vn 0.9998755 0.005217443 -0.01488863
vn 0.9998885 0.01067032 -0.01044742
vn 0.9337588 -0.1225547 0.3362662
vn 0.8533933 0.331426 0.4023391
vn 0.9983426 -0.05238498 0.02383119
vn 0.9992484 0.02062004 0.03282033
vn 0.9499978 0.2938858 -0.1055238
vn 0.5526971 0.8332744 -0.01339981
vn 0.9988663 -0.04759366 0.0009817936
vn 0.9998875 -0.01498461 -0.0006474039
vn 0.9979989 -0.001206677 -0.06321986
vn 0.9996019 0.007911062 0.02708209
vn 0.9996716 -0.01836783 0.01787045
vn 0.8050267 0.5779536 -0.1337968
vn 0.3530506 0.934064 -0.05366387
vn 0.6685448 0.3965781 -0.6291056
vn 0.2706741 0.6367382 -0.722011
vn 0.1300275 0.07662429 -0.9885452
vn 0.8713335 -0.01180665 -0.4905492
vn 0.9911014 -0.01297231 -0.1324758
vn 0.990258 -0.003111856 -0.1392102
vn 0.9989177 0.02214019 -0.04090577
vn 0.2513653 -0.0006316993 -0.9678921
vn 0.002376206 -4.847483E-05 -0.9999973
vn 0.004857892 -0.001483942 -0.9999871
vn 0.8771189 0.001030174 -0.4802722
vn 0.2155193 0.324076 -0.9211549
vn 0.004096134 0.3583167 -0.9335912
vn 0.8222815 0.4034797 -0.4013192
vn 0.996135 0.01292738 -0.0868797
vn 0.9983361 0.05233272 -0.02421222
vn 0.9984432 0.03606544 -0.0425512
vn 0.8877701 0.4600598 -0.01446835
vn 0.2634765 0.8904418 -0.3710708
vn 0.2155193 0.324076 -0.9211549
vn 0.004096134 0.3583167 -0.9335912
vn 0.001201031 0.9077135 -0.4195887
vn 0.0007324533 0.9999995 0.0006490831
vn 0.3118551 0.9501243 -0.003193424
vn 0.001723549 0.9999738 0.007038063
vn 0.340297 0.9402916 0.007044841
vn 0.9145188 0.404513 0.00494316
vn 0.3540272 0.9349062 0.02480049
vn 0.0008743164 0.9997017 0.02440925
vn 0.9245371 0.3803579 0.02364136
vn 0.3169234 0.8712245 0.3748698
vn -0.0001195303 0.9110921 0.412203
vn 0.3272547 0.3347349 0.8836611
vn -1.934328E-06 0.3686438 0.9295707
vn 0.8666656 0.3374178 0.3674779
vn 0.9992363 0.03856103 0.006309213
vn 0.9994752 0.01122071 0.03039028
vn 0.9983671 -0.01004836 0.05623265
vn 0.9976209 -0.009408742 0.0682938
vn 0.9095917 -0.01234095 0.4153197
vn 0.3272547 0.3347349 0.8836611
vn 0.9983734 -0.005521087 0.05674569
vn 0.3958326 -0.005955865 0.9183034
vn -1.934328E-06 0.3686438 0.9295707
vn 2.255478E-05 -0.005391922 0.9999855
vn 0.9189397 -0.002486582 0.3943901
vn 0.2540551 0.05074687 0.9658576
vn 1.341481E-05 -0.003372 0.9999944
vn 0.1944444 -0.001136618 0.9809129
vn -1.98242E-06 -4.763744E-07 1
vn -1.979884E-06 0.004147744 0.9999914
vn 0.9090081 0.4145996 0.04256098
vn 0.7982399 0.3016474 0.5213652
vn 0.9131524 0.4072582 0.01712663
vn 0.796871 0.3342517 0.5032617
vn 0.2587439 -0.05193618 0.9645487
vn -1.974338E-06 0.01403417 0.9999015
vn 0.8257418 -0.008654302 0.5639821
vn 0.8105327 -0.2881468 0.5099097
vn 0.9333258 -0.3586569 0.01637918
vn 0.9337371 -0.3557157 0.04001845
vn 0.8392927 -0.2454877 0.4851016
vn 0.9422925 -0.0001060607 0.3347908
vn 0.3525258 0.08775978 0.9316779
vn 0.2826656 0.01259736 0.9591359
vn -1.975073E-06 0.01438256 0.9998965
vn -1.846062E-06 0.01438243 0.9998965
vn 0.9991443 -0.003579515 0.04120527
vn 0.9992666 -0.003579132 0.03812622
vn 0.9492555 -0.0002910308 0.3145057
vn 0.8774668 0.3146682 0.3619888
vn 0.919627 0.3913537 0.03359436
vn 0.9190379 0.3940821 0.00828254
vn 0.8407875 0.3290646 0.4298753
vn 0.3379485 -0.05445531 0.9395879
vn -1.575714E-06 0.007190529 0.9999741
vn 0.8758872 0.01295075 0.4823422
vn 0.860569 -0.2621897 0.4366664
vn 0.947229 -0.3204433 0.008553124
vn 0.9510356 -0.307332 0.0328359
vn 0.9051645 -0.2236493 0.3614668
vn 0.9991357 0.02704935 0.03156632
vn 0.9287937 0.01946673 0.3700857
vn 0.378184 0.006161721 0.92571
vn 0.9998136 -3.893757E-05 0.01930538
vn 0.9164727 0.005416447 0.4000608
vn 0.9999292 -0.01165423 0.002400665
vn 0.9098088 -0.06089106 0.4105366
vn 0.4040897 -0.242487 0.881993
vn -3.849355E-06 -0.2538874 0.9672338
vn 0.4267133 -0.7716779 0.4716238
vn -4.183255E-06 -0.8617612 0.5073143
vn 0.7541822 0.383797 0.5328314
vn 0.8533933 0.331426 0.4023391
vn 0.5654525 -0.01954821 0.8245491
vn 0.8109295 0.01963422 0.5848145
vn 0.7713567 -0.3903861 0.5026008
vn 0.6676861 -0.3377199 0.6634308
vn 0.9999462 0.006926225 0.007725275
vn 0.928803 -0.3663293 0.05592666
vn 0.9998851 -0.01514182 -0.0007211731
vn 0.8056646 -0.003080028 0.592364
vn 0.7149557 -0.4897429 0.4989891
vn 0.7294536 -0.6836085 0.02401706
vn 0.7020515 -0.7111806 -0.03668596
vn 0.9992567 -0.02893854 -0.02546977
vn 0.6386579 -0.5649586 -0.5224346
vn 0.7403999 -0.02623088 -0.6716545
vn 0.7919509 -0.3904435 -0.4694335
vn 0.9218501 -0.3833191 -0.05708693
vn 0.7744027 -0.3277158 -0.5412049
vn 0.1774476 0.002141394 -0.9841279
vn 0.9999961 0.002356497 0.001573134
vn 0.7682996 0.0003749955 -0.6400903
vn 0.9999292 0.009922754 0.006578143
vn 0.9999859 0.002347638 0.004755297
vn 0.6792641 0.4806859 -0.5545642
vn 0.2706741 0.6367382 -0.722011
vn 0.3530506 0.934064 -0.05366387
vn 0.8303318 0.5567662 -0.02367678
vn 0.5526971 0.8332744 -0.01339981
vn 0.8687801 0.4949214 0.01655342
vn 0.8533933 0.331426 0.4023391
vn 0.6386579 -0.5649586 -0.5224346
vn 0.2899517 -0.179598 -0.9400386
vn 0.08621041 -0.004175467 -0.9962682
vn 0.7403999 -0.02623088 -0.6716545
vn 0.07751182 0.003120417 -0.9969866
vn 0.1527084 0.003500864 -0.988265
vn 0.1774476 0.002141394 -0.9841279
vn 0.08056948 0.002542488 -0.9967457
vn 0.2706741 0.6367382 -0.722011
vn 0.1300275 0.07662429 -0.9885452
vn -9.635355E-06 0.3451435 0.9385499
vn 2.708573E-06 -3.833369E-06 1
vn 0.344424 -2.339873E-06 0.9388142
vn 0.3441699 0.3238938 0.8812717
vn -1.129667E-05 0.64667 0.76277
vn 0.8956565 -3.288084E-06 0.4447465
vn 0.3435398 0.6071076 0.7165198
vn -6.049618E-06 0.8682427 0.4961397
vn 0.8955489 0.1538156 0.4175321
vn 0.7488183 1.013396E-06 0.6627753
vn 0.3428243 0.8155097 0.4662782
vn -5.292878E-06 0.9851119 0.1719147
vn 0.8952779 0.2883927 0.3395691
vn 0.748709 0.2287907 0.6221651
vn -7.442904E-06 5.985662E-06 1
vn -5.208334E-06 0.3451364 0.9385526
vn 0.7484437 0.4288697 0.5058684
vn -2.847905E-07 0.6466704 0.7627696
vn 0.3423577 0.9255645 0.1616215
vn -1.789662E-06 0.9851108 -0.1719209
vn 0.894968 0.3875154 0.2210525
vn 0.7481277 0.5761301 0.3292098
vn -2.31407E-06 0.8682479 0.4961305
vn 0.3423575 0.9255642 -0.1616236
vn 1.452992E-06 0.8682429 -0.4961395
vn 0.8947664 0.4399085 0.07663906
vn 0.7479233 0.6539034 0.1141103
vn -3.663615E-06 0.985113 0.1719075
vn 0.3428242 0.815511 -0.466276
vn 3.033941E-06 0.6466682 -0.7627715
vn 0.8947649 0.4399118 -0.07663821
vn 0.7479261 0.6538997 -0.1141125
vn -3.053427E-06 0.9851122 -0.171912
vn 0.3435424 0.6071083 -0.716518
vn 1.011663E-05 0.3451326 -0.938554
vn 0.8949675 0.3875178 -0.2210502
vn 0.7481259 0.5761289 -0.3292161
vn -3.391152E-06 0.868244 -0.4961374
vn 0.3441752 0.3238831 -0.8812736
vn 1.301206E-05 6.088155E-06 -1
vn 0.8952733 0.2883965 -0.3395779
vn 0.7484379 0.4288729 -0.5058742
vn 4.321122E-07 0.6466689 -0.7627709
vn 0.3444297 3.380807E-06 -0.9388121
vn 3.359693E-06 -0.3451314 -0.9385543
vn 0.8955506 0.1538088 -0.4175308
vn 0.7487218 0.2287883 -0.6221507
vn 5.580795E-06 0.3451425 -0.9385502
vn 0.3441759 -0.3238791 -0.8812748
vn 3.898082E-07 -0.6466724 -0.7627678
vn 0.8956551 1.968489E-06 -0.4447493
vn 0.748825 8.641899E-07 -0.6627678
vn 7.288546E-06 6.342243E-07 -1
vn 0.3435452 -0.6071076 -0.7165173
vn 4.040453E-06 -0.8682451 -0.4961356
vn 0.8955519 -0.1538082 -0.4175281
vn 0.7487222 -0.2287893 -0.6221499
vn 6.719451E-06 -0.3451439 -0.9385498
vn 0.3428252 -0.8155115 -0.4662745
vn -2.922894E-07 -0.9851108 -0.171921
vn 0.8952783 -0.2883909 -0.3395694
vn 0.7484382 -0.4288772 -0.5058702
vn 5.928257E-06 -0.646674 -0.7627665
vn 0.3423564 -0.9255651 -0.1616206
vn -7.113348E-06 -0.985112 0.1719138
vn 0.894965 -0.3875218 -0.2210531
vn 0.7481288 -0.5761234 -0.3292191
vn 5.878515E-06 -0.8682384 -0.4961472
vn 0.3423537 -0.9255664 0.1616195
vn -1.244892E-05 -0.8682427 0.4961397
vn 0.8947646 -0.4399123 -0.0766377
vn 0.7479294 -0.6538944 -0.1141214
vn 4.191852E-06 -0.9851094 -0.171928
vn 0.3428172 -0.8155136 0.4662768
vn -1.543567E-05 -0.6466677 0.7627718
vn 0.8947651 -0.4399117 0.07663633
vn 0.7479314 -0.6538924 0.1141199
vn 1.929509E-06 -0.9851097 0.1719268
vn 0.343533 -0.6071081 0.7165227
vn -3.681127E-06 -0.3451459 0.938549
vn 0.8949669 -0.3875194 0.2210494
vn 0.7481213 -0.5761377 0.3292111
vn -1.212565E-06 -0.8682486 0.4961295
vn 0.3441696 -0.3238937 0.8812719
vn 2.708573E-06 -3.833369E-06 1
vn 0.344424 -2.339873E-06 0.9388142
vn 0.8952736 -0.2883944 0.3395789
vn 0.7484429 -0.4288757 0.5058644
vn -5.002133E-06 -0.6466797 0.7627617
vn 0.8955483 -0.1538128 0.4175342
vn 0.8956565 -3.288084E-06 0.4447465
vn 0.7487154 -0.2287797 0.6221617
vn -5.72896E-06 -0.3451235 0.9385573
vn 0.7488183 1.013396E-06 0.6627753
vn -7.442904E-06 5.985662E-06 1
vn -0.08060917 0.002541841 -0.9967425
vn -0.1280882 0.07655082 -0.988804
vn 0.002376206 -4.847483E-05 -0.9999973
vn -5.479572E-05 0.003243543 -0.9999948
vn -1.904388E-05 0.004016657 -0.999992
vn -0.07752861 0.003120298 -0.9969853
vn -0.08620757 -0.004175431 -0.9962684
vn -5.477253E-07 0.004718828 -0.9999889
vn -0.2895505 -0.1785589 -0.9403602
vn -4.948549E-07 0.0003749944 -1
vn -0.4281337 -0.7717769 0.4701723
vn -7.77265E-07 -0.9999964 0.002667946
vn -4.183255E-06 -0.8617612 0.5073143
vn -0.3992174 -0.9168286 -0.007117631
vn -0.9225622 -0.357615 0.1448812
vn -5.919878E-07 -0.9999663 -0.00822341
vn -0.4122795 -0.9109152 -0.01609691
vn -0.3944253 -0.7818866 -0.4827856
vn -3.124523E-06 -0.8591981 -0.5116431
vn -0.906598 -0.3572842 -0.2245619
vn -0.9262571 -0.376457 -0.01810732
vn -0.9287415 -0.3700486 -0.02243269
vn -0.9991046 -0.03205151 -0.02761746
vn -0.9993744 -0.03195361 -0.01515782
vn -0.9993699 -0.009809868 -0.03411036
vn -0.9983985 -0.01182662 -0.05532229
vn -0.8801485 -0.06826515 -0.4697644
vn -0.3944253 -0.7818866 -0.4827856
vn -0.9947993 -0.00164601 -0.1018412
vn -0.3729824 -0.2546394 -0.8922123
vn -3.124523E-06 -0.8591981 -0.5116431
vn -1.98198E-06 -0.2529113 -0.9674895
vn -0.3613263 -0.003440299 -0.9324331
vn 1.600405E-07 -0.001981691 -0.9999981
vn -0.2895505 -0.1785589 -0.9403602
vn -0.8877386 -0.0005796639 -0.4603474
vn -0.9847398 0.004041404 -0.1739868
vn -0.8960326 -0.001458098 -0.4439857
vn -0.6792099 -0.6836936 -0.2669025
vn -0.6386532 -0.5649587 -0.5224403
vn -0.7020517 -0.7111803 -0.03668799
vn -0.6855291 -0.7104561 -0.1590662
vn -0.729454 -0.6836082 0.02401514
vn -0.7400172 -0.670894 0.04770594
vn -0.7149569 -0.4897434 0.4989869
vn -0.9997597 0.006215082 0.02101857
vn -0.9392077 -0.2005435 0.2786954
vn -0.8056663 -0.003079002 0.5923616
vn -0.9982297 0.009924926 0.05864336
vn -0.99993 0.003315131 -0.01135661
vn -0.9999504 -0.007373262 -0.006703678
vn -0.8002369 -0.01840719 0.5994015
vn -0.273279 -0.01064645 0.9618759
vn -0.9999925 0.003879032 -0.0001802282
vn -0.9998616 -0.0161638 0.003928803
vn -0.8400345 -0.04526532 0.5406414
vn -0.5654601 -0.01954671 0.824544
vn -0.9974963 -0.06949856 0.01307897
vn -0.9999756 0.003372016 -0.006119795
vn -0.999227 -0.03930733 0.000524791
vn -0.9942778 -0.1045244 0.02204747
vn -0.9997614 0.005216632 -0.0212137
vn -0.9998024 0.01067051 -0.01677358
vn -0.933762 -0.1225537 0.3362575
vn -0.8533959 0.3314264 0.4023332
vn -0.9982811 -0.05355907 0.02379462
vn -0.9992486 0.02062193 0.03281727
vn -0.9499968 0.2938881 -0.1055263
vn -0.5526971 0.8332744 -0.01340123
vn -0.9988524 -0.04759482 -0.005347627
vn -0.9998635 -0.01498062 -0.006974459
vn -0.9979905 -0.003218999 -0.06328277
vn -0.9997568 0.006598746 0.02104278
vn -0.9997339 -0.01992939 0.01161721
vn -0.805025 0.5779554 -0.1337994
vn -0.3530502 0.9340641 -0.05366427
vn -0.6685433 0.3965836 -0.6291035
vn -0.270673 0.6367377 -0.7220119
vn -0.1280882 0.07655082 -0.988804
vn -0.87147 -0.01345588 -0.4902642
vn -0.9910652 -0.01449367 -0.1325885
vn -0.9902407 -0.004700494 -0.1392884
vn -0.9989492 0.0205045 -0.04098915
vn -0.2473141 -0.001130276 -0.9689347
vn 0.002376206 -4.847483E-05 -0.9999973
vn 0.004857892 -0.001483942 -0.9999871
vn -0.8773245 -0.0001818763 -0.4798976
vn -0.2116382 0.324027 -0.9220715
vn -0.8222795 0.4034806 -0.4013226
vn -0.9961433 0.01140401 -0.08699691
vn -0.998336 0.05233436 -0.0242154
vn -0.9984429 0.03606692 -0.04255478
vn -0.8877692 0.4600614 -0.01447127
vn -0.2622502 0.8907682 -0.3711562
vn -0.2116382 0.324027 -0.9220715
vn 0.004096134 0.3583167 -0.9335912
vn 0.001201031 0.9077135 -0.4195887
vn 0.0007324533 0.9999995 0.0006490831
vn -0.3111568 0.9503532 -0.003187309
vn 0.001723549 0.9999738 0.007038063
vn -0.338694 0.9408701 0.007048731
vn -0.9145181 0.4045149 0.004940214
vn -0.3515075 0.9359276 0.02195216
vn 0.0008743164 0.9997017 0.02440925
vn -0.923829 0.3824581 0.01630592
vn -0.3194923 0.8714743 0.3720983
vn -0.0001195303 0.9110921 0.412203
vn -0.3272575 0.3347352 0.88366
vn -1.934328E-06 0.3686438 0.9295707
vn -0.8685488 0.338235 0.3622433
vn -0.9992362 0.03856287 0.006306089
vn -0.9996672 0.01337851 0.02205849
vn -0.9988727 -0.00738094 0.04689124
vn -0.9980505 -0.01026551 0.06156355
vn -0.9097691 -0.01359275 0.414892
vn -0.3272575 0.3347352 0.88366
vn -0.9986947 -0.007079085 0.05058484
vn -0.3965452 -0.00661001 0.9179914
vn -1.934328E-06 0.3686438 0.9295707
vn 2.255478E-05 -0.005391922 0.9999855
vn -0.9191536 -0.004268997 0.3938761
vn -0.2538419 0.05055144 0.9659238
vn 1.341481E-05 -0.003372 0.9999944
vn -0.1944474 -0.001136416 0.9809123
vn -1.98242E-06 -4.763744E-07 1
vn -1.979884E-06 0.004147744 0.9999914
vn -0.9089635 0.4152516 0.03676294
vn -0.7982415 0.3016486 0.5213622
vn -0.9135174 0.4066416 0.01133945
vn -0.7968723 0.3342527 0.503259
vn -0.2587466 -0.05193572 0.9645481
vn -1.974338E-06 0.01403417 0.9999015
vn -0.8257436 -0.008653408 0.5639793
vn -0.8105345 -0.2881462 0.5099075
vn -0.9335873 -0.358197 0.01046585
vn -0.9337936 -0.3561872 0.03406228
vn -0.8392943 -0.2454868 0.4850994
vn -0.9422935 -0.0001048616 0.3347878
vn -0.3525288 0.08776037 0.9316767
vn -0.2826687 0.01259769 0.9591349
vn -1.975073E-06 0.01438256 0.9998965
vn -1.846062E-06 0.01438243 0.9998965
vn -0.9993856 -0.003577291 0.03486612
vn -0.9994884 -0.003576562 0.03178466
vn -0.9492565 -0.0002894729 0.3145027
vn -0.8774675 0.3146696 0.3619858
vn -0.9195815 0.3919205 0.02771469
vn -0.9193132 0.3935189 0.002462162
vn -0.8407887 0.3290655 0.4298723
vn -0.3374687 -0.05381313 0.9397974
vn -1.575714E-06 0.007190529 0.9999741
vn -0.8758888 0.01295185 0.482339
vn -0.8605706 -0.2621886 0.4366639
vn -0.9474024 -0.3200344 0.002563188
vn -0.9510977 -0.3077286 0.02675857
vn -0.9051656 -0.2236485 0.3614644
vn -0.9991853 0.0314652 0.02527487
vn -0.9291037 0.02449528 0.3690071
vn -0.3798749 0.007812215 0.925005
vn -0.9999059 0.004315603 0.01302387
vn -0.9169525 0.009441592 0.3988846
vn -0.9999247 -0.01164057 -0.003913748
vn -0.9098101 -0.06089003 0.4105338
vn -0.4040948 -0.242486 0.8819908
vn -3.849355E-06 -0.2538874 0.9672338
vn -0.4281337 -0.7717769 0.4701723
vn -4.183255E-06 -0.8617612 0.5073143
vn -0.5654601 -0.01954671 0.824544
vn -0.8533959 0.3314264 0.4023332
vn -0.7541844 0.3837987 0.5328268
vn -0.8109322 0.01963662 0.5848106
vn -0.7713577 -0.3903863 0.5025989
vn -0.6676886 -0.3377196 0.6634286
vn -0.9999462 0.00692869 0.007722206
vn -0.9288031 -0.3663294 0.05592357
vn -0.9998851 -0.01514059 -0.0007235841
vn -0.8056663 -0.003079002 0.5923616
vn -0.7149569 -0.4897434 0.4989869
vn -0.729454 -0.6836082 0.02401514
vn -0.7020517 -0.7111803 -0.03668799
vn -0.9992566 -0.0289374 -0.02547341
vn -0.6386532 -0.5649587 -0.5224403
vn -0.7403976 -0.02622919 -0.6716573
vn -0.7919531 -0.390442 -0.4694308
vn -0.9218501 -0.3833188 -0.057089
vn -0.7744018 -0.3277152 -0.5412067
vn -0.1774448 0.002141201 -0.9841284
vn -0.9999961 0.002357877 0.001570725
vn -0.7682976 0.0003765873 -0.6400927
vn -0.9999292 0.009924004 0.006575339
vn -0.9999859 0.002348985 0.004753228
vn -0.6792666 0.4806875 -0.5545596
vn -0.270673 0.6367377 -0.7220119
vn -0.3530502 0.9340641 -0.05366427
vn -0.8303327 0.5567648 -0.02367731
vn -0.5526971 0.8332744 -0.01340123
vn -0.8687795 0.4949226 0.01655077
vn -0.8533959 0.3314264 0.4023332
vn -0.08620757 -0.004175431 -0.9962684
vn -0.2895505 -0.1785589 -0.9403602
vn -0.6386532 -0.5649587 -0.5224403
vn -0.7403976 -0.02622919 -0.6716573
vn -0.07752861 0.003120298 -0.9969853
vn -0.1527046 0.003500565 -0.9882658
vn -0.1774448 0.002141201 -0.9841284
vn -0.08060917 0.002541841 -0.9967425
vn -0.270673 0.6367377 -0.7220119
vn -0.1280882 0.07655082 -0.988804
vn 4.868381E-06 0.3451394 0.9385515
vn -0.3444252 3.036637E-07 0.9388137
vn 1.965143E-07 -1.337651E-06 1
vn -0.3441736 0.3238916 0.8812712
vn 6.909821E-06 0.6466683 0.7627713
vn -0.8956581 0 0.4447431
vn -0.3435431 0.6071059 0.7165198
vn 2.509408E-06 0.8682436 0.4961381
vn -0.8955507 0.1538167 0.4175279
vn -0.7488196 3.695708E-06 0.6627739
vn -0.3428282 0.81551 0.4662747
vn 0 0.9851114 0.1719173
vn -0.8952793 0.2883922 0.3395658
vn -0.7487128 0.2287884 0.6221615
vn -5.247298E-07 6.602365E-06 1
vn -3.061241E-06 0.3451309 0.9385546
vn -0.7484506 0.4288647 0.5058624
vn -5.763089E-06 0.6466672 0.7627723
vn -0.34236 0.9255638 0.1616205
vn -1.129437E-06 0.9851102 -0.1719246
vn -0.8949696 0.3875153 0.2210461
vn -0.7481283 0.5761329 0.3292035
vn -1.303976E-06 0.8682513 0.4961247
vn -0.3423575 0.9255642 -0.1616239
vn -4.389088E-07 0.8682433 -0.4961387
vn -0.8947668 0.4399081 0.07663647
vn -0.7479243 0.6539028 0.1141074
vn 1.230894E-06 0.9851134 0.171906
vn -0.3428223 0.8155121 -0.4662756
vn 1.644137E-06 0.64667 -0.76277
vn -0.8947636 0.4399139 -0.07664036
vn -0.7479264 0.6538994 -0.1141129
vn 4.418241E-06 0.9851124 -0.1719114
vn -0.3435389 0.6071108 -0.7165176
vn -2.178528E-06 0.3451287 -0.9385554
vn -0.8949661 0.3875199 -0.2210525
vn -0.7481222 0.5761316 -0.3292194
vn 8.461723E-06 0.8682436 -0.4961383
vn -0.3441709 0.3238822 -0.8812757
vn -3.517795E-06 2.715581E-06 -1
vn -0.895272 0.2883982 -0.33958
vn -0.7484339 0.4288784 -0.5058755
vn 6.0481E-06 0.6466721 -0.7627682
vn -0.3444242 2.564122E-06 -0.9388141
vn 1.18571E-06 -0.3451315 -0.9385543
vn -0.8955503 0.1538094 -0.4175313
vn -0.7487197 0.2287923 -0.6221519
vn 1.908491E-06 0.3451449 -0.9385494
vn -0.3441721 -0.323879 -0.8812762
vn 1.761465E-06 -0.6466728 -0.7627676
vn -0.8956535 2.404636E-06 -0.4447525
vn -0.7488208 1.4773E-06 -0.6627724
vn 5.24537E-07 3.451482E-07 -1
vn -0.3435419 -0.6071078 -0.7165188
vn -1.766457E-06 -0.8682448 -0.4961361
vn -0.8955518 -0.1538067 -0.417529
vn -0.7487221 -0.2287935 -0.6221486
vn 5.934725E-07 -0.345151 -0.9385472
vn -0.3428236 -0.8155124 -0.4662741
vn -4.176866E-07 -0.9851104 -0.1719228
vn -0.8952759 -0.2883923 -0.3395746
vn -0.7484313 -0.4288831 -0.5058753
vn 0 -0.6466761 -0.7627646
vn -0.3423578 -0.9255643 -0.1616222
vn 6.527957E-06 -0.9851122 0.1719123
vn -0.8949644 -0.3875223 -0.221055
vn -0.7481298 -0.5761195 -0.3292236
vn -2.46523E-06 -0.8682368 -0.4961501
vn -0.3423568 -0.9255655 0.1616172
vn 1.218852E-05 -0.8682421 0.4961406
vn -0.8947659 -0.4399094 -0.07664022
vn -0.7479293 -0.6538938 -0.1141256
vn -4.341454E-06 -0.985109 -0.171931
vn -0.3428223 -0.8155119 0.4662758
vn 1.348995E-05 -0.6466679 0.7627717
vn -0.8947676 -0.4399073 0.07663196
vn -0.7479342 -0.6538891 0.1141208
vn -3.332184E-06 -0.9851092 0.1719297
vn -0.3435377 -0.6071069 0.7165215
vn 6.101726E-06 -0.3451445 0.9385495
vn -0.8949695 -0.3875166 0.2210443
vn -0.7481181 -0.5761418 0.3292111
vn -1.294955E-06 -0.8682491 0.4961285
vn -0.3441721 -0.3238931 0.8812711
vn 1.965143E-07 -1.337651E-06 1
vn -0.3444252 3.036637E-07 0.9388137
vn -0.8952761 -0.2883928 0.3395738
vn -0.7484503 -0.4288759 0.5058535
vn -2.258653E-06 -0.6466857 0.7627566
vn -0.8955518 -0.1538111 0.4175272
vn -0.8956581 0 0.4447431
vn -0.7487213 -0.2287774 0.6221554
vn -3.232516E-06 -0.3451231 0.9385574
vn -0.7488196 3.695708E-06 0.6627739
vn -5.247298E-07 6.602365E-06 1
f 1/1/1 2/2/2 3/3/3
f 1/1/1 3/3/3 4/4/4
f 3/3/3 5/5/5 4/4/4
f 3/3/3 6/6/6 5/5/5
f 5/5/5 6/6/6 7/7/7
f 5/5/5 7/7/7 8/8/8
f 8/8/8 7/7/7 9/9/9
f 8/8/8 9/9/9 10/10/10
f 11/11/11 12/12/12 13/13/13
f 11/11/11 14/14/14 12/12/12
f 15/15/15 14/14/14 11/11/11
f 14/14/14 16/16/16 12/12/12
f 15/15/15 17/17/17 14/14/14
f 15/15/15 18/18/18 17/17/17
f 15/15/15 19/19/19 18/18/18
f 17/17/17 18/18/18 20/20/20
f 17/17/17 21/21/21 14/14/14
f 14/14/14 21/21/21 16/16/16
f 17/17/17 20/20/20 22/22/22
f 17/17/17 22/22/22 21/21/21
f 23/23/23 21/21/21 22/22/22
f 23/23/23 22/22/22 20/20/20
f 16/16/16 21/21/21 24/24/24
f 23/23/23 24/24/24 21/21/21
f 24/24/24 23/23/23 25/25/25
f 23/23/23 20/20/20 26/26/26
f 26/26/26 25/25/25 23/23/23
f 20/20/20 27/27/27 26/26/26
f 27/27/27 20/20/20 28/28/28
f 26/26/26 29/29/29 25/25/25
f 29/29/29 26/26/26 27/27/27
f 27/27/27 28/28/28 30/30/30
f 30/30/30 28/28/28 31/31/31
f 30/30/30 31/31/31 32/32/32
f 32/32/32 33/33/33 30/30/30
f 27/27/27 30/30/30 33/33/33
f 32/32/32 34/34/34 33/33/33
f 35/35/35 33/33/33 34/34/34
f 27/27/27 33/33/33 36/36/36
f 29/29/29 27/27/27 36/36/36
f 35/35/35 37/37/37 33/33/33
f 37/37/37 36/36/36 33/33/33
f 38/38/38 29/29/29 36/36/36
f 37/37/37 39/39/39 36/36/36
f 38/38/38 36/36/36 39/39/39
f 40/40/40 39/39/39 37/37/37
f 40/40/40 37/37/37 41/41/41
f 42/42/42 40/40/40 41/41/41
f 39/39/39 40/40/40 43/43/43
f 42/42/42 43/43/43 40/40/40
f 39/39/39 43/43/43 38/38/38
f 43/43/43 42/42/42 44/44/44
f 43/43/43 44/44/44 45/45/45
f 38/38/38 43/43/43 45/45/45
f 45/45/45 44/44/44 46/46/46
f 47/47/47 29/29/29 38/38/38
f 38/38/38 45/45/45 47/47/47
f 47/47/47 25/25/25 29/29/29
f 45/45/45 46/46/46 48/48/48
f 48/48/48 46/46/46 49/49/49
f 45/45/45 50/50/50 47/47/47
f 50/50/50 25/25/25 47/47/47
f 45/45/45 48/48/48 50/50/50
f 25/25/25 50/50/50 51/51/51
f 51/51/51 52/52/52 25/25/25
f 24/24/24 25/25/25 52/52/52
f 48/48/48 49/49/49 53/53/53
f 53/53/53 49/49/49 54/54/54
f 50/50/50 48/48/48 55/55/55
f 50/50/50 55/55/55 51/51/51
f 56/56/56 55/55/55 48/48/48
f 56/56/56 48/48/48 53/53/53
f 53/53/53 54/54/54 57/57/57
f 54/54/54 58/58/58 57/57/57
f 59/59/59 53/53/53 57/57/57
f 59/59/59 56/56/56 53/53/53
f 59/59/59 60/60/60 56/56/56
f 59/59/59 61/61/61 60/60/60
f 62/62/62 61/61/61 59/59/59
f 55/55/55 56/56/56 63/63/63
f 55/55/55 63/63/63 51/51/51
f 60/60/60 63/63/63 56/56/56
f 64/64/64 51/51/51 63/63/63
f 64/64/64 63/63/63 60/60/60
f 65/65/65 57/57/57 58/58/58
f 59/59/59 57/57/57 65/65/65
f 59/59/59 65/65/65 62/62/62
f 65/65/65 58/58/58 66/66/66
f 67/67/67 62/62/62 65/65/65
f 65/65/65 66/66/66 68/68/68
f 67/67/67 65/65/65 68/68/68
f 69/69/69 68/68/68 66/66/66
f 69/69/69 66/66/66 70/70/70
f 67/67/67 71/71/71 62/62/62
f 62/62/62 71/71/71 61/61/61
f 72/72/72 61/61/61 71/71/71
f 67/67/67 68/68/68 73/73/73
f 73/73/73 68/68/68 69/69/69
f 67/67/67 73/73/73 74/74/74
f 74/74/74 75/75/75 67/67/67
f 67/67/67 75/75/75 71/71/71
f 72/72/72 71/71/71 75/75/75
f 76/76/76 69/69/69 70/70/70
f 76/76/76 70/70/70 77/77/77
f 78/78/78 76/76/76 77/77/77
f 78/78/78 77/77/77 79/79/79
f 80/80/80 78/78/78 79/79/79
f 81/81/81 76/76/76 78/78/78
f 81/81/81 78/78/78 80/80/80
f 82/82/82 69/69/69 76/76/76
f 81/81/81 82/82/82 76/76/76
f 73/73/73 69/69/69 83/83/83
f 82/82/82 83/83/83 69/69/69
f 84/84/84 73/73/73 83/83/83
f 82/82/82 84/84/84 83/83/83
f 73/73/73 84/84/84 74/74/74
f 81/81/81 80/80/80 85/85/85
f 86/86/86 85/85/85 80/80/80
f 86/86/86 87/87/87 85/85/85
f 82/82/82 81/81/81 88/88/88
f 81/81/81 85/85/85 88/88/88
f 87/87/87 89/89/89 85/85/85
f 88/88/88 85/85/85 89/89/89
f 87/87/87 90/90/90 89/89/89
f 88/88/88 89/89/89 91/91/91
f 82/82/82 92/92/92 84/84/84
f 82/82/82 88/88/88 92/92/92
f 93/93/93 84/84/84 92/92/92
f 93/93/93 74/74/74 84/84/84
f 88/88/88 94/94/94 92/92/92
f 88/88/88 91/91/91 94/94/94
f 93/93/93 92/92/92 94/94/94
f 94/94/94 91/91/91 95/95/95
f 94/94/94 95/95/95 93/93/93
f 96/96/96 95/95/95 91/91/91
f 96/96/96 91/91/91 97/97/97
f 98/98/98 96/96/96 97/97/97
f 98/98/98 99/99/99 96/96/96
f 100/100/100 96/96/96 99/99/99
f 100/100/100 101/101/101 96/96/96
f 96/96/96 101/101/101 95/95/95
f 102/102/102 101/101/101 100/100/100
f 95/95/95 101/101/101 103/103/103
f 102/102/102 103/103/103 101/101/101
f 93/93/93 95/95/95 104/104/104
f 95/95/95 103/103/103 104/104/104
f 105/105/105 103/103/103 102/102/102
f 105/105/105 102/102/102 106/106/106
f 107/107/107 103/103/103 105/105/105
f 107/107/107 104/104/104 103/103/103
f 106/106/106 108/108/108 105/105/105
f 108/108/108 107/107/107 105/105/105
f 106/106/106 109/109/109 108/108/108
f 109/109/109 110/110/110 108/108/108
f 109/109/109 111/111/111 110/110/110
f 110/110/110 112/112/112 108/108/108
f 108/108/108 112/112/112 107/107/107
f 93/93/93 104/104/104 113/113/113
f 93/93/93 113/113/113 74/74/74
f 104/104/104 114/114/114 113/113/113
f 104/104/104 107/107/107 114/114/114
f 74/74/74 113/113/113 114/114/114
f 115/115/115 107/107/107 112/112/112
f 115/115/115 114/114/114 107/107/107
f 116/116/116 74/74/74 114/114/114
f 116/116/116 114/114/114 115/115/115
f 115/115/115 112/112/112 117/117/117
f 115/115/115 117/117/117 116/116/116
f 118/118/118 117/117/117 112/112/112
f 119/119/119 74/74/74 116/116/116
f 119/119/119 75/75/75 74/74/74
f 118/118/118 120/120/120 117/117/117
f 121/121/121 120/120/120 118/118/118
f 121/121/121 122/122/122 120/120/120
f 123/123/123 116/116/116 117/117/117
f 123/123/123 119/119/119 116/116/116
f 120/120/120 123/123/123 117/117/117
f 122/122/122 124/124/124 120/120/120
f 120/120/120 124/124/124 123/123/123
f 122/122/122 125/125/125 124/124/124
f 125/125/125 126/126/126 124/124/124
f 125/125/125 127/127/127 126/126/126
f 128/128/128 126/126/126 127/127/127
f 129/129/129 75/75/75 119/119/119
f 123/123/123 129/129/129 119/119/119
f 124/124/124 130/130/130 123/123/123
f 123/123/123 130/130/130 129/129/129
f 131/131/131 75/75/75 129/129/129
f 131/131/131 129/129/129 130/130/130
f 72/72/72 75/75/75 131/131/131
f 132/132/132 130/130/130 124/124/124
f 131/131/131 130/130/130 132/132/132
f 132/132/132 124/124/124 126/126/126
f 72/72/72 131/131/131 132/132/132
f 128/128/128 133/133/133 126/126/126
f 134/134/134 133/133/133 128/128/128
f 132/132/132 126/126/126 135/135/135
f 72/72/72 132/132/132 135/135/135
f 126/126/126 136/136/136 135/135/135
f 72/72/72 135/135/135 136/136/136
f 126/126/126 133/133/133 136/136/136
f 72/72/72 136/136/136 137/137/137
f 72/72/72 137/137/137 61/61/61
f 136/136/136 138/138/138 137/137/137
f 138/138/138 61/61/61 137/137/137
f 133/133/133 139/139/139 136/136/136
f 136/136/136 139/139/139 138/138/138
f 140/140/140 139/139/139 133/133/133
f 140/140/140 138/138/138 139/139/139
f 134/134/134 141/141/141 133/133/133
f 141/141/141 140/140/140 133/133/133
f 134/134/134 142/142/142 141/141/141
f 134/134/134 143/143/143 142/142/142
f 144/144/144 142/142/142 143/143/143
f 61/61/61 138/138/138 145/145/145
f 140/140/140 145/145/145 138/138/138
f 146/146/146 61/61/61 145/145/145
f 146/146/146 60/60/60 61/61/61
f 145/145/145 140/140/140 147/147/147
f 141/141/141 147/147/147 140/140/140
f 145/145/145 147/147/147 146/146/146
f 148/148/148 147/147/147 141/141/141
f 146/146/146 147/147/147 148/148/148
f 60/60/60 146/146/146 149/149/149
f 146/146/146 148/148/148 149/149/149
f 150/150/150 60/60/60 149/149/149
f 150/150/150 149/149/149 148/148/148
f 64/64/64 60/60/60 150/150/150
f 151/151/151 148/148/148 141/141/141
f 150/150/150 148/148/148 151/151/151
f 151/151/151 141/141/141 142/142/142
f 64/64/64 150/150/150 151/151/151
f 144/144/144 152/152/152 142/142/142
f 153/153/153 152/152/152 144/144/144
f 151/151/151 142/142/142 154/154/154
f 64/64/64 151/151/151 154/154/154
f 142/142/142 155/155/155 154/154/154
f 64/64/64 154/154/154 155/155/155
f 142/142/142 152/152/152 155/155/155
f 64/64/64 155/155/155 156/156/156
f 64/64/64 156/156/156 51/51/51
f 155/155/155 157/157/157 156/156/156
f 157/157/157 51/51/51 156/156/156
f 152/152/152 158/158/158 155/155/155
f 155/155/155 158/158/158 157/157/157
f 51/51/51 157/157/157 159/159/159
f 159/159/159 52/52/52 51/51/51
f 157/157/157 158/158/158 160/160/160
f 152/152/152 160/160/160 158/158/158
f 157/157/157 160/160/160 159/159/159
f 153/153/153 161/161/161 152/152/152
f 160/160/160 152/152/152 161/161/161
f 159/159/159 162/162/162 52/52/52
f 162/162/162 24/24/24 52/52/52
f 159/159/159 160/160/160 163/163/163
f 159/159/159 163/163/163 162/162/162
f 160/160/160 161/161/161 163/163/163
f 162/162/162 164/164/164 24/24/24
f 163/163/163 164/164/164 162/162/162
f 16/16/16 24/24/24 164/164/164
f 163/163/163 165/165/165 164/164/164
f 161/161/161 165/165/165 163/163/163
f 165/165/165 16/16/16 164/164/164
f 153/153/153 166/166/166 161/161/161
f 161/161/161 166/166/166 165/165/165
f 16/16/16 165/165/165 166/166/166
f 153/153/153 167/167/167 166/166/166
f 16/16/16 166/166/166 168/168/168
f 169/169/169 166/166/166 167/167/167
f 169/169/169 168/168/168 166/166/166
f 170/170/170 171/171/171 172/172/172
f 170/170/170 172/172/172 173/173/173
f 172/172/172 174/174/174 173/173/173
f 172/172/172 175/175/175 174/174/174
f 176/176/176 170/170/170 173/173/173
f 176/176/176 173/173/173 174/174/174
f 174/174/174 175/175/175 177/177/177
f 178/178/178 177/177/177 175/175/175
f 178/178/178 175/175/175 179/179/179
f 178/178/178 179/179/179 180/180/180
f 178/178/178 180/180/180 181/181/181
f 178/178/178 181/181/181 182/182/182
f 178/178/178 182/182/182 183/183/183
f 183/183/183 182/182/182 184/184/184
f 183/183/183 184/184/184 185/185/185
f 183/183/183 185/185/185 186/186/186
f 178/178/178 183/183/183 187/187/187
f 178/178/178 187/187/187 177/177/177
f 183/183/183 186/186/186 187/187/187
f 177/177/177 187/187/187 188/188/188
f 187/187/187 186/186/186 188/188/188
f 177/177/177 188/188/188 174/174/174
f 188/188/188 186/186/186 189/189/189
f 190/190/190 174/174/174 188/188/188
f 188/188/188 189/189/189 191/191/191
f 191/191/191 190/190/190 188/188/188
f 190/190/190 192/192/192 174/174/174
f 176/176/176 174/174/174 192/192/192
f 193/193/193 192/192/192 190/190/190
f 193/193/193 176/176/176 192/192/192
f 191/191/191 193/193/193 190/190/190
f 189/189/189 194/194/194 191/191/191
f 189/189/189 195/195/195 194/194/194
f 194/194/194 195/195/195 196/196/196
f 191/191/191 194/194/194 197/197/197
f 194/194/194 196/196/196 197/197/197
f 191/191/191 197/197/197 193/193/193
f 197/197/197 196/196/196 198/198/198
f 193/193/193 199/199/199 176/176/176
f 193/193/193 197/197/197 199/199/199
f 197/197/197 198/198/198 199/199/199
f 176/176/176 199/199/199 170/170/170
f 198/198/198 170/170/170 199/199/199
f 198/198/198 200/200/200 170/170/170
f 201/201/201 202/202/202 203/203/203
f 201/201/201 203/203/203 204/204/204
f 204/204/204 203/203/203 205/205/205
f 204/204/204 205/205/205 206/206/206
f 205/205/205 207/207/207 206/206/206
f 205/205/205 208/208/208 207/207/207
f 208/208/208 209/209/209 207/207/207
f 208/208/208 210/210/210 209/209/209
f 211/211/211 212/212/212 213/213/213
f 211/211/211 213/213/213 214/214/214
f 215/215/215 211/211/211 214/214/214
f 214/214/214 213/213/213 216/216/216
f 215/215/215 214/214/214 217/217/217
f 218/218/218 215/215/215 217/217/217
f 214/214/214 216/216/216 219/219/219
f 217/217/217 214/214/214 219/219/219
f 219/219/219 216/216/216 220/220/220
f 218/218/218 217/217/217 221/221/221
f 222/222/222 218/218/218 221/221/221
f 217/217/217 219/219/219 223/223/223
f 221/221/221 217/217/217 223/223/223
f 219/219/219 220/220/220 224/224/224
f 223/223/223 219/219/219 224/224/224
f 224/224/224 220/220/220 225/225/225
f 224/224/224 225/225/225 226/226/226
f 227/227/227 224/224/224 226/226/226
f 223/223/223 224/224/224 227/227/227
f 227/227/227 226/226/226 228/228/228
f 222/222/222 221/221/221 229/229/229
f 230/230/230 222/222/222 229/229/229
f 221/221/221 223/223/223 231/231/231
f 231/231/231 223/223/223 227/227/227
f 229/229/229 221/221/221 231/231/231
f 232/232/232 227/227/227 228/228/228
f 231/231/231 227/227/227 232/232/232
f 232/232/232 228/228/228 233/233/233
f 230/230/230 229/229/229 234/234/234
f 235/235/235 230/230/230 234/234/234
f 229/229/229 231/231/231 236/236/236
f 236/236/236 231/231/231 232/232/232
f 234/234/234 229/229/229 236/236/236
f 237/237/237 232/232/232 233/233/233
f 236/236/236 232/232/232 237/237/237
f 237/237/237 233/233/233 238/238/238
f 235/235/235 234/234/234 239/239/239
f 240/240/240 235/235/235 239/239/239
f 234/234/234 236/236/236 241/241/241
f 241/241/241 236/236/236 237/237/237
f 239/239/239 234/234/234 241/241/241
f 242/242/242 237/237/237 238/238/238
f 241/241/241 237/237/237 242/242/242
f 242/242/242 238/238/238 243/243/243
f 240/240/240 239/239/239 244/244/244
f 245/245/245 240/240/240 244/244/244
f 239/239/239 241/241/241 246/246/246
f 246/246/246 241/241/241 242/242/242
f 244/244/244 239/239/239 246/246/246
f 247/247/247 242/242/242 243/243/243
f 246/246/246 242/242/242 247/247/247
f 247/247/247 243/243/243 248/248/248
f 245/245/245 244/244/244 249/249/249
f 250/250/250 245/245/245 249/249/249
f 244/244/244 246/246/246 251/251/251
f 251/251/251 246/246/246 247/247/247
f 249/249/249 244/244/244 251/251/251
f 252/252/252 247/247/247 248/248/248
f 251/251/251 247/247/247 252/252/252
f 252/252/252 248/248/248 253/253/253
f 250/250/250 249/249/249 254/254/254
f 255/255/255 250/250/250 254/254/254
f 249/249/249 251/251/251 256/256/256
f 256/256/256 251/251/251 252/252/252
f 254/254/254 249/249/249 256/256/256
f 257/257/257 252/252/252 253/253/253
f 256/256/256 252/252/252 257/257/257
f 257/257/257 253/253/253 258/258/258
f 255/255/255 254/254/254 259/259/259
f 260/260/260 255/255/255 259/259/259
f 254/254/254 256/256/256 261/261/261
f 261/261/261 256/256/256 257/257/257
f 259/259/259 254/254/254 261/261/261
f 262/262/262 257/257/257 258/258/258
f 261/261/261 257/257/257 262/262/262
f 262/262/262 258/258/258 263/263/263
f 260/260/260 259/259/259 264/264/264
f 265/265/265 260/260/260 264/264/264
f 259/259/259 261/261/261 266/266/266
f 266/266/266 261/261/261 262/262/262
f 264/264/264 259/259/259 266/266/266
f 267/267/267 262/262/262 263/263/263
f 266/266/266 262/262/262 267/267/267
f 267/267/267 263/263/263 268/268/268
f 265/265/265 264/264/264 269/269/269
f 270/270/270 265/265/265 269/269/269
f 264/264/264 266/266/266 271/271/271
f 271/271/271 266/266/266 267/267/267
f 269/269/269 264/264/264 271/271/271
f 272/272/272 267/267/267 268/268/268
f 271/271/271 267/267/267 272/272/272
f 272/272/272 268/268/268 273/273/273
f 270/270/270 269/269/269 274/274/274
f 275/275/275 270/270/270 274/274/274
f 269/269/269 271/271/271 276/276/276
f 276/276/276 271/271/271 272/272/272
f 274/274/274 269/269/269 276/276/276
f 277/277/277 272/272/272 273/273/273
f 276/276/276 272/272/272 277/277/277
f 277/277/277 273/273/273 278/278/278
f 275/275/275 274/274/274 279/279/279
f 280/280/280 275/275/275 279/279/279
f 274/274/274 276/276/276 281/281/281
f 281/281/281 276/276/276 277/277/277
f 279/279/279 274/274/274 281/281/281
f 282/282/282 277/277/277 278/278/278
f 281/281/281 277/277/277 282/282/282
f 282/282/282 278/278/278 283/283/283
f 280/280/280 279/279/279 284/284/284
f 285/285/285 280/280/280 284/284/284
f 279/279/279 281/281/281 286/286/286
f 286/286/286 281/281/281 282/282/282
f 284/284/284 279/279/279 286/286/286
f 287/287/287 282/282/282 283/283/283
f 286/286/286 282/282/282 287/287/287
f 287/287/287 283/283/283 288/288/288
f 285/285/285 284/284/284 289/289/289
f 290/290/290 285/285/285 289/289/289
f 284/284/284 286/286/286 291/291/291
f 291/291/291 286/286/286 287/287/287
f 289/289/289 284/284/284 291/291/291
f 292/292/292 287/287/287 288/288/288
f 291/291/291 287/287/287 292/292/292
f 292/292/292 288/288/288 293/293/293
f 290/290/290 289/289/289 294/294/294
f 295/295/295 290/290/290 294/294/294
f 295/295/295 294/294/294 296/296/296
f 289/289/289 291/291/291 297/297/297
f 297/297/297 291/291/291 292/292/292
f 294/294/294 289/289/289 297/297/297
f 298/298/298 292/292/292 293/293/293
f 297/297/297 292/292/292 298/298/298
f 298/298/298 293/293/293 299/299/299
f 296/296/296 294/294/294 300/300/300
f 294/294/294 297/297/297 300/300/300
f 300/300/300 297/297/297 298/298/298
f 296/296/296 300/300/300 301/301/301
f 302/302/302 298/298/298 299/299/299
f 300/300/300 298/298/298 302/302/302
f 301/301/301 300/300/300 302/302/302
f 302/302/302 299/299/299 303/303/303
f 301/301/301 302/302/302 304/304/304
f 304/304/304 302/302/302 303/303/303
f 304/304/304 303/303/303 305/305/305
f 306/306/306 307/307/307 308/308/308
f 306/306/306 308/308/308 309/309/309
f 306/306/306 309/309/309 310/310/310
f 306/306/306 310/310/310 311/311/311
f 310/310/310 312/312/312 311/311/311
f 310/310/310 313/313/313 312/312/312
f 314/314/314 312/312/312 313/313/313
f 314/314/314 313/313/313 315/315/315
f 316/316/316 317/317/317 318/318/318
f 316/316/316 319/319/319 317/317/317
f 320/320/320 319/319/319 316/316/316
f 319/319/319 321/321/321 317/317/317
f 319/319/319 322/322/322 321/321/321
f 323/323/323 321/321/321 322/322/322
f 323/323/323 324/324/324 321/321/321
f 322/322/322 325/325/325 323/323/323
f 326/326/326 322/322/322 319/319/319
f 320/320/320 326/326/326 319/319/319
f 322/322/322 327/327/327 325/325/325
f 326/326/326 327/327/327 322/322/322
f 326/326/326 328/328/328 327/327/327
f 325/325/325 327/327/327 328/328/328
f 320/320/320 329/329/329 326/326/326
f 326/326/326 329/329/329 328/328/328
f 330/330/330 328/328/328 329/329/329
f 325/325/325 328/328/328 331/331/331
f 330/330/330 331/331/331 328/328/328
f 325/325/325 331/331/331 332/332/332
f 332/332/332 333/333/333 325/325/325
f 330/330/330 334/334/334 331/331/331
f 332/332/332 331/331/331 334/334/334
f 332/332/332 335/335/335 333/333/333
f 335/335/335 336/336/336 333/333/333
f 335/335/335 337/337/337 336/336/336
f 338/338/338 337/337/337 335/335/335
f 332/332/332 338/338/338 335/335/335
f 338/338/338 339/339/339 337/337/337
f 338/338/338 35/35/35 339/339/339
f 338/338/338 340/340/340 35/35/35
f 332/332/332 341/341/341 338/338/338
f 332/332/332 334/334/334 341/341/341
f 341/341/341 340/340/340 338/338/338
f 341/341/341 334/334/334 342/342/342
f 341/341/341 343/343/343 340/340/340
f 341/341/341 342/342/342 343/343/343
f 344/344/344 340/340/340 343/343/343
f 344/344/344 345/345/345 340/340/340
f 344/344/344 346/346/346 345/345/345
f 343/343/343 347/347/347 344/344/344
f 344/344/344 347/347/347 346/346/346
f 343/343/343 342/342/342 347/347/347
f 348/348/348 346/346/346 347/347/347
f 348/348/348 347/347/347 349/349/349
f 342/342/342 349/349/349 347/347/347
f 350/350/350 348/348/348 349/349/349
f 334/334/334 351/351/351 342/342/342
f 342/342/342 351/351/351 349/349/349
f 334/334/334 330/330/330 351/351/351
f 350/350/350 349/349/349 352/352/352
f 353/353/353 350/350/350 352/352/352
f 354/354/354 349/349/349 351/351/351
f 354/354/354 351/351/351 330/330/330
f 354/354/354 352/352/352 349/349/349
f 355/355/355 354/354/354 330/330/330
f 330/330/330 356/356/356 355/355/355
f 330/330/330 329/329/329 356/356/356
f 353/353/353 352/352/352 357/357/357
f 358/358/358 353/353/353 357/357/357
f 354/354/354 359/359/359 352/352/352
f 355/355/355 359/359/359 354/354/354
f 352/352/352 359/359/359 360/360/360
f 352/352/352 360/360/360 357/357/357
f 358/358/358 357/357/357 361/361/361
f 358/358/358 361/361/361 362/362/362
f 357/357/357 363/363/363 361/361/361
f 357/357/357 360/360/360 363/363/363
f 363/363/363 360/360/360 364/364/364
f 363/363/363 364/364/364 365/365/365
f 365/365/365 366/366/366 363/363/363
f 367/367/367 360/360/360 359/359/359
f 367/367/367 359/359/359 355/355/355
f 364/364/364 360/360/360 367/367/367
f 355/355/355 368/368/368 367/367/367
f 364/364/364 367/367/367 368/368/368
f 369/369/369 362/362/362 361/361/361
f 363/363/363 369/369/369 361/361/361
f 363/363/363 366/366/366 369/369/369
f 370/370/370 362/362/362 369/369/369
f 369/369/369 366/366/366 371/371/371
f 370/370/370 369/369/369 372/372/372
f 369/369/369 371/371/371 372/372/372
f 373/373/373 370/370/370 372/372/372
f 373/373/373 374/374/374 370/370/370
f 375/375/375 371/371/371 366/366/366
f 365/365/365 375/375/375 366/366/366
f 365/365/365 376/376/376 375/375/375
f 371/371/371 377/377/377 372/372/372
f 377/377/377 373/373/373 372/372/372
f 378/378/378 377/377/377 371/371/371
f 371/371/371 379/379/379 378/378/378
f 375/375/375 379/379/379 371/371/371
f 379/379/379 375/375/375 376/376/376
f 380/380/380 374/374/374 373/373/373
f 380/380/380 381/381/381 374/374/374
f 382/382/382 381/381/381 380/380/380
f 382/382/382 383/383/383 381/381/381
f 384/384/384 383/383/383 382/382/382
f 380/380/380 385/385/385 382/382/382
f 385/385/385 384/384/384 382/382/382
f 373/373/373 386/386/386 380/380/380
f 380/380/380 386/386/386 385/385/385
f 377/377/377 387/387/387 373/373/373
f 373/373/373 387/387/387 386/386/386
f 388/388/388 387/387/387 377/377/377
f 388/388/388 386/386/386 387/387/387
f 378/378/378 388/388/388 377/377/377
f 389/389/389 384/384/384 385/385/385
f 389/389/389 390/390/390 384/384/384
f 389/389/389 391/391/391 390/390/390
f 392/392/392 385/385/385 386/386/386
f 389/389/389 385/385/385 392/392/392
f 393/393/393 391/391/391 389/389/389
f 393/393/393 389/389/389 392/392/392
f 393/393/393 90/90/90 391/391/391
f 393/393/393 392/392/392 394/394/394
f 388/388/388 395/395/395 386/386/386
f 392/392/392 386/386/386 395/395/395
f 396/396/396 395/395/395 388/388/388
f 378/378/378 396/396/396 388/388/388
f 392/392/392 395/395/395 397/397/397
f 392/392/392 397/397/397 394/394/394
f 396/396/396 397/397/397 395/395/395
f 398/398/398 394/394/394 397/397/397
f 398/398/398 397/397/397 396/396/396
f 399/399/399 394/394/394 398/398/398
f 399/399/399 400/400/400 394/394/394
f 399/399/399 401/401/401 400/400/400
f 399/399/399 402/402/402 401/401/401
f 399/399/399 403/403/403 402/402/402
f 399/399/399 404/404/404 403/403/403
f 399/399/399 398/398/398 404/404/404
f 404/404/404 405/405/405 403/403/403
f 406/406/406 404/404/404 398/398/398
f 404/404/404 406/406/406 405/405/405
f 407/407/407 398/398/398 396/396/396
f 406/406/406 398/398/398 407/407/407
f 408/408/408 405/405/405 406/406/406
f 408/408/408 409/409/409 405/405/405
f 410/410/410 408/408/408 406/406/406
f 410/410/410 406/406/406 407/407/407
f 411/411/411 409/409/409 408/408/408
f 411/411/411 408/408/408 410/410/410
f 411/411/411 412/412/412 409/409/409
f 413/413/413 412/412/412 411/411/411
f 413/413/413 414/414/414 412/412/412
f 413/413/413 411/411/411 415/415/415
f 411/411/411 410/410/410 415/415/415
f 407/407/407 396/396/396 416/416/416
f 378/378/378 416/416/416 396/396/396
f 407/407/407 416/416/416 417/417/417
f 407/407/407 417/417/417 410/410/410
f 378/378/378 417/417/417 416/416/416
f 410/410/410 418/418/418 415/415/415
f 410/410/410 417/417/417 418/418/418
f 419/419/419 417/417/417 378/378/378
f 419/419/419 418/418/418 417/417/417
f 420/420/420 415/415/415 418/418/418
f 420/420/420 418/418/418 419/419/419
f 421/421/421 415/415/415 420/420/420
f 378/378/378 422/422/422 419/419/419
f 378/378/378 379/379/379 422/422/422
f 421/421/421 420/420/420 423/423/423
f 423/423/423 424/424/424 421/421/421
f 423/423/423 425/425/425 424/424/424
f 419/419/419 426/426/426 420/420/420
f 419/419/419 422/422/422 426/426/426
f 423/423/423 420/420/420 426/426/426
f 427/427/427 425/425/425 423/423/423
f 423/423/423 426/426/426 427/427/427
f 427/427/427 428/428/428 425/425/425
f 429/429/429 428/428/428 427/427/427
f 429/429/429 430/430/430 428/428/428
f 431/431/431 430/430/430 429/429/429
f 432/432/432 422/422/422 379/379/379
f 432/432/432 426/426/426 422/422/422
f 427/427/427 426/426/426 433/433/433
f 432/432/432 433/433/433 426/426/426
f 434/434/434 432/432/432 379/379/379
f 433/433/433 432/432/432 434/434/434
f 379/379/379 376/376/376 434/434/434
f 435/435/435 427/427/427 433/433/433
f 433/433/433 434/434/434 435/435/435
f 429/429/429 427/427/427 435/435/435
f 435/435/435 434/434/434 376/376/376
f 431/431/431 429/429/429 436/436/436
f 436/436/436 437/437/437 431/431/431
f 429/429/429 435/435/435 438/438/438
f 435/435/435 376/376/376 438/438/438
f 429/429/429 438/438/438 439/439/439
f 439/439/439 438/438/438 376/376/376
f 429/429/429 439/439/439 436/436/436
f 439/439/439 376/376/376 440/440/440
f 365/365/365 440/440/440 376/376/376
f 439/439/439 440/440/440 441/441/441
f 441/441/441 440/440/440 365/365/365
f 436/436/436 439/439/439 442/442/442
f 439/439/439 441/441/441 442/442/442
f 443/443/443 436/436/436 442/442/442
f 441/441/441 443/443/443 442/442/442
f 436/436/436 444/444/444 437/437/437
f 443/443/443 444/444/444 436/436/436
f 445/445/445 437/437/437 444/444/444
f 445/445/445 446/446/446 437/437/437
f 447/447/447 446/446/446 445/445/445
f 365/365/365 448/448/448 441/441/441
f 441/441/441 448/448/448 443/443/443
f 365/365/365 449/449/449 448/448/448
f 365/365/365 364/364/364 449/449/449
f 450/450/450 443/443/443 448/448/448
f 443/443/443 450/450/450 444/444/444
f 450/450/450 448/448/448 449/449/449
f 451/451/451 444/444/444 450/450/450
f 451/451/451 450/450/450 449/449/449
f 364/364/364 452/452/452 449/449/449
f 451/451/451 449/449/449 452/452/452
f 453/453/453 452/452/452 364/364/364
f 451/451/451 452/452/452 453/453/453
f 364/364/364 368/368/368 453/453/453
f 454/454/454 444/444/444 451/451/451
f 451/451/451 453/453/453 454/454/454
f 445/445/445 444/444/444 454/454/454
f 454/454/454 453/453/453 368/368/368
f 447/447/447 445/445/445 455/455/455
f 456/456/456 447/447/447 455/455/455
f 445/445/445 454/454/454 457/457/457
f 454/454/454 368/368/368 457/457/457
f 445/445/445 457/457/457 458/458/458
f 458/458/458 457/457/457 368/368/368
f 445/445/445 458/458/458 455/455/455
f 458/458/458 368/368/368 459/459/459
f 355/355/355 459/459/459 368/368/368
f 458/458/458 459/459/459 460/460/460
f 460/460/460 459/459/459 355/355/355
f 455/455/455 458/458/458 461/461/461
f 458/458/458 460/460/460 461/461/461
f 355/355/355 462/462/462 460/460/460
f 356/356/356 462/462/462 355/355/355
f 463/463/463 461/461/461 460/460/460
f 455/455/455 461/461/461 463/463/463
f 463/463/463 460/460/460 462/462/462
f 456/456/456 455/455/455 464/464/464
f 464/464/464 455/455/455 463/463/463
f 356/356/356 465/465/465 462/462/462
f 329/329/329 465/465/465 356/356/356
f 466/466/466 463/463/463 462/462/462
f 466/466/466 462/462/462 465/465/465
f 464/464/464 463/463/463 466/466/466
f 329/329/329 467/467/467 465/465/465
f 467/467/467 466/466/466 465/465/465
f 320/320/320 467/467/467 329/329/329
f 467/467/467 468/468/468 466/466/466
f 464/464/464 466/466/466 468/468/468
f 468/468/468 467/467/467 320/320/320
f 469/469/469 456/456/456 464/464/464
f 464/464/464 468/468/468 469/469/469
f 320/320/320 469/469/469 468/468/468
f 469/469/469 470/470/470 456/456/456
f 320/320/320 471/471/471 469/469/469
f 469/469/469 472/472/472 470/470/470
f 469/469/469 471/471/471 472/472/472
f 473/473/473 474/474/474 475/475/475
f 473/473/473 475/475/475 476/476/476
f 473/473/473 476/476/476 477/477/477
f 473/473/473 477/477/477 478/478/478
f 475/475/475 479/479/479 476/476/476
f 477/477/477 476/476/476 479/479/479
f 477/477/477 480/480/480 478/478/478
f 478/478/478 480/480/480 481/481/481
f 478/478/478 481/481/481 482/482/482
f 483/483/483 482/482/482 481/481/481
f 483/483/483 481/481/481 484/484/484
f 485/485/485 484/484/484 481/481/481
f 485/485/485 481/481/481 486/486/486
f 487/487/487 485/485/485 486/486/486
f 487/487/487 486/486/486 488/488/488
f 489/489/489 488/488/488 486/486/486
f 490/490/490 486/486/486 481/481/481
f 490/490/490 481/481/481 480/480/480
f 489/489/489 486/486/486 490/490/490
f 480/480/480 491/491/491 490/490/490
f 490/490/490 491/491/491 489/489/489
f 480/480/480 477/477/477 491/491/491
f 492/492/492 489/489/489 491/491/491
f 477/477/477 493/493/493 491/491/491
f 492/492/492 491/491/491 494/494/494
f 493/493/493 494/494/494 491/491/491
f 477/477/477 495/495/495 493/493/493
f 477/477/477 479/479/479 495/495/495
f 495/495/495 496/496/496 493/493/493
f 495/495/495 479/479/479 496/496/496
f 493/493/493 496/496/496 494/494/494
f 492/492/492 494/494/494 497/497/497
f 492/492/492 497/497/497 498/498/498
f 499/499/499 498/498/498 497/497/497
f 500/500/500 497/497/497 494/494/494
f 499/499/499 497/497/497 500/500/500
f 500/500/500 494/494/494 496/496/496
f 501/501/501 499/499/499 500/500/500
f 502/502/502 496/496/496 479/479/479
f 502/502/502 500/500/500 496/496/496
f 501/501/501 500/500/500 502/502/502
f 475/475/475 502/502/502 479/479/479
f 501/501/501 502/502/502 475/475/475
f 501/501/501 475/475/475 503/503/503
f 504/504/504 505/505/505 506/506/506
f 504/504/504 506/506/506 507/507/507
f 508/508/508 504/504/504 507/507/507
f 508/508/508 507/507/507 509/509/509
f 508/508/508 509/509/509 510/510/510
f 508/508/508 510/510/510 511/511/511
f 511/511/511 510/510/510 512/512/512
f 511/511/511 512/512/512 513/513/513
f 514/514/514 515/515/515 516/516/516
f 514/514/514 517/517/517 515/515/515
f 518/518/518 517/517/517 514/514/514
f 517/517/517 519/519/519 515/515/515
f 518/518/518 520/520/520 517/517/517
f 521/521/521 520/520/520 518/518/518
f 517/517/517 522/522/522 519/519/519
f 520/520/520 522/522/522 517/517/517
f 522/522/522 523/523/523 519/519/519
f 521/521/521 524/524/524 520/520/520
f 525/525/525 524/524/524 521/521/521
f 520/520/520 526/526/526 522/522/522
f 524/524/524 526/526/526 520/520/520
f 522/522/522 527/527/527 523/523/523
f 526/526/526 527/527/527 522/522/522
f 527/527/527 528/528/528 523/523/523
f 527/527/527 529/529/529 528/528/528
f 530/530/530 529/529/529 527/527/527
f 526/526/526 530/530/530 527/527/527
f 530/530/530 531/531/531 529/529/529
f 525/525/525 532/532/532 524/524/524
f 533/533/533 532/532/532 525/525/525
f 524/524/524 534/534/534 526/526/526
f 534/534/534 530/530/530 526/526/526
f 532/532/532 534/534/534 524/524/524
f 535/535/535 531/531/531 530/530/530
f 534/534/534 535/535/535 530/530/530
f 535/535/535 536/536/536 531/531/531
f 533/533/533 537/537/537 532/532/532
f 538/538/538 537/537/537 533/533/533
f 532/532/532 539/539/539 534/534/534
f 539/539/539 535/535/535 534/534/534
f 537/537/537 539/539/539 532/532/532
f 540/540/540 536/536/536 535/535/535
f 539/539/539 540/540/540 535/535/535
f 540/540/540 541/541/541 536/536/536
f 538/538/538 542/542/542 537/537/537
f 543/543/543 542/542/542 538/538/538
f 537/537/537 544/544/544 539/539/539
f 544/544/544 540/540/540 539/539/539
f 542/542/542 544/544/544 537/537/537
f 545/545/545 541/541/541 540/540/540
f 544/544/544 545/545/545 540/540/540
f 545/545/545 546/546/546 541/541/541
f 543/543/543 547/547/547 542/542/542
f 548/548/548 547/547/547 543/543/543
f 542/542/542 549/549/549 544/544/544
f 549/549/549 545/545/545 544/544/544
f 547/547/547 549/549/549 542/542/542
f 550/550/550 546/546/546 545/545/545
f 549/549/549 550/550/550 545/545/545
f 550/550/550 551/551/551 546/546/546
f 548/548/548 552/552/552 547/547/547
f 553/553/553 552/552/552 548/548/548
f 547/547/547 554/554/554 549/549/549
f 554/554/554 550/550/550 549/549/549
f 552/552/552 554/554/554 547/547/547
f 555/555/555 551/551/551 550/550/550
f 554/554/554 555/555/555 550/550/550
f 555/555/555 556/556/556 551/551/551
f 553/553/553 557/557/557 552/552/552
f 558/558/558 557/557/557 553/553/553
f 552/552/552 559/559/559 554/554/554
f 559/559/559 555/555/555 554/554/554
f 557/557/557 559/559/559 552/552/552
f 560/560/560 556/556/556 555/555/555
f 559/559/559 560/560/560 555/555/555
f 560/560/560 561/561/561 556/556/556
f 558/558/558 562/562/562 557/557/557
f 563/563/563 562/562/562 558/558/558
f 557/557/557 564/564/564 559/559/559
f 564/564/564 560/560/560 559/559/559
f 562/562/562 564/564/564 557/557/557
f 565/565/565 561/561/561 560/560/560
f 564/564/564 565/565/565 560/560/560
f 565/565/565 566/566/566 561/561/561
f 563/563/563 567/567/567 562/562/562
f 568/568/568 567/567/567 563/563/563
f 562/562/562 569/569/569 564/564/564
f 569/569/569 565/565/565 564/564/564
f 567/567/567 569/569/569 562/562/562
f 570/570/570 566/566/566 565/565/565
f 569/569/569 570/570/570 565/565/565
f 570/570/570 571/571/571 566/566/566
f 568/568/568 572/572/572 567/567/567
f 573/573/573 572/572/572 568/568/568
f 567/567/567 574/574/574 569/569/569
f 574/574/574 570/570/570 569/569/569
f 572/572/572 574/574/574 567/567/567
f 575/575/575 571/571/571 570/570/570
f 574/574/574 575/575/575 570/570/570
f 575/575/575 576/576/576 571/571/571
f 573/573/573 577/577/577 572/572/572
f 578/578/578 577/577/577 573/573/573
f 572/572/572 579/579/579 574/574/574
f 579/579/579 575/575/575 574/574/574
f 577/577/577 579/579/579 572/572/572
f 580/580/580 576/576/576 575/575/575
f 579/579/579 580/580/580 575/575/575
f 580/580/580 581/581/581 576/576/576
f 578/578/578 582/582/582 577/577/577
f 583/583/583 582/582/582 578/578/578
f 577/577/577 584/584/584 579/579/579
f 584/584/584 580/580/580 579/579/579
f 582/582/582 584/584/584 577/577/577
f 585/585/585 581/581/581 580/580/580
f 584/584/584 585/585/585 580/580/580
f 585/585/585 586/586/586 581/581/581
f 583/583/583 587/587/587 582/582/582
f 588/588/588 587/587/587 583/583/583
f 582/582/582 589/589/589 584/584/584
f 589/589/589 585/585/585 584/584/584
f 587/587/587 589/589/589 582/582/582
f 590/590/590 586/586/586 585/585/585
f 589/589/589 590/590/590 585/585/585
f 590/590/590 591/591/591 586/586/586
f 588/588/588 592/592/592 587/587/587
f 593/593/593 592/592/592 588/588/588
f 587/587/587 594/594/594 589/589/589
f 594/594/594 590/590/590 589/589/589
f 592/592/592 594/594/594 587/587/587
f 595/595/595 591/591/591 590/590/590
f 594/594/594 595/595/595 590/590/590
f 595/595/595 596/596/596 591/591/591
f 593/593/593 597/597/597 592/592/592
f 598/598/598 597/597/597 593/593/593
f 598/598/598 599/599/599 597/597/597
f 592/592/592 600/600/600 594/594/594
f 600/600/600 595/595/595 594/594/594
f 597/597/597 600/600/600 592/592/592
f 601/601/601 596/596/596 595/595/595
f 600/600/600 601/601/601 595/595/595
f 601/601/601 602/602/602 596/596/596
f 599/599/599 603/603/603 597/597/597
f 597/597/597 603/603/603 600/600/600
f 603/603/603 601/601/601 600/600/600
f 599/599/599 604/604/604 603/603/603
f 605/605/605 602/602/602 601/601/601
f 603/603/603 605/605/605 601/601/601
f 604/604/604 605/605/605 603/603/603
f 605/605/605 606/606/606 602/602/602
f 604/604/604 607/607/607 605/605/605
f 607/607/607 606/606/606 605/605/605
f 607/607/607 608/608/608 606/606/606
