v -0.1347602 -0.09617238 1.348532
v -0.1464394 -0.09105425 1.30922
v -0.1497602 -0.09454291 1.308679
v -0.1512406 -0.07127279 1.27351
v -0.1554607 -0.07421664 1.273153
v -0.1116554 -0.1269266 1.300921
v -0.1347602 -0.09617238 1.348532
v -0.1332542 -0.09177458 1.347509
v -0.1209495 -0.07227781 1.396482
v -0.1219746 -0.0763676 1.398621
v -0.1211973 -0.04479324 1.43594
v -0.168708 -0.04123967 1.24026
v -0.1639384 -0.03876437 1.240097
v -0.1800945 0.008391743 1.212243
v -0.1848479 0.007005692 1.210907
v -0.1636877 -0.05441868 1.18199
v -0.1693807 0.00018713 1.16804
v -0.1642336 -0.01462023 1.105049
v -0.1435201 -0.09589885 1.194203
v -0.1703976 -0.05993286 1.118561
v -0.1833997 -0.0122657 1.076555
v -0.09919914 -0.1110074 1.348025
v -0.1074636 -0.1244402 1.256306
v -0.1694696 -0.06592869 1.044967
v -0.1790917 -0.006124516 1.040246
v -0.1887403 0.002870979 0.976522
v -0.05534893 -0.1458251 1.30076
v -0.1804181 -0.06965134 0.9748108
v -0.1923358 0.003653488 0.9092191
v -0.1415883 -0.1058331 1.12279
v -0.1462199 -0.1016185 1.05345
v -0.1535581 -0.1010141 0.9794214
v -0.1910379 -0.06700841 0.9055282
v -0.1866004 -0.06512363 0.9044215
v -0.1876443 0.002807102 0.9085921
v -0.1610775 -0.09824035 0.903551
v -0.1580515 -0.09442578 0.902169
v -0.1168483 -0.1193644 0.9015718
v -0.1187316 -0.1238357 0.9024773
v -0.06403431 -0.1474286 0.9061228
v -0.1182727 -0.1314418 0.9801497
v -0.06558317 -0.1518629 0.9070309
v -0.001464958 -0.1629076 0.9081022
v -0.1083564 -0.1299248 1.053341
v -0.06459206 -0.1555926 0.9839712
v -0.001610775 -0.1674877 0.9092863
v 0.0565144 -0.1539142 0.905917
v 0.05522631 -0.1491165 0.9049604
v 0.1069267 -0.1287714 0.9008545
v 0.1058539 -0.1238543 0.8998684
v 0.1538963 -0.1042018 0.9013594
v 0.1514037 -0.1000102 0.899909
v 0.1837496 -0.06604195 0.900573
v -0.1041406 -0.1320408 1.125818
v -0.05493752 -0.1562277 1.056963
v 6.912231E-05 -0.1659693 0.9846768
v 0.06003016 -0.1566608 0.9823513
v 0.1109178 -0.1336756 0.9777939
v 0.1516814 -0.09806226 0.9763843
v 0.1882727 -0.06839686 0.901833
v -0.1091294 -0.1248432 1.198687
v 0.1911445 -0.002390804 0.9051659
v 0.1863208 -0.003388672 0.9046072
v 0.1827101 -0.06099293 0.9715111
v 0.1926172 0.004268856 0.972794
v 0.1716514 -0.05385931 1.043074
v 0.1790979 0.001023197 1.038005
v 0.1793207 -0.004196911 1.062531
v -0.05225471 -0.1556506 1.132105
v -0.05453411 -0.1492122 1.206857
v 0.1453785 -0.09618182 1.051594
v 0.178156 -0.05243375 1.109324
v 0.1721836 -0.007749824 1.112352
v 0.0002299881 -0.1680369 1.059273
v 0.1655645 -0.04933444 1.181762
v 0.1711466 0.0040308 1.167245
v 0.1846245 0.01770994 1.209885
v 0.0008028793 -0.1654621 1.134511
v 0.05805153 -0.153786 1.056613
v 0.1479075 -0.09778129 1.122705
v 0.05387506 -0.1539812 1.131756
v 0.1081556 -0.1292345 1.051555
v 0.1082884 -0.1290619 1.125424
v 0.1445647 -0.09346052 1.19438
v 0.1099201 -0.1240161 1.198929
v 0.05513866 -0.1474779 1.206753
v 0.1704191 -0.04085977 1.239946
v 0.1092137 -0.125938 1.255531
v 0.0009736252 -0.1542892 1.210228
v 0.165475 -0.03854843 1.239809
v 0.1798423 0.02011654 1.210755
v 0.1542186 -0.07137565 1.273893
v 0.158629 -0.07437468 1.273513
v 0.1507336 -0.0979985 1.310447
v 0.147276 -0.09446909 1.31117
v 0.1400698 -0.09800927 1.345829
v 0.1118032 -0.1293148 1.298263
v 0.1400698 -0.09800927 1.345829
v 0.1026578 -0.1129147 1.346215
v 0.1274166 -0.0738444 1.39787
v 0.05862006 -0.1465952 1.298562
v 0.05734859 -0.1468307 1.257989
v 0.0002493858 -0.1464375 1.260856
v -0.05552366 -0.1465004 1.258516
v 4.856109E-05 -0.1425614 1.300058
v 0.05338283 -0.1276331 1.346238
v -0.0510614 -0.1268684 1.348288
v -0.0005028915 -0.1289006 1.347483
v 0.04903824 -0.1145493 1.375829
v -0.04753094 -0.1146067 1.376181
v 0.09129719 -0.08708505 1.395363
v -0.08742153 -0.08702498 1.395604
v -0.0005628586 -0.117064 1.375271
v 0.04004677 -0.09686808 1.407699
v 0.01971033 -0.103061 1.398835
v -0.01999912 -0.1039068 1.397938
v -0.03948132 -0.09792532 1.406705
v -9.181976E-05 -0.1047376 1.396267
v -0.0001021194 -0.100606 1.394474
v 0.01950985 -0.09887518 1.397157
v -0.01979294 -0.09971561 1.396145
v 0.03900591 -0.0929779 1.405959
v -0.03839279 -0.0939467 1.404855
v 0.0613825 -0.07968291 1.42294
v 0.05972038 -0.07591783 1.421028
v -0.05987125 -0.08108177 1.421855
v -0.05819664 -0.07725342 1.41982
v 0.09522882 -0.06628993 1.428396
v 0.07373057 -0.06477814 1.439439
v 0.07215922 -0.06155507 1.436614
v 0.08830424 -0.02577672 1.463055
v 0.08701295 -0.02261652 1.459193
v -0.09219133 -0.06758339 1.428397
v -0.07205147 -0.0667053 1.438559
v -0.07044912 -0.06345409 1.435609
v -0.08600181 -0.02680266 1.462726
v -0.08468141 -0.0236499 1.45877
v 0.09775155 0.006349487 1.482004
v 0.09477265 0.009370918 1.478849
v 0.1017056 -0.02472352 1.459226
v -0.1221629 -0.04802487 1.439469
v -0.1232877 -0.01907439 1.45412
v -0.09534425 0.006501999 1.482112
v -0.09235729 0.009521579 1.478801
v -0.09922267 -0.02594256 1.459287
v 0.104287 0.03433176 1.494449
v 0.1019347 0.03620096 1.49022
v 0.1094797 0.008247013 1.471454
v 0.1216303 0.03450844 1.484203
v -0.1239486 -0.02188686 1.458446
v -0.1018345 0.03510896 1.495402
v -0.09945648 0.03692304 1.490978
v -0.1068459 0.008054066 1.471834
v -0.1188915 0.03485605 1.485676
v -0.1284859 0.003179073 1.468143
v -0.1279826 0.005514088 1.463415
v -0.1337436 0.03124298 1.477182
v -0.1314334 0.0326959 1.472698
v 0.1253596 -0.04630854 1.4388
v 0.1267513 -0.0205139 1.457478
v 0.1290319 0.004282226 1.467959
v 0.1331693 0.03317867 1.477628
v 0.1287251 0.00679512 1.46333
v 0.130918 0.0346232 1.473316
v 0.1261199 -0.01760626 1.453265
v 0.1244252 -0.04309297 1.435419
v 0.1260931 -0.06989875 1.395854
v 0.1382047 -0.09373207 1.34489
v 0.1274166 -0.0738444 1.39787
v 0.1400698 -0.09800927 1.345829
v -0.09945648 0.03692304 1.490978
v -0.09732509 0.06030538 1.488591
v -0.09985124 0.06116995 1.492544
v -0.1018345 0.03510896 1.495402
v -0.08793914 0.07943618 1.478756
v -0.1188915 0.03485605 1.485676
v -0.0898151 0.08211439 1.48193
v -0.07164072 0.0953019 1.467578
v -0.0728722 0.09893684 1.469893
v -0.04340431 0.1093495 1.455109
v -0.1051556 0.08891521 1.467725
v -0.1148941 0.06842332 1.479941
v -0.04398964 0.1136247 1.456436
v 0.0008465004 0.1148087 1.448375
v -0.1339249 0.06406385 1.471956
v -0.1337436 0.03124298 1.477182
v -0.1314334 0.0326959 1.472698
v -0.1317609 0.06305992 1.467831
v -0.1306023 0.09140842 1.452224
v -0.1306023 0.09140842 1.452224
v -0.1288805 0.08889057 1.448936
v -0.1287573 0.1085647 1.425781
v -0.08729299 0.1128856 1.444636
v -0.1297965 0.1123519 1.427767
v -0.128143 0.1202684 1.40569
v -0.1290481 0.1246292 1.406666
v -0.134275 0.1327388 1.34853
v -0.0956003 0.1344496 1.402351
v -0.04424179 0.1276835 1.427324
v 0.0007434654 0.1193099 1.449353
v 0.04570919 0.1134958 1.454834
v 0.0452338 0.1091711 1.453899
v 0.07503507 0.09849007 1.468294
v 0.07390483 0.0948057 1.466375
v 0.09226302 0.08150997 1.480414
v 0.09047818 0.0788205 1.477635
v 0.1023832 0.06037723 1.491152
v 0.0998679 0.05955509 1.487452
v 0.1019347 0.03620096 1.49022
v 0.104287 0.03433176 1.494449
v 0.1216303 0.03450844 1.484203
v 0.1078347 0.0889082 1.465567
v 0.08962781 0.1133438 1.442154
v 0.1281477 0.09539519 1.449521
v 0.1177353 0.0681302 1.478015
v 0.1330087 0.06645391 1.470457
v 0.1331693 0.03317867 1.477628
v 0.04599989 0.127979 1.425318
v 0.0008322906 0.1292391 1.425721
v -0.04596624 0.1386382 1.401201
v 0.0009500694 0.1411832 1.396594
v 0.09794312 0.134843 1.397911
v 0.04792522 0.1393354 1.398816
v 0.00109539 0.1547011 1.352445
v -0.0526071 0.1627926 1.349902
v 0.0549662 0.1622294 1.347228
v 0.1253197 0.1143912 1.423988
v -0.1034635 0.1499488 1.349369
v 0.001167602 0.1513566 1.300262
v -0.05746725 0.164991 1.296162
v -0.135344 0.1373383 1.348556
v -0.1094845 0.1481939 1.297734
v -0.1491132 0.130539 1.299131
v -0.1484161 0.1259594 1.30034
v -0.1693773 0.1004718 1.25714
v -0.1664128 0.09734336 1.258583
v -0.1165426 0.1327428 1.24484
v -0.06008896 0.1433175 1.246524
v 0.001168327 0.1339478 1.244865
v -0.1785772 0.05609816 1.224289
v -0.174045 0.05502985 1.225437
v -0.1800945 0.008391743 1.212243
v -0.1848479 0.007005692 1.210907
v -0.1539321 0.09855839 1.209413
v -0.161852 0.06060367 1.158858
v -0.1693807 0.00018713 1.16804
v -0.05748325 0.1339286 1.199958
v -0.1252738 0.1200872 1.198471
v -0.1453386 0.08785587 1.15658
v -0.1454702 0.05422224 1.10784
v -0.1642336 -0.01462023 1.105049
v -0.1215656 0.1051896 1.150286
v -0.1349443 0.07830971 1.104965
v -0.1452823 0.05152553 1.080266
v -0.1815897 0.02403065 1.061956
v -0.1833997 -0.0122657 1.076555
v -0.1790917 -0.006124516 1.040246
v -0.05554857 0.1249585 1.150469
v -0.1176726 0.09864566 1.097024
v -0.1258425 0.09361377 1.067888
v -0.155853 0.05842787 1.064536
v -0.1524782 0.04838381 1.047079
v -0.1680338 0.06234249 1.033563
v -0.1158957 0.07764319 1.034317
v -0.06116737 0.1205559 1.05127
v -0.1599361 0.06211294 1.01295
v -0.1887403 0.002870979 0.976522
v 0.001174374 0.1320325 1.203699
v -0.05459314 0.1225789 1.093478
v 0.002447204 0.1481091 1.038593
v 0.00310133 0.1314552 1.148837
v -0.06129745 0.1069099 1.020736
v -0.135227 0.107506 1.011965
v -0.07088352 0.1303146 1.002847
v -0.1374446 0.110156 0.9954548
v 0.006604976 0.1323133 1.091428
v 0.0004598617 0.1416982 1.017371
v -0.1671257 0.07079672 0.9759517
v -0.1667149 0.06747416 0.9109549
v -0.1923358 0.003653488 0.9092191
v -0.1876443 0.002807102 0.9085921
v -0.162291 0.06516983 0.9105109
v -0.1282189 0.1101201 0.9138179
v -0.1281295 0.1099384 0.9726526
v -0.06641211 0.1445971 0.9716332
v -0.1309171 0.1144294 0.9150897
v -0.06595541 0.1333872 0.9118819
v -0.0651725 0.1285648 0.9117966
v -0.003345833 0.150484 0.993301
v 0.0014851 0.1507146 0.9577172
v -0.0009267044 0.1347457 0.9117862
v -0.0008845711 0.1302307 0.9123142
v 0.06215963 0.1290238 0.912228
v 0.06286556 0.1338209 0.912342
v 0.1183539 0.1118993 0.91369
v 0.07129044 0.1475152 0.9636195
v 0.1213755 0.1158059 0.914973
v 0.1559253 0.06293093 0.9083291
v 0.04014128 0.1578181 1.01995
v 0.06894479 0.1260097 1.007491
v 0.07737269 0.1458231 1.045899
v 0.1603245 0.0646628 0.9087531
v 0.1863208 -0.003388672 0.9046072
v 0.1911445 -0.002390804 0.9051659
v 0.1926172 0.004268856 0.972794
v 0.1687545 0.07450899 0.9731215
v 0.1249278 0.1190265 0.9716994
v 0.1323918 0.1166652 0.9926803
v 0.1788351 0.04553957 1.023276
v 0.1790979 0.001023197 1.038005
v 0.1133106 0.09746549 1.021419
v 0.168141 0.07005531 1.011044
v 0.1820763 0.02488558 1.039433
v 0.1793207 -0.004196911 1.062531
v 0.1539867 0.05216608 1.03864
v 0.1685089 0.0319478 1.056268
v 0.1721836 -0.007749824 1.112352
v 0.1030172 0.08298923 1.05811
v 0.1493882 0.05054546 1.06619
v 0.1384535 0.04560512 1.08916
v 0.1238703 0.0738095 1.081286
v 0.1241366 0.1001368 1.092083
v 0.1509052 0.06092627 1.107329
v 0.1623234 0.06689018 1.157618
v 0.1711466 0.0040308 1.167245
v 0.06725322 0.131137 1.093025
v 0.1501324 0.09715042 1.15343
v 0.1225606 0.1129662 1.149168
v 0.06196336 0.1295603 1.149849
v 0.1227589 0.1245789 1.196072
v 0.06002639 0.1375838 1.197785
v 0.159829 0.1014592 1.202732
v 0.1886929 0.03755272 1.210468
v 0.1846245 0.01770994 1.209885
v 0.1798423 0.02011654 1.210755
v 0.1841365 0.03831142 1.2125
v 0.1823592 0.05870445 1.217199
v 0.186636 0.06021108 1.215791
v 0.1600009 0.1040671 1.252465
v 0.1629944 0.1079842 1.251443
v 0.145505 0.1305177 1.294867
v 0.1165761 0.1360655 1.241536
v 0.1466184 0.1354059 1.293679
v 0.131841 0.1348523 1.343299
v 0.06267164 0.1453448 1.24406
v 0.1124999 0.1491271 1.293651
v 0.0598266 0.1649165 1.293677
v 0.1062045 0.1497978 1.345157
v 0.132975 0.1396971 1.343311
v 0.1251815 0.1268385 1.400793
v 0.1242932 0.1222309 1.4003
v 0.1243508 0.11028 1.422614
v 0.1266035 0.09254896 1.446737
v 0.1308332 0.06538105 1.466662
v 0.1330087 0.06645391 1.470457
v 0.130918 0.0346232 1.473316
vt 0.398998 0.7005481
vt 0.4108153 0.6482818
vt 0.4077115 0.6454225
vt 0.4258832 0.5999073
vt 0.4230458 0.5957317
vt 0.3775575 0.6276325
vt 0.398998 0.7005481
vt 0.4024409 0.7016912
vt 0.401906 0.7748208
vt 0.3984639 0.7756722
vt 0.4102564 0.8374188
vt 0.4497495 0.554504
vt 0.4515192 0.5610189
vt 0.4887448 0.5304021
vt 0.4886458 0.5228074
vt 0.4470573 0.4605754
vt 0.4857881 0.4486529
vt 0.4822924 0.3461244
vt 0.4111905 0.4734117
vt 0.4497277 0.3615031
vt 0.4804085 0.2965088
vt 0.3746786 0.6981984
vt 0.3777573 0.5628349
vt 0.4412465 0.2437356
vt 0.4776498 0.2393404
vt 0.478011 0.1424496
vt 0.3432885 0.6242154
vt 0.4363448 0.1335339
vt 0.4774096 0.02154855
vt 0.4107302 0.363324
vt 0.4106731 0.2541336
vt 0.4073119 0.1386629
vt 0.4336194 0.02154855
vt 0.4341925 0.014
vt 0.4770165 0.014
vt 0.4029695 0.02154855
vt 0.4032837 0.014
vt 0.3736532 0.014
vt 0.3734867 0.02154855
vt 0.3416444 0.014
vt 0.3775126 0.1356628
vt 0.3416427 0.02154855
vt 0.3078774 0.014
vt 0.3799729 0.2510031
vt 0.3437462 0.1380594
vt 0.3079076 0.02154855
vt 0.2742504 0.02154855
vt 0.2741628 0.014
vt 0.2426454 0.02154855
vt 0.2423786 0.014
vt 0.2136673 0.02154855
vt 0.2132676 0.014
vt 0.1830975 0.014
vt 0.3801784 0.3643954
vt 0.3454079 0.255518
vt 0.3083899 0.1392654
vt 0.2732104 0.1392504
vt 0.2397356 0.1379249
vt 0.2103896 0.1416832
vt 0.183721 0.02154855
vt 0.3797012 0.4757954
vt 0.1411437 0.02154855
vt 0.1414748 0.014
vt 0.1818292 0.1373426
vt 0.1411563 0.1470162
vt 0.1773983 0.2456347
vt 0.1416695 0.2418344
vt 0.1434548 0.2782684
vt 0.3448159 0.3708032
vt 0.3435363 0.4838661
vt 0.2075255 0.255414
vt 0.1737239 0.3462459
vt 0.1428644 0.3552282
vt 0.3087185 0.2572957
vt 0.1713722 0.4576855
vt 0.1333568 0.443961
vt 0.1234601 0.5198538
vt 0.3087643 0.3733878
vt 0.2720426 0.2559766
vt 0.2074952 0.3628833
vt 0.2726869 0.3705887
vt 0.2377847 0.2519171
vt 0.2376405 0.3640719
vt 0.206517 0.4713653
vt 0.2376337 0.4744055
vt 0.2735372 0.4831304
vt 0.1657128 0.5521746
vt 0.2389673 0.5608796
vt 0.3085069 0.4874589
vt 0.163966 0.5586374
vt 0.1225 0.5270811
vt 0.188422 0.5992216
vt 0.1913108 0.5951704
vt 0.2081904 0.6472502
vt 0.2050623 0.6500667
vt 0.215064 0.6944484
vt 0.2386511 0.6251522
vt 0.215064 0.6944484
vt 0.2408816 0.6950681
vt 0.2153945 0.7704301
vt 0.2726832 0.6230534
vt 0.2727709 0.561546
vt 0.3081982 0.565478
vt 0.3437683 0.5624188
vt 0.3079064 0.6253601
vt 0.2735701 0.6962944
vt 0.3415915 0.6977518
vt 0.307509 0.6987833
vt 0.2739512 0.7409852
vt 0.3405658 0.7428024
vt 0.2408925 0.7706951
vt 0.3733618 0.7750438
vt 0.307223 0.7441452
vt 0.2757899 0.7934866
vt 0.2917331 0.7820959
vt 0.3220718 0.7829432
vt 0.3378579 0.7952718
vt 0.3069333 0.7801968
vt 0.306876 0.7880604
vt 0.2925561 0.7899129
vt 0.3211215 0.7907029
vt 0.2774561 0.8003426
vt 0.3360816 0.8020093
vt 0.2570227 0.8176128
vt 0.2593111 0.8239554
vt 0.3561737 0.8204318
vt 0.35379 0.8265082
vt 0.2309896 0.8201642
vt 0.2430927 0.8420547
vt 0.2455122 0.8476275
vt 0.2193341 0.8916574
vt 0.2220437 0.8969506
vt 0.382097 0.8257148
vt 0.3692869 0.8459589
vt 0.3666829 0.851079
vt 0.3906298 0.8991867
vt 0.3876642 0.9038351
vt 0.1985959 0.9346713
vt 0.2012562 0.9401042
vt 0.2108751 0.8801255
vt 0.4071867 0.8403492
vt 0.4202511 0.8740487
vt 0.4087212 0.9474648
vt 0.4056818 0.9522535
vt 0.3996948 0.88944
vt 0.179884 0.9693402
vt 0.1831486 0.9734327
vt 0.1914008 0.9165016
vt 0.1706387 0.9451689
vt 0.4173666 0.878118
vt 0.4255691 0.9878567
vt 0.4219867 0.9911125
vt 0.417165 0.9307581
vt 0.4366082 0.965629
vt 0.4298043 0.9082497
vt 0.4326068 0.9032185
vt 0.4451987 0.9436353
vt 0.4474599 0.9372206
vt 0.2058101 0.8307677
vt 0.1942574 0.8655534
vt 0.181541 0.8946995
vt 0.1647816 0.9288393
vt 0.1788863 0.8895975
vt 0.1628398 0.9223416
vt 0.1915376 0.8613077
vt 0.2029725 0.8274592
vt 0.2120547 0.7694982
vt 0.2117207 0.695525
vt 0.2153945 0.7704301
vt 0.215064 0.6944484
vt 0.6368899 0.9437432
vt 0.6461333 0.9183575
vt 0.6436063 0.9139972
vt 0.6336588 0.9413058
vt 0.6570078 0.897531
vt 0.6221962 0.9270181
vt 0.6547757 0.8920217
vt 0.6709315 0.8786539
vt 0.669237 0.8723437
vt 0.6920019 0.8615136
vt 0.6452684 0.8688926
vt 0.6351923 0.8927199
vt 0.6912203 0.8545747
vt 0.7235529 0.8576538
vt 0.622062 0.883156
vt 0.6114304 0.9174736
vt 0.6091242 0.9128569
vt 0.6191599 0.8804796
vt 0.6281013 0.8461035
vt 0.6281013 0.8461035
vt 0.6247414 0.8448418
vt 0.6266137 0.8105526
vt 0.6604493 0.832773
vt 0.6301485 0.810673
vt 0.6272852 0.78179
vt 0.630951 0.7817323
vt 0.6228511 0.7024988
vt 0.6556417 0.7758967
vt 0.6921149 0.8120703
vt 0.7237263 0.8505235
vt 0.7561797 0.8634014
vt 0.7549068 0.8702351
vt 0.7775441 0.8882874
vt 0.7752196 0.8942522
vt 0.7908972 0.9151594
vt 0.787862 0.9201434
vt 0.8007081 0.9444777
vt 0.7973826 0.9481475
vt 0.8045174 0.9810193
vt 0.8084537 0.979999
vt 0.8232725 0.9698075
vt 0.8035979 0.8933831
vt 0.7898844 0.8488951
vt 0.8201333 0.8707184
vt 0.8125757 0.9243474
vt 0.8252113 0.9180041
vt 0.8333744 0.9643757
vt 0.7579883 0.8194789
vt 0.7247977 0.8155991
vt 0.6915132 0.7750242
vt 0.7258749 0.7724332
vt 0.7981238 0.7887241
vt 0.7605355 0.7813404
vt 0.7271329 0.7091935
vt 0.6869733 0.7053612
vt 0.7678231 0.7104683
vt 0.8189486 0.8309889
vt 0.6507903 0.7033943
vt 0.7281541 0.6334524
vt 0.6843437 0.6301757
vt 0.6264821 0.701188
vt 0.647023 0.6282432
vt 0.6173872 0.6275259
vt 0.6139185 0.629684
vt 0.6045365 0.5587609
vt 0.6011333 0.5611519
vt 0.6449863 0.547815
vt 0.6840746 0.5511488
vt 0.7289221 0.5455163
vt 0.5843058 0.4915703
vt 0.5813542 0.4956978
vt 0.55721 0.4540619
vt 0.5585278 0.4474698
vt 0.6174303 0.487621
vt 0.6067924 0.4003984
vt 0.5688171 0.3814472
vt 0.6868664 0.477864
vt 0.6412182 0.4765732
vt 0.6260786 0.4065355
vt 0.6176166 0.3206003
vt 0.5802841 0.2901641
vt 0.6450151 0.4010469
vt 0.6327974 0.3253889
vt 0.6197271 0.2772585
vt 0.6011193 0.2323221
vt 0.5820021 0.2456695
vt 0.5852294 0.1948523
vt 0.6883935 0.4015402
vt 0.6484743 0.3189743
vt 0.6456039 0.273587
vt 0.622397 0.2526295
vt 0.6241714 0.222845
vt 0.6198817 0.1943497
vt 0.64999 0.2136222
vt 0.686035 0.2534085
vt 0.6203539 0.1634051
vt 0.5853006 0.1081755
vt 0.7293421 0.4830434
vt 0.6895241 0.3168437
vt 0.7271573 0.2347289
vt 0.7298002 0.4004907
vt 0.684245 0.2020225
vt 0.6484524 0.1641238
vt 0.6850432 0.1640439
vt 0.649606 0.1429194
vt 0.7298898 0.3140252
vt 0.7250496 0.1990921
vt 0.6237634 0.1126565
vt 0.624808 0.0194602
vt 0.5843711 0.0194602
vt 0.5855581 0.01298079
vt 0.6252091 0.01298079
vt 0.659359 0.01298079
vt 0.655421 0.1136475
vt 0.6914622 0.1194248
vt 0.659012 0.0194602
vt 0.6952759 0.0194602
vt 0.695475 0.01298079
vt 0.7280564 0.1596911
vt 0.7321021 0.1072103
vt 0.7331239 0.0194602
vt 0.7331822 0.01298079
vt 0.7703729 0.01298079
vt 0.7705054 0.0194602
vt 0.8056705 0.01298079
vt 0.7727227 0.1109056
vt 0.8060016 0.0194602
vt 0.8390822 0.01298079
vt 0.7492818 0.2078215
vt 0.7770144 0.1801541
vt 0.7735737 0.2461378
vt 0.8394794 0.0194602
vt 0.8785755 0.01298079
vt 0.879782 0.0194602
vt 0.8786877 0.1114816
vt 0.8402564 0.1155904
vt 0.8088961 0.1153719
vt 0.8135313 0.1424585
vt 0.8558409 0.1820727
vt 0.8793626 0.1981822
vt 0.8108869 0.1916266
vt 0.8425584 0.1665321
vt 0.8655856 0.2034775
vt 0.8827069 0.2306479
vt 0.8446234 0.2087436
vt 0.8593884 0.2289085
vt 0.8873441 0.2998094
vt 0.8128249 0.2437554
vt 0.8451945 0.248899
vt 0.8454589 0.2839968
vt 0.8265018 0.2793523
vt 0.8139567 0.3118747
vt 0.8435952 0.3233958
vt 0.8551936 0.4040802
vt 0.8930467 0.383028
vt 0.7709731 0.3163039
vt 0.8357905 0.4097997
vt 0.8151953 0.4046928
vt 0.7714054 0.4027896
vt 0.8179154 0.4808002
vt 0.7720348 0.4798577
vt 0.8465587 0.4863425
vt 0.8885409 0.4709896
vt 0.899667 0.4553138
vt 0.90159 0.4616064
vt 0.8907389 0.4766811
vt 0.8798987 0.4961273
vt 0.8773093 0.4910475
vt 0.8549833 0.5646504
vt 0.8515602 0.5617284
vt 0.8405077 0.6364827
vt 0.8134931 0.5525642
vt 0.8369412 0.6340754
vt 0.8305422 0.71299
vt 0.7738876 0.5540053
vt 0.8105624 0.6347123
vt 0.7723294 0.6340426
vt 0.8054223 0.712395
vt 0.8267366 0.71134
vt 0.8195755 0.7965931
vt 0.8235435 0.797204
vt 0.8230528 0.8312019
vt 0.8240685 0.8696665
vt 0.8289 0.9159244
vt 0.8252113 0.9180041
vt 0.8366747 0.9599383
vn -0.8425583 -0.3840398 0.3776359
vn -0.7099752 0.60739 0.3563883
vn -0.9672931 -0.1856897 0.1728098
vn -0.4863842 0.6200981 0.6155557
vn -0.9318739 -0.03085411 0.361468
vn -0.4909459 -0.8663847 0.09137671
vn -0.8425583 -0.3840398 0.3776359
vn -0.9112748 0.358995 0.2017446
vn -0.9704809 0.2410774 -0.006971065
vn -0.8115937 -0.4624415 0.3570205
vn -0.9798939 0.1171958 -0.1614718
vn -0.8503119 0.08541002 0.519302
vn -0.2489166 0.5326849 0.8088803
vn -0.2850748 0.06193268 0.9565024
vn -0.9501861 0.01758187 0.3111868
vn -0.9563236 -0.2922139 0.007500832
vn -0.972052 -0.007264679 -0.2346532
vn -0.9286751 0.2462735 0.2773299
vn -0.788779 -0.6116853 0.06057055
vn -0.9664761 -0.2335556 0.1066564
vn -0.9754483 0.03723574 0.2170582
vn -0.3125957 -0.8541371 0.4156124
vn -0.5503216 -0.8349196 -0.007444688
vn -0.9233083 -0.3792462 0.06061411
vn -0.9994494 0.001565411 -0.03314287
vn -0.9872692 0.1155732 0.109281
vn -0.1503269 -0.9694397 0.1938778
vn -0.9123387 -0.3881334 0.1303474
vn -0.7966947 0.1507204 -0.5852869
vn -0.7246055 -0.6883277 0.03393921
vn -0.7383617 -0.672839 0.04593192
vn -0.7049627 -0.7070236 0.0560812
vn -0.8078879 -0.2891791 -0.5135099
vn -0.2254595 -0.03941572 -0.9734548
vn -0.1192945 0.06648155 -0.9906307
vn -0.5304435 -0.6268821 -0.5706562
vn -0.1950703 -0.1935941 -0.9614931
vn -0.07146331 -0.1720102 -0.9824996
vn -0.3674791 -0.6527367 -0.6624907
vn -0.01781501 -0.194543 -0.9807321
vn -0.5391997 -0.8421692 0.003854817
vn -0.2391519 -0.7395918 -0.6291347
vn -0.01198011 -0.2475857 -0.9687918
vn -0.5159235 -0.8557334 0.03928642
vn -0.304221 -0.9525489 0.01000997
vn -0.01038465 -0.8237154 -0.5669082
vn 0.2161179 -0.7433717 -0.6330021
vn -0.003426692 -0.1964601 -0.9805058
vn 0.339096 -0.6717014 -0.6586584
vn 0.06017084 -0.1863377 -0.9806414
vn 0.5066973 -0.6746418 -0.5367646
vn 0.1823058 -0.2229633 -0.9576283
vn 0.2357959 -0.0614758 -0.9698561
vn -0.4968596 -0.8672795 0.03093208
vn -0.3159286 -0.9486673 0.01481103
vn 0.002900818 -0.9999219 0.01215766
vn 0.2985132 -0.9543372 0.01141842
vn 0.544676 -0.8386449 -0.001677718
vn 0.7077585 -0.7020055 0.07915863
vn 0.7886313 -0.3262289 -0.5211866
vn -0.5332781 -0.8447379 0.04508039
vn 0.7686597 0.1506052 -0.6216755
vn 0.09817431 0.07777645 -0.9921253
vn 0.9135234 -0.3855189 0.1298082
vn 0.9954478 0.08807401 0.03642401
vn 0.9366377 -0.3478497 0.04135733
vn 0.9947371 -0.08525988 0.05682213
vn 0.9941682 0.06866358 0.08315583
vn -0.3023481 -0.9519699 0.04836366
vn -0.2647663 -0.9619977 0.0667763
vn 0.7567446 -0.6534873 0.01708782
vn 0.966137 -0.248208 0.07051383
vn 0.9789249 0.1942148 0.06314052
vn 0.01482065 -0.9998873 -0.002403629
vn 0.954084 -0.2991161 0.01591383
vn 0.9885818 -0.03101575 -0.1474586
vn 0.8973642 -0.04229718 0.4392591
vn 0.01596991 -0.9972963 0.0717294
vn 0.3320104 -0.9431244 0.01689588
vn 0.7494419 -0.6610162 0.03734358
vn 0.3162133 -0.9475214 0.04703575
vn 0.5550138 -0.8311801 0.03315444
vn 0.5331696 -0.8456091 0.02598868
vn 0.7960764 -0.6047194 0.02402007
vn 0.5416545 -0.8404618 0.01531351
vn 0.2707098 -0.9615729 0.04575882
vn 0.8628678 0.09497299 0.4964264
vn 0.5472001 -0.8362969 -0.03434637
vn 0.011511 -0.9927338 0.1197788
vn 0.2276429 0.5249935 0.8200979
vn 0.2573347 0.115469 0.9593986
vn 0.472743 0.6137056 0.6323601
vn 0.9307328 -0.02642055 0.3647445
vn 0.9622269 -0.2166001 0.1649356
vn 0.7118585 0.6130296 0.3427131
vn 0.8622338 -0.3604659 0.3558332
vn 0.4790292 -0.8744412 0.07670441
vn 0.8622338 -0.3604659 0.3558332
vn 0.305191 -0.8548335 0.4196642
vn 0.8491873 -0.3979409 0.3471655
vn 0.1454299 -0.972128 0.1838946
vn 0.2057472 -0.9784293 0.01855233
vn -0.003251986 -0.9942252 0.1072651
vn -0.2147364 -0.9756749 0.04412121
vn -0.0007583648 -0.9772052 0.2122958
vn 0.1357781 -0.912253 0.3864697
vn -0.1504829 -0.9109145 0.384174
vn -0.001034189 -0.9413227 0.3375062
vn 0.164161 -0.8682784 0.4681281
vn -0.1763967 -0.8688816 0.4625245
vn 0.2740711 -0.8212086 0.5005012
vn -0.2632563 -0.8338844 0.4851114
vn 0.002122092 -0.8972237 0.4415712
vn -0.202366 -0.4740029 0.8569535
vn -0.1657837 -0.4052692 0.8990398
vn 0.1542248 -0.4101562 0.8988808
vn 0.2025218 -0.4802282 0.8534435
vn -0.01323741 -0.3489717 0.9370398
vn -0.0299412 0.3951074 0.9181468
vn -0.3141266 0.3370174 0.8875493
vn 0.2891435 0.3602974 0.8868945
vn -0.5615128 0.2055623 0.8015282
vn 0.5751905 0.2078677 0.791168
vn -0.2716514 -0.5398102 0.7967499
vn -0.7213198 0.04226385 0.6913115
vn 0.2795352 -0.5515239 0.7859271
vn 0.7338345 0.04855748 0.6775907
vn 0.2708376 -0.7440208 0.6108027
vn -0.328108 -0.4762192 0.8158188
vn -0.8450194 0.060353 0.531319
vn -0.4443987 -0.3524652 0.8235763
vn -0.9175493 0.07716715 0.3900622
vn -0.2613111 -0.7528448 0.6041037
vn 0.3277529 -0.4904844 0.8074671
vn 0.852703 0.05728815 0.5192454
vn 0.4589818 -0.3532579 0.815196
vn 0.9219808 0.06837101 0.3811519
vn -0.1200352 -0.4052619 0.9062861
vn -0.786933 -0.1260679 0.6040227
vn 0.2334149 -0.5372117 0.8105067
vn -0.784691 -0.4309176 0.445612
vn -0.9840534 -0.03577586 -0.1742378
vn 0.1351026 -0.4061748 0.903753
vn 0.7986773 -0.1263084 0.5883542
vn -0.2043027 -0.5357357 0.8192971
vn -0.167863 -0.1504823 0.9742572
vn -0.8699445 0.008560715 0.4930752
vn 0.3729807 -0.4488966 0.8120205
vn 0.4670452 -0.1399773 0.8730837
vn -0.7441103 -0.3741808 0.5534334
vn 0.1861082 -0.1616352 0.9691429
vn 0.8789862 -0.002165768 0.4768421
vn -0.3570785 -0.4494935 0.8188105
vn -0.448263 -0.1528822 0.8807312
vn -0.7619507 -0.3751918 0.5278847
vn -0.9760685 -0.117805 -0.18279
vn -0.9206455 -0.1172087 0.3723897
vn -0.8857634 -0.02655554 -0.4633768
vn 0.7890133 -0.415295 0.452756
vn 0.7646407 -0.343464 0.5453045
vn 0.754113 -0.3446805 0.5590249
vn 0.9211622 -0.07189271 0.382481
vn 0.9888909 -0.07470858 -0.1285048
vn 0.8840903 -0.01791828 -0.4669725
vn 0.9895426 0.004686178 -0.1441642
vn 0.980109 0.1387855 -0.1418621
vn 0.953328 0.2992475 -0.04020799
vn 0.8997772 0.4180469 0.1250512
vn 0.8491873 -0.3979409 0.3471655
vn 0.8622338 -0.3604659 0.3558332
vn 0.8789862 -0.002165768 0.4768421
vn 0.8325357 -0.07591241 0.5487456
vn 0.1678658 0.2272033 0.9592704
vn 0.1861082 -0.1616352 0.9691429
vn 0.76503 -0.1939312 0.6141008
vn -0.448263 -0.1528822 0.8807312
vn 0.2365594 0.359449 0.9026826
vn 0.6097664 -0.2724312 0.744289
vn 0.2182361 0.4000182 0.8901452
vn 0.3473543 -0.2396914 0.9065832
vn -0.3222573 0.6844643 0.6539564
vn -0.4257561 0.442854 0.7890577
vn 0.1198374 0.4918297 0.8624051
vn 0.01408806 -0.2133246 0.9768797
vn -0.9181923 0.1988602 0.3426043
vn -0.9206455 -0.1172087 0.3723897
vn -0.8857634 -0.02655554 -0.4633768
vn -0.8916392 -0.141529 -0.4300572
vn -0.881544 0.3777632 0.283152
vn -0.881544 0.3777632 0.283152
vn -0.9233732 -0.2328582 -0.3052197
vn -0.9684552 -0.1865979 -0.1651537
vn -0.1972383 0.827073 0.5263528
vn -0.8327281 0.4712631 0.2906456
vn -0.9798565 -0.1938583 -0.0479622
vn -0.7974976 0.5349374 0.2789975
vn -0.9608077 -0.2198664 0.1688415
vn -0.1697862 0.9011955 0.3987723
vn -0.06553852 0.9067459 0.4165532
vn 0.01603398 0.5160892 0.8563848
vn -0.09089888 0.5149735 0.8523729
vn -0.3249663 -0.1710963 0.9301198
vn -0.1986524 0.4130879 0.8887607
vn -0.5936501 -0.2251587 0.7725821
vn -0.2191915 0.3676715 0.9037548
vn -0.7504603 -0.1653902 0.6398872
vn -0.1548131 0.2372894 0.9590238
vn -0.8192661 -0.05986343 0.5702802
vn -0.8699445 0.008560715 0.4930752
vn -0.167863 -0.1504823 0.9742572
vn 0.4670452 -0.1399773 0.8730837
vn 0.3130575 0.678259 0.6648006
vn 0.1959299 0.8319843 0.5190507
vn 0.8633823 0.4285535 0.2662946
vn 0.4310857 0.4429274 0.7861174
vn 0.9264062 0.2204874 0.305216
vn 0.9211622 -0.07189271 0.382481
vn 0.07442145 0.9055485 0.4176643
vn 0.006431993 0.9232745 0.384087
vn -0.02376418 0.9199218 0.3913814
vn 0.002963801 0.9420249 0.3355301
vn 0.180863 0.904132 0.3870838
vn 0.03820794 0.9205279 0.3888039
vn 0.00702176 0.986819 0.1616752
vn -0.0217118 0.9791027 0.2022042
vn 0.02924215 0.9800457 0.1966097
vn 0.8294124 0.493982 0.2608774
vn -0.30202 0.9408821 0.153378
vn -0.0008974209 0.9876041 -0.1569625
vn -0.04624355 0.9834796 -0.1750128
vn -0.8333324 0.521788 0.1824678
vn -0.3341572 0.9329206 -0.1341569
vn -0.8161365 0.5714568 0.08578037
vn -0.9252566 -0.05212822 0.375743
vn -0.9413337 0.276145 0.1939974
vn -0.6854616 -0.3771015 0.6228458
vn -0.3590395 0.9053797 -0.2266678
vn -0.0416957 0.9574293 -0.2856407
vn -0.0331701 0.97746 -0.2084982
vn -0.9218281 0.001297964 0.3875968
vn -0.3121787 -0.3961242 0.8634989
vn -0.2850748 0.06193268 0.9565024
vn -0.9501861 0.01758187 0.3111868
vn -0.7444022 0.6296167 -0.2223691
vn -0.9156457 0.291586 -0.2767141
vn -0.972052 -0.007264679 -0.2346532
vn -0.0695748 0.9790751 -0.1912362
vn -0.4356819 0.8705005 -0.2289324
vn -0.7401756 0.620474 -0.2591372
vn -0.9401132 0.2974328 -0.1664961
vn -0.9286751 0.2462735 0.2773299
vn -0.4652409 0.8549615 -0.2293287
vn -0.8446116 0.518879 -0.1318932
vn -0.8418828 0.4272539 0.3296779
vn -0.9194327 0.3391165 0.1991066
vn -0.9754483 0.03723574 0.2170582
vn -0.9994494 0.001565411 -0.03314287
vn -0.188557 0.9765527 -0.1038802
vn -0.5558428 0.8303338 -0.03980517
vn -0.6434326 0.7423266 -0.1869379
vn -0.7796197 0.6192255 0.09355664
vn -0.5487865 0.8000768 0.2423023
vn -0.7925345 0.5475013 0.268573
vn -0.4559288 0.8493431 0.2659796
vn -0.4300618 0.8813545 -0.1956043
vn -0.9279267 0.3718475 -0.02610716
vn -0.9872692 0.1155732 0.109281
vn -0.06361459 0.9960845 -0.06139154
vn -0.2837529 0.9586111 0.02343226
vn -0.259813 0.9649263 0.03760912
vn -0.06442759 0.9976255 -0.02433787
vn -0.403178 0.8549088 0.3264634
vn -0.4823171 0.7213933 0.4969525
vn -0.2326374 0.7760117 0.5862471
vn -0.6390467 0.7680342 0.04174849
vn -0.06296418 0.9854616 0.1578002
vn -0.3869168 0.9136844 0.1244034
vn -0.8721629 0.482768 0.07916375
vn -0.6507082 0.4029845 -0.6435699
vn -0.7966947 0.1507204 -0.5852869
vn -0.1192945 0.06648155 -0.9906307
vn -0.05651712 0.08318345 -0.9949303
vn -0.1246505 0.2001165 -0.9718105
vn -0.6088485 0.7877986 -0.09314971
vn -0.2618378 0.9613691 0.08491471
vn -0.5119753 0.6731514 -0.5336183
vn -0.1351536 0.6481228 -0.7494467
vn -0.01835641 0.01189551 -0.9997607
vn -0.08958974 0.98338 0.1579164
vn -0.01518003 0.9882236 -0.1522625
vn 0.0007930032 0.5380278 -0.8429267
vn 0.003682309 -0.1161229 -0.993228
vn 0.02023056 0.01781163 -0.9996367
vn 0.1170978 0.62387 -0.7727058
vn 0.1238366 0.2162137 -0.9684607
vn 0.245022 0.9682229 0.05008442
vn 0.4565266 0.647526 -0.6101587
vn 0.0508608 0.1209616 -0.9913533
vn 0.16927 0.9664088 -0.1933954
vn 0.4423402 0.8966622 -0.01821719
vn 0.4944777 0.8691662 -0.006473224
vn 0.5919264 0.3832264 -0.7090562
vn 0.09817431 0.07777645 -0.9921253
vn 0.7686597 0.1506052 -0.6216755
vn 0.9954478 0.08807401 0.03642401
vn 0.8575017 0.5101798 -0.06638741
vn 0.5876194 0.8032601 -0.09734721
vn 0.5440375 0.7892384 0.2848262
vn 0.8458839 0.4076261 0.3439788
vn 0.9947371 -0.08525988 0.05682213
vn 0.5634084 0.6723948 0.4800587
vn 0.7233724 0.5855548 0.3658659
vn 0.9648824 0.232115 0.1229827
vn 0.9941682 0.06866358 0.08315583
vn 0.5883082 0.6886323 0.4238857
vn 0.7675722 0.5535078 0.3232061
vn 0.9789249 0.1942148 0.06314052
vn 0.8282341 0.554432 -0.08144622
vn 0.6987519 0.6599812 0.2759903
vn 0.883531 0.453144 -0.1184633
vn 0.7731874 0.4695916 -0.4262217
vn 0.7302044 0.5734417 -0.3714378
vn 0.8418602 0.2885368 -0.4560899
vn 0.9266149 0.2752481 -0.2561702
vn 0.9885818 -0.03101575 -0.1474586
vn 0.215238 0.963329 0.1602184
vn 0.7571223 0.6103325 -0.2329376
vn 0.4181846 0.8918733 -0.1722898
vn 0.1361731 0.9880829 -0.07175592
vn 0.3875631 0.9026934 -0.1869213
vn 0.05623771 0.9871619 -0.1494942
vn 0.7302174 0.6562644 -0.1899993
vn 0.936415 -0.08033508 0.3415745
vn 0.8973642 -0.04229718 0.4392591
vn 0.2573347 0.115469 0.9593986
vn 0.3762806 -0.1764366 0.909551
vn 0.3943197 -0.307896 0.8658592
vn 0.9425649 0.08319432 0.3234968
vn 0.6690329 -0.3467598 0.6573832
vn 0.907556 0.335007 0.2532042
vn 0.9252608 -0.1350475 0.3544781
vn 0.3397244 0.9165222 -0.2111264
vn 0.82666 0.5547464 0.09428448
vn 0.9594654 -0.222127 0.1734527
vn 0.02212537 0.9696131 -0.2436405
vn 0.3095297 0.9442593 -0.1120966
vn 0.02902199 0.9870389 -0.1578348
vn 0.2963098 0.9413449 0.1614629
vn 0.8318994 0.5173818 0.2006473
vn 0.7980188 0.5311129 0.2847547
vn 0.9819478 -0.1878345 -0.02229013
vn 0.9690902 -0.17509 -0.1738028
vn 0.9279453 -0.1896625 -0.3208515
vn 0.8771243 -0.1416436 -0.4589009
vn 0.9264062 0.2204874 0.305216
vn 0.8840903 -0.01791828 -0.4669725
f 1/1/1 2/2/2 3/3/3
f 4/4/4 3/3/3 2/2/2
f 3/3/3 4/4/4 5/5/5
f 6/6/6 3/3/3 5/5/5
f 6/6/6 7/7/7 3/3/3
f 2/2/2 7/7/7 8/8/8
f 9/9/9 8/8/8 7/7/7
f 7/7/7 10/10/10 9/9/9
f 11/11/11 9/9/9 10/10/10
f 5/5/5 4/4/4 12/12/12
f 13/13/13 12/12/12 4/4/4
f 12/12/12 13/13/13 14/14/14
f 14/14/14 15/15/15 12/12/12
f 16/16/16 12/12/12 15/15/15
f 15/15/15 17/17/17 16/16/16
f 18/18/18 16/16/16 17/17/17
f 19/19/19 5/5/5 12/12/12
f 12/12/12 16/16/16 19/19/19
f 16/16/16 18/18/18 20/20/20
f 19/19/19 16/16/16 20/20/20
f 18/18/18 21/21/21 20/20/20
f 10/10/10 7/7/7 22/22/22
f 22/22/22 7/7/7 6/6/6
f 5/5/5 23/23/23 6/6/6
f 23/23/23 5/5/5 19/19/19
f 21/21/21 24/24/24 20/20/20
f 24/24/24 21/21/21 25/25/25
f 24/24/24 25/25/25 26/26/26
f 27/27/27 22/22/22 6/6/6
f 27/27/27 6/6/6 23/23/23
f 26/26/26 28/28/28 24/24/24
f 28/28/28 26/26/26 29/29/29
f 20/20/20 30/30/30 19/19/19
f 20/20/20 24/24/24 31/31/31
f 30/30/30 20/20/20 31/31/31
f 24/24/24 28/28/28 32/32/32
f 32/32/32 31/31/31 24/24/24
f 29/29/29 33/33/33 28/28/28
f 32/32/32 28/28/28 33/33/33
f 34/34/34 33/33/33 29/29/29
f 29/29/29 35/35/35 34/34/34
f 33/33/33 34/34/34 36/36/36
f 33/33/33 36/36/36 32/32/32
f 34/34/34 37/37/37 36/36/36
f 36/36/36 37/37/37 38/38/38
f 38/38/38 39/39/39 36/36/36
f 39/39/39 32/32/32 36/36/36
f 40/40/40 39/39/39 38/38/38
f 41/41/41 31/31/31 32/32/32
f 41/41/41 32/32/32 39/39/39
f 39/39/39 40/40/40 42/42/42
f 41/41/41 39/39/39 42/42/42
f 42/42/42 40/40/40 43/43/43
f 44/44/44 31/31/31 41/41/41
f 30/30/30 31/31/31 44/44/44
f 42/42/42 45/45/45 41/41/41
f 44/44/44 41/41/41 45/45/45
f 43/43/43 46/46/46 42/42/42
f 45/45/45 42/42/42 46/46/46
f 47/47/47 46/46/46 43/43/43
f 43/43/43 48/48/48 47/47/47
f 49/49/49 47/47/47 48/48/48
f 50/50/50 49/49/49 48/48/48
f 51/51/51 49/49/49 50/50/50
f 50/50/50 52/52/52 51/51/51
f 51/51/51 52/52/52 53/53/53
f 44/44/44 54/54/54 30/30/30
f 45/45/45 55/55/55 44/44/44
f 54/54/54 44/44/44 55/55/55
f 46/46/46 56/56/56 45/45/45
f 55/55/55 45/45/45 56/56/56
f 46/46/46 47/47/47 57/57/57
f 57/57/57 56/56/56 46/46/46
f 47/47/47 49/49/49 58/58/58
f 58/58/58 57/57/57 47/47/47
f 49/49/49 51/51/51 59/59/59
f 59/59/59 58/58/58 49/49/49
f 53/53/53 60/60/60 51/51/51
f 59/59/59 51/51/51 60/60/60
f 30/30/30 54/54/54 61/61/61
f 61/61/61 19/19/19 30/30/30
f 19/19/19 61/61/61 23/23/23
f 60/60/60 53/53/53 62/62/62
f 53/53/53 63/63/63 62/62/62
f 64/64/64 60/60/60 62/62/62
f 60/60/60 64/64/64 59/59/59
f 62/62/62 65/65/65 64/64/64
f 66/66/66 64/64/64 65/65/65
f 59/59/59 64/64/64 66/66/66
f 65/65/65 67/67/67 66/66/66
f 66/66/66 67/67/67 68/68/68
f 61/61/61 54/54/54 69/69/69
f 55/55/55 69/69/69 54/54/54
f 23/23/23 61/61/61 70/70/70
f 69/69/69 70/70/70 61/61/61
f 66/66/66 71/71/71 59/59/59
f 58/58/58 59/59/59 71/71/71
f 66/66/66 68/68/68 72/72/72
f 71/71/71 66/66/66 72/72/72
f 73/73/73 72/72/72 68/68/68
f 69/69/69 55/55/55 74/74/74
f 56/56/56 74/74/74 55/55/55
f 75/75/75 72/72/72 73/73/73
f 73/73/73 76/76/76 75/75/75
f 75/75/75 76/76/76 77/77/77
f 70/70/70 69/69/69 78/78/78
f 69/69/69 74/74/74 78/78/78
f 79/79/79 74/74/74 56/56/56
f 56/56/56 57/57/57 79/79/79
f 72/72/72 80/80/80 71/71/71
f 75/75/75 80/80/80 72/72/72
f 81/81/81 78/78/78 74/74/74
f 74/74/74 79/79/79 81/81/81
f 82/82/82 79/79/79 57/57/57
f 57/57/57 58/58/58 82/82/82
f 71/71/71 82/82/82 58/58/58
f 79/79/79 82/82/82 83/83/83
f 83/83/83 82/82/82 71/71/71
f 71/71/71 80/80/80 83/83/83
f 83/83/83 81/81/81 79/79/79
f 84/84/84 80/80/80 75/75/75
f 83/83/83 80/80/80 84/84/84
f 81/81/81 83/83/83 85/85/85
f 84/84/84 85/85/85 83/83/83
f 78/78/78 81/81/81 86/86/86
f 85/85/85 86/86/86 81/81/81
f 84/84/84 75/75/75 87/87/87
f 77/77/77 87/87/87 75/75/75
f 88/88/88 85/85/85 84/84/84
f 86/86/86 85/85/85 88/88/88
f 86/86/86 89/89/89 78/78/78
f 78/78/78 89/89/89 70/70/70
f 90/90/90 87/87/87 77/77/77
f 77/77/77 91/91/91 90/90/90
f 87/87/87 90/90/90 92/92/92
f 84/84/84 87/87/87 93/93/93
f 87/87/87 92/92/92 93/93/93
f 84/84/84 93/93/93 88/88/88
f 93/93/93 92/92/92 94/94/94
f 95/95/95 94/94/94 92/92/92
f 94/94/94 95/95/95 96/96/96
f 93/93/93 94/94/94 97/97/97
f 97/97/97 88/88/88 93/93/93
f 97/97/97 94/94/94 98/98/98
f 98/98/98 99/99/99 97/97/97
f 99/99/99 98/98/98 100/100/100
f 88/88/88 97/97/97 101/101/101
f 101/101/101 97/97/97 99/99/99
f 101/101/101 102/102/102 88/88/88
f 88/88/88 102/102/102 86/86/86
f 102/102/102 89/89/89 86/86/86
f 103/103/103 89/89/89 102/102/102
f 101/101/101 103/103/103 102/102/102
f 103/103/103 104/104/104 89/89/89
f 104/104/104 70/70/70 89/89/89
f 70/70/70 104/104/104 23/23/23
f 23/23/23 104/104/104 27/27/27
f 27/27/27 104/104/104 103/103/103
f 105/105/105 103/103/103 101/101/101
f 105/105/105 27/27/27 103/103/103
f 99/99/99 106/106/106 101/101/101
f 105/105/105 101/101/101 106/106/106
f 107/107/107 27/27/27 105/105/105
f 22/22/22 27/27/27 107/107/107
f 106/106/106 108/108/108 105/105/105
f 107/107/107 105/105/105 108/108/108
f 109/109/109 106/106/106 99/99/99
f 108/108/108 106/106/106 109/109/109
f 22/22/22 107/107/107 110/110/110
f 110/110/110 107/107/107 108/108/108
f 99/99/99 111/111/111 109/109/109
f 100/100/100 111/111/111 99/99/99
f 110/110/110 112/112/112 22/22/22
f 22/22/22 112/112/112 10/10/10
f 108/108/108 113/113/113 110/110/110
f 109/109/109 113/113/113 108/108/108
f 114/114/114 109/109/109 111/111/111
f 113/113/113 109/109/109 115/115/115
f 114/114/114 115/115/115 109/109/109
f 113/113/113 116/116/116 110/110/110
f 117/117/117 112/112/112 110/110/110
f 117/117/117 110/110/110 116/116/116
f 118/118/118 113/113/113 115/115/115
f 118/118/118 116/116/116 113/113/113
f 119/119/119 118/118/118 115/115/115
f 116/116/116 118/118/118 119/119/119
f 119/119/119 115/115/115 120/120/120
f 120/120/120 115/115/115 114/114/114
f 119/119/119 121/121/121 116/116/116
f 116/116/116 121/121/121 117/117/117
f 114/114/114 122/122/122 120/120/120
f 121/121/121 123/123/123 117/117/117
f 122/122/122 114/114/114 124/124/124
f 111/111/111 124/124/124 114/114/114
f 124/124/124 125/125/125 122/122/122
f 117/117/117 123/123/123 126/126/126
f 117/117/117 126/126/126 112/112/112
f 126/126/126 123/123/123 127/127/127
f 124/124/124 111/111/111 128/128/128
f 100/100/100 128/128/128 111/111/111
f 125/125/125 124/124/124 129/129/129
f 128/128/128 129/129/129 124/124/124
f 129/129/129 130/130/130 125/125/125
f 130/130/130 129/129/129 131/131/131
f 128/128/128 131/131/131 129/129/129
f 131/131/131 132/132/132 130/130/130
f 133/133/133 112/112/112 126/126/126
f 10/10/10 112/112/112 133/133/133
f 134/134/134 126/126/126 127/127/127
f 126/126/126 134/134/134 133/133/133
f 127/127/127 135/135/135 134/134/134
f 134/134/134 135/135/135 136/136/136
f 133/133/133 134/134/134 136/136/136
f 135/135/135 137/137/137 136/136/136
f 138/138/138 132/132/132 131/131/131
f 132/132/132 138/138/138 139/139/139
f 140/140/140 131/131/131 128/128/128
f 140/140/140 138/138/138 131/131/131
f 133/133/133 141/141/141 10/10/10
f 10/10/10 141/141/141 11/11/11
f 142/142/142 11/11/11 141/141/141
f 136/136/136 137/137/137 143/143/143
f 137/137/137 144/144/144 143/143/143
f 136/136/136 145/145/145 133/133/133
f 141/141/141 133/133/133 145/145/145
f 145/145/145 136/136/136 143/143/143
f 139/139/139 138/138/138 146/146/146
f 146/146/146 147/147/147 139/139/139
f 146/146/146 138/138/138 148/148/148
f 149/149/149 146/146/146 148/148/148
f 148/148/148 138/138/138 140/140/140
f 141/141/141 150/150/150 142/142/142
f 150/150/150 141/141/141 145/145/145
f 143/143/143 144/144/144 151/151/151
f 151/151/151 144/144/144 152/152/152
f 143/143/143 153/153/153 145/145/145
f 151/151/151 153/153/153 143/143/143
f 150/150/150 145/145/145 153/153/153
f 153/153/153 151/151/151 154/154/154
f 142/142/142 150/150/150 155/155/155
f 153/153/153 155/155/155 150/150/150
f 155/155/155 153/153/153 154/154/154
f 155/155/155 156/156/156 142/142/142
f 154/154/154 157/157/157 155/155/155
f 156/156/156 155/155/155 157/157/157
f 157/157/157 158/158/158 156/156/156
f 159/159/159 140/140/140 128/128/128
f 128/128/128 100/100/100 159/159/159
f 160/160/160 140/140/140 159/159/159
f 148/148/148 140/140/140 160/160/160
f 160/160/160 161/161/161 148/148/148
f 161/161/161 149/149/149 148/148/148
f 162/162/162 149/149/149 161/161/161
f 162/162/162 161/161/161 163/163/163
f 163/163/163 164/164/164 162/162/162
f 161/161/161 165/165/165 163/163/163
f 160/160/160 165/165/165 161/161/161
f 165/165/165 160/160/160 159/159/159
f 159/159/159 166/166/166 165/165/165
f 100/100/100 166/166/166 159/159/159
f 166/166/166 100/100/100 167/167/167
f 168/168/168 167/167/167 100/100/100
f 169/169/169 170/170/170 168/168/168
f 95/95/95 168/168/168 170/170/170
f 171/171/171 172/172/172 173/173/173
f 173/173/173 174/174/174 171/171/171
f 173/173/173 172/172/172 175/175/175
f 176/176/176 174/174/174 173/173/173
f 175/175/175 177/177/177 173/173/173
f 177/177/177 175/175/175 178/178/178
f 178/178/178 179/179/179 177/177/177
f 179/179/179 178/178/178 180/180/180
f 177/177/177 181/181/181 173/173/173
f 181/181/181 177/177/177 179/179/179
f 173/173/173 182/182/182 176/176/176
f 173/173/173 181/181/181 182/182/182
f 180/180/180 183/183/183 179/179/179
f 183/183/183 180/180/180 184/184/184
f 182/182/182 185/185/185 176/176/176
f 185/185/185 186/186/186 176/176/176
f 185/185/185 187/187/187 186/186/186
f 187/187/187 185/185/185 188/188/188
f 189/189/189 188/188/188 185/185/185
f 185/185/185 182/182/182 190/190/190
f 182/182/182 181/181/181 190/190/190
f 188/188/188 190/190/190 191/191/191
f 192/192/192 191/191/191 189/189/189
f 179/179/179 193/193/193 181/181/181
f 193/193/193 190/190/190 181/181/181
f 193/193/193 179/179/179 183/183/183
f 190/190/190 194/194/194 192/192/192
f 190/190/190 193/193/193 194/194/194
f 195/195/195 192/192/192 194/194/194
f 194/194/194 196/196/196 195/195/195
f 197/197/197 195/195/195 196/196/196
f 198/198/198 194/194/194 193/193/193
f 196/196/196 194/194/194 198/198/198
f 183/183/183 199/199/199 193/193/193
f 198/198/198 193/193/193 199/199/199
f 200/200/200 199/199/199 183/183/183
f 184/184/184 200/200/200 183/183/183
f 201/201/201 200/200/200 184/184/184
f 184/184/184 202/202/202 201/201/201
f 203/203/203 201/201/201 202/202/202
f 202/202/202 204/204/204 203/203/203
f 205/205/205 203/203/203 204/204/204
f 204/204/204 206/206/206 205/205/205
f 207/207/207 205/205/205 206/206/206
f 206/206/206 208/208/208 207/207/207
f 207/207/207 208/208/208 209/209/209
f 209/209/209 210/210/210 207/207/207
f 207/207/207 210/210/210 211/211/211
f 203/203/203 205/205/205 212/212/212
f 212/212/212 205/205/205 207/207/207
f 201/201/201 203/203/203 213/213/213
f 212/212/212 213/213/213 203/203/203
f 213/213/213 212/212/212 214/214/214
f 207/207/207 215/215/215 212/212/212
f 211/211/211 215/215/215 207/207/207
f 215/215/215 214/214/214 212/212/212
f 211/211/211 216/216/216 215/215/215
f 216/216/216 214/214/214 215/215/215
f 216/216/216 211/211/211 217/217/217
f 213/213/213 218/218/218 201/201/201
f 200/200/200 201/201/201 218/218/218
f 218/218/218 219/219/219 200/200/200
f 200/200/200 219/219/219 199/199/199
f 220/220/220 199/199/199 219/219/219
f 199/199/199 220/220/220 198/198/198
f 218/218/218 221/221/221 219/219/219
f 219/219/219 221/221/221 220/220/220
f 218/218/218 213/213/213 222/222/222
f 218/218/218 223/223/223 221/221/221
f 222/222/222 223/223/223 218/218/218
f 220/220/220 221/221/221 224/224/224
f 224/224/224 221/221/221 223/223/223
f 220/220/220 225/225/225 198/198/198
f 224/224/224 225/225/225 220/220/220
f 223/223/223 226/226/226 224/224/224
f 223/223/223 222/222/222 226/226/226
f 222/222/222 213/213/213 227/227/227
f 214/214/214 227/227/227 213/213/213
f 198/198/198 225/225/225 228/228/228
f 228/228/228 196/196/196 198/198/198
f 225/225/225 224/224/224 229/229/229
f 226/226/226 229/229/229 224/224/224
f 228/228/228 225/225/225 230/230/230
f 229/229/229 230/230/230 225/225/225
f 196/196/196 228/228/228 231/231/231
f 196/196/196 231/231/231 197/197/197
f 231/231/231 228/228/228 232/232/232
f 230/230/230 232/232/232 228/228/228
f 197/197/197 231/231/231 233/233/233
f 232/232/232 233/233/233 231/231/231
f 233/233/233 234/234/234 197/197/197
f 234/234/234 233/233/233 235/235/235
f 235/235/235 236/236/236 234/234/234
f 233/233/233 232/232/232 237/237/237
f 237/237/237 235/235/235 233/233/233
f 232/232/232 230/230/230 238/238/238
f 238/238/238 237/237/237 232/232/232
f 230/230/230 229/229/229 239/239/239
f 239/239/239 238/238/238 230/230/230
f 240/240/240 236/236/236 235/235/235
f 240/240/240 241/241/241 236/236/236
f 242/242/242 241/241/241 240/240/240
f 240/240/240 243/243/243 242/242/242
f 235/235/235 244/244/244 240/240/240
f 235/235/235 237/237/237 244/244/244
f 243/243/243 240/240/240 245/245/245
f 245/245/245 240/240/240 244/244/244
f 245/245/245 246/246/246 243/243/243
f 237/237/237 238/238/238 247/247/247
f 247/247/247 238/238/238 239/239/239
f 237/237/237 248/248/248 244/244/244
f 247/247/247 248/248/248 237/237/237
f 249/249/249 244/244/244 248/248/248
f 244/244/244 249/249/249 245/245/245
f 245/245/245 250/250/250 246/246/246
f 246/246/246 250/250/250 251/251/251
f 248/248/248 252/252/252 249/249/249
f 252/252/252 248/248/248 247/247/247
f 245/245/245 249/249/249 253/253/253
f 253/253/253 250/250/250 245/245/245
f 249/249/249 252/252/252 253/253/253
f 254/254/254 251/251/251 250/250/250
f 250/250/250 253/253/253 254/254/254
f 255/255/255 251/251/251 254/254/254
f 251/251/251 255/255/255 256/256/256
f 257/257/257 256/256/256 255/255/255
f 247/247/247 258/258/258 252/252/252
f 259/259/259 253/253/253 252/252/252
f 259/259/259 252/252/252 258/258/258
f 260/260/260 254/254/254 253/253/253
f 259/259/259 260/260/260 253/253/253
f 254/254/254 261/261/261 255/255/255
f 261/261/261 254/254/254 260/260/260
f 255/255/255 261/261/261 262/262/262
f 262/262/262 261/261/261 260/260/260
f 263/263/263 257/257/257 255/255/255
f 255/255/255 262/262/262 263/263/263
f 260/260/260 264/264/264 262/262/262
f 263/263/263 262/262/262 264/264/264
f 265/265/265 260/260/260 259/259/259
f 264/264/264 260/260/260 265/265/265
f 263/263/263 266/266/266 257/257/257
f 266/266/266 267/267/267 257/257/257
f 258/258/258 247/247/247 268/268/268
f 239/239/239 268/268/268 247/247/247
f 258/258/258 269/269/269 259/259/259
f 259/259/259 269/269/269 265/265/265
f 270/270/270 265/265/265 269/269/269
f 258/258/258 271/271/271 269/269/269
f 268/268/268 271/271/271 258/258/258
f 265/265/265 272/272/272 264/264/264
f 272/272/272 265/265/265 270/270/270
f 264/264/264 273/273/273 263/263/263
f 273/273/273 266/266/266 263/263/263
f 264/264/264 272/272/272 274/274/274
f 274/274/274 273/273/273 264/264/264
f 266/266/266 273/273/273 275/275/275
f 275/275/275 273/273/273 274/274/274
f 269/269/269 276/276/276 270/270/270
f 271/271/271 276/276/276 269/269/269
f 270/270/270 277/277/277 272/272/272
f 274/274/274 272/272/272 277/277/277
f 275/275/275 278/278/278 266/266/266
f 267/267/267 266/266/266 278/278/278
f 267/267/267 278/278/278 279/279/279
f 279/279/279 280/280/280 267/267/267
f 281/281/281 280/280/280 279/279/279
f 279/279/279 282/282/282 281/281/281
f 282/282/282 279/279/279 283/283/283
f 284/284/284 278/278/278 275/275/275
f 284/284/284 279/279/279 278/278/278
f 274/274/274 285/285/285 275/275/275
f 275/275/275 285/285/285 284/284/284
f 279/279/279 284/284/284 286/286/286
f 286/286/286 283/283/283 279/279/279
f 286/286/286 284/284/284 285/285/285
f 287/287/287 283/283/283 286/286/286
f 285/285/285 287/287/287 286/286/286
f 283/283/283 287/287/287 288/288/288
f 274/274/274 277/277/277 289/289/289
f 285/285/285 274/274/274 289/289/289
f 290/290/290 287/287/287 285/285/285
f 289/289/289 290/290/290 285/285/285
f 288/288/288 287/287/287 291/291/291
f 290/290/290 291/291/291 287/287/287
f 288/288/288 291/291/291 292/292/292
f 293/293/293 292/292/292 291/291/291
f 291/291/291 294/294/294 293/293/293
f 294/294/294 291/291/291 290/290/290
f 295/295/295 293/293/293 294/294/294
f 290/290/290 296/296/296 294/294/294
f 290/290/290 289/289/289 296/296/296
f 294/294/294 297/297/297 295/295/295
f 297/297/297 294/294/294 296/296/296
f 298/298/298 295/295/295 297/297/297
f 289/289/289 277/277/277 299/299/299
f 270/270/270 299/299/299 277/277/277
f 289/289/289 299/299/299 300/300/300
f 300/300/300 296/296/296 289/289/289
f 301/301/301 299/299/299 270/270/270
f 301/301/301 300/300/300 299/299/299
f 297/297/297 302/302/302 298/298/298
f 298/298/298 302/302/302 303/303/303
f 304/304/304 303/303/303 302/302/302
f 305/305/305 304/304/304 302/302/302
f 306/306/306 302/302/302 297/297/297
f 302/302/302 306/306/306 305/305/305
f 296/296/296 307/307/307 297/297/297
f 297/297/297 307/307/307 306/306/306
f 308/308/308 307/307/307 296/296/296
f 308/308/308 296/296/296 300/300/300
f 307/307/307 308/308/308 306/306/306
f 306/306/306 309/309/309 305/305/305
f 310/310/310 305/305/305 309/309/309
f 300/300/300 311/311/311 308/308/308
f 301/301/301 311/311/311 300/300/300
f 306/306/306 308/308/308 312/312/312
f 306/306/306 312/312/312 309/309/309
f 311/311/311 312/312/312 308/308/308
f 309/309/309 313/313/313 310/310/310
f 310/310/310 313/313/313 314/314/314
f 312/312/312 315/315/315 309/309/309
f 315/315/315 312/312/312 311/311/311
f 313/313/313 309/309/309 315/315/315
f 313/313/313 316/316/316 314/314/314
f 316/316/316 313/313/313 315/315/315
f 317/317/317 314/314/314 316/316/316
f 311/311/311 318/318/318 315/315/315
f 318/318/318 311/311/311 301/301/301
f 315/315/315 319/319/319 316/316/316
f 319/319/319 315/315/315 318/318/318
f 316/316/316 319/319/319 320/320/320
f 320/320/320 317/317/317 316/316/316
f 319/319/319 318/318/318 321/321/321
f 321/321/321 320/320/320 319/319/319
f 318/318/318 301/301/301 322/322/322
f 322/322/322 321/321/321 318/318/318
f 321/321/321 323/323/323 320/320/320
f 317/317/317 320/320/320 323/323/323
f 321/321/321 322/322/322 323/323/323
f 324/324/324 317/317/317 323/323/323
f 317/317/317 324/324/324 325/325/325
f 326/326/326 322/322/322 301/301/301
f 270/270/270 326/326/326 301/301/301
f 326/326/326 270/270/270 276/276/276
f 322/322/322 327/327/327 323/323/323
f 324/324/324 323/323/323 327/327/327
f 328/328/328 322/322/322 326/326/326
f 328/328/328 327/327/327 322/322/322
f 329/329/329 326/326/326 276/276/276
f 329/329/329 328/328/328 326/326/326
f 276/276/276 271/271/271 329/329/329
f 327/327/327 328/328/328 330/330/330
f 330/330/330 328/328/328 329/329/329
f 331/331/331 329/329/329 271/271/271
f 329/329/329 331/331/331 330/330/330
f 271/271/271 268/268/268 331/331/331
f 330/330/330 332/332/332 327/327/327
f 324/324/324 327/327/327 332/332/332
f 324/324/324 333/333/333 325/325/325
f 334/334/334 325/325/325 333/333/333
f 335/335/335 334/334/334 333/333/333
f 333/333/333 336/336/336 335/335/335
f 337/337/337 336/336/336 333/333/333
f 338/338/338 333/333/333 324/324/324
f 338/338/338 337/337/337 333/333/333
f 332/332/332 338/338/338 324/324/324
f 339/339/339 337/337/337 338/338/338
f 338/338/338 340/340/340 339/339/339
f 338/338/338 332/332/332 340/340/340
f 341/341/341 339/339/339 340/340/340
f 332/332/332 330/330/330 342/342/342
f 342/342/342 330/330/330 331/331/331
f 342/342/342 340/340/340 332/332/332
f 340/340/340 343/343/343 341/341/341
f 342/342/342 343/343/343 340/340/340
f 341/341/341 343/343/343 344/344/344
f 342/342/342 331/331/331 345/345/345
f 345/345/345 331/331/331 268/268/268
f 268/268/268 239/239/239 345/345/345
f 346/346/346 343/343/343 342/342/342
f 346/346/346 342/342/342 345/345/345
f 347/347/347 345/345/345 239/239/239
f 345/345/345 347/347/347 346/346/346
f 347/347/347 239/239/239 229/229/229
f 226/226/226 347/347/347 229/229/229
f 348/348/348 347/347/347 226/226/226
f 348/348/348 346/346/346 347/347/347
f 222/222/222 348/348/348 226/226/226
f 346/346/346 349/349/349 343/343/343
f 349/349/349 344/344/344 343/343/343
f 348/348/348 349/349/349 346/346/346
f 348/348/348 222/222/222 350/350/350
f 350/350/350 349/349/349 348/348/348
f 344/344/344 349/349/349 350/350/350
f 350/350/350 351/351/351 344/344/344
f 350/350/350 222/222/222 227/227/227
f 227/227/227 351/351/351 350/350/350
f 351/351/351 227/227/227 352/352/352
f 352/352/352 227/227/227 214/214/214
f 214/214/214 353/353/353 352/352/352
f 354/354/354 353/353/353 214/214/214
f 214/214/214 355/355/355 354/354/354
f 217/217/217 356/356/356 355/355/355
f 354/354/354 216/216/216 356/356/356
