v -0.01273356 -0.09523933 -0.01303558
v -0.01264405 -0.3109231 -0.960946
v -0.009308461 -0.1006397 -0.9573419
v -0.01264232 -0.3206681 -0.9701553
v -0.0137267 -0.8383901 -0.01321167
v -0.02706393 -0.8515919 0.0001846313
v -0.02381778 -0.081613 0.0001846313
v -0.01372844 -0.8390005 -1.190607
v -0.01264264 -0.3212783 -1.185323
v -0.02082182 -0.3071969 -1.198999
v -0.0208242 -0.8529686 -1.200063
v 0.02250922 0.1313767 -0.0133429
v -0.007486158 0.1320457 -1.186725
v -0.007484427 0.1315751 -0.01321167
v 0.0225075 0.1313769 -1.186725
v 0.03584506 0.117064 -1.190371
v 0.03584679 0.1181444 -0.01340149
v 0.02250894 0.1180383 -4.882812E-06
v -0.007484427 0.1315751 -0.01321167
v -0.02635909 0.1181313 0.0001846313
v 0.02250882 -0.08023453 -4.882812E-06
v 0.02250756 0.1180384 -1.200091
v -0.02551901 0.1191827 -1.200045
v -0.007486158 0.1320457 -1.186725
v 0.0358448 -0.3062083 -1.1843
v 0.02250892 -0.3060748 -1.197869
v 0.02250746 -0.3194136 -1.184555
v -0.01264264 -0.3212783 -1.185323
v -0.02082182 -0.3071969 -1.198999
v -0.01264232 -0.3206681 -0.9701553
v 0.03584512 -0.3062083 -0.9751865
v 0.02250777 -0.3194137 -0.9748511
v -0.01264405 -0.3109231 -0.960946
v 0.02251127 -0.306075 -0.9615161
v 0.03584526 -0.0709729 -0.9730279
v 0.02251127 -0.306075 -0.9615161
v 0.03584551 -0.04485863 -0.8157352
v 0.02661395 -0.1073563 -0.9611914
v -0.009308461 -0.1006397 -0.9573419
v -0.01264405 -0.3109231 -0.960946
v 0.02250733 -0.09404724 -0.9478573
v 0.01079103 -0.09389625 -0.8352081
v -0.01273356 -0.09523933 -0.01303558
v 0.03584559 -0.07788201 -0.7558636
v 0.0225076 -0.09379547 -0.760032
v 0.03584667 -0.08018662 -0.01340179
v 0.02250869 -0.09354378 -0.0133432
v -0.02381778 -0.081613 0.0001846313
v -0.02635909 0.1181313 0.0001846313
v 0.02250882 -0.08023453 -4.882812E-06
v 0.02250894 0.1180383 -4.882812E-06
v -0.02381778 -0.081613 0.0001846313
v -0.05081576 0.1307954 0.0003158569
v -0.02082145 0.8223467 0.0001846313
v -0.05081662 -0.8394186 0.0003158569
v -0.02706393 -0.8515919 0.0001846313
v -0.06415382 -0.8392825 -0.01296387
v -0.06415324 0.1306898 -0.01296387
v -0.06415496 0.1306898 -1.186725
v -0.06415542 -0.7595242 -1.137404
v -0.06415536 -0.5637322 -1.178766
v -0.04777092 -0.7730654 -1.200063
v -0.05081481 1.021465 0.0003158569
v 0.02250945 1.021465 -4.882812E-06
v 0.02250933 0.8230197 -4.882812E-06
v -0.0641527 1.021465 -0.01296387
v -0.05082221 -0.5497197 -1.19973
v -0.064153 0.9803979 -0.1996988
v -0.06415289 1.020091 -0.1406378
v -0.06415392 -1.00943 -0.01296387
v -0.01910391 -1.015492 -0.006353455
v -0.0641542 -1.02566 -0.1996988
v -0.0141539 -1.051912 0.0001553345
v 0.02250825 -1.051951 -4.882812E-06
v 0.02250837 -0.8535058 -4.882812E-06
v -0.0641545 -1.028662 -0.3997717
v -0.06415477 -0.9834182 -0.6032263
v -0.06415481 -1.051859 -0.5998446
v -0.06415489 -1.028524 -0.6613904
v -0.06415509 -1.037628 -0.7999176
v -0.06415538 -1.036498 -0.9999905
v -0.06415564 -1.037558 -1.171802
v -0.05081769 -1.051873 -1.200063
v 0.02250636 -1.051951 -1.200063
v -0.0208242 -0.8529686 -1.200063
v 0.02250648 -0.8535058 -1.200063
v -0.02082182 -0.3071969 -1.198999
v -0.0508174 0.1307955 -1.200063
v -0.02551901 0.1191827 -1.200045
v 0.02250756 0.1180384 -1.200091
v 0.02250892 -0.3060748 -1.197869
v -0.05081712 0.809011 -1.200063
v -0.02335875 0.8199868 -1.200063
v -0.06415455 0.8088891 -1.186725
v -0.06415445 0.9951909 -1.186725
v -0.06415415 1.020358 -0.9999905
v -0.01667408 1.003891 -1.200063
v -0.06415386 1.008996 -0.7999176
v -0.006653382 1.021465 -1.200063
v 0.01669774 1.021465 -1.200063
v 0.02250744 0.8230199 -1.200063
v -0.06415357 1.021465 -0.5998446
v -0.06415326 1.032712 -0.3997717
v -0.06415314 0.985967 -0.3011517
v -0.06415305 1.025285 -0.2520111
v -0.06415297 1.026472 -0.2016412
v 0.02250894 -0.8401672 -0.0133429
v -0.01372844 -0.8390005 -1.190607
v -0.0137267 -0.8383901 -0.01321167
v 0.02250721 -0.8401672 -1.186725
v 0.0358445 -0.8536413 -1.186725
v 0.03584622 -0.8536413 -0.01340149
v 0.03584543 -0.9993214 -0.4887735
v 0.03584491 -1.00689 -0.8453442
v 0.03584438 -1.038738 -1.186725
v 0.01084599 -1.065289 -0.8453262
v 0.03584502 -1.051965 -0.7536035
v 0.02250648 -0.8535058 -1.200063
v 0.02250721 -0.8401672 -1.186725
v 0.02250636 -1.051951 -1.200063
v 0.03584522 -1.051965 -0.6218417
v 0.01164652 -1.065289 -0.4887378
v -0.01415479 -1.06525 -0.5999539
v 0.02250701 -1.065289 -0.7535809
v 0.0225072 -1.065289 -0.6218124
v 0.02250637 -1.065289 -1.186725
v 0.02250636 -1.051951 -1.200063
v -0.01415538 -1.06525 -0.9992663
v 0.03584584 -1.051965 -0.1917462
v -0.05081769 -1.065211 -1.186725
v 0.02250636 -1.051951 -1.200063
v -0.05081769 -1.051873 -1.200063
v -0.06415564 -1.037558 -1.171802
v -0.03323915 -1.053218 -1
v -0.06415538 -1.036498 -0.9999905
v -0.01415507 -1.03868 -0.7999905
v -0.06415509 -1.037628 -0.7999176
v -0.01415486 -1.035727 -0.6614413
v -0.06415489 -1.028524 -0.6613904
v -0.06415477 -0.9834182 -0.6032263
v -0.01415472 -0.994647 -0.603187
v -0.06415481 -1.051859 -0.5998446
v -0.05081685 -1.065211 -0.599874
v -0.0141545 -1.06525 -0.3999176
v -0.03717644 -1.05113 -0.3998108
v -0.0641545 -1.028662 -0.3997717
v 0.02250784 -1.065289 -0.1916962
v -0.01415421 -1.06525 -0.199881
v -0.04078826 -1.05314 -0.1997476
v -0.0641542 -1.02566 -0.1996988
v -0.01415393 -1.06525 -0.01318268
v -0.01910391 -1.015492 -0.006353455
v -0.06415392 -1.00943 -0.01296387
v -0.0141539 -1.051912 0.0001553345
v 0.02250811 -1.065289 -0.0133432
v 0.02250825 -1.051951 -4.882812E-06
v 0.03584611 -1.051965 -0.01340149
v 0.02250825 -1.051951 -4.882812E-06
v 0.02250825 -1.051951 -4.882812E-06
v 0.02250837 -0.8535058 -4.882812E-06
v 0.02250894 -0.8401672 -0.0133429
v -0.02635909 0.1181313 0.0001846313
v -0.007484099 0.8091306 -0.01321167
v -0.02082145 0.8223467 0.0001846313
v -0.007484427 0.1315751 -0.01321167
v -0.007486158 0.1320457 -1.186725
v -0.00748583 0.8091308 -1.186725
v -0.02335875 0.8199868 -1.200063
v -0.02551901 0.1191827 -1.200045
v 0.02250721 -0.8401672 -1.186725
v -0.0208242 -0.8529686 -1.200063
v -0.01372844 -0.8390005 -1.190607
v 0.02250648 -0.8535058 -1.200063
v -0.0137267 -0.8383901 -0.01321167
v 0.02250837 -0.8535058 -4.882812E-06
v 0.02250894 -0.8401672 -0.0133429
v -0.02706393 -0.8515919 0.0001846313
v 0.02250974 0.8096813 -0.0133432
v -0.02082145 0.8223467 0.0001846313
v -0.007484099 0.8091306 -0.01321167
v 0.02250933 0.8230197 -4.882812E-06
v 0.03584719 0.8231412 -0.01340179
v 0.0358473 1.021465 -0.01340179
v 0.02250945 1.021465 -4.882812E-06
v 0.03584685 0.8332767 -0.2378747
v 0.02100497 0.8096813 -0.2378299
v -0.007484099 0.8091306 -0.01321167
v 0.01489155 0.8096813 -0.3350928
v 0.0127368 0.8096815 -0.6014151
v -0.00748583 0.8091308 -1.186725
v 0.03584673 0.8768796 -0.3351318
v 0.03584612 1.012994 -0.8149954
v 0.02250932 1.034803 -0.0133432
v -0.0508147 1.034803 -0.01302216
v -0.05081481 1.021465 0.0003158569
v -0.0641527 1.021465 -0.01296387
v -0.02252415 1.03218 -0.1406915
v 0.02250814 1.034803 -0.8149658
v -0.004291044 1.034803 -1.186725
v -0.06415289 1.020091 -0.1406378
v -0.0245699 1.004986 -0.1997473
v -0.064153 0.9803979 -0.1996988
v -0.06415297 1.026472 -0.2016412
v -0.01415296 1.034803 -0.199881
v -0.06415305 1.025285 -0.2520111
v 0.01669777 1.034803 -1.186725
v -0.02409294 1.025285 -0.2520572
v -0.02361602 0.99467 -0.3011954
v -0.06415314 0.985967 -0.3011517
v -0.06415326 1.032712 -0.3997717
v -0.02266209 1.034803 -0.3998105
v -0.05081559 1.034803 -0.5998737
v -0.06415357 1.021465 -0.5998446
v -0.06415386 1.008996 -0.7999176
v -0.01415355 1.034803 -0.5999539
v -0.01415384 1.034803 -0.7999905
v -0.01644726 1.022415 -0.7999368
v -0.01415414 1.034803 -1.000027
v -0.01695684 1.028171 -1
v -0.06415415 1.020358 -0.9999905
v -0.01667406 1.017229 -1.186725
v -0.06415445 0.9951909 -1.186725
v -0.01667408 1.003891 -1.200063
v -0.006653382 1.021465 -1.200063
v 0.01669774 1.021465 -1.200063
v 0.03584553 0.9370464 -1.186726
v 0.03584545 0.8231414 -1.186726
v 0.02250744 0.8230199 -1.200063
v 0.03584572 0.8231414 -1.009532
v 0.022508 0.8096815 -1.186725
v -0.00748583 0.8091308 -1.186725
v -0.02335875 0.8199868 -1.200063
v 0.03584637 0.9062555 -0.6014401
v 0.02250827 0.8096815 -1.009524
v 0.03584654 0.8384482 -0.465267
v 0.03584649 0.8394889 -0.4958032
v 0.01811003 0.8096813 -0.4652359
v 0.01896023 0.8096813 -0.4957736
v 0.02324085 0.1323308 -0.5570368
v -0.01415419 0.8098034 -0.9450296
v -0.01415403 0.132331 -0.5570368
v 0.02324068 0.8098034 -0.9450296
v 0.03584579 0.7941677 -0.9486804
v 0.03584594 0.1489693 -0.5791672
v 0.02324048 0.1324802 -0.8150909
v 0.03584545 0.7941677 -1.178572
v 0.02324033 0.8098034 -1.187202
v 0.0358456 0.1491041 -0.8119388
v 0.03584551 0.554027 -1.042084
v 0.02324038 0.5540305 -1.054689
v -0.01415441 0.1324802 -0.8150909
v 0.03584556 0.6356617 -1.042895
v 0.01312786 0.6048153 -1.083554
v -0.01415456 0.7931391 -1.190592
v -0.01415455 0.8098034 -1.187202
v 0.03584549 0.6555985 -1.099813
v 0.02324035 0.6556002 -1.112419
v 0.02324032 0.7941852 -1.191187
v -0.01415381 -0.8200227 -0.01161743
v 0.02324091 -0.0950843 -0.4267944
v -0.01415398 -0.0950843 -0.4267944
v 0.02324108 -0.8197386 -0.01178009
v -0.01415382 -0.840197 -0.01238525
v 0.02324106 -0.840197 -0.01238525
v 0.03584616 -0.8215785 -0.02333191
v 0.02324069 -0.840197 -0.2622473
v 0.035846 -0.1119219 -0.4297611
v 0.03584583 -0.8215785 -0.2602249
v 0.03584571 -0.3413917 -0.5331473
v 0.03584566 -0.1120566 -0.6579251
v 0.02324053 -0.09523346 -0.6856647
v 0.02324058 -0.3413956 -0.5457529
v -0.01415419 -0.840197 -0.2622473
v 0.03584573 -0.2007535 -0.5781634
v 0.006769828 -0.2183146 -0.6157086
v -0.01415436 -0.09523346 -0.6856647
v -0.07359008 -0.0002974572 -1.021609
v -0.06415498 -0.01577323 -1.024337
v -0.06415498 -0.0002974589 -1.021609
v -0.07359009 -0.0157733 -1.024337
v -0.064155 -0.02938239 -1.032194
v -0.0853131 -0.0002974552 -1.032164
v -0.07359011 -0.02938239 -1.032194
v -0.06415501 -0.03948348 -1.044232
v -0.08531311 -0.01216315 -1.034256
v -0.08531313 -0.0002974552 -1.050578
v -0.07359012 -0.03948348 -1.044232
v -0.06415503 -0.04485816 -1.058999
v -0.08531313 -0.005865234 -1.051559
v -0.1073692 -0.0002974513 -1.050578
v -0.1073692 -0.005865231 -1.051559
v -0.08531313 -0.02259764 -1.04028
v -0.08531315 -0.0107614 -1.054386
v -0.1073692 -0.01076139 -1.054386
v -0.07359014 -0.04485815 -1.058999
v -0.06415506 -0.04485816 -1.074714
v -0.08531315 -0.03034232 -1.04951
v -0.08531315 -0.01439551 -1.058717
v -0.1073692 -0.0143955 -1.058717
v -0.07359017 -0.04485815 -1.074714
v -0.06415508 -0.03948348 -1.089481
v -0.08531316 -0.03446326 -1.060832
v -0.08531315 -0.0163291 -1.06403
v -0.1073692 -0.0163291 -1.06403
v -0.07359019 -0.03948348 -1.089481
v -0.06415509 -0.02938239 -1.101519
v -0.08531318 -0.03446326 -1.072881
v -0.08531316 -0.0163291 -1.069683
v -0.1073692 -0.0163291 -1.069683
v -0.0735902 -0.02938239 -1.101519
v -0.06415509 -0.01577323 -1.109376
v -0.08531319 -0.03034232 -1.084203
v -0.08531316 -0.01439543 -1.074996
v -0.1073692 -0.0143955 -1.074996
v -0.0735902 -0.01577323 -1.109376
v -0.06415509 -0.0002974589 -1.112104
v -0.08531319 -0.02259756 -1.093433
v -0.08531316 -0.0107614 -1.079327
v -0.1073692 -0.01076139 -1.079327
v -0.07359019 -0.0002974572 -1.112104
v -0.06415507 0.01517823 -1.109376
v -0.0853132 -0.01216315 -1.099457
v -0.08531316 -0.005865234 -1.082154
v -0.1073692 -0.005865231 -1.082154
v -0.07359018 0.01517824 -1.109376
v -0.06415505 0.02878739 -1.101519
v -0.0853132 -0.0002974552 -1.101549
v -0.08531316 -0.0002974552 -1.083135
v -0.1073692 -0.0002974513 -1.083135
v -0.07359017 0.02878739 -1.101519
v -0.06415503 0.03888848 -1.089481
v -0.08531319 0.01156816 -1.099457
v -0.08531316 0.005270248 -1.082154
v -0.1073692 0.005270252 -1.082154
v -0.07359014 0.03888848 -1.089481
v -0.06415502 0.04426316 -1.074714
v -0.08531318 0.02200265 -1.093433
v -0.08531316 0.01016641 -1.079327
v -0.1073692 0.01016642 -1.079327
v -0.07359013 0.04426317 -1.074714
v -0.06415498 0.04426316 -1.058999
v -0.08531315 0.02974733 -1.084203
v -0.08531316 0.01380045 -1.074996
v -0.1073692 0.01380045 -1.074996
v -0.07359009 0.04426317 -1.058999
v -0.06415498 0.03888848 -1.044232
v -0.08531313 0.03386827 -1.072881
v -0.08531316 0.01573412 -1.069683
v -0.1073692 0.01573412 -1.069683
v -0.07359008 0.03888848 -1.044232
v -0.06415497 0.02878739 -1.032194
v -0.08531312 0.03386827 -1.060832
v -0.08531315 0.01573412 -1.06403
v -0.1073692 0.01573412 -1.06403
v -0.07359008 0.02878739 -1.032194
v -0.06415496 0.01517823 -1.024337
v -0.0853131 0.0297474 -1.04951
v -0.08531313 0.01380045 -1.058717
v -0.1073692 0.01380045 -1.058717
v -0.07359007 0.01517824 -1.024337
v -0.06415498 -0.0002974589 -1.021609
v -0.07359008 -0.0002974572 -1.021609
v -0.08531311 0.02200265 -1.04028
v -0.08531313 0.01016641 -1.054386
v -0.1073692 0.01016642 -1.054386
v -0.0853131 0.01156816 -1.034256
v -0.0853131 -0.0002974552 -1.032164
v -0.08531313 0.005270248 -1.051559
v -0.1073692 0.005270252 -1.051559
v -0.08531313 -0.0002974552 -1.050578
v -0.1073692 -0.0002974513 -1.050578
v 0.04437898 -0.0002977067 -1.112105
v 0.03494387 -0.01577347 -1.109377
v 0.03494387 -0.0002977051 -1.112105
v 0.04437898 -0.01577355 -1.109377
v 0.03494387 -0.02938264 -1.101519
v 0.056102 -0.0002977088 -1.10155
v 0.04437898 -0.02938264 -1.101519
v 0.03494387 -0.03948373 -1.089481
v 0.05610202 -0.0121634 -1.099458
v 0.05610203 -0.0002977088 -1.083136
v 0.04437898 -0.03948373 -1.089481
v 0.0349439 -0.0448584 -1.074714
v 0.05610204 -0.005865488 -1.082154
v 0.07815807 -0.0002977126 -1.083136
v 0.07815807 -0.005865492 -1.082154
v 0.05610202 -0.02259789 -1.093433
v 0.05610205 -0.01076165 -1.079328
v 0.07815807 -0.01076165 -1.079327
v 0.04437901 -0.04485841 -1.074714
v 0.03494393 -0.0448584 -1.059
v 0.05610203 -0.03034257 -1.084203
v 0.05610206 -0.01439576 -1.074997
v 0.07815808 -0.01439577 -1.074997
v 0.04437904 -0.04485841 -1.059
v 0.03494395 -0.03948373 -1.044233
v 0.05610204 -0.03446351 -1.072881
v 0.05610204 -0.01632936 -1.069684
v 0.07815808 -0.01632936 -1.069684
v 0.04437906 -0.03948373 -1.044233
v 0.03494398 -0.02938264 -1.032195
v 0.05610206 -0.03446351 -1.060833
v 0.05610204 -0.01632936 -1.06403
v 0.0781581 -0.01632936 -1.06403
v 0.04437909 -0.02938264 -1.032195
v 0.03494398 -0.01577347 -1.024338
v 0.05610208 -0.03034257 -1.049511
v 0.05610207 -0.01439568 -1.058718
v 0.0781581 -0.01439577 -1.058718
v 0.0443791 -0.01577348 -1.024338
v 0.03494401 -0.0002977051 -1.021609
v 0.05610208 -0.02259782 -1.040281
v 0.05610208 -0.01076165 -1.054387
v 0.0781581 -0.01076165 -1.054387
v 0.04437912 -0.0002977067 -1.021609
v 0.03494401 0.01517799 -1.024338
v 0.05610211 -0.0121634 -1.034257
v 0.05610209 -0.005865488 -1.05156
v 0.0781581 -0.005865492 -1.05156
v 0.04437913 0.01517798 -1.024338
v 0.034944 0.02878715 -1.032195
v 0.05610212 -0.0002977088 -1.032164
v 0.05610208 -0.0002977088 -1.050578
v 0.0781581 -0.0002977126 -1.050578
v 0.04437912 0.02878715 -1.032195
v 0.034944 0.03888824 -1.044233
v 0.05610211 0.01156791 -1.034257
v 0.05610208 0.005269994 -1.05156
v 0.07815813 0.00526999 -1.05156
v 0.04437911 0.03888824 -1.044233
v 0.03494398 0.04426292 -1.059
v 0.0561021 0.0220024 -1.040281
v 0.05610208 0.01016616 -1.054387
v 0.07815813 0.01016616 -1.054387
v 0.0443791 0.04426291 -1.059
v 0.03494395 0.04426292 -1.074714
v 0.05610209 0.02974707 -1.049511
v 0.05610208 0.01380019 -1.058718
v 0.07815812 0.01380019 -1.058718
v 0.04437907 0.04426291 -1.074714
v 0.03494393 0.03888824 -1.089481
v 0.0561021 0.03386801 -1.060833
v 0.05610208 0.01573386 -1.06403
v 0.07815813 0.01573386 -1.06403
v 0.04437903 0.03888824 -1.089481
v 0.0349439 0.02878715 -1.101519
v 0.05610207 0.03386801 -1.072881
v 0.05610208 0.01573386 -1.069684
v 0.0781581 0.01573386 -1.069684
v 0.04437901 0.02878715 -1.101519
v 0.03494389 0.01517799 -1.109377
v 0.05610204 0.02974715 -1.084203
v 0.05610207 0.01380019 -1.074997
v 0.0781581 0.01380019 -1.074997
v 0.044379 0.01517798 -1.109377
v 0.03494387 -0.0002977051 -1.112105
v 0.04437898 -0.0002977067 -1.112105
v 0.05610204 0.0220024 -1.093433
v 0.05610206 0.01016616 -1.079328
v 0.07815809 0.01016616 -1.079328
v 0.05610202 0.01156791 -1.099458
v 0.056102 -0.0002977088 -1.10155
v 0.05610203 0.005269994 -1.082154
v 0.07815809 0.00526999 -1.082154
v 0.05610203 -0.0002977088 -1.083136
v 0.07815807 -0.0002977126 -1.083136
vt 0.8338258 0.801788
vt 0.7258644 0.7542849
vt 0.7262956 0.8007252
vt 0.7248178 0.7523453
vt 0.8336557 0.6373412
vt 0.8358064 0.6344243
vt 0.8357934 0.8047956
vt 0.6995341 0.6378884
vt 0.7003277 0.7524565
vt 0.6985177 0.7556071
vt 0.6981765 0.6348482
vt 0.8391329 0.9208554
vt 0.7027751 0.9272449
vt 0.8393513 0.927206
vt 0.7029988 0.9209111
vt 0.7026539 0.9173138
vt 0.839137 0.9173954
vt 0.8411453 0.9187547
vt 0.8393513 0.927206
vt 0.8420681 0.9304631
vt 0.8414159 0.8720939
vt 0.7009639 0.9188926
vt 0.7001098 0.9303287
vt 0.7027751 0.9272449
vt 0.701324 0.822746
vt 0.6992192 0.8216088
vt 0.7011148 0.819289
vt 0.7005385 0.8118225
vt 0.6979512 0.8113526
vt 0.7256969 0.8087097
vt 0.7255047 0.8203782
vt 0.7252689 0.8164714
vt 0.7273331 0.8090587
vt 0.7273141 0.8173017
vt 0.7272255 0.873629
vt 0.7273275 0.8192826
vt 0.7459463 0.8801681
vt 0.7281237 0.8648124
vt 0.731048 0.862461
vt 0.7311634 0.8171554
vt 0.7304808 0.8681803
vt 0.744206 0.8676956
vt 0.8398693 0.8620945
vt 0.7532187 0.8738269
vt 0.7529 0.8696948
vt 0.8393233 0.8733788
vt 0.8394917 0.8697698
vt 0.8424795 0.8609334
vt 0.8480645 0.2658534
vt 0.8424459 0.2215182
vt 0.8424459 0.265833
vt 0.8477773 0.2212133
vt 0.8508732 0.2686875
vt 0.847427 0.4232425
vt 0.8508771 0.05187015
vt 0.848209 0.04911091
vt 0.852968 0.05186061
vt 0.85302 0.2686684
vt 0.988017 0.2686464
vt 0.9823132 0.06972327
vt 0.9871736 0.113479
vt 0.9896005 0.0666733
vt 0.8508742 0.4677498
vt 0.8424438 0.4677445
vt 0.8424445 0.42339
vt 0.8530415 0.4677536
vt 0.9900551 0.1165702
vt 0.8745226 0.4585626
vt 0.8677298 0.4674352
vt 0.852892 0.01385332
vt 0.8476611 0.0124084
vt 0.8744048 0.01013681
vt 0.846784 0.004339501
vt 0.842523 0.004334436
vt 0.842523 0.04868785
vt 0.8974665 0.009460564
vt 0.9208872 0.01961805
vt 0.9204987 0.004328543
vt 0.9275983 0.00952026
vt 0.9435436 0.007488939
vt 0.9665804 0.007764816
vt 0.9863833 0.007560338
vt 0.9900454 0.004372542
vt 0.9985154 0.004795919
vt 0.9926534 0.04884697
vt 0.9976489 0.0490993
vt 0.9938543 0.1707246
vt 0.9902011 0.2686581
vt 0.9931586 0.2660509
vt 0.9987559 0.2657847
vt 0.9987591 0.1709923
vt 0.9901734 0.4202161
vt 0.9933333 0.42272
vt 0.9880564 0.4202215
vt 0.9880804 0.4618505
vt 0.9665868 0.467506
vt 0.9936984 0.4638583
vt 0.9435614 0.464971
vt 0.9948037 0.4678279
vt 0.9974852 0.4679209
vt 0.9985947 0.4236009
vt 0.920542 0.4677498
vt 0.8975343 0.4702556
vt 0.8861927 0.4598045
vt 0.8805422 0.4685915
vt 0.8747487 0.4688594
vt 0.8344166 0.6188524
vt 0.6980509 0.6260253
vt 0.8346112 0.6266272
vt 0.6986953 0.618287
vt 0.6986896 0.6146795
vt 0.8344567 0.6153209
vt 0.779632 0.5821239
vt 0.738097 0.5802084
vt 0.6984183 0.5732737
vt 0.7380242 0.5656734
vt 0.7488542 0.570979
vt 0.6966834 0.6162723
vt 0.6986953 0.618287
vt 0.6961271 0.5707675
vt 0.7640906 0.5711297
vt 0.7796544 0.5661237
vt 0.7665551 0.5604119
vt 0.7488096 0.5673355
vt 0.7641004 0.567392
vt 0.6982403 0.5661969
vt 0.6966024 0.5692279
vt 0.7200089 0.5592644
vt 0.8142695 0.5702246
vt 0.6982766 0.5500626
vt 0.6959713 0.5659188
vt 0.6964099 0.5489111
vt 0.6998112 0.5436055
vt 0.7197215 0.5541312
vt 0.7196565 0.546408
vt 0.7428132 0.5545138
vt 0.7424939 0.5434852
vt 0.7585064 0.5554612
vt 0.7576964 0.5441372
vt 0.7641166 0.5371066
vt 0.7629161 0.5456734
vt 0.7688301 0.5504166
vt 0.768633 0.5544506
vt 0.790422 0.5601013
vt 0.7909433 0.5540915
vt 0.7911161 0.5461261
vt 0.8143795 0.5659838
vt 0.8136324 0.5576363
vt 0.8138259 0.5516725
vt 0.8138165 0.5438669
vt 0.8350862 0.5581619
vt 0.8366223 0.5477516
vt 0.8351644 0.5382733
vt 0.8369215 0.5567219
vt 0.8351797 0.5663118
vt 0.8375204 0.565468
vt 0.8350645 0.5708967
vt 0.8370389 0.5687081
vt 0.837324 0.5714248
vt 0.8364444 0.6168994
vt 0.8344166 0.6188524
vt 0.9964141 0.7045381
vt 0.9937857 0.8574782
vt 0.9959292 0.8604041
vt 0.9937851 0.7075146
vt 0.860122 0.7076221
vt 0.8601226 0.8574819
vt 0.857762 0.859885
vt 0.8575699 0.7047752
vt 0.6986953 0.618287
vt 0.6958335 0.6266671
vt 0.6980509 0.6260253
vt 0.6966834 0.6162723
vt 0.8346112 0.6266272
vt 0.8364444 0.6168994
vt 0.8344166 0.6188524
vt 0.8371586 0.6287515
vt 0.994074 0.8704461
vt 0.9969674 0.8620685
vt 0.9941968 0.8627661
vt 0.9960312 0.873017
vt 0.9940709 0.874687
vt 0.9941715 0.9188648
vt 0.9961492 0.9205333
vt 0.9683134 0.8770389
vt 0.9683032 0.8708462
vt 0.9941968 0.8627661
vt 0.9570692 0.8700954
vt 0.9264082 0.8730049
vt 0.8589886 0.8710209
vt 0.9571304 0.886745
vt 0.9019159 0.919154
vt 0.9940863 0.9232826
vt 0.9953101 0.9385254
vt 0.9974076 0.938371
vt 0.995885 0.9421796
vt 0.9802278 0.9351304
vt 0.9017138 0.9241496
vt 0.8586229 0.9281151
vt 0.9815527 0.9444405
vt 0.974048 0.9413121
vt 0.9752724 0.9511731
vt 0.9713952 0.9467999
vt 0.9725155 0.9348381
vt 0.9668196 0.9465215
vt 0.8587928 0.9245389
vt 0.9661639 0.9374024
vt 0.9603769 0.9425434
vt 0.9602711 0.9511172
vt 0.9483933 0.9443117
vt 0.949146 0.9351038
vt 0.9259692 0.9401453
vt 0.9258088 0.9440344
vt 0.9028071 0.9444801
vt 0.9261343 0.9322007
vt 0.9030808 0.9315606
vt 0.9029304 0.9334655
vt 0.8800257 0.931065
vt 0.879881 0.9324942
vt 0.8797507 0.9430823
vt 0.8581913 0.9323165
vt 0.8580594 0.9439171
vt 0.8560047 0.9335123
vt 0.8565726 0.9289055
vt 0.8567875 0.9227756
vt 0.8590763 0.9035337
vt 0.8591147 0.8791103
vt 0.8570971 0.8778177
vt 0.8794011 0.8783389
vt 0.8590893 0.8762904
vt 0.8589886 0.8710209
vt 0.8568879 0.8671384
vt 0.9265248 0.8949165
vt 0.879436 0.8750911
vt 0.9421189 0.8793712
vt 0.9386503 0.8798623
vt 0.9420336 0.8720508
vt 0.9385238 0.8725818
vt 0.6901981 0.7282597
vt 0.6952887 0.9049041
vt 0.6945539 0.7281913
vt 0.6909329 0.9049725
vt 0.6891832 0.90189
vt 0.6887029 0.7344652
vt 0.6635944 0.7574348
vt 0.6666045 0.9279205
vt 0.6661553 0.9326258
vt 0.6653661 0.7607838
vt 0.6659564 0.8656973
vt 0.6642165 0.8672919
vt 0.6591918 0.7575197
vt 0.6703711 0.8819365
vt 0.6635814 0.8807258
vt 0.6608503 0.9300737
vt 0.6612645 0.9343956
vt 0.6662159 0.8927678
vt 0.6644678 0.894103
vt 0.6651539 0.929487
vt 0.6937235 0.5355837
vt 0.6891173 0.7238516
vt 0.6934544 0.723875
vt 0.6894598 0.5362929
vt 0.6933004 0.5305035
vt 0.6884657 0.5320143
vt 0.6879281 0.5374432
vt 0.6624349 0.5595983
vt 0.6873916 0.7204678
vt 0.664171 0.5634653
vt 0.6641716 0.6870601
vt 0.6647015 0.7460201
vt 0.6628633 0.7527641
vt 0.6624598 0.688494
vt 0.6580491 0.5595708
vt 0.6672468 0.7196928
vt 0.6611128 0.7204879
vt 0.6586198 0.7525516
vt 0.6535606 0.6318932
vt 0.6564196 0.6358885
vt 0.6552606 0.6304223
vt 0.6547537 0.6370137
vt 0.6570862 0.6418455
vt 0.6509722 0.6354152
vt 0.6553453 0.64236
vt 0.6570939 0.6479183
vt 0.652006 0.6392016
vt 0.6485906 0.640309
vt 0.6553352 0.6477561
vt 0.6565348 0.6537708
vt 0.6488849 0.642366
vt 0.6446547 0.6408029
vt 0.6447582 0.6428403
vt 0.6524132 0.643384
vt 0.6489847 0.6448715
vt 0.6448445 0.6448035
vt 0.6548212 0.6530002
vt 0.655538 0.6592439
vt 0.6523522 0.6476552
vt 0.6488597 0.6477055
vt 0.6447636 0.6467687
vt 0.6539083 0.6579654
vt 0.654214 0.6642882
vt 0.6519004 0.651886
vt 0.6484818 0.6507198
vt 0.6444952 0.6487836
vt 0.652687 0.6625976
vt 0.6526454 0.6689129
vt 0.651121 0.6559851
vt 0.6478567 0.6537931
vt 0.6440425 0.6508643
vt 0.6512287 0.6668878
vt 0.6508865 0.6731527
vt 0.650073 0.6598932
vt 0.6470096 0.6568373
vt 0.6434163 0.6529998
vt 0.6495833 0.6708501
vt 0.6489658 0.6770433
vt 0.6488089 0.6635785
vt 0.6459749 0.6597908
vt 0.6426346 0.655155
vt 0.6477808 0.6745003
vt 0.6468903 0.6806022
vt 0.6473709 0.6670264
vt 0.644786 0.6626101
vt 0.6417208 0.6572808
vt 0.6458333 0.6778405
vt 0.6446522 0.6838138
vt 0.6457888 0.6702263
vt 0.6434727 0.6652567
vt 0.6407045 0.6593167
vt 0.6437415 0.6808448
vt 0.6422356 0.6866181
vt 0.6440817 0.6731581
vt 0.6420603 0.6676912
vt 0.6396173 0.6612019
vt 0.6414993 0.6834534
vt 0.6396266 0.6889058
vt 0.6422608 0.6757849
vt 0.6405707 0.6698653
vt 0.6384928 0.6628759
vt 0.6391032 0.6855652
vt 0.6368269 0.6905106
vt 0.640334 0.6780483
vt 0.6390249 0.6717225
vt 0.6373627 0.6642845
vt 0.6365626 0.6870384
vt 0.6338687 0.6912158
vt 0.6383111 0.6798651
vt 0.6374468 0.6731988
vt 0.6362536 0.6653838
vt 0.6339112 0.6876957
vt 0.6308402 0.6907747
vt 0.6362118 0.6811329
vt 0.6358698 0.6742311
vt 0.6351838 0.6661417
vt 0.6312188 0.6873378
vt 0.6279157 0.6890279
vt 0.6340699 0.6817377
vt 0.6343397 0.6747735
vt 0.6341597 0.6665359
vt 0.6285936 0.685783
vt 0.6252705 0.6863323
vt 0.6261232 0.683044
vt 0.631935 0.6815599
vt 0.6329175 0.674824
vt 0.6331739 0.6665593
vt 0.6298773 0.6804549
vt 0.6280613 0.6781267
vt 0.6316746 0.6744496
vt 0.6322007 0.6662496
vt 0.6306692 0.6737182
vt 0.6311918 0.6659004
vt 0.6535606 0.6318932
vt 0.6564196 0.6358885
vt 0.6552606 0.6304223
vt 0.6547537 0.6370137
vt 0.6570862 0.6418455
vt 0.6509722 0.6354152
vt 0.6553453 0.64236
vt 0.6570939 0.6479183
vt 0.652006 0.6392016
vt 0.6485906 0.640309
vt 0.6553352 0.6477561
vt 0.6565348 0.6537708
vt 0.6488849 0.642366
vt 0.6446547 0.6408029
vt 0.6447582 0.6428403
vt 0.6524132 0.643384
vt 0.6489847 0.6448715
vt 0.6448445 0.6448035
vt 0.6548212 0.6530002
vt 0.655538 0.6592439
vt 0.6523522 0.6476552
vt 0.6488597 0.6477055
vt 0.6447636 0.6467687
vt 0.6539083 0.6579654
vt 0.654214 0.6642882
vt 0.6519004 0.651886
vt 0.6484818 0.6507198
vt 0.6444952 0.6487836
vt 0.652687 0.6625976
vt 0.6526454 0.6689129
vt 0.651121 0.6559851
vt 0.6478567 0.6537931
vt 0.6440425 0.6508643
vt 0.6512287 0.6668878
vt 0.6508865 0.6731527
vt 0.650073 0.6598932
vt 0.6470096 0.6568373
vt 0.6434163 0.6529998
vt 0.6495833 0.6708501
vt 0.6489658 0.6770433
vt 0.6488089 0.6635785
vt 0.6459749 0.6597908
vt 0.6426346 0.655155
vt 0.6477808 0.6745003
vt 0.6468903 0.6806022
vt 0.6473709 0.6670264
vt 0.644786 0.6626101
vt 0.6417208 0.6572808
vt 0.6458333 0.6778405
vt 0.6446522 0.6838138
vt 0.6457888 0.6702263
vt 0.6434727 0.6652567
vt 0.6407045 0.6593167
vt 0.6437415 0.6808448
vt 0.6422356 0.6866181
vt 0.6440817 0.6731581
vt 0.6420603 0.6676912
vt 0.6396173 0.6612019
vt 0.6414993 0.6834534
vt 0.6396266 0.6889058
vt 0.6422608 0.6757849
vt 0.6405707 0.6698653
vt 0.6384928 0.6628759
vt 0.6391032 0.6855652
vt 0.6368269 0.6905106
vt 0.640334 0.6780483
vt 0.6390249 0.6717225
vt 0.6373627 0.6642845
vt 0.6365626 0.6870384
vt 0.6338687 0.6912158
vt 0.6383111 0.6798651
vt 0.6374468 0.6731988
vt 0.6362536 0.6653838
vt 0.6339112 0.6876957
vt 0.6308402 0.6907747
vt 0.6362118 0.6811329
vt 0.6358698 0.6742311
vt 0.6351838 0.6661417
vt 0.6312188 0.6873378
vt 0.6279157 0.6890279
vt 0.6340699 0.6817377
vt 0.6343397 0.6747735
vt 0.6341597 0.6665359
vt 0.6285936 0.685783
vt 0.6252705 0.6863323
vt 0.6261232 0.683044
vt 0.631935 0.6815599
vt 0.6329175 0.674824
vt 0.6331739 0.6665593
vt 0.6298773 0.6804549
vt 0.6280613 0.6781267
vt 0.6316746 0.6744496
vt 0.6322007 0.6662496
vt 0.6306692 0.6737182
vt 0.6311918 0.6659004
vn 0.9999608 -0.008623148 0.002062236
vn 0.9999608 -0.008623148 0.002062236
vn 0.9998662 -0.01592393 0.00371769
vn 0.9999983 -0.001838136 0.0001369219
vn 0.9999986 -0.001708555 0.0002031406
vn 0.005128966 -9.570103E-06 0.9999869
vn 0.004837116 2.818881E-05 0.9999883
vn 0.9999979 -0.002096262 2.050427E-06
vn 0.9999979 -0.002097298 4.484653E-06
vn 0.01262169 -0.001032227 -0.9999198
vn 0.002525317 0.0006163935 -0.9999967
vn 0.3440575 0.8747324 0.3412739
vn 0.02203746 0.9997571 6.61865E-06
vn 0.006615326 0.9999781 0.0004009832
vn 0.3516843 0.8765866 -0.3285031
vn 1 -6.133958E-07 -1.488687E-06
vn 1 -5.891845E-07 -1.471504E-06
vn 0.00398124 2.541875E-05 0.9999921
vn 1 -4.846079E-07 -1.47505E-06
vn 0.004712709 2.587371E-05 0.9999889
vn 0.00398124 2.541875E-05 0.9999921
vn 0.01185681 -0.003776469 -0.9999226
vn 0.01021645 -0.001652823 -0.9999465
vn 1 -4.846079E-07 -1.47505E-06
vn 1 -6.181851E-07 -1.492522E-06
vn 0.01185681 -0.003776469 -0.9999226
vn 0.3669911 -0.8663273 -0.3388136
vn 0.9999979 -0.002097298 4.484653E-06
vn 0.01262169 -0.001032227 -0.9999198
vn 0.0891022 -0.9039739 0.4182009
vn 1 -6.181851E-07 -1.492522E-06
vn 0.3769806 -0.8672804 0.325131
vn 0.07698206 -0.407454 0.9099753
vn 0.3773283 -0.326411 0.8666483
vn 1 -6.289784E-07 -1.495863E-06
vn 0.3773283 -0.326411 0.8666483
vn 1 -6.06047E-07 -1.480738E-06
vn 0.5914925 -0.1726031 0.7876198
vn 0.1492269 -0.6701556 0.7270644
vn 0.07698206 -0.407454 0.9099753
vn 0.6488208 -0.6937753 0.3125816
vn 0.6037652 -0.7971479 -0.004775784
vn 0.9999608 -0.008623148 0.002062236
vn 1 -5.961385E-07 -1.468674E-06
vn 0.4520961 -0.8910328 -0.04086201
vn 1 -5.961385E-07 -1.468674E-06
vn 0.3614091 -0.8670509 0.3429377
vn 0.004837116 2.818881E-05 0.9999883
vn 0.004712709 2.587371E-05 0.9999889
vn 0.00398124 2.541875E-05 0.9999921
vn 0.00398124 2.541875E-05 0.9999921
vn 0.004837116 2.818881E-05 0.9999883
vn 0.005095284 1.421075E-05 0.999987
vn 0.004501197 -5.550704E-06 0.9999899
vn 0.005128966 -9.570103E-06 0.9999869
vn 0.005128966 -9.570103E-06 0.9999869
vn -1 5.958867E-07 1.471271E-06
vn -1 6.003383E-07 1.466536E-06
vn -1 6.015289E-07 1.430092E-06
vn -1 5.930527E-07 1.436204E-06
vn -1 5.875785E-07 1.262037E-06
vn 0.003784448 0.0009238221 -0.9999925
vn 0.004564985 -8.32473E-06 0.9999896
vn 0.004373921 0 0.9999905
vn 0.004373619 0 0.9999905
vn -1 6.023949E-07 1.489173E-06
vn 0.0130041 0.0003399183 -0.9999154
vn -1 6.258786E-07 1.467833E-06
vn -1 6.016998E-07 1.489326E-06
vn -1 5.952202E-07 1.470057E-06
vn -0.8211207 -0.3022309 0.4841665
vn -1 5.945622E-07 1.470713E-06
vn -0.5672507 -0.3356471 0.7520422
vn 0.3440841 -0.3415314 0.8746213
vn 0.3525868 0.3349728 0.873771
vn -1 5.953737E-07 1.473425E-06
vn -1 5.919454E-07 1.470677E-06
vn -1 5.961555E-07 1.476474E-06
vn -1 5.836192E-07 1.463129E-06
vn -1 5.91435E-07 1.471591E-06
vn -1 5.963479E-07 1.474202E-06
vn -1 5.93445E-07 1.46835E-06
vn 0 0 -1
vn 3.531007E-06 7.689146E-07 -1
vn 0.002525317 0.0006163935 -0.9999967
vn 7.062015E-06 1.537829E-06 -1
vn 0.01262169 -0.001032227 -0.9999198
vn 0.009396207 -0.0005909523 -0.9999557
vn 0.01021645 -0.001652823 -0.9999465
vn 0.01185681 -0.003776469 -0.9999226
vn 0.01185681 -0.003776469 -0.9999226
vn 0.0001763448 -7.025904E-06 -1
vn 0.0001175632 -4.683936E-06 -1
vn -1 5.847659E-07 1.476483E-06
vn -1 5.587685E-07 1.505923E-06
vn -1 5.92899E-07 1.469207E-06
vn 0 0 -1
vn -1 6.046902E-07 1.464816E-06
vn 0 0 -1
vn 0 0 -1
vn 0 0 -1
vn -1 6.035721E-07 1.474255E-06
vn -1 6.033708E-07 1.467751E-06
vn -1 6.326848E-07 1.450438E-06
vn -1 7.079772E-07 1.460131E-06
vn -1 7.079772E-07 1.460131E-06
vn 0.3002399 0.9143311 0.2717623
vn 0.03253233 0.9994707 -1.088152E-05
vn 0.04898481 0.9987994 -0.0005179704
vn 0.2943108 0.9158497 -0.2731308
vn 1 -6.62966E-07 -1.475507E-06
vn 1 -5.892077E-07 -1.481009E-06
vn 1 -5.478432E-07 -1.468806E-06
vn 1 -5.871258E-07 -1.470555E-06
vn 1 -6.900764E-07 -1.4884E-06
vn 0.5175454 -0.8547106 -0.04020726
vn 1 -4.354455E-07 -1.460651E-06
vn 7.062015E-06 1.537829E-06 -1
vn 0.5812497 0.5753601 -0.5754213
vn 3.531007E-06 7.689146E-07 -1
vn 1 -4.354455E-07 -1.460651E-06
vn 0.5450452 -0.8381634 0.02019762
vn -0.2917438 -0.9088741 -0.2980494
vn 0.3950587 -0.9182954 -0.02573045
vn 0.3907234 -0.9203649 0.01623379
vn 0.4725448 -0.8230389 -0.3151323
vn 3.531007E-06 7.689146E-07 -1
vn -0.280065 -0.9585609 0.05219751
vn 1 -5.658836E-07 -1.490207E-06
vn -0.5098631 -0.8025472 -0.3097702
vn 3.531007E-06 7.689146E-07 -1
vn 0 0 -1
vn -1 5.93445E-07 1.46835E-06
vn -0.5172358 -0.8514755 0.08635166
vn -1 5.963479E-07 1.474202E-06
vn -0.7173228 -0.6966256 0.01266998
vn -1 5.91435E-07 1.471591E-06
vn -0.8171869 -0.5434006 0.192149
vn -1 5.836192E-07 1.463129E-06
vn -1 5.919454E-07 1.470677E-06
vn -0.6236602 -0.67838 -0.3883922
vn -1 5.961555E-07 1.476474E-06
vn -0.3308977 -0.7324818 -0.5949598
vn -0.2573849 -0.9660516 0.02229751
vn -0.5806839 -0.8130866 0.0411883
vn -1 5.953737E-07 1.473425E-06
vn 0.3856896 -0.9226013 -0.007105435
vn -0.2148548 -0.9766382 -0.003904425
vn -0.6234756 -0.7799664 0.0541346
vn -1 5.945622E-07 1.470713E-06
vn -0.5633124 -0.7519905 0.3423294
vn -0.8211207 -0.3022309 0.4841665
vn -1 5.952202E-07 1.470057E-06
vn -0.5672507 -0.3356471 0.7520422
vn 0.3419496 -0.8756027 0.3411606
vn 0.3440841 -0.3415314 0.8746213
vn 1 -5.595391E-07 -1.497262E-06
vn 0.3440841 -0.3415314 0.8746213
vn 0.3440841 -0.3415314 0.8746213
vn 0.3525868 0.3349728 0.873771
vn 0.5829321 0.5745135 0.5745645
vn 0.004712709 2.587371E-05 0.9999889
vn 1 -4.846079E-07 -1.47505E-06
vn 0.004501197 -5.550704E-06 0.9999899
vn 1 -4.846079E-07 -1.47505E-06
vn 1 -4.846079E-07 -1.47505E-06
vn 1 -4.846079E-07 -1.47505E-06
vn 0.0001175632 -4.683936E-06 -1
vn 0.01021645 -0.001652823 -0.9999465
vn 0.2943108 0.9158497 -0.2731308
vn 0.002525317 0.0006163935 -0.9999967
vn 0.9999979 -0.002096262 2.050427E-06
vn 7.062015E-06 1.537829E-06 -1
vn 0.9999986 -0.001708555 0.0002031406
vn 0.3525868 0.3349728 0.873771
vn 0.3002399 0.9143311 0.2717623
vn 0.005128966 -9.570103E-06 0.9999869
vn 0.3582813 -0.8719433 0.3336904
vn 0.004501197 -5.550704E-06 0.9999899
vn 1 -4.846079E-07 -1.47505E-06
vn 0.004373619 0 0.9999905
vn 1 -5.894927E-07 -1.52172E-06
vn 1 -6.171366E-07 -1.493283E-06
vn 0.004373921 0 0.9999905
vn 1 -5.894927E-07 -1.52172E-06
vn 0.4954859 -0.8684387 -0.0175509
vn 0.01843636 -0.99983 -0.0001465749
vn 0.5806082 -0.8136787 -0.02865643
vn 0.6079883 -0.7932993 -0.03203955
vn 0.01835913 -0.9998314 3.261407E-05
vn 1 -5.396169E-07 -1.473883E-06
vn 1 -6.183524E-07 -1.460338E-06
vn 6.186598E-07 1 1.588611E-07
vn -0.3710609 0.8821575 0.2900203
vn 0.004564985 -8.32473E-06 0.9999896
vn -1 6.023949E-07 1.489173E-06
vn -0.264524 0.9593557 -0.09830359
vn 6.186598E-07 1 1.588611E-07
vn 6.186598E-07 1 1.588611E-07
vn -1 6.016998E-07 1.489326E-06
vn -0.6168666 0.6213337 0.4831356
vn -1 6.258786E-07 1.467833E-06
vn -1 7.079772E-07 1.460131E-06
vn 6.186598E-07 1 1.588611E-07
vn -1 7.079772E-07 1.460131E-06
vn 6.186598E-07 1 1.588611E-07
vn -0.4938685 0.8493685 -0.1861911
vn -0.6792169 0.729225 -0.08303792
vn -1 6.326848E-07 1.450438E-06
vn -1 6.033708E-07 1.467751E-06
vn 3.967527E-07 1 0
vn 1.748456E-07 1 0
vn -1 6.035721E-07 1.474255E-06
vn -1 6.046902E-07 1.464816E-06
vn 3.967527E-07 1 0
vn 6.186598E-07 1 1.588611E-07
vn -0.7405804 0.6679311 -0.07354318
vn 6.186598E-07 1 1.588611E-07
vn -0.625508 0.7801307 -0.01166059
vn -1 5.92899E-07 1.469207E-06
vn -0.6197677 0.6997711 -0.3552585
vn -1 5.587685E-07 1.505923E-06
vn 0 0 -1
vn 0 0 -1
vn 0 0 -1
vn 1 -6.345612E-07 -1.48141E-06
vn 1 -6.77198E-07 -1.506992E-06
vn 0 0 -1
vn 1 -6.345612E-07 -1.48141E-06
vn 0.3513278 -0.8718485 -0.3412463
vn 1 -4.846079E-07 -1.47505E-06
vn 0.0001175632 -4.683936E-06 -1
vn 1 -5.404275E-07 -1.451919E-06
vn 0.41192 -0.9105369 0.03527663
vn 1 -3.845776E-07 -1.435081E-06
vn 1 -3.845776E-07 -1.435081E-06
vn 0.5029486 -0.8633838 0.04013921
vn 0.5093693 -0.8604382 -0.0137475
vn 0.4739558 0.2614209 0.8408478
vn 1.486851E-07 0.4969746 0.8677651
vn 2.114773E-06 0.4969747 0.867765
vn 0.5171078 0.6086207 0.6018143
vn 1 -5.910306E-07 -1.456764E-06
vn 1 -5.955791E-07 -1.444867E-06
vn 0.5278061 -0.6021257 -0.5990537
vn 1 -5.805192E-07 -1.457998E-06
vn 0.5197211 0.4292856 -0.73865
vn 1 -5.896161E-07 -1.434204E-06
vn 1 -5.955791E-07 -1.444867E-06
vn 0.4298589 -0.3532631 -0.8309191
vn -3.203265E-07 -0.4941355 -0.8693849
vn 1 -5.910306E-07 -1.456764E-06
vn 0.4791481 -0.4538532 -0.7512885
vn -0.003060713 -0.1578737 -0.9874545
vn 0 0.1993056 -0.9799374
vn 1 -5.805192E-07 -1.457998E-06
vn 0.3584616 -0.4826026 -0.7991246
vn 0.3468833 -0.114349 -0.9309115
vn 0.002422833 0.2372736 0.9714398
vn 0.5299403 0.6030136 0.5962698
vn 0 0.4969747 0.867765
vn 0.3452294 0.2247906 0.9112003
vn 0.003157699 -0.03533344 0.9993706
vn 0.5395225 -0.2598932 0.8008564
vn 1 -5.844682E-07 -1.433368E-06
vn 0.5477898 -0.5923521 -0.5908006
vn 1 -5.535854E-07 -1.4467E-06
vn 1 -5.844682E-07 -1.433368E-06
vn 1 -6.040646E-07 -1.417772E-06
vn 1 -4.526271E-07 -1.504555E-06
vn 0.4936128 -0.3047487 -0.8145396
vn 0.3867272 -0.4126673 -0.8247107
vn -2.877351E-07 -0.4941354 -0.8693849
vn 1 -5.38144E-07 -1.453366E-06
vn 0.4277903 -0.4547883 -0.7811294
vn 0 -0.4941353 -0.869385
vn -0.345752 2.049449E-06 0.9383259
vn 2.460408E-06 -0.3420154 0.9396943
vn 0 4.431039E-07 1
vn -0.3457526 -0.3209246 0.8817384
vn 5.942346E-07 -0.6427898 0.7660427
vn -0.8964946 3.006519E-06 0.4430545
vn -0.345755 -0.6031454 0.718797
vn -1.514207E-07 -0.8660251 0.5000007
vn -0.8964972 -0.1515335 0.4163297
vn -0.7483605 1.466211E-06 0.6632923
vn -0.3457542 -0.8126129 0.4691633
vn -1.721893E-07 -0.9848078 0.1736479
vn -0.748355 -0.2268475 0.6233017
vn 0 1.159538E-06 1
vn -5.171712E-06 -0.3420197 0.9396927
vn -0.8964974 -0.2847872 0.3393945
vn -0.7483682 -0.4263435 0.5081105
vn -6.917417E-06 -0.6427836 0.7660477
vn -0.3457532 -0.9240701 0.1629391
vn -1.721893E-07 -0.9848078 -0.1736477
vn -0.8964968 -0.3836919 0.2215262
vn -0.7483628 -0.5744293 0.3316385
vn -1.514205E-07 -0.866024 0.5000025
vn -0.3457533 -0.9240704 -0.1629377
vn -1.514207E-07 -0.8660251 -0.5000004
vn -0.8964961 -0.4363203 0.07693743
vn -0.7483587 -0.6532181 0.1151749
vn -1.721896E-07 -0.9848093 0.1736389
vn -0.3457544 -0.812613 -0.4691632
vn -1.123888E-07 -0.6427892 -0.7660432
vn -0.8964965 -0.43632 -0.07693446
vn -0.7483598 -0.6532167 -0.1151762
vn 1.214498E-06 -0.9848091 -0.1736404
vn -0.3457525 -0.6031466 -0.7187972
vn 0 -0.3420165 -0.9396939
vn -0.8964976 -0.3836917 -0.2215234
vn -0.748363 -0.5744243 -0.3316466
vn 1.71382E-06 -0.8660244 -0.5000016
vn -0.3457536 -0.3209215 -0.8817391
vn 0 4.623692E-07 -1
vn -0.8964952 -0.2847909 -0.3393972
vn -0.7483583 -0.4263553 -0.5081151
vn -1.123874E-07 -0.642781 -0.76605
vn -0.3457523 -7.111174E-07 -0.9383259
vn 0 0.342017 -0.9396938
vn -0.8964979 -0.1515282 -0.4163302
vn -0.7483622 -0.2268606 -0.6232883
vn 0 -0.3420232 -0.9396915
vn -0.3457535 0.3209245 -0.8817381
vn 1.123889E-07 0.6427893 -0.7660431
vn -0.8964955 -1.219614E-06 -0.4430527
vn -0.7483615 1.165916E-06 -0.6632911
vn 0 1.281151E-06 -1
vn -0.3457548 0.6031452 -0.7187972
vn 1.514207E-07 0.8660253 -0.5000004
vn -0.8964977 0.1515354 -0.4163278
vn -0.7483612 0.2268624 -0.6232888
vn 0 0.3420243 -0.9396911
vn -0.3457543 0.8126132 -0.4691627
vn 1.721893E-07 0.9848078 -0.1736477
vn -0.8964979 0.2847883 -0.3393923
vn -0.7483584 0.4263564 -0.508114
vn 1.123881E-07 0.6427846 -0.7660469
vn -0.3457534 0.9240702 -0.162938
vn 1.721893E-07 0.9848078 0.173648
vn -0.8964971 0.3836924 -0.2215242
vn -0.7483628 0.5744244 -0.3316471
vn 1.514203E-07 0.8660232 -0.5000038
vn -0.3457525 0.9240704 0.1629387
vn 1.514206E-07 0.8660251 0.5000006
vn -0.8964959 0.4363211 -0.07693531
vn -0.7483594 0.653217 -0.1151772
vn 1.721894E-07 0.9848082 -0.1736457
vn -0.3457526 0.8126135 0.4691636
vn 1.123888E-07 0.6427892 0.7660432
vn -0.8964959 0.4363208 0.0769363
vn -0.7483594 0.6532166 0.1151793
vn 1.721893E-07 0.9848082 0.1736455
vn -0.3457508 0.6031468 0.7187979
vn 0 0.3420169 0.9396938
vn -0.8964958 0.383695 0.2215253
vn -0.7483582 0.5744342 0.3316405
vn 1.514218E-07 0.8660319 0.4999887
vn -0.3457528 0.3209218 0.8817393
vn 0 4.431039E-07 1
vn -0.345752 2.049449E-06 0.9383259
vn -0.8964938 0.2847922 0.3394
vn -0.7483673 0.4263457 0.5081099
vn 1.123872E-07 0.6427801 0.7660508
vn -0.8964971 0.1515278 0.4163318
vn -0.8964946 3.006519E-06 0.4430545
vn -0.7483549 0.2268491 0.6233013
vn 0 0.3420023 0.9396991
vn -0.7483605 1.466211E-06 0.6632923
vn 0 1.159538E-06 1
vn 0.3457518 1.592149E-06 -0.938326
vn -2.580009E-06 -0.3420154 -0.9396943
vn 0 3.371444E-07 -1
vn 0.3457521 -0.3209248 -0.8817384
vn -8.190122E-07 -0.6427898 -0.7660425
vn 0.8964946 2.253392E-06 -0.4430548
vn 0.3457545 -0.6031457 -0.718797
vn -1.514206E-07 -0.8660251 -0.5000006
vn 0.8964971 -0.151534 -0.4163297
vn 0.7483605 1.345081E-06 -0.6632923
vn 0.3457535 -0.8126132 -0.4691634
vn -1.721893E-07 -0.9848078 -0.173648
vn 0.748355 -0.2268479 -0.6233016
vn 0 1.352191E-06 -1
vn 5.052114E-06 -0.3420198 -0.9396927
vn 0.8964971 -0.2847883 -0.3393945
vn 0.7483678 -0.4263436 -0.5081109
vn 6.692635E-06 -0.6427838 -0.7660477
vn 0.3457528 -0.9240702 -0.1629391
vn -1.721893E-07 -0.9848078 0.1736477
vn 0.8964964 -0.3836927 -0.2215267
vn 0.748362 -0.57443 -0.3316391
vn -1.514204E-07 -0.8660239 -0.5000025
vn 0.3457528 -0.9240705 0.1629378
vn -1.514207E-07 -0.8660253 0.5000004
vn 0.8964957 -0.436321 -0.07693742
vn 0.7483584 -0.6532188 -0.1151734
vn -1.721895E-07 -0.9848093 -0.173639
vn 0.3457536 -0.8126134 0.4691631
vn -1.123889E-07 -0.6427892 0.7660431
vn 0.8964962 -0.4363207 0.07693437
vn 0.7483603 -0.6532162 0.1151761
vn -1.558878E-06 -0.9848091 0.1736404
vn 0.3457522 -0.6031469 0.718797
vn 0 -0.3420166 0.9396939
vn 0.8964974 -0.3836923 0.2215232
vn 0.748362 -0.5744264 0.3316454
vn -2.016662E-06 -0.8660244 0.5000016
vn 0.3457535 -0.3209218 0.881739
vn 0 3.636341E-07 1
vn 0.8964949 -0.2847915 0.3393975
vn 0.748358 -0.4263561 0.5081149
vn -1.123874E-07 -0.6427807 0.7660502
vn 0.3457524 -1.119027E-06 0.9383258
vn 0 0.3420169 0.9396938
vn 0.8964976 -0.1515292 0.4163301
vn 0.7483615 -0.2268614 0.6232888
vn 0 -0.3420231 0.9396916
vn 0.3457539 0.3209242 0.8817381
vn 1.123888E-07 0.6427892 0.7660432
vn 0.8964956 -2.139714E-06 0.4430527
vn 0.7483618 1.485648E-06 0.6632908
vn 0 1.377477E-06 1
vn 0.3457554 0.6031449 0.7187972
vn 1.514207E-07 0.8660251 0.5000005
vn 0.896498 0.1515346 0.4163274
vn 0.7483615 0.2268616 0.6232887
vn 0 0.3420245 0.9396911
vn 0.3457551 0.8126129 0.4691626
vn 1.721893E-07 0.9848078 0.1736477
vn 0.8964982 0.2847874 0.3393922
vn 0.7483585 0.4263556 0.5081146
vn 1.12388E-07 0.6427845 0.7660469
vn 0.3457537 0.9240701 0.1629382
vn 1.721893E-07 0.9848078 -0.173648
vn 0.8964974 0.3836914 0.2215247
vn 0.7483633 0.5744237 0.3316471
vn 1.514203E-07 0.8660233 0.5000038
vn 0.345753 0.9240702 -0.1629388
vn 1.514207E-07 0.8660251 -0.5000007
vn 0.8964964 0.4363201 0.07693558
vn 0.7483602 0.653216 0.1151774
vn 1.721893E-07 0.9848082 0.1736457
vn 0.3457531 0.8126131 -0.4691638
vn 1.123888E-07 0.642789 -0.7660432
vn 0.8964963 0.43632 -0.07693678
vn 0.7483595 0.6532165 -0.1151787
vn 1.721894E-07 0.9848083 -0.1736452
vn 0.3457508 0.6031467 -0.718798
vn 0 0.3420168 -0.9396938
vn 0.896496 0.3836944 -0.2215256
vn 0.7483583 0.5744339 -0.3316409
vn 1.514219E-07 0.8660319 -0.4999886
vn 0.345753 0.3209214 -0.8817393
vn 0 3.371444E-07 -1
vn 0.3457518 1.592149E-06 -0.938326
vn 0.8964939 0.2847916 -0.3394001
vn 0.7483677 0.426344 -0.5081108
vn 1.123873E-07 0.6427802 -0.7660508
vn 0.8964973 0.1515264 -0.4163319
vn 0.8964946 2.253392E-06 -0.4430548
vn 0.7483555 0.2268471 -0.6233012
vn 0 0.3420025 -0.9396991
vn 0.7483605 1.345081E-06 -0.6632923
vn 0 1.352191E-06 -1
f 1/1/1 2/2/2 3/3/3
f 1/1/1 4/4/4 2/2/2
f 4/4/4 1/1/1 5/5/5
f 1/1/1 6/6/6 5/5/5
f 6/6/6 1/1/1 7/7/7
f 4/4/4 5/5/5 8/8/8
f 9/9/9 4/4/4 8/8/8
f 8/8/8 10/10/10 9/9/9
f 10/10/10 8/8/8 11/11/11
f 12/12/12 13/13/13 14/14/14
f 13/13/13 12/12/12 15/15/15
f 12/12/12 16/16/16 15/15/15
f 16/16/16 12/12/12 17/17/17
f 18/18/18 17/17/17 12/12/12
f 19/19/19 18/18/18 12/12/12
f 18/18/18 19/19/19 20/20/20
f 21/21/21 17/17/17 18/18/18
f 15/15/15 16/16/16 22/22/22
f 23/23/23 15/15/15 22/22/22
f 15/15/15 23/23/23 24/24/24
f 25/25/25 22/22/22 16/16/16
f 22/22/22 25/25/25 26/26/26
f 25/25/25 27/27/27 26/26/26
f 28/28/28 26/26/26 27/27/27
f 26/26/26 28/28/28 29/29/29
f 27/27/27 30/30/30 28/28/28
f 31/31/31 27/27/27 25/25/25
f 16/16/16 31/31/31 25/25/25
f 30/30/30 27/27/27 32/32/32
f 27/27/27 31/31/31 32/32/32
f 32/32/32 33/33/33 30/30/30
f 33/33/33 32/32/32 34/34/34
f 32/32/32 31/31/31 34/34/34
f 31/31/31 16/16/16 35/35/35
f 35/35/35 36/36/36 31/31/31
f 16/16/16 37/37/37 35/35/35
f 16/16/16 17/17/17 37/37/37
f 36/36/36 35/35/35 38/38/38
f 39/39/39 36/36/36 38/38/38
f 36/36/36 39/39/39 40/40/40
f 38/38/38 35/35/35 41/41/41
f 39/39/39 38/38/38 41/41/41
f 37/37/37 41/41/41 35/35/35
f 41/41/41 42/42/42 39/39/39
f 41/41/41 37/37/37 42/42/42
f 42/42/42 43/43/43 39/39/39
f 17/17/17 44/44/44 37/37/37
f 44/44/44 42/42/42 37/37/37
f 42/42/42 45/45/45 43/43/43
f 42/42/42 44/44/44 45/45/45
f 44/44/44 17/17/17 46/46/46
f 46/46/46 45/45/45 44/44/44
f 17/17/17 21/21/21 46/46/46
f 45/45/45 47/47/47 43/43/43
f 45/45/45 46/46/46 47/47/47
f 47/47/47 46/46/46 21/21/21
f 47/47/47 48/48/48 43/43/43
f 48/48/48 47/47/47 21/21/21
f 49/49/49 50/50/50 51/51/51
f 50/50/50 49/49/49 52/52/52
f 53/53/53 52/52/52 49/49/49
f 54/54/54 53/53/53 49/49/49
f 55/55/55 52/52/52 53/53/53
f 52/52/52 55/55/55 56/56/56
f 53/53/53 57/57/57 55/55/55
f 57/57/57 53/53/53 58/58/58
f 59/59/59 57/57/57 58/58/58
f 57/57/57 59/59/59 60/60/60
f 59/59/59 61/61/61 60/60/60
f 61/61/61 62/62/62 60/60/60
f 53/53/53 54/54/54 63/63/63
f 63/63/63 58/58/58 53/53/53
f 63/63/63 54/54/54 64/64/64
f 65/65/65 64/64/64 54/54/54
f 58/58/58 63/63/63 66/66/66
f 59/59/59 67/67/67 61/61/61
f 62/62/62 61/61/61 67/67/67
f 58/58/58 66/66/66 68/68/68
f 66/66/66 69/69/69 68/68/68
f 70/70/70 55/55/55 57/57/57
f 55/55/55 70/70/70 71/71/71
f 72/72/72 70/70/70 57/57/57
f 71/71/71 56/56/56 55/55/55
f 56/56/56 71/71/71 73/73/73
f 74/74/74 56/56/56 73/73/73
f 56/56/56 74/74/74 75/75/75
f 76/76/76 72/72/72 57/57/57
f 57/57/57 77/77/77 76/76/76
f 77/77/77 78/78/78 76/76/76
f 77/77/77 57/57/57 60/60/60
f 60/60/60 79/79/79 77/77/77
f 79/79/79 60/60/60 80/80/80
f 60/60/60 81/81/81 80/80/80
f 60/60/60 82/82/82 81/81/81
f 60/60/60 83/83/83 82/82/82
f 83/83/83 60/60/60 62/62/62
f 62/62/62 84/84/84 83/83/83
f 84/84/84 62/62/62 85/85/85
f 86/86/86 84/84/84 85/85/85
f 67/67/67 85/85/85 62/62/62
f 85/85/85 67/67/67 87/87/87
f 88/88/88 87/87/87 67/67/67
f 67/67/67 59/59/59 88/88/88
f 87/87/87 88/88/88 89/89/89
f 90/90/90 87/87/87 89/89/89
f 87/87/87 90/90/90 91/91/91
f 92/92/92 89/89/89 88/88/88
f 89/89/89 92/92/92 93/93/93
f 94/94/94 88/88/88 59/59/59
f 88/88/88 94/94/94 92/92/92
f 95/95/95 92/92/92 94/94/94
f 95/95/95 94/94/94 96/96/96
f 96/96/96 94/94/94 59/59/59
f 92/92/92 95/95/95 97/97/97
f 97/97/97 93/93/93 92/92/92
f 98/98/98 96/96/96 59/59/59
f 93/93/93 97/97/97 99/99/99
f 100/100/100 93/93/93 99/99/99
f 93/93/93 100/100/100 101/101/101
f 59/59/59 102/102/102 98/98/98
f 59/59/59 58/58/58 102/102/102
f 102/102/102 58/58/58 103/103/103
f 104/104/104 103/103/103 58/58/58
f 58/58/58 68/68/68 104/104/104
f 68/68/68 105/105/105 104/104/104
f 105/105/105 68/68/68 106/106/106
f 107/107/107 108/108/108 109/109/109
f 108/108/108 107/107/107 110/110/110
f 107/107/107 111/111/111 110/110/110
f 111/111/111 107/107/107 112/112/112
f 113/113/113 111/111/111 112/112/112
f 111/111/111 113/113/113 114/114/114
f 111/111/111 114/114/114 115/115/115
f 116/116/116 115/115/115 114/114/114
f 117/117/117 116/116/116 114/114/114
f 115/115/115 118/118/118 111/111/111
f 119/119/119 111/111/111 118/118/118
f 118/118/118 115/115/115 120/120/120
f 114/114/114 121/121/121 117/117/117
f 121/121/121 114/114/114 113/113/113
f 122/122/122 121/121/121 113/113/113
f 123/123/123 116/116/116 122/122/122
f 121/121/121 124/124/124 117/117/117
f 116/116/116 117/117/117 124/124/124
f 124/124/124 121/121/121 125/125/125
f 122/122/122 125/125/125 121/121/121
f 125/125/125 116/116/116 124/124/124
f 116/116/116 125/125/125 122/122/122
f 116/116/116 126/126/126 115/115/115
f 115/115/115 126/126/126 127/127/127
f 128/128/128 126/126/126 116/116/116
f 116/116/116 123/123/123 128/128/128
f 129/129/129 122/122/122 113/113/113
f 112/112/112 129/129/129 113/113/113
f 128/128/128 130/130/130 126/126/126
f 130/130/130 131/131/131 126/126/126
f 131/131/131 130/130/130 132/132/132
f 132/132/132 130/130/130 133/133/133
f 134/134/134 133/133/133 130/130/130
f 130/130/130 128/128/128 134/134/134
f 133/133/133 134/134/134 135/135/135
f 136/136/136 134/134/134 128/128/128
f 136/136/136 135/135/135 134/134/134
f 123/123/123 136/136/136 128/128/128
f 135/135/135 136/136/136 137/137/137
f 138/138/138 137/137/137 136/136/136
f 136/136/136 123/123/123 138/138/138
f 137/137/137 138/138/138 139/139/139
f 140/140/140 139/139/139 138/138/138
f 140/140/140 138/138/138 141/141/141
f 123/123/123 141/141/141 138/138/138
f 141/141/141 142/142/142 140/140/140
f 143/143/143 141/141/141 123/123/123
f 142/142/142 141/141/141 143/143/143
f 144/144/144 143/143/143 123/123/123
f 144/144/144 123/123/123 122/122/122
f 145/145/145 142/142/142 143/143/143
f 143/143/143 144/144/144 145/145/145
f 142/142/142 145/145/145 146/146/146
f 147/147/147 144/144/144 122/122/122
f 122/122/122 129/129/129 147/147/147
f 148/148/148 145/145/145 144/144/144
f 144/144/144 147/147/147 148/148/148
f 149/149/149 146/146/146 145/145/145
f 145/145/145 148/148/148 149/149/149
f 146/146/146 149/149/149 150/150/150
f 147/147/147 151/151/151 148/148/148
f 151/151/151 149/149/149 148/148/148
f 152/152/152 150/150/150 149/149/149
f 149/149/149 151/151/151 152/152/152
f 150/150/150 152/152/152 153/153/153
f 151/151/151 154/154/154 152/152/152
f 151/151/151 147/147/147 155/155/155
f 155/155/155 154/154/154 151/151/151
f 129/129/129 155/155/155 147/147/147
f 154/154/154 155/155/155 156/156/156
f 155/155/155 129/129/129 157/157/157
f 155/155/155 157/157/157 158/158/158
f 112/112/112 157/157/157 129/129/129
f 112/112/112 159/159/159 157/157/157
f 159/159/159 112/112/112 160/160/160
f 161/161/161 160/160/160 112/112/112
f 162/162/162 163/163/163 164/164/164
f 163/163/163 162/162/162 165/165/165
f 166/166/166 163/163/163 165/165/165
f 163/163/163 166/166/166 167/167/167
f 166/166/166 168/168/168 167/167/167
f 168/168/168 166/166/166 169/169/169
f 170/170/170 171/171/171 172/172/172
f 171/171/171 170/170/170 173/173/173
f 174/174/174 175/175/175 176/176/176
f 175/175/175 174/174/174 177/177/177
f 178/178/178 179/179/179 180/180/180
f 179/179/179 178/178/178 181/181/181
f 178/178/178 182/182/182 181/181/181
f 183/183/183 181/181/181 182/182/182
f 181/181/181 183/183/183 184/184/184
f 178/178/178 185/185/185 182/182/182
f 185/185/185 183/183/183 182/182/182
f 185/185/185 178/178/178 186/186/186
f 186/186/186 178/178/178 187/187/187
f 188/188/188 185/185/185 186/186/186
f 188/188/188 186/186/186 187/187/187
f 187/187/187 189/189/189 188/188/188
f 189/189/189 187/187/187 190/190/190
f 185/185/185 188/188/188 191/191/191
f 183/183/183 185/185/185 191/191/191
f 191/191/191 192/192/192 183/183/183
f 184/184/184 183/183/183 193/193/193
f 192/192/192 193/193/193 183/183/183
f 194/194/194 184/184/184 193/193/193
f 184/184/184 194/194/194 195/195/195
f 194/194/194 196/196/196 195/195/195
f 197/197/197 194/194/194 193/193/193
f 197/197/197 196/196/196 194/194/194
f 193/193/193 192/192/192 198/198/198
f 198/198/198 199/199/199 193/193/193
f 196/196/196 197/197/197 200/200/200
f 201/201/201 200/200/200 197/197/197
f 200/200/200 201/201/201 202/202/202
f 201/201/201 203/203/203 202/202/202
f 201/201/201 197/197/197 204/204/204
f 203/203/203 201/201/201 204/204/204
f 197/197/197 193/193/193 204/204/204
f 204/204/204 205/205/205 203/203/203
f 192/192/192 206/206/206 198/198/198
f 198/198/198 206/206/206 199/199/199
f 205/205/205 204/204/204 207/207/207
f 208/208/208 205/205/205 207/207/207
f 205/205/205 208/208/208 209/209/209
f 208/208/208 210/210/210 209/209/209
f 211/211/211 207/207/207 204/204/204
f 211/211/211 208/208/208 207/207/207
f 210/210/210 208/208/208 211/211/211
f 193/193/193 211/211/211 204/204/204
f 212/212/212 210/210/210 211/211/211
f 210/210/210 212/212/212 213/213/213
f 213/213/213 212/212/212 214/214/214
f 193/193/193 215/215/215 211/211/211
f 212/212/212 211/211/211 215/215/215
f 193/193/193 216/216/216 215/215/215
f 216/216/216 212/212/212 215/215/215
f 212/212/212 217/217/217 214/214/214
f 212/212/212 216/216/216 217/217/217
f 193/193/193 218/218/218 216/216/216
f 218/218/218 217/217/217 216/216/216
f 193/193/193 199/199/199 218/218/218
f 219/219/219 214/214/214 217/217/217
f 217/217/217 218/218/218 219/219/219
f 199/199/199 219/219/219 218/218/218
f 214/214/214 219/219/219 220/220/220
f 221/221/221 220/220/220 219/219/219
f 219/219/219 199/199/199 221/221/221
f 220/220/220 221/221/221 222/222/222
f 222/222/222 221/221/221 223/223/223
f 199/199/199 223/223/223 221/221/221
f 223/223/223 199/199/199 224/224/224
f 206/206/206 224/224/224 199/199/199
f 224/224/224 206/206/206 225/225/225
f 206/206/206 226/226/226 225/225/225
f 206/206/206 192/192/192 226/226/226
f 227/227/227 225/225/225 226/226/226
f 225/225/225 227/227/227 228/228/228
f 192/192/192 229/229/229 226/226/226
f 226/226/226 229/229/229 227/227/227
f 228/228/228 227/227/227 230/230/230
f 229/229/229 230/230/230 227/227/227
f 231/231/231 228/228/228 230/230/230
f 228/228/228 231/231/231 232/232/232
f 229/229/229 192/192/192 233/233/233
f 192/192/192 191/191/191 233/233/233
f 230/230/230 229/229/229 234/234/234
f 233/233/233 234/234/234 229/229/229
f 190/190/190 230/230/230 234/234/234
f 190/190/190 234/234/234 189/189/189
f 234/234/234 233/233/233 189/189/189
f 235/235/235 233/233/233 191/191/191
f 236/236/236 189/189/189 233/233/233
f 233/233/233 235/235/235 236/236/236
f 191/191/191 237/237/237 235/235/235
f 237/237/237 191/191/191 188/188/188
f 189/189/189 237/237/237 188/188/188
f 189/189/189 236/236/236 238/238/238
f 235/235/235 238/238/238 236/236/236
f 238/238/238 235/235/235 237/237/237
f 237/237/237 189/189/189 238/238/238
f 239/239/239 240/240/240 241/241/241
f 240/240/240 239/239/239 242/242/242
f 239/239/239 243/243/243 242/242/242
f 243/243/243 239/239/239 244/244/244
f 245/245/245 244/244/244 239/239/239
f 246/246/246 242/242/242 243/243/243
f 242/242/242 246/246/246 247/247/247
f 244/244/244 245/245/245 248/248/248
f 244/244/244 248/248/248 249/249/249
f 245/245/245 249/249/249 248/248/248
f 249/249/249 243/243/243 244/244/244
f 249/249/249 245/245/245 250/250/250
f 251/251/251 250/250/250 245/245/245
f 243/243/243 249/249/249 252/252/252
f 250/250/250 252/252/252 249/249/249
f 250/250/250 251/251/251 253/253/253
f 252/252/252 250/250/250 253/253/253
f 254/254/254 253/253/253 251/251/251
f 247/247/247 254/254/254 255/255/255
f 256/256/256 243/243/243 252/252/252
f 253/253/253 256/256/256 252/252/252
f 243/243/243 256/256/256 246/246/246
f 256/256/256 253/253/253 257/257/257
f 254/254/254 257/257/257 253/253/253
f 257/257/257 246/246/246 256/256/256
f 254/254/254 247/247/247 258/258/258
f 257/257/257 254/254/254 258/258/258
f 258/258/258 247/247/247 246/246/246
f 246/246/246 257/257/257 258/258/258
f 259/259/259 260/260/260 261/261/261
f 260/260/260 259/259/259 262/262/262
f 263/263/263 262/262/262 259/259/259
f 262/262/262 263/263/263 264/264/264
f 262/262/262 264/264/264 265/265/265
f 266/266/266 265/265/265 264/264/264
f 262/262/262 267/267/267 260/260/260
f 267/267/267 262/262/262 265/265/265
f 265/265/265 266/266/266 268/268/268
f 268/268/268 267/267/267 265/265/265
f 266/266/266 269/269/269 268/268/268
f 267/267/267 268/268/268 269/269/269
f 270/270/270 260/260/260 267/267/267
f 260/260/260 270/270/270 271/271/271
f 269/269/269 266/266/266 272/272/272
f 272/272/272 266/266/266 273/273/273
f 267/267/267 269/269/269 274/274/274
f 267/267/267 274/274/274 270/270/270
f 272/272/272 274/274/274 269/269/269
f 270/270/270 275/275/275 271/271/271
f 275/275/275 270/270/270 274/274/274
f 274/274/274 272/272/272 275/275/275
f 275/275/275 272/272/272 273/273/273
f 271/271/271 275/275/275 276/276/276
f 275/275/275 273/273/273 276/276/276
f 277/277/277 278/278/278 279/279/279
f 278/278/278 277/277/277 280/280/280
f 280/280/280 281/281/281 278/278/278
f 282/282/282 280/280/280 277/277/277
f 281/281/281 280/280/280 283/283/283
f 283/283/283 284/284/284 281/281/281
f 280/280/280 282/282/282 285/285/285
f 285/285/285 283/283/283 280/280/280
f 286/286/286 285/285/285 282/282/282
f 284/284/284 283/283/283 287/287/287
f 287/287/287 288/288/288 284/284/284
f 285/285/285 286/286/286 289/289/289
f 290/290/290 289/289/289 286/286/286
f 289/289/289 290/290/290 291/291/291
f 283/283/283 285/285/285 292/292/292
f 289/289/289 292/292/292 285/285/285
f 292/292/292 287/287/287 283/283/283
f 291/291/291 293/293/293 289/289/289
f 292/292/292 289/289/289 293/293/293
f 293/293/293 291/291/291 294/294/294
f 288/288/288 287/287/287 295/295/295
f 295/295/295 296/296/296 288/288/288
f 287/287/287 292/292/292 297/297/297
f 293/293/293 297/297/297 292/292/292
f 297/297/297 295/295/295 287/287/287
f 294/294/294 298/298/298 293/293/293
f 297/297/297 293/293/293 298/298/298
f 298/298/298 294/294/294 299/299/299
f 296/296/296 295/295/295 300/300/300
f 300/300/300 301/301/301 296/296/296
f 295/295/295 297/297/297 302/302/302
f 298/298/298 302/302/302 297/297/297
f 302/302/302 300/300/300 295/295/295
f 299/299/299 303/303/303 298/298/298
f 302/302/302 298/298/298 303/303/303
f 303/303/303 299/299/299 304/304/304
f 301/301/301 300/300/300 305/305/305
f 305/305/305 306/306/306 301/301/301
f 300/300/300 302/302/302 307/307/307
f 303/303/303 307/307/307 302/302/302
f 307/307/307 305/305/305 300/300/300
f 304/304/304 308/308/308 303/303/303
f 307/307/307 303/303/303 308/308/308
f 308/308/308 304/304/304 309/309/309
f 306/306/306 305/305/305 310/310/310
f 310/310/310 311/311/311 306/306/306
f 305/305/305 307/307/307 312/312/312
f 308/308/308 312/312/312 307/307/307
f 312/312/312 310/310/310 305/305/305
f 309/309/309 313/313/313 308/308/308
f 312/312/312 308/308/308 313/313/313
f 313/313/313 309/309/309 314/314/314
f 311/311/311 310/310/310 315/315/315
f 315/315/315 316/316/316 311/311/311
f 310/310/310 312/312/312 317/317/317
f 313/313/313 317/317/317 312/312/312
f 317/317/317 315/315/315 310/310/310
f 314/314/314 318/318/318 313/313/313
f 317/317/317 313/313/313 318/318/318
f 318/318/318 314/314/314 319/319/319
f 316/316/316 315/315/315 320/320/320
f 320/320/320 321/321/321 316/316/316
f 315/315/315 317/317/317 322/322/322
f 318/318/318 322/322/322 317/317/317
f 322/322/322 320/320/320 315/315/315
f 319/319/319 323/323/323 318/318/318
f 322/322/322 318/318/318 323/323/323
f 323/323/323 319/319/319 324/324/324
f 321/321/321 320/320/320 325/325/325
f 325/325/325 326/326/326 321/321/321
f 320/320/320 322/322/322 327/327/327
f 323/323/323 327/327/327 322/322/322
f 327/327/327 325/325/325 320/320/320
f 324/324/324 328/328/328 323/323/323
f 327/327/327 323/323/323 328/328/328
f 328/328/328 324/324/324 329/329/329
f 326/326/326 325/325/325 330/330/330
f 330/330/330 331/331/331 326/326/326
f 325/325/325 327/327/327 332/332/332
f 328/328/328 332/332/332 327/327/327
f 332/332/332 330/330/330 325/325/325
f 329/329/329 333/333/333 328/328/328
f 332/332/332 328/328/328 333/333/333
f 333/333/333 329/329/329 334/334/334
f 331/331/331 330/330/330 335/335/335
f 335/335/335 336/336/336 331/331/331
f 330/330/330 332/332/332 337/337/337
f 333/333/333 337/337/337 332/332/332
f 337/337/337 335/335/335 330/330/330
f 334/334/334 338/338/338 333/333/333
f 337/337/337 333/333/333 338/338/338
f 338/338/338 334/334/334 339/339/339
f 336/336/336 335/335/335 340/340/340
f 340/340/340 341/341/341 336/336/336
f 335/335/335 337/337/337 342/342/342
f 338/338/338 342/342/342 337/337/337
f 342/342/342 340/340/340 335/335/335
f 339/339/339 343/343/343 338/338/338
f 342/342/342 338/338/338 343/343/343
f 343/343/343 339/339/339 344/344/344
f 341/341/341 340/340/340 345/345/345
f 345/345/345 346/346/346 341/341/341
f 340/340/340 342/342/342 347/347/347
f 343/343/343 347/347/347 342/342/342
f 347/347/347 345/345/345 340/340/340
f 344/344/344 348/348/348 343/343/343
f 347/347/347 343/343/343 348/348/348
f 348/348/348 344/344/344 349/349/349
f 346/346/346 345/345/345 350/350/350
f 350/350/350 351/351/351 346/346/346
f 345/345/345 347/347/347 352/352/352
f 348/348/348 352/352/352 347/347/347
f 352/352/352 350/350/350 345/345/345
f 349/349/349 353/353/353 348/348/348
f 352/352/352 348/348/348 353/353/353
f 353/353/353 349/349/349 354/354/354
f 351/351/351 350/350/350 355/355/355
f 355/355/355 356/356/356 351/351/351
f 350/350/350 352/352/352 357/357/357
f 353/353/353 357/357/357 352/352/352
f 357/357/357 355/355/355 350/350/350
f 354/354/354 358/358/358 353/353/353
f 357/357/357 353/353/353 358/358/358
f 358/358/358 354/354/354 359/359/359
f 356/356/356 355/355/355 360/360/360
f 360/360/360 361/361/361 356/356/356
f 361/361/361 360/360/360 362/362/362
f 355/355/355 357/357/357 363/363/363
f 358/358/358 363/363/363 357/357/357
f 363/363/363 360/360/360 355/355/355
f 359/359/359 364/364/364 358/358/358
f 363/363/363 358/358/358 364/364/364
f 364/364/364 359/359/359 365/365/365
f 366/366/366 362/362/362 360/360/360
f 360/360/360 363/363/363 366/366/366
f 364/364/364 366/366/366 363/363/363
f 362/362/362 366/366/366 367/367/367
f 365/365/365 368/368/368 364/364/364
f 366/366/366 364/364/364 368/368/368
f 368/368/368 367/367/367 366/366/366
f 368/368/368 365/365/365 369/369/369
f 367/367/367 368/368/368 370/370/370
f 369/369/369 370/370/370 368/368/368
f 370/370/370 369/369/369 371/371/371
f 372/372/372 373/373/373 374/374/374
f 373/373/373 372/372/372 375/375/375
f 375/375/375 376/376/376 373/373/373
f 377/377/377 375/375/375 372/372/372
f 376/376/376 375/375/375 378/378/378
f 378/378/378 379/379/379 376/376/376
f 375/375/375 377/377/377 380/380/380
f 380/380/380 378/378/378 375/375/375
f 381/381/381 380/380/380 377/377/377
f 379/379/379 378/378/378 382/382/382
f 382/382/382 383/383/383 379/379/379
f 380/380/380 381/381/381 384/384/384
f 385/385/385 384/384/384 381/381/381
f 384/384/384 385/385/385 386/386/386
f 378/378/378 380/380/380 387/387/387
f 384/384/384 387/387/387 380/380/380
f 387/387/387 382/382/382 378/378/378
f 386/386/386 388/388/388 384/384/384
f 387/387/387 384/384/384 388/388/388
f 388/388/388 386/386/386 389/389/389
f 383/383/383 382/382/382 390/390/390
f 390/390/390 391/391/391 383/383/383
f 382/382/382 387/387/387 392/392/392
f 388/388/388 392/392/392 387/387/387
f 392/392/392 390/390/390 382/382/382
f 389/389/389 393/393/393 388/388/388
f 392/392/392 388/388/388 393/393/393
f 393/393/393 389/389/389 394/394/394
f 391/391/391 390/390/390 395/395/395
f 395/395/395 396/396/396 391/391/391
f 390/390/390 392/392/392 397/397/397
f 393/393/393 397/397/397 392/392/392
f 397/397/397 395/395/395 390/390/390
f 394/394/394 398/398/398 393/393/393
f 397/397/397 393/393/393 398/398/398
f 398/398/398 394/394/394 399/399/399
f 396/396/396 395/395/395 400/400/400
f 400/400/400 401/401/401 396/396/396
f 395/395/395 397/397/397 402/402/402
f 398/398/398 402/402/402 397/397/397
f 402/402/402 400/400/400 395/395/395
f 399/399/399 403/403/403 398/398/398
f 402/402/402 398/398/398 403/403/403
f 403/403/403 399/399/399 404/404/404
f 401/401/401 400/400/400 405/405/405
f 405/405/405 406/406/406 401/401/401
f 400/400/400 402/402/402 407/407/407
f 403/403/403 407/407/407 402/402/402
f 407/407/407 405/405/405 400/400/400
f 404/404/404 408/408/408 403/403/403
f 407/407/407 403/403/403 408/408/408
f 408/408/408 404/404/404 409/409/409
f 406/406/406 405/405/405 410/410/410
f 410/410/410 411/411/411 406/406/406
f 405/405/405 407/407/407 412/412/412
f 408/408/408 412/412/412 407/407/407
f 412/412/412 410/410/410 405/405/405
f 409/409/409 413/413/413 408/408/408
f 412/412/412 408/408/408 413/413/413
f 413/413/413 409/409/409 414/414/414
f 411/411/411 410/410/410 415/415/415
f 415/415/415 416/416/416 411/411/411
f 410/410/410 412/412/412 417/417/417
f 413/413/413 417/417/417 412/412/412
f 417/417/417 415/415/415 410/410/410
f 414/414/414 418/418/418 413/413/413
f 417/417/417 413/413/413 418/418/418
f 418/418/418 414/414/414 419/419/419
f 416/416/416 415/415/415 420/420/420
f 420/420/420 421/421/421 416/416/416
f 415/415/415 417/417/417 422/422/422
f 418/418/418 422/422/422 417/417/417
f 422/422/422 420/420/420 415/415/415
f 419/419/419 423/423/423 418/418/418
f 422/422/422 418/418/418 423/423/423
f 423/423/423 419/419/419 424/424/424
f 421/421/421 420/420/420 425/425/425
f 425/425/425 426/426/426 421/421/421
f 420/420/420 422/422/422 427/427/427
f 423/423/423 427/427/427 422/422/422
f 427/427/427 425/425/425 420/420/420
f 424/424/424 428/428/428 423/423/423
f 427/427/427 423/423/423 428/428/428
f 428/428/428 424/424/424 429/429/429
f 426/426/426 425/425/425 430/430/430
f 430/430/430 431/431/431 426/426/426
f 425/425/425 427/427/427 432/432/432
f 428/428/428 432/432/432 427/427/427
f 432/432/432 430/430/430 425/425/425
f 429/429/429 433/433/433 428/428/428
f 432/432/432 428/428/428 433/433/433
f 433/433/433 429/429/429 434/434/434
f 431/431/431 430/430/430 435/435/435
f 435/435/435 436/436/436 431/431/431
f 430/430/430 432/432/432 437/437/437
f 433/433/433 437/437/437 432/432/432
f 437/437/437 435/435/435 430/430/430
f 434/434/434 438/438/438 433/433/433
f 437/437/437 433/433/433 438/438/438
f 438/438/438 434/434/434 439/439/439
f 436/436/436 435/435/435 440/440/440
f 440/440/440 441/441/441 436/436/436
f 435/435/435 437/437/437 442/442/442
f 438/438/438 442/442/442 437/437/437
f 442/442/442 440/440/440 435/435/435
f 439/439/439 443/443/443 438/438/438
f 442/442/442 438/438/438 443/443/443
f 443/443/443 439/439/439 444/444/444
f 441/441/441 440/440/440 445/445/445
f 445/445/445 446/446/446 441/441/441
f 440/440/440 442/442/442 447/447/447
f 443/443/443 447/447/447 442/442/442
f 447/447/447 445/445/445 440/440/440
f 444/444/444 448/448/448 443/443/443
f 447/447/447 443/443/443 448/448/448
f 448/448/448 444/444/444 449/449/449
f 446/446/446 445/445/445 450/450/450
f 450/450/450 451/451/451 446/446/446
f 445/445/445 447/447/447 452/452/452
f 448/448/448 452/452/452 447/447/447
f 452/452/452 450/450/450 445/445/445
f 449/449/449 453/453/453 448/448/448
f 452/452/452 448/448/448 453/453/453
f 453/453/453 449/449/449 454/454/454
f 451/451/451 450/450/450 455/455/455
f 455/455/455 456/456/456 451/451/451
f 456/456/456 455/455/455 457/457/457
f 450/450/450 452/452/452 458/458/458
f 453/453/453 458/458/458 452/452/452
f 458/458/458 455/455/455 450/450/450
f 454/454/454 459/459/459 453/453/453
f 458/458/458 453/453/453 459/459/459
f 459/459/459 454/454/454 460/460/460
f 461/461/461 457/457/457 455/455/455
f 455/455/455 458/458/458 461/461/461
f 459/459/459 461/461/461 458/458/458
f 457/457/457 461/461/461 462/462/462
f 460/460/460 463/463/463 459/459/459
f 461/461/461 459/459/459 463/463/463
f 463/463/463 462/462/462 461/461/461
f 463/463/463 460/460/460 464/464/464
f 462/462/462 463/463/463 465/465/465
f 464/464/464 465/465/465 463/463/463
f 465/465/465 464/464/464 466/466/466
