v -0.1998804 -1.034802 0.01000961
v -0.5999534 -1.034802 0.01000979
v -1.000026 -1.034803 0.01000997
v -0.5999534 -1.034802 0.01000979
v -0.79999 -1.034803 0.01000988
v -0.7999173 1.037628 0.06000993
v -0.6032259 0.9834188 0.06000984
v -0.6613901 1.028525 0.06000987
v -1.137404 0.7595248 0.06001008
v -0.01296352 0.8392832 0.06000957
v -0.9999902 1.036499 0.06001002
v -1.171802 1.037559 0.0600101
v -1.200063 1.051874 0.04667211
v -0.3997714 1.028662 0.06000975
v -0.5998443 1.051859 0.06000984
v -0.1996985 1.025661 0.06000966
v -0.01296354 1.00943 0.06000958
v -0.01296339 -0.130689 0.06000955
v -1.186725 -0.1306891 0.06001008
v -0.5998441 -1.021464 0.06000979
v -0.799917 -1.008995 0.06000989
v -0.3997711 -1.032712 0.0600097
v -0.9999899 -1.020357 0.06000997
v -0.3011511 -0.9859661 0.06000966
v 0.0003161971 0.8394193 0.04667239
v -0.006353155 1.015493 0.01495957
v 0.000155626 1.051913 0.01000955
v 0.0003163239 -0.1307947 0.04667209
v 0.0001849564 0.8515925 0.0229197
v -4.612213E-06 1.051952 -0.0266526
v -4.586275E-06 0.8535064 -0.02665261
v 0.0001850552 0.08161374 0.01967398
v 0.0001850827 -0.1181307 0.02221541
v -4.485204E-06 0.08023526 -0.02665261
v -4.459289E-06 -0.1180376 -0.02665262
v 0.0003164403 -1.021464 0.04667165
v 0.0001851716 -0.8223459 0.01667818
v -4.341207E-06 -1.021464 -0.02665261
v -4.367145E-06 -0.8230189 -0.0266526
v -0.01296328 -1.021464 0.06000953
v -0.1996982 -0.9803969 0.06000962
v -0.1406372 -1.02009 0.06000959
v -0.2520105 -1.025284 0.06000964
v -0.2016406 -1.026471 0.06000961
v -0.01303517 0.09524006 0.008589747
v -0.9573415 0.1006403 0.005163681
v -0.9609457 0.3109236 0.008499136
v -0.9701549 0.3206686 0.0084974
v -0.01321135 0.8383906 0.009582466
v 0.0001849564 0.8515925 0.0229197
v 0.0001850552 0.08161374 0.01967398
v -1.190607 0.8390011 0.009582994
v -1.185322 0.3212788 0.008497499
v -1.198998 0.3071975 0.01667667
v -1.200063 0.8529692 0.01667873
v -0.01334247 -0.1313761 -0.0266529
v -0.01321123 -0.1315744 0.003340743
v -1.186725 -0.132045 0.003341274
v -1.186725 -0.1313762 -0.02665237
v -1.19037 -0.1170633 -0.03998996
v -0.01340077 -0.1181438 -0.03999048
v -4.459289E-06 -0.1180376 -0.02665262
v -0.01321123 -0.1315744 0.003340743
v 0.0001850827 -0.1181307 0.02221541
v -4.485204E-06 0.08023526 -0.02665261
v -1.20009 -0.1180377 -0.02665246
v -1.200044 -0.119182 0.0213741
v -1.186725 -0.132045 0.003341274
v -1.184299 0.3062088 -0.03998994
v -1.197869 0.3060753 -0.02665406
v -1.184554 0.3194141 -0.0266526
v -1.185322 0.3212788 0.008497499
v -1.198998 0.3071975 0.01667667
v -0.9701549 0.3206686 0.0084974
v -0.9751858 0.3062089 -0.03999004
v -0.9748507 0.3194142 -0.0266527
v -0.9609457 0.3109236 0.008499136
v -0.9615157 0.3060756 -0.02665617
v -0.9730272 0.07097351 -0.03999004
v -0.9615157 0.3060756 -0.02665617
v -0.8157344 0.04485926 -0.03999012
v -0.961191 0.1073569 -0.03075874
v -0.947857 0.09404785 -0.0266521
v -0.9573415 0.1006403 0.005163681
v -0.9609457 0.3109236 0.008499136
v -0.8352077 0.09389688 -0.01493568
v -0.01303517 0.09524006 0.008589747
v -0.7600316 0.09379611 -0.02665218
v -0.755863 0.07788264 -0.03999015
v -0.0133428 0.09354451 -0.02665251
v 0.0001850552 0.08161374 0.01967398
v -0.0134011 0.08018735 -0.03999047
v -0.0133426 0.8401678 -0.02665318
v -0.01321135 0.8383906 0.009582466
v -1.190607 0.8390011 0.009582994
v -1.186725 0.8401677 -0.02665265
v -1.186725 0.8536418 -0.03998996
v -1.200063 0.8535064 -0.02665195
v -1.200063 0.8529692 0.01667873
v -1.190607 0.8390011 0.009582994
v -1.186725 1.038738 -0.03998994
v -1.200063 1.051952 -0.02665194
v -0.0134009 0.8536419 -0.03999047
v -0.4887729 0.9993219 -0.03999026
v -0.8453436 1.00689 -0.03999009
v -0.8453259 1.06529 -0.01499122
v -4.586275E-06 0.8535064 -0.02665261
v -0.01321135 0.8383906 0.009582466
v 0.0001849564 0.8515925 0.0229197
v -4.612213E-06 1.051952 -0.0266526
v -0.01340092 1.051966 -0.03999047
v -0.1917456 1.051966 -0.03999039
v -0.1916959 1.06529 -0.0266524
v -0.4887375 1.06529 -0.01579138
v -0.5999536 1.065251 0.01000982
v -0.01334293 1.06529 -0.02665248
v -4.612213E-06 1.051952 -0.0266526
v -1.186725 1.06529 -0.02665194
v -1.200063 1.051952 -0.02665194
v -0.1998807 1.065251 0.01000964
v -0.6218411 1.051966 -0.0399902
v -0.753603 1.051966 -0.03999015
v -0.6218122 1.06529 -0.0266522
v -0.7535806 1.06529 -0.02665214
v -0.999266 1.065251 0.01001
v -0.3999173 1.065251 0.01000973
v -0.01318239 1.065251 0.01000955
v 0.000155626 1.051913 0.01000955
v -4.612213E-06 1.051952 -0.0266526
v -0.006353155 1.015493 0.01495957
v -0.1997473 1.053141 0.03664371
v -0.1996985 1.025661 0.06000966
v -0.01296354 1.00943 0.06000958
v -0.3997714 1.028662 0.06000975
v -0.3998105 1.05113 0.03303168
v -0.5998443 1.051859 0.06000984
v -0.5998737 1.065212 0.04667188
v -0.6032259 0.9834188 0.06000984
v -0.6031866 0.9946476 0.01000978
v -0.661441 1.035727 0.01000984
v -0.6613901 1.028525 0.06000987
v -0.7999902 1.038681 0.01000991
v -0.7999173 1.037628 0.06000993
v -0.9999902 1.036499 0.06001002
v -1 1.053219 0.02909377
v -1.171802 1.037559 0.0600101
v -1.186725 1.065212 0.04667211
v -1.200063 1.051952 -0.02665194
v -1.200063 1.051874 0.04667211
v -1.200063 0.8535064 -0.02665195
v -1.200063 0.8529692 0.01667873
v -1.200063 1.051952 -0.02665194
v -1.200063 0.7730659 0.04362551
v -1.198998 0.3071975 0.01667667
v -1.178765 0.5637327 0.06001008
v -1.19973 0.5497202 0.04667692
v -1.200044 -0.119182 0.0213741
v -1.20009 -0.1180377 -0.02665246
v -1.197869 0.3060753 -0.02665406
v -1.200063 -0.1307949 0.0466725
v -1.200063 -0.8199859 0.01921425
v -1.186725 -0.8088882 0.06001006
v -1.186725 -0.9951901 0.06001006
v -1.200063 -0.8090101 0.04667262
v -1.200063 -1.003891 0.01252969
v -1.200063 -1.021464 0.002509
v -1.200063 -1.021464 -0.02084213
v -1.200063 -0.8230191 -0.02665194
v 0.0001850827 -0.1181307 0.02221541
v 0.0001851716 -0.8223459 0.01667818
v -0.01321114 -0.8091298 0.00334081
v -0.01321123 -0.1315744 0.003340743
v -1.186725 -0.80913 0.003341341
v -1.186725 -0.132045 0.003341274
v -1.200063 -0.8199859 0.01921425
v -1.200044 -0.119182 0.0213741
v 0.0001851716 -0.8223459 0.01667818
v -0.01334269 -0.8096805 -0.02665303
v -0.01321114 -0.8091298 0.00334081
v -4.367145E-06 -0.8230189 -0.0266526
v -0.01340098 -0.8231404 -0.03999047
v -0.01340096 -1.021464 -0.03999047
v -4.341207E-06 -1.021464 -0.02665261
v -0.2378294 -0.8096805 -0.02514849
v -0.01321114 -0.8091298 0.00334081
v -0.2378739 -0.833276 -0.03999037
v -0.335131 -0.8768789 -0.03999032
v -0.3350922 -0.8096805 -0.01903517
v -0.6014146 -0.8096805 -0.01688069
v -1.186725 -0.80913 0.003341341
v -1.009524 -0.8096806 -0.02665258
v -1.186725 -0.8096806 -0.0266525
v -1.186725 -0.8231406 -0.03998994
v -1.009532 -0.8231406 -0.03999002
v -1.200063 -0.8230191 -0.02665194
v -1.186725 -0.80913 0.003341341
v -1.200063 -0.8199859 0.01921425
v -1.200063 -1.021464 -0.02084213
v -1.186725 -0.9370456 -0.03998995
v -0.6014393 -0.9062548 -0.03999021
v -1.186725 -1.034803 -0.02084213
v -1.200063 -1.021464 0.002509
v -1.186725 -1.034803 0.0001466843
v -1.200063 -1.003891 0.01252969
v -1.186725 -1.017228 0.01252969
v -1.186725 -0.9951901 0.06001006
v -0.9999899 -1.020357 0.06000997
v -0.9999995 -1.02817 0.01281266
v -0.799917 -1.008995 0.06000989
v -1.000026 -1.034803 0.01000997
v -0.1998804 -1.034802 0.01000961
v -0.79999 -1.034803 0.01000988
v -0.8149652 -1.034803 -0.02665212
v -0.01334266 -1.034802 -0.02665248
v -0.140691 -1.03218 0.01838085
v -0.7999363 -1.022414 0.01230329
v -0.5999534 -1.034802 0.01000979
v -0.5998731 -1.034802 0.04667182
v -0.5998441 -1.021464 0.06000979
v -0.3997711 -1.032712 0.0600097
v -0.3998099 -1.034802 0.01851854
v -0.8149946 -1.012993 -0.03999011
v -0.3011948 -0.9946691 0.01947253
v -0.3011511 -0.9859661 0.06000966
v -0.2520566 -1.025284 0.01994953
v -0.2520105 -1.025284 0.06000964
v -0.2016406 -1.026471 0.06000961
v -0.1996982 -0.9803969 0.06000962
v -0.1997467 -1.004986 0.02042652
v -0.1406372 -1.02009 0.06000959
v -0.01296328 -1.021464 0.06000953
v -0.01302157 -1.034802 0.04667153
v 0.0003164403 -1.021464 0.04667165
v -0.4958024 -0.8394881 -0.03999025
v -0.4652662 -0.8384475 -0.03999027
v -0.4652354 -0.8096805 -0.02225379
v -0.4957731 -0.8096805 -0.02310402
v -0.5570363 -0.1323303 -0.02738509
v -0.5570363 -0.1323303 0.01000979
v -0.945029 -0.8098025 0.01000995
v -0.945029 -0.8098025 -0.02738493
v -0.9486796 -0.7941669 -0.03999005
v -0.5791664 -0.1489688 -0.0399902
v -0.8150905 -0.1324795 -0.02738498
v -1.178571 -0.7941669 -0.03998994
v -1.187202 -0.8098025 -0.02738483
v -1.042083 -0.5540263 -0.03999
v -0.811938 -0.1491034 -0.03999009
v -1.054689 -0.5540298 -0.02738488
v -1.083553 -0.6048146 -0.01727237
v -0.8150905 -0.1324795 0.01000991
v -1.190591 -0.7931383 0.01001006
v -1.187202 -0.8098025 0.01001006
v -1.042894 -0.635661 -0.03999
v -1.191186 -0.7941844 -0.02738482
v -1.099813 -0.6555978 -0.03998998
v -1.112418 -0.6555995 -0.02738486
v -0.01238496 0.8401976 -0.0273853
v -0.01238493 0.8401976 0.01000958
v -0.01161711 0.8200234 0.01000958
v -0.01177979 0.8197392 -0.0273853
v -0.426794 0.09508498 0.01000975
v -0.4267941 0.09508498 -0.02738514
v -0.02333131 0.8215791 -0.03999041
v -0.262247 0.8401975 -0.02738519
v -0.4297603 0.1119226 -0.03999025
v -0.2602243 0.821579 -0.03999031
v -0.5457525 0.3413962 -0.02738507
v -0.262247 0.8401975 0.01000969
v -0.6579244 0.1120572 -0.03999015
v -0.6856643 0.0952341 -0.02738502
v -0.5331466 0.3413923 -0.03999019
v -0.5781627 0.2007541 -0.03999018
v -0.6157082 0.2183152 -0.01091433
v -0.6856643 0.0952341 0.01000986
v -1.024337 0.01577392 0.06001018
v -1.021608 0.0002981497 0.06944529
v -1.021608 0.0002981497 0.06001018
v -1.024337 0.01577399 0.0694453
v -1.032194 0.02938308 0.06001018
v -1.032163 0.0002981483 0.08116829
v -1.032194 0.02938308 0.0694453
v -1.044232 0.03948417 0.06001018
v -1.034256 0.01216384 0.08116831
v -1.050577 0.0002981459 0.08116831
v -1.044232 0.03948417 0.06944529
v -1.058999 0.04485885 0.06001018
v -1.04028 0.02259833 0.08116832
v -1.051559 0.005865925 0.08116832
v -1.050577 0.0002981459 0.1032243
v -1.051559 0.005865925 0.1032243
v -1.054386 0.01076209 0.08116832
v -1.054386 0.01076209 0.1032243
v -1.058999 0.04485885 0.06944529
v -1.074713 0.04485884 0.06001019
v -1.04951 0.03034301 0.08116832
v -1.058717 0.0143962 0.08116832
v -1.058717 0.0143962 0.1032243
v -1.074713 0.04485884 0.0694453
v -1.08948 0.03948416 0.0600102
v -1.060832 0.03446395 0.08116832
v -1.064029 0.01632979 0.08116831
v -1.064029 0.01632979 0.1032244
v -1.08948 0.03948416 0.0694453
v -1.101518 0.02938307 0.0600102
v -1.07288 0.03446394 0.08116832
v -1.069683 0.01632979 0.08116832
v -1.069683 0.01632979 0.1032244
v -1.101518 0.02938307 0.06944531
v -1.109375 0.01577391 0.0600102
v -1.084202 0.030343 0.08116832
v -1.074996 0.01439612 0.08116832
v -1.074996 0.0143962 0.1032244
v -1.109375 0.01577391 0.06944531
v -1.112104 0.0002981379 0.0600102
v -1.093432 0.02259825 0.08116832
v -1.079326 0.01076209 0.08116832
v -1.079326 0.01076209 0.1032243
v -1.112104 0.0002981379 0.0694453
v -1.109375 -0.01517755 0.0600102
v -1.099457 0.01216383 0.08116832
v -1.082153 0.005865921 0.08116832
v -1.082153 0.005865921 0.1032243
v -1.109375 -0.01517755 0.06944531
v -1.101518 -0.02878671 0.0600102
v -1.101549 0.0002981393 0.08116832
v -1.083135 0.0002981417 0.08116832
v -1.083135 0.0002981417 0.1032243
v -1.101518 -0.02878671 0.06944531
v -1.08948 -0.0388878 0.0600102
v -1.099457 -0.01156748 0.08116832
v -1.082153 -0.005269561 0.08116832
v -1.082153 -0.005269561 0.1032244
v -1.08948 -0.0388878 0.0694453
v -1.074713 -0.04426248 0.0600102
v -1.093432 -0.02200197 0.08116832
v -1.079326 -0.01016572 0.08116832
v -1.079326 -0.01016572 0.1032244
v -1.074713 -0.04426248 0.06944531
v -1.058999 -0.04426248 0.06001019
v -1.084202 -0.02974664 0.08116832
v -1.074996 -0.01379976 0.08116832
v -1.074996 -0.01379976 0.1032244
v -1.058999 -0.04426248 0.0694453
v -1.044232 -0.0388878 0.06001018
v -1.07288 -0.03386758 0.08116832
v -1.069683 -0.01573343 0.08116832
v -1.069683 -0.01573343 0.1032243
v -1.044232 -0.0388878 0.06944529
v -1.032194 -0.02878671 0.06001018
v -1.060832 -0.03386758 0.08116832
v -1.064029 -0.01573343 0.08116832
v -1.064029 -0.01573343 0.1032243
v -1.032194 -0.02878671 0.0694453
v -1.024337 -0.01517754 0.06001018
v -1.04951 -0.02974671 0.08116831
v -1.058717 -0.01379975 0.08116832
v -1.058717 -0.01379975 0.1032243
v -1.024337 -0.01517754 0.06944529
v -1.021608 0.0002981497 0.06001018
v -1.021608 0.0002981497 0.06944529
v -1.04028 -0.02200196 0.08116831
v -1.054386 -0.01016572 0.08116832
v -1.054386 -0.01016572 0.1032244
v -1.034256 -0.01156747 0.08116831
v -1.032163 0.0002981483 0.08116829
v -1.051559 -0.005269557 0.08116831
v -1.051559 -0.005269557 0.1032244
v -1.050577 0.0002981459 0.08116831
v -1.050577 0.0002981459 0.1032243
v -1.109376 0.01577406 -0.03908876
v -1.112104 0.0002982905 -0.04852387
v -1.112104 0.0002982905 -0.03908876
v -1.109376 0.01577413 -0.04852387
v -1.101519 0.02938322 -0.03908877
v -1.101549 0.0002982919 -0.06024688
v -1.101519 0.02938322 -0.04852387
v -1.089481 0.03948431 -0.03908876
v -1.099457 0.01216398 -0.06024688
v -1.083135 0.0002982942 -0.06024688
v -1.089481 0.03948431 -0.04852387
v -1.074714 0.04485899 -0.03908877
v -1.093433 0.02259848 -0.06024689
v -1.082154 0.005866074 -0.0602469
v -1.083135 0.0002982942 -0.08230292
v -1.082154 0.005866074 -0.08230292
v -1.079327 0.01076224 -0.0602469
v -1.079327 0.01076224 -0.08230292
v -1.074714 0.04485899 -0.04852388
v -1.058999 0.044859 -0.03908879
v -1.084203 0.03034315 -0.0602469
v -1.074996 0.01439635 -0.0602469
v -1.074996 0.01439635 -0.08230293
v -1.058999 0.044859 -0.0485239
v -1.044232 0.03948432 -0.03908879
v -1.072881 0.03446409 -0.0602469
v -1.069683 0.01632994 -0.0602469
v -1.069683 0.01632994 -0.08230293
v -1.044232 0.03948432 -0.0485239
v -1.032194 0.02938323 -0.03908879
v -1.060832 0.0344641 -0.0602469
v -1.06403 0.01632994 -0.0602469
v -1.06403 0.01632994 -0.08230295
v -1.032194 0.02938323 -0.04852391
v -1.024337 0.01577407 -0.03908879
v -1.04951 0.03034316 -0.06024691
v -1.058717 0.01439627 -0.06024691
v -1.058717 0.01439635 -0.08230294
v -1.024337 0.01577407 -0.04852391
v -1.021608 0.0002983023 -0.03908879
v -1.04028 0.02259841 -0.06024691
v -1.054386 0.01076224 -0.0602469
v -1.054386 0.01076224 -0.08230292
v -1.021608 0.0002983023 -0.0485239
v -1.024337 -0.01517739 -0.03908879
v -1.034256 0.01216399 -0.06024691
v -1.051559 0.005866078 -0.0602469
v -1.051559 0.005866078 -0.08230292
v -1.024337 -0.01517739 -0.04852391
v -1.032194 -0.02878655 -0.03908879
v -1.032164 0.0002983009 -0.06024692
v -1.050578 0.0002982985 -0.0602469
v -1.050578 0.0002982985 -0.08230292
v -1.032194 -0.02878655 -0.04852391
v -1.044232 -0.03888764 -0.03908879
v -1.034256 -0.01156731 -0.0602469
v -1.051559 -0.005269405 -0.0602469
v -1.051559 -0.005269405 -0.08230294
v -1.044232 -0.03888764 -0.0485239
v -1.058999 -0.04426232 -0.03908879
v -1.04028 -0.02200181 -0.0602469
v -1.054386 -0.01016557 -0.0602469
v -1.054386 -0.01016557 -0.08230294
v -1.058999 -0.04426232 -0.0485239
v -1.074714 -0.04426233 -0.03908877
v -1.04951 -0.02974648 -0.0602469
v -1.058717 -0.0137996 -0.0602469
v -1.058717 -0.0137996 -0.08230294
v -1.074714 -0.04426233 -0.04852388
v -1.089481 -0.03888765 -0.03908876
v -1.060832 -0.03386743 -0.06024691
v -1.06403 -0.01573327 -0.06024691
v -1.06403 -0.01573327 -0.08230295
v -1.089481 -0.03888765 -0.04852387
v -1.101519 -0.02878656 -0.03908877
v -1.072881 -0.03386743 -0.0602469
v -1.069683 -0.01573327 -0.0602469
v -1.069683 -0.01573327 -0.08230292
v -1.101519 -0.02878656 -0.04852387
v -1.109376 -0.0151774 -0.03908876
v -1.084203 -0.02974657 -0.06024688
v -1.074996 -0.0137996 -0.0602469
v -1.074996 -0.0137996 -0.08230293
v -1.109376 -0.0151774 -0.04852387
v -1.112104 0.0002982905 -0.03908876
v -1.112104 0.0002982905 -0.04852387
v -1.093433 -0.02200182 -0.06024689
v -1.079327 -0.01016557 -0.0602469
v -1.079327 -0.01016557 -0.08230292
v -1.099457 -0.01156732 -0.06024688
v -1.101549 0.0002982919 -0.06024688
v -1.082154 -0.005269409 -0.06024689
v -1.082154 -0.005269409 -0.08230294
v -1.083135 0.0002982942 -0.06024688
v -1.083135 0.0002982942 -0.08230292
vt 0.05507686 0.9348381
vt 0.1478393 0.9322007
vt 0.2400566 0.931065
vt 0.1478393 0.9322007
vt 0.1939463 0.9315606
vt 0.1130207 0.007488939
vt 0.1583334 0.01961805
vt 0.1449113 0.00952026
vt 0.03548152 0.06972327
vt 0.294172 0.05186061
vt 0.06694712 0.007764816
vt 0.02734143 0.007560338
vt 0.0200171 0.004372542
vt 0.2051748 0.009460564
vt 0.1591106 0.004328543
vt 0.2512984 0.01013681
vt 0.294324 0.01385332
vt 0.2940679 0.2686684
vt 0.02407402 0.2686464
vt 0.1590239 0.4677498
vt 0.1129851 0.464971
vt 0.2050393 0.4702556
vt 0.06693432 0.467506
vt 0.2277224 0.4598045
vt 0.2983537 0.05187015
vt 0.3047856 0.0124084
vt 0.3065399 0.004339501
vt 0.2983615 0.2686875
vt 0.3036899 0.04911091
vt 0.3150618 0.004334436
vt 0.3150618 0.04868785
vt 0.3045533 0.2212133
vt 0.303979 0.2658534
vt 0.3152162 0.2215182
vt 0.3152162 0.265833
vt 0.2983596 0.4677498
vt 0.3052539 0.4232425
vt 0.3152203 0.4677445
vt 0.3152189 0.42339
vt 0.2940249 0.4677536
vt 0.2510628 0.4585626
vt 0.2646483 0.4674352
vt 0.2390236 0.4685915
vt 0.2506105 0.4688594
vt 0.3324564 0.801788
vt 0.5475168 0.8007252
vt 0.5483793 0.7542849
vt 0.5504725 0.7523453
vt 0.3327966 0.6373412
vt 0.3284951 0.6344243
vt 0.328521 0.8047956
vt 0.6010399 0.6378884
vt 0.5994526 0.7524565
vt 0.6030725 0.7556071
vt 0.603755 0.6348482
vt 0.3218421 0.9208554
vt 0.3214054 0.927206
vt 0.5945579 0.9272449
vt 0.5941103 0.9209111
vt 0.5948002 0.9173138
vt 0.321834 0.9173954
vt 0.3178174 0.9187547
vt 0.3214054 0.927206
vt 0.3159716 0.9304631
vt 0.317276 0.8720939
vt 0.5981802 0.9188926
vt 0.5998884 0.9303287
vt 0.5945579 0.9272449
vt 0.5974599 0.822746
vt 0.6016695 0.8216088
vt 0.5978785 0.819289
vt 0.5990311 0.8118225
vt 0.6042056 0.8113526
vt 0.5487143 0.8087097
vt 0.5490986 0.8203782
vt 0.5495702 0.8164714
vt 0.5454417 0.8090587
vt 0.5454798 0.8173017
vt 0.5456569 0.873629
vt 0.5454529 0.8192826
vt 0.5082154 0.8801681
vt 0.5438604 0.8648124
vt 0.5391464 0.8681803
vt 0.5380118 0.862461
vt 0.5377812 0.8171554
vt 0.5116959 0.8676956
vt 0.3203692 0.8620945
vt 0.4943079 0.8696948
vt 0.4936705 0.8738269
vt 0.3211244 0.8697698
vt 0.315149 0.8609334
vt 0.3214613 0.8733788
vt 0.3312748 0.6188524
vt 0.3308854 0.6266272
vt 0.6040062 0.6260253
vt 0.6027174 0.618287
vt 0.6027287 0.6146795
vt 0.6067411 0.6162723
vt 0.608441 0.6266671
vt 0.6040062 0.6260253
vt 0.6032713 0.5732737
vt 0.6078539 0.5707675
vt 0.3311946 0.6153209
vt 0.4408438 0.5821239
vt 0.523914 0.5802084
vt 0.5240596 0.5656734
vt 0.327219 0.6168994
vt 0.3308854 0.6266272
vt 0.3257909 0.6287515
vt 0.3254599 0.5714248
vt 0.3299789 0.5708967
vt 0.371569 0.5702246
vt 0.371349 0.5659838
vt 0.4407991 0.5661237
vt 0.4669977 0.5604119
vt 0.3297486 0.5663118
vt 0.32603 0.5687081
vt 0.6036274 0.5661969
vt 0.6069032 0.5692279
vt 0.372843 0.5576363
vt 0.4719267 0.5711297
vt 0.5023996 0.570979
vt 0.4719071 0.567392
vt 0.5024888 0.5673355
vt 0.5600901 0.5592644
vt 0.4192639 0.5601013
vt 0.3299354 0.5581619
vt 0.3262649 0.5567219
vt 0.3250673 0.565468
vt 0.3268633 0.5477516
vt 0.372456 0.5516725
vt 0.3724749 0.5438669
vt 0.3297791 0.5382733
vt 0.4178756 0.5461261
vt 0.4182213 0.5540915
vt 0.4624477 0.5504166
vt 0.4628419 0.5544506
vt 0.4718746 0.5371066
vt 0.4742757 0.5456734
vt 0.4830952 0.5554612
vt 0.4847151 0.5441372
vt 0.5144816 0.5545138
vt 0.51512 0.5434852
vt 0.560795 0.546408
vt 0.560665 0.5541312
vt 0.6004855 0.5436055
vt 0.6035547 0.5500626
vt 0.6081653 0.5659188
vt 0.6072881 0.5489111
vt 0.00481029 0.0490993
vt 0.01480107 0.04884697
vt 0.003077081 0.004795919
vt 0.02090695 0.0666733
vt 0.01239925 0.1707246
vt 0.02576085 0.113479
vt 0.01999777 0.1165702
vt 0.01379081 0.2660509
vt 0.002596268 0.2657847
vt 0.002589818 0.1709923
vt 0.01970572 0.2686581
vt 0.01344137 0.42272
vt 0.02399521 0.4202215
vt 0.0239472 0.4618505
vt 0.01976115 0.4202161
vt 0.0127112 0.4638583
vt 0.01050049 0.4678279
vt 0.005137512 0.4679209
vt 0.002918549 0.4236009
vt 0.007279744 0.7045381
vt 0.00824949 0.8604041
vt 0.01253643 0.8574782
vt 0.01253772 0.7075146
vt 0.2798627 0.8574819
vt 0.279864 0.7076221
vt 0.2845838 0.859885
vt 0.2849682 0.7047752
vt 0.00617309 0.8620685
vt 0.01195992 0.8704461
vt 0.01171427 0.8627661
vt 0.008045444 0.873017
vt 0.0119661 0.874687
vt 0.01176494 0.9188648
vt 0.007809567 0.9205333
vt 0.06350154 0.8708462
vt 0.01171427 0.8627661
vt 0.0634811 0.8770389
vt 0.08584715 0.886745
vt 0.08596954 0.8700954
vt 0.1472915 0.8730049
vt 0.2821307 0.8710209
vt 0.2412359 0.8750911
vt 0.2819294 0.8762904
vt 0.2818785 0.8791103
vt 0.2413058 0.8783389
vt 0.2859138 0.8778177
vt 0.2821307 0.8710209
vt 0.286332 0.8671384
vt 0.2865329 0.9227756
vt 0.2819553 0.9035337
vt 0.1470585 0.8949165
vt 0.2825223 0.9245389
vt 0.2869627 0.9289055
vt 0.282862 0.9281151
vt 0.2880985 0.9335123
vt 0.2837254 0.9323165
vt 0.2839891 0.9439171
vt 0.2406064 0.9430823
vt 0.240346 0.9324942
vt 0.1944937 0.9444801
vt 0.2400566 0.931065
vt 0.05507686 0.9348381
vt 0.1939463 0.9315606
vt 0.1966803 0.9241496
vt 0.01193536 0.9232826
vt 0.03965238 0.9351304
vt 0.194247 0.9334655
vt 0.1478393 0.9322007
vt 0.1481694 0.9401453
vt 0.1484904 0.9440344
vt 0.1033212 0.9443117
vt 0.1018159 0.9351038
vt 0.1962761 0.919154
vt 0.07935424 0.9425434
vt 0.07956581 0.9511172
vt 0.06778026 0.9374024
vt 0.06646878 0.9465215
vt 0.05731756 0.9467999
vt 0.04956307 0.9511731
vt 0.052012 0.9413121
vt 0.03700256 0.9444405
vt 0.008338039 0.9421796
vt 0.009487715 0.9385254
vt 0.005292859 0.938371
vt 0.1228074 0.8798623
vt 0.1158702 0.8793712
vt 0.1160407 0.8720508
vt 0.1230603 0.8725818
vt 0.6197119 0.7282597
vt 0.6110003 0.7281913
vt 0.6095307 0.9049041
vt 0.6182423 0.9049725
vt 0.6217415 0.90189
vt 0.6227021 0.7344652
vt 0.6729192 0.7574348
vt 0.6668989 0.9279205
vt 0.6677973 0.9326258
vt 0.6681952 0.8656973
vt 0.6693757 0.7607838
vt 0.671675 0.8672919
vt 0.6729451 0.8807258
vt 0.6817243 0.7575197
vt 0.6784073 0.9300737
vt 0.6775789 0.9343956
vt 0.6593657 0.8819365
vt 0.6698002 0.929487
vt 0.6676762 0.8927678
vt 0.6711725 0.894103
vt 0.6231767 0.5320143
vt 0.6135073 0.5305035
vt 0.612661 0.5355837
vt 0.6211884 0.5362929
vt 0.6131991 0.723875
vt 0.6218735 0.7238516
vt 0.6242518 0.5374432
vt 0.6752383 0.5595983
vt 0.6253247 0.7204678
vt 0.6717659 0.5634653
vt 0.6751884 0.688494
vt 0.6840097 0.5595708
vt 0.670705 0.7460201
vt 0.6743814 0.7527641
vt 0.6717648 0.6870601
vt 0.6656144 0.7196928
vt 0.6778824 0.7204879
vt 0.6828684 0.7525516
vt 0.6872688 0.6358885
vt 0.6929868 0.6318932
vt 0.6895869 0.6304223
vt 0.6906006 0.6370137
vt 0.6859356 0.6418455
vt 0.6981635 0.6354152
vt 0.6894174 0.64236
vt 0.6859201 0.6479183
vt 0.6960959 0.6392016
vt 0.7029267 0.640309
vt 0.6894375 0.6477561
vt 0.6870384 0.6537708
vt 0.6952814 0.643384
vt 0.7023382 0.642366
vt 0.7107986 0.6408029
vt 0.7105916 0.6428403
vt 0.7021387 0.6448715
vt 0.7104191 0.6448035
vt 0.6904655 0.6530002
vt 0.6890321 0.6592439
vt 0.6954036 0.6476552
vt 0.7023886 0.6477055
vt 0.7105806 0.6467687
vt 0.6922914 0.6579654
vt 0.6916799 0.6642882
vt 0.6963072 0.651886
vt 0.7031443 0.6507198
vt 0.7111174 0.6487836
vt 0.6947339 0.6625976
vt 0.6948171 0.6689129
vt 0.6978661 0.6559851
vt 0.7043946 0.6537931
vt 0.712023 0.6508643
vt 0.6976506 0.6668878
vt 0.6983349 0.6731527
vt 0.699962 0.6598932
vt 0.7060887 0.6568373
vt 0.7132754 0.6529998
vt 0.7009414 0.6708501
vt 0.7021763 0.6770433
vt 0.7024902 0.6635785
vt 0.7081583 0.6597908
vt 0.7148388 0.655155
vt 0.7045465 0.6745003
vt 0.7063273 0.6806022
vt 0.7053661 0.6670264
vt 0.7105359 0.6626101
vt 0.7166663 0.6572808
vt 0.7084414 0.6778405
vt 0.7108036 0.6838138
vt 0.7085303 0.6702263
vt 0.7131625 0.6652567
vt 0.7186991 0.6593167
vt 0.712625 0.6808448
vt 0.7156368 0.6866181
vt 0.7119446 0.6731581
vt 0.7159873 0.6676912
vt 0.7208733 0.6612019
vt 0.7171094 0.6834534
vt 0.7208548 0.6889058
vt 0.7155864 0.6757849
vt 0.7189666 0.6698653
vt 0.7231223 0.6628759
vt 0.7219015 0.6855652
vt 0.7264541 0.6905106
vt 0.71944 0.6780483
vt 0.7220582 0.6717225
vt 0.7253825 0.6642845
vt 0.7269827 0.6870384
vt 0.7323706 0.6912158
vt 0.7234858 0.6798651
vt 0.7252143 0.6731988
vt 0.7276008 0.6653838
vt 0.7322856 0.6876957
vt 0.7384275 0.6907747
vt 0.7276843 0.6811329
vt 0.7283683 0.6742311
vt 0.7297404 0.6661417
vt 0.7376704 0.6873378
vt 0.7442766 0.6890279
vt 0.7319683 0.6817377
vt 0.7314285 0.6747735
vt 0.7317885 0.6665359
vt 0.7429208 0.685783
vt 0.7495669 0.6863323
vt 0.7478616 0.683044
vt 0.7362379 0.6815599
vt 0.7342731 0.674824
vt 0.7337602 0.6665593
vt 0.7403533 0.6804549
vt 0.7439854 0.6781267
vt 0.7367587 0.6744496
vt 0.7357066 0.6662496
vt 0.7387697 0.6737182
vt 0.7377242 0.6659004
vt 0.6872688 0.6358885
vt 0.6929868 0.6318932
vt 0.6895869 0.6304223
vt 0.6906006 0.6370137
vt 0.6859356 0.6418455
vt 0.6981635 0.6354152
vt 0.6894174 0.64236
vt 0.6859201 0.6479183
vt 0.6960959 0.6392016
vt 0.7029267 0.640309
vt 0.6894375 0.6477561
vt 0.6870384 0.6537708
vt 0.6952814 0.643384
vt 0.7023382 0.642366
vt 0.7107986 0.6408029
vt 0.7105916 0.6428403
vt 0.7021387 0.6448715
vt 0.7104191 0.6448035
vt 0.6904655 0.6530002
vt 0.6890321 0.6592439
vt 0.6954036 0.6476552
vt 0.7023886 0.6477055
vt 0.7105806 0.6467687
vt 0.6922914 0.6579654
vt 0.6916799 0.6642882
vt 0.6963072 0.651886
vt 0.7031443 0.6507198
vt 0.7111174 0.6487836
vt 0.6947339 0.6625976
vt 0.6948171 0.6689129
vt 0.6978661 0.6559851
vt 0.7043946 0.6537931
vt 0.712023 0.6508643
vt 0.6976506 0.6668878
vt 0.6983349 0.6731527
vt 0.699962 0.6598932
vt 0.7060887 0.6568373
vt 0.7132754 0.6529998
vt 0.7009414 0.6708501
vt 0.7021763 0.6770433
vt 0.7024902 0.6635785
vt 0.7081583 0.6597908
vt 0.7148388 0.655155
vt 0.7045465 0.6745003
vt 0.7063273 0.6806022
vt 0.7053661 0.6670264
vt 0.7105359 0.6626101
vt 0.7166663 0.6572808
vt 0.7084414 0.6778405
vt 0.7108036 0.6838138
vt 0.7085303 0.6702263
vt 0.7131625 0.6652567
vt 0.7186991 0.6593167
vt 0.712625 0.6808448
vt 0.7156368 0.6866181
vt 0.7119446 0.6731581
vt 0.7159873 0.6676912
vt 0.7208733 0.6612019
vt 0.7171094 0.6834534
vt 0.7208548 0.6889058
vt 0.7155864 0.6757849
vt 0.7189666 0.6698653
vt 0.7231223 0.6628759
vt 0.7219015 0.6855652
vt 0.7264541 0.6905106
vt 0.71944 0.6780483
vt 0.7220582 0.6717225
vt 0.7253825 0.6642845
vt 0.7269827 0.6870384
vt 0.7323706 0.6912158
vt 0.7234858 0.6798651
vt 0.7252143 0.6731988
vt 0.7276008 0.6653838
vt 0.7322856 0.6876957
vt 0.7384275 0.6907747
vt 0.7276843 0.6811329
vt 0.7283683 0.6742311
vt 0.7297404 0.6661417
vt 0.7376704 0.6873378
vt 0.7442766 0.6890279
vt 0.7319683 0.6817377
vt 0.7314285 0.6747735
vt 0.7317885 0.6665359
vt 0.7429208 0.685783
vt 0.7495669 0.6863323
vt 0.7478616 0.683044
vt 0.7362379 0.6815599
vt 0.7342731 0.674824
vt 0.7337602 0.6665593
vt 0.7403533 0.6804549
vt 0.7439854 0.6781267
vt 0.7367587 0.6744496
vt 0.7357066 0.6662496
vt 0.7387697 0.6737182
vt 0.7377242 0.6659004
vn 0.01279933 -0.9977951 0.0651227
vn 1.307047E-07 -1 0
vn 1.307047E-07 -1 0
vn 1.307047E-07 -1 0
vn 1.307047E-07 -1 0
vn 4.481253E-07 0 1
vn 4.498806E-07 0 1
vn 4.455964E-07 0 1
vn 4.014657E-07 0 1
vn 4.482407E-07 0 1
vn 4.546602E-07 0 1
vn 4.586662E-07 0 1
vn -1 -1.307047E-07 5.697648E-07
vn 4.514615E-07 0 1
vn 4.512778E-07 0 1
vn 4.449953E-07 0 1
vn 4.396514E-07 0 1
vn 4.456018E-07 0 1
vn 3.978423E-07 0 1
vn 4.569237E-07 0 1
vn 4.511397E-07 0 1
vn 4.419661E-07 0 1
vn 4.43949E-07 0 1
vn 4.36945E-07 0 1
vn 0.9883879 0.02662883 0.1496005
vn 0.9522922 0.05258798 0.3006228
vn 0.9883084 0.02659248 0.1501309
vn 0.999987 -1.408303E-05 -0.005095855
vn 0.9950069 0.01770759 0.09822291
vn 0.9999918 -5.774311E-05 -0.004057435
vn 0.9999918 -5.774311E-05 -0.004057435
vn 0.9999883 -2.806093E-05 -0.004837687
vn 0.9999889 -2.574577E-05 -0.004713281
vn 0.9999921 -2.529034E-05 -0.003981811
vn 0.9999921 -2.529034E-05 -0.003981811
vn 0.9999896 8.452806E-06 -0.004565555
vn 0.9999899 5.678842E-06 -0.004501767
vn 0.9999905 1.965864E-07 -0.004374492
vn 0.9999905 1.309136E-07 -0.004374189
vn 4.594737E-07 0 1
vn 4.487254E-07 0 1
vn 4.57211E-07 0 1
vn 4.461075E-07 0 1
vn 4.461075E-07 0 1
vn 0.002063256 0.008622563 -0.9999608
vn 0.003718707 0.01592333 -0.9998662
vn 0.002063256 0.008622563 -0.9999608
vn 0.0001379382 0.001837566 -0.9999983
vn 0.0002041639 0.001707986 -0.9999986
vn 0.9950069 0.01770759 0.09822291
vn 0.9999883 -2.806093E-05 -0.004837687
vn 3.062318E-06 0.002095693 -0.9999979
vn 5.48693E-06 0.002096724 -0.9999979
vn -0.9999199 0.00103209 -0.01262112
vn -0.9999967 -0.0006165257 -0.002524748
vn 0.0002005503 -0.9998956 -0.01445461
vn 0.0002005503 -0.9998956 -0.01445461
vn 0.0002005503 -0.9998956 -0.01445461
vn 0.0002005503 -0.9998956 -0.01445461
vn -4.622963E-07 0 -1
vn -4.446958E-07 0 -1
vn 0.9999921 -2.529034E-05 -0.003981811
vn -4.519085E-07 0 -1
vn 0.9999889 -2.574577E-05 -0.004713281
vn 0.9999921 -2.529034E-05 -0.003981811
vn -0.9999226 0.003776332 -0.01185625
vn -0.9999465 0.001652687 -0.01021588
vn -4.519085E-07 0 -1
vn -4.480407E-07 0 -1
vn -0.9999226 0.003776332 -0.01185625
vn 0.00143445 0.9990126 -0.04440499
vn 5.48693E-06 0.002096724 -0.9999979
vn -0.9999199 0.00103209 -0.01262112
vn 0.001434451 0.9990126 -0.04440499
vn -4.480407E-07 0 -1
vn 0.00143445 0.9990126 -0.04440499
vn 0.9980325 0.01071057 -0.06177586
vn 0.9980325 0.01071057 -0.06177586
vn -4.693391E-07 0 -1
vn 0.9980325 0.01071057 -0.06177586
vn -4.600098E-07 0 -1
vn 0.9980325 0.01071057 -0.06177586
vn 0.02176424 0.9802372 -0.1966248
vn 0.4522825 0.8594558 -0.2382779
vn 0.9980325 0.01071057 -0.06177586
vn 0.009091889 0.9860723 -0.1660687
vn 0.002063256 0.008622563 -0.9999608
vn -0.0004178864 0.9994848 -0.03209407
vn -4.411808E-07 0 -1
vn 0.0003365384 0.9988444 -0.0480588
vn 0.9999883 -2.806093E-05 -0.004837687
vn -4.411808E-07 0 -1
vn 0.3431469 -0.8665302 -0.3624576
vn -0.0002594089 -0.9991754 -0.04060019
vn -0.0002594089 -0.9991754 -0.04060019
vn -0.3515618 -0.8598503 -0.3702184
vn -4.466122E-07 0 -1
vn -1 -1.668539E-06 -6.49225E-06
vn -0.9999967 -0.0006165257 -0.002524748
vn 3.062318E-06 0.002095693 -0.9999979
vn -4.484085E-07 1.030461E-07 -1
vn -1 -8.996215E-07 -2.961242E-06
vn -4.448158E-07 0 -1
vn -4.498387E-07 0 -1
vn -4.49362E-07 0 -1
vn -1.422049E-05 0.9999996 0.0009445981
vn 0.9999918 -5.774311E-05 -0.004057435
vn 0.0002041639 0.001707986 -0.9999986
vn 0.9950069 0.01770759 0.09822291
vn 0.9999918 -5.774311E-05 -0.004057435
vn -4.628175E-07 0 -1
vn -4.535531E-07 0 -1
vn 1.315892E-05 0.9999994 0.00114095
vn 7.378836E-07 0.9999998 0.0007726923
vn 1.606471E-06 0.9999988 0.001545384
vn -1.302228E-07 0.9999994 0.001065475
vn 0.9999918 -5.774311E-05 -0.004057435
vn -4.413721E-05 0.9999992 0.00128841
vn -1 -8.996215E-07 -2.961242E-06
vn 1.315892E-05 0.9999994 0.00114095
vn -4.548616E-07 -1.465918E-07 -1
vn -4.548616E-07 -1.465918E-07 -1
vn -1.307047E-07 1 0
vn -1.307047E-07 1 0
vn -2.126537E-05 0.999999 0.001416897
vn 1.315901E-05 0.999999 0.001365203
vn -1.302228E-07 0.9999994 0.001065475
vn 0.9883084 0.02659248 0.1501309
vn 0.9999918 -5.774311E-05 -0.004057435
vn 0.9522922 0.05258798 0.3006228
vn 0.05921569 0.7584507 0.6490347
vn 4.449953E-07 0 1
vn 4.396514E-07 0 1
vn 4.514615E-07 0 1
vn 0.03086195 0.8490945 0.5273387
vn 4.512778E-07 0 1
vn -0.5724023 0.7291443 0.3751057
vn 4.498806E-07 0 1
vn -0.3883997 0.6770013 0.6251519
vn 0.1900176 0.5493059 0.8137299
vn 4.455964E-07 0 1
vn 0.0306124 0.6588507 0.7516507
vn 4.481253E-07 0 1
vn 4.546602E-07 0 1
vn 0.06094068 0.91524 0.3982738
vn 4.586662E-07 0 1
vn -0.3047965 0.8251554 0.4756235
vn -1 -8.996215E-07 -2.961242E-06
vn -1 -1.307047E-07 5.697648E-07
vn -1 -1.668539E-06 -6.49225E-06
vn -0.9999967 -0.0006165257 -0.002524748
vn -1 -8.996215E-07 -2.961242E-06
vn -0.9999925 -0.000923955 -0.003783878
vn -0.9999199 0.00103209 -0.01262112
vn 1.509053E-07 0 1
vn -0.9999154 -0.0003400566 -0.01300353
vn -0.9999465 0.001652687 -0.01021588
vn -0.9999226 0.003776332 -0.01185625
vn -0.9999226 0.003776332 -0.01185625
vn -0.9999557 0.0005908162 -0.009395635
vn -1 4.553165E-06 -0.0001169935
vn 4.516984E-07 0 1
vn 4.676228E-07 0 1
vn -1 6.895099E-06 -0.0001757751
vn -1 -1.307047E-07 5.697648E-07
vn -1 -1.307047E-07 5.697648E-07
vn -1 -1.307047E-07 5.697648E-07
vn -1 -1.307047E-07 5.697648E-07
vn 0.9999889 -2.574577E-05 -0.004713281
vn 0.9999899 5.678842E-06 -0.004501767
vn -4.519085E-07 0 -1
vn -4.519085E-07 0 -1
vn -4.519085E-07 0 -1
vn -4.519085E-07 0 -1
vn -1 4.553165E-06 -0.0001169935
vn -0.9999465 0.001652687 -0.01021588
vn 0.9999899 5.678842E-06 -0.004501767
vn -0.0001231581 0.9998314 -0.01835646
vn -4.519085E-07 0 -1
vn 0.9999905 1.309136E-07 -0.004374189
vn -4.814959E-07 0 -1
vn -4.636402E-07 0 -1
vn 0.9999905 1.965864E-07 -0.004374492
vn -0.0004677959 0.9998776 -0.01564012
vn -0.0003249263 0.9998171 -0.01912294
vn -4.814959E-07 0 -1
vn -4.511289E-07 0 -1
vn -0.0002839285 0.9999154 -0.01300458
vn 0.000115223 0.9999012 -0.01405763
vn 0.0001152145 0.9997965 -0.02017601
vn 0.0001924085 0.9998517 -0.01721982
vn -1.391796E-07 0.9998314 -0.018357
vn -4.621226E-07 0 -1
vn -4.515933E-07 0 -1
vn -1 -1.307047E-07 5.697648E-07
vn -4.519085E-07 0 -1
vn -1 4.553165E-06 -0.0001169935
vn -1 -1.307047E-07 5.697648E-07
vn -4.515933E-07 0 -1
vn -4.376516E-07 0 -1
vn 1.307047E-07 -1 0
vn -1 -1.307047E-07 5.697648E-07
vn 1.307047E-07 -1 0
vn -1 -1.307047E-07 5.697648E-07
vn -0.3265923 -0.7009993 0.6339855
vn 4.676228E-07 0 1
vn 4.43949E-07 0 1
vn -0.02332513 -0.754528 0.6558533
vn 4.511397E-07 0 1
vn 1.307047E-07 -1 0
vn 0.01279933 -0.9977951 0.0651227
vn 1.307047E-07 -1 0
vn 1.307047E-07 -1 0
vn 0.001664368 -0.9990547 0.04343907
vn 0.002497293 -0.9978704 0.06517966
vn -0.02962951 -0.8712692 0.4899102
vn 1.307047E-07 -1 0
vn 1.307047E-07 -1 0
vn 4.569237E-07 0 1
vn 4.419661E-07 0 1
vn 1.307047E-07 -1 0
vn -4.434242E-07 0 -1
vn -0.08437607 -0.7452755 0.6613963
vn 4.36945E-07 0 1
vn -0.1706958 -0.8266753 0.5361631
vn 4.461075E-07 0 1
vn 4.461075E-07 0 1
vn 4.487254E-07 0 1
vn 0.4904513 -0.6330671 0.598902
vn 4.57211E-07 0 1
vn 4.594737E-07 0 1
vn -0.02055943 -0.9997887 9.003048E-05
vn 0.9999896 8.452806E-06 -0.004565555
vn -4.261063E-07 -1.478554E-07 -1
vn -4.261063E-07 -1.478554E-07 -1
vn -1.307047E-07 1 0
vn -1.307047E-07 1 0
vn 0.867765 -0.4969747 -4.94422E-07
vn 0.867765 -0.4969747 -4.94422E-07
vn 0.867765 -0.4969747 -4.94422E-07
vn 0.867765 -0.4969747 -4.94422E-07
vn -4.375898E-07 0 -1
vn -4.424039E-07 0 -1
vn -0.869385 0.4941354 1.323278E-07
vn -4.372397E-07 0 -1
vn -0.7401415 -0.4231431 -0.5226283
vn -4.424039E-07 0 -1
vn -4.468677E-07 0 -1
vn -0.869385 0.4941354 1.323278E-07
vn -0.8693851 0.4941352 3.269925E-06
vn -0.8693851 0.4941352 3.257802E-06
vn -0.8693851 0.4941351 4.838723E-06
vn -0.9748369 -0.2226544 0.01086767
vn -4.375898E-07 0 -1
vn -0.8693851 0.4941351 3.29417E-06
vn -4.372397E-07 0 -1
vn -0.8693851 0.4941351 3.29417E-06
vn -4.307118E-07 0.5606228 -0.8280714
vn 0.999427 0.03377106 -0.002302529
vn 0.867765 -0.4969747 6.780576E-07
vn 0.867765 -0.4969747 6.780576E-07
vn 0.867765 -0.4969747 6.780576E-07
vn 0.867765 -0.4969747 6.780576E-07
vn -4.419946E-07 0 -1
vn -0.5439987 0.6599917 -0.5181471
vn -4.69972E-07 0 -1
vn -4.419946E-07 0 -1
vn -0.8693851 0.4941352 5.462937E-06
vn -0.8693851 0.4941352 3.012771E-06
vn -4.861502E-07 0 -1
vn -0.8693849 0.4941355 4.953449E-07
vn -4.618829E-07 0 -1
vn -4.839607E-07 0 -1
vn -0.8693851 0.4941352 3.01277E-06
vn -0.869385 0.4941353 -6.961091E-07
vn 0.9396941 0.3420162 -1.916929E-06
vn 0.9383256 -5.127678E-07 0.3457529
vn 1 -4.857877E-07 -9.256698E-07
vn 0.8817381 0.3209251 0.3457525
vn 0.7660426 0.6427898 -1.462083E-06
vn 0.4430529 -4.374659E-07 0.8964955
vn 0.718797 0.6031458 0.3457542
vn 0.5000003 0.8660253 -2.848826E-07
vn 0.4163312 0.1515322 0.8964968
vn 0.6632922 -9.419825E-07 0.7483605
vn 0.4691634 0.8126132 0.3457535
vn 0.1736477 0.9848078 0
vn 0.3393937 0.2847878 0.8964975
vn 0.6232968 0.2268551 0.7483568
vn 1 -1.150446E-06 -5.697648E-07
vn 0.9396955 0.3420123 2.506545E-06
vn 0.508111 0.4263445 0.7483672
vn 0.7660514 0.6427793 4.863224E-06
vn 0.1629386 0.9240702 0.345753
vn -0.173648 0.9848078 0
vn 0.2215253 0.3836924 0.8964968
vn 0.3316415 0.574428 0.7483624
vn 0.4999951 0.8660283 1.972862E-06
vn -0.1629385 0.9240701 0.3457534
vn -0.5000007 0.8660251 2.848827E-07
vn 0.07693572 0.4363205 0.8964961
vn 0.1151739 0.6532185 0.7483586
vn 0.1736389 0.9848093 0
vn -0.4691628 0.8126137 0.3457533
vn -0.7660432 0.642789 4.364645E-07
vn -0.07693503 0.4363205 0.8964962
vn -0.1151754 0.6532172 0.7483594
vn -0.1736425 0.9848087 -7.261775E-07
vn -0.7187978 0.6031454 0.3457534
vn -0.939694 0.3420163 5.354045E-07
vn -0.2215239 0.3836923 0.8964972
vn -0.331647 0.5744245 0.7483628
vn -0.5000027 0.8660238 -1.212946E-06
vn -0.8817391 0.3209228 0.3457525
vn -1 -5.738086E-07 5.697648E-07
vn -0.3393985 0.2847894 0.8964952
vn -0.5081162 0.4263544 0.7483581
vn -0.7660485 0.6427828 -2.362436E-07
vn -0.9383252 -5.284524E-07 0.3457537
vn -0.9396938 -0.342017 5.354045E-07
vn -0.4163311 0.1515306 0.8964971
vn -0.6232889 0.2268609 0.7483616
vn -0.9396916 0.3420231 5.354032E-07
vn -0.8817379 -0.3209245 0.3457539
vn -0.7660431 -0.6427892 4.364644E-07
vn -0.4430523 -3.416259E-07 0.8964957
vn -0.6632913 -9.748086E-07 0.7483612
vn -1 -1.421488E-06 5.697648E-07
vn -0.7187971 -0.6031452 0.3457552
vn -0.5000005 -0.8660251 2.848827E-07
vn -0.4163306 -0.1515328 0.8964968
vn -0.6232888 -0.226862 0.7483615
vn -0.9396909 -0.3420246 5.354029E-07
vn -0.4691632 -0.812613 0.3457542
vn -0.1736477 -0.9848078 0
vn -0.3393934 -0.2847875 0.8964977
vn -0.5081146 -0.4263557 0.7483584
vn -0.7660468 -0.6427848 4.364666E-07
vn -0.1629383 -0.9240701 0.3457536
vn 0.1736479 -0.9848078 0
vn -0.2215253 -0.383692 0.8964971
vn -0.3316473 -0.5744239 0.748363
vn -0.5000035 -0.8660234 2.848845E-07
vn 0.1629385 -0.9240704 0.3457527
vn 0.5000006 -0.8660251 -2.848827E-07
vn -0.0769354 -0.4363203 0.8964963
vn -0.1151779 -0.6532164 0.7483598
vn -0.1736454 -0.9848083 0
vn 0.469163 -0.8126142 0.3457518
vn 0.7660432 -0.6427891 -4.364644E-07
vn 0.07693549 -0.4363205 0.8964962
vn 0.1151784 -0.6532164 0.7483596
vn 0.1736457 -0.9848082 0
vn 0.7187985 -0.6031453 0.3457521
vn 0.9396938 -0.3420168 -5.354044E-07
vn 0.2215247 -0.3836943 0.8964962
vn 0.33164 -0.574434 0.7483585
vn 0.4999889 -0.8660319 -2.84876E-07
vn 0.8817393 -0.320923 0.3457515
vn 1 -4.857877E-07 -9.256698E-07
vn 0.9383256 -5.127678E-07 0.3457529
vn 0.3393999 -0.28479 0.8964944
vn 0.5081096 -0.4263455 0.7483677
vn 0.7660509 -0.6427798 -4.364688E-07
vn 0.4163316 -0.1515303 0.8964968
vn 0.4430529 -4.374659E-07 0.8964955
vn 0.6233009 -0.2268492 0.7483553
vn 0.9396992 -0.3420022 -5.354075E-07
vn 0.6632922 -9.419825E-07 0.7483605
vn 1 -1.150446E-06 -5.697648E-07
vn -0.9396942 0.342016 1.91693E-06
vn -0.9383256 -7.84753E-07 -0.3457529
vn -1 -7.664624E-07 9.256698E-07
vn -0.8817383 0.3209249 -0.3457526
vn -0.7660428 0.6427895 1.462083E-06
vn -0.443053 -7.175074E-07 -0.8964954
vn -0.7187973 0.6031454 -0.3457541
vn -0.5000007 0.8660251 2.848827E-07
vn -0.4163313 0.151532 -0.8964968
vn -0.6632921 -1.33261E-06 -0.7483606
vn -0.4691638 0.8126131 -0.3457535
vn -0.173648 0.9848078 0
vn -0.3393939 0.2847878 -0.8964975
vn -0.6232971 0.2268549 -0.7483566
vn -1 -1.498549E-06 5.697648E-07
vn -0.9396956 0.3420121 -2.505788E-06
vn -0.5081112 0.4263443 -0.7483672
vn -0.7660515 0.6427791 -4.862467E-06
vn -0.1629389 0.9240702 -0.3457531
vn 0.1736477 0.9848078 0
vn -0.2215257 0.3836922 -0.8964968
vn -0.331642 0.5744278 -0.7483623
vn -0.4999952 0.8660282 -1.972862E-06
vn 0.1629382 0.9240701 -0.3457535
vn 0.5000004 0.8660253 -2.848827E-07
vn -0.07693584 0.4363205 -0.8964962
vn -0.115174 0.6532185 -0.7483585
vn -0.1736392 0.9848093 0
vn 0.4691626 0.8126138 -0.3457532
vn 0.7660431 0.6427892 -4.364645E-07
vn 0.07693484 0.4363205 -0.8964962
vn 0.115175 0.653217 -0.7483597
vn 0.1736423 0.9848087 7.261775E-07
vn 0.7187975 0.6031455 -0.3457535
vn 0.9396939 0.3420166 -5.354046E-07
vn 0.2215236 0.3836923 -0.8964973
vn 0.3316467 0.5744249 -0.7483627
vn 0.5000025 0.8660239 1.212946E-06
vn 0.881739 0.3209229 -0.3457527
vn 1 -2.931338E-07 -5.697648E-07
vn 0.3393984 0.2847894 -0.8964952
vn 0.5081161 0.4263544 -0.7483581
vn 0.7660483 0.642783 2.362436E-07
vn 0.9383252 -3.365612E-07 -0.3457537
vn 0.9396939 -0.3420168 -5.354046E-07
vn 0.4163308 0.1515305 -0.8964971
vn 0.623289 0.2268609 -0.7483616
vn 0.9396915 0.3420233 -5.354032E-07
vn 0.8817379 -0.3209243 -0.3457541
vn 0.7660432 -0.6427889 -4.364645E-07
vn 0.4430521 -4.848651E-07 -0.8964959
vn 0.6632911 -1.146441E-06 -0.7483615
vn 1 -1.208242E-06 -5.697648E-07
vn 0.7187972 -0.6031449 -0.3457554
vn 0.5000007 -0.8660251 -2.848827E-07
vn 0.4163303 -0.1515328 -0.8964971
vn 0.6232888 -0.226862 -0.7483614
vn 0.9396911 -0.3420244 -5.354029E-07
vn 0.4691634 -0.8126128 -0.3457542
vn 0.1736479 -0.9848078 0
vn 0.3393933 -0.2847874 -0.8964978
vn 0.5081148 -0.4263555 -0.7483585
vn 0.7660469 -0.6427846 -4.364666E-07
vn 0.1629385 -0.9240701 -0.3457536
vn -0.1736477 -0.9848078 0
vn 0.2215254 -0.3836917 -0.8964971
vn 0.3316477 -0.5744237 -0.7483631
vn 0.5000036 -0.8660233 -2.848844E-07
vn -0.1629383 -0.9240704 -0.3457527
vn -0.5000004 -0.8660253 2.848827E-07
vn 0.07693533 -0.4363202 -0.8964963
vn 0.115178 -0.6532165 -0.7483597
vn 0.1736457 -0.9848082 0
vn -0.4691627 -0.8126143 -0.3457518
vn -0.7660431 -0.6427893 4.364644E-07
vn -0.07693563 -0.4363205 -0.8964961
vn -0.1151784 -0.6532164 -0.7483596
vn -0.1736452 -0.9848083 0
vn -0.7187984 -0.6031455 -0.345752
vn -0.9396938 -0.342017 5.354045E-07
vn -0.2215247 -0.3836945 -0.8964962
vn -0.3316398 -0.5744343 -0.7483583
vn -0.4999886 -0.8660319 2.84876E-07
vn -0.8817393 -0.3209231 -0.3457515
vn -1 -7.664624E-07 9.256698E-07
vn -0.9383256 -7.84753E-07 -0.3457529
vn -0.3393999 -0.28479 -0.8964944
vn -0.5081096 -0.4263455 -0.7483677
vn -0.7660508 -0.6427801 4.364689E-07
vn -0.4163317 -0.1515302 -0.8964968
vn -0.443053 -7.175074E-07 -0.8964954
vn -0.6233011 -0.2268491 -0.748355
vn -0.9396991 -0.3420025 5.354075E-07
vn -0.6632921 -1.33261E-06 -0.7483606
vn -1 -1.498549E-06 5.697648E-07
f 1/1/1 2/2/2 3/3/3
f 4/4/4 5/5/5 3/3/3
f 6/6/6 7/7/7 8/8/8
f 6/6/6 9/9/9 7/7/7
f 7/7/7 9/9/9 10/10/10
f 9/9/9 6/6/6 11/11/11
f 9/9/9 11/11/11 12/12/12
f 13/13/13 9/9/9 12/12/12
f 7/7/7 10/10/10 14/14/14
f 7/7/7 14/14/14 15/15/15
f 14/14/14 10/10/10 16/16/16
f 16/16/16 10/10/10 17/17/17
f 9/9/9 18/18/18 10/10/10
f 9/9/9 19/19/19 18/18/18
f 19/19/19 20/20/20 18/18/18
f 19/19/19 21/21/21 20/20/20
f 20/20/20 22/22/22 18/18/18
f 21/21/21 19/19/19 23/23/23
f 24/24/24 18/18/18 22/22/22
f 25/25/25 17/17/17 10/10/10
f 25/25/25 26/26/26 17/17/17
f 25/25/25 27/27/27 26/26/26
f 28/28/28 25/25/25 10/10/10
f 28/28/28 10/10/10 18/18/18
f 25/25/25 29/29/29 27/27/27
f 28/28/28 29/29/29 25/25/25
f 30/30/30 27/27/27 29/29/29
f 30/30/30 29/29/29 31/31/31
f 28/28/28 32/32/32 29/29/29
f 28/28/28 33/33/33 32/32/32
f 34/34/34 32/32/32 33/33/33
f 34/34/34 33/33/33 35/35/35
f 36/36/36 33/33/33 28/28/28
f 36/36/36 28/28/28 18/18/18
f 36/36/36 37/37/37 33/33/33
f 36/36/36 38/38/38 37/37/37
f 39/39/39 37/37/37 38/38/38
f 36/36/36 18/18/18 40/40/40
f 18/18/18 41/41/41 40/40/40
f 40/40/40 41/41/41 42/42/42
f 18/18/18 24/24/24 41/41/41
f 41/41/41 24/24/24 43/43/43
f 41/41/41 43/43/43 44/44/44
f 45/45/45 46/46/46 47/47/47
f 48/48/48 45/45/45 47/47/47
f 48/48/48 49/49/49 45/45/45
f 50/50/50 45/45/45 49/49/49
f 50/50/50 51/51/51 45/45/45
f 48/48/48 52/52/52 49/49/49
f 53/53/53 52/52/52 48/48/48
f 52/52/52 53/53/53 54/54/54
f 52/52/52 54/54/54 55/55/55
f 56/56/56 57/57/57 58/58/58
f 56/56/56 58/58/58 59/59/59
f 56/56/56 59/59/59 60/60/60
f 56/56/56 60/60/60 61/61/61
f 62/62/62 56/56/56 61/61/61
f 63/63/63 56/56/56 62/62/62
f 63/63/63 62/62/62 64/64/64
f 65/65/65 62/62/62 61/61/61
f 59/59/59 66/66/66 60/60/60
f 59/59/59 67/67/67 66/66/66
f 59/59/59 68/68/68 67/67/67
f 69/69/69 60/60/60 66/66/66
f 69/69/69 66/66/66 70/70/70
f 69/69/69 70/70/70 71/71/71
f 72/72/72 71/71/71 70/70/70
f 72/72/72 70/70/70 73/73/73
f 71/71/71 72/72/72 74/74/74
f 75/75/75 69/69/69 71/71/71
f 60/60/60 69/69/69 75/75/75
f 71/71/71 74/74/74 76/76/76
f 75/75/75 71/71/71 76/76/76
f 77/77/77 76/76/76 74/74/74
f 77/77/77 78/78/78 76/76/76
f 76/76/76 78/78/78 75/75/75
f 60/60/60 75/75/75 79/79/79
f 79/79/79 75/75/75 80/80/80
f 60/60/60 79/79/79 81/81/81
f 60/60/60 81/81/81 61/61/61
f 79/79/79 80/80/80 82/82/82
f 82/82/82 83/83/83 79/79/79
f 83/83/83 81/81/81 79/79/79
f 80/80/80 84/84/84 82/82/82
f 84/84/84 83/83/83 82/82/82
f 80/80/80 85/85/85 84/84/84
f 83/83/83 84/84/84 86/86/86
f 83/83/83 86/86/86 81/81/81
f 86/86/86 84/84/84 87/87/87
f 81/81/81 86/86/86 88/88/88
f 86/86/86 87/87/87 88/88/88
f 61/61/61 81/81/81 89/89/89
f 81/81/81 88/88/88 89/89/89
f 88/88/88 87/87/87 90/90/90
f 89/89/89 88/88/88 90/90/90
f 91/91/91 90/90/90 87/87/87
f 91/91/91 65/65/65 90/90/90
f 65/65/65 61/61/61 92/92/92
f 61/61/61 89/89/89 92/92/92
f 90/90/90 65/65/65 92/92/92
f 89/89/89 90/90/90 92/92/92
f 93/93/93 94/94/94 95/95/95
f 93/93/93 95/95/95 96/96/96
f 97/97/97 93/93/93 96/96/96
f 96/96/96 98/98/98 97/97/97
f 96/96/96 99/99/99 98/98/98
f 96/96/96 100/100/100 99/99/99
f 101/101/101 97/97/97 98/98/98
f 101/101/101 98/98/98 102/102/102
f 97/97/97 103/103/103 93/93/93
f 97/97/97 104/104/104 103/103/103
f 97/97/97 101/101/101 105/105/105
f 97/97/97 105/105/105 104/104/104
f 106/106/106 105/105/105 101/101/101
f 93/93/93 103/103/103 107/107/107
f 108/108/108 93/93/93 107/107/107
f 108/108/108 107/107/107 109/109/109
f 103/103/103 110/110/110 107/107/107
f 103/103/103 111/111/111 110/110/110
f 103/103/103 104/104/104 112/112/112
f 103/103/103 112/112/112 111/111/111
f 111/111/111 112/112/112 113/113/113
f 113/113/113 112/112/112 104/104/104
f 113/113/113 104/104/104 114/114/114
f 115/115/115 114/114/114 106/106/106
f 111/111/111 113/113/113 116/116/116
f 116/116/116 117/117/117 111/111/111
f 106/106/106 101/101/101 118/118/118
f 101/101/101 119/119/119 118/118/118
f 120/120/120 113/113/113 114/114/114
f 116/116/116 113/113/113 120/120/120
f 114/114/114 104/104/104 121/121/121
f 104/104/104 122/122/122 121/121/121
f 104/104/104 105/105/105 122/122/122
f 123/123/123 121/121/121 122/122/122
f 114/114/114 121/121/121 123/123/123
f 106/106/106 114/114/114 123/123/123
f 124/124/124 122/122/122 105/105/105
f 123/123/123 122/122/122 124/124/124
f 124/124/124 105/105/105 106/106/106
f 106/106/106 123/123/123 124/124/124
f 125/125/125 106/106/106 118/118/118
f 115/115/115 106/106/106 125/125/125
f 120/120/120 114/114/114 126/126/126
f 126/126/126 114/114/114 115/115/115
f 116/116/116 120/120/120 127/127/127
f 128/128/128 116/116/116 127/127/127
f 128/128/128 129/129/129 116/116/116
f 127/127/127 130/130/130 128/128/128
f 120/120/120 130/130/130 127/127/127
f 126/126/126 131/131/131 120/120/120
f 120/120/120 131/131/131 130/130/130
f 130/130/130 131/131/131 132/132/132
f 130/130/130 132/132/132 133/133/133
f 131/131/131 134/134/134 132/132/132
f 126/126/126 135/135/135 131/131/131
f 131/131/131 135/135/135 134/134/134
f 135/135/135 126/126/126 115/115/115
f 135/135/135 136/136/136 134/134/134
f 135/135/135 137/137/137 136/136/136
f 135/135/135 115/115/115 137/137/137
f 137/137/137 138/138/138 136/136/136
f 137/137/137 115/115/115 139/139/139
f 137/137/137 139/139/139 138/138/138
f 115/115/115 140/140/140 139/139/139
f 138/138/138 139/139/139 140/140/140
f 138/138/138 140/140/140 141/141/141
f 140/140/140 115/115/115 125/125/125
f 141/141/141 140/140/140 142/142/142
f 140/140/140 125/125/125 142/142/142
f 141/141/141 142/142/142 143/143/143
f 142/142/142 144/144/144 143/143/143
f 142/142/142 125/125/125 145/145/145
f 142/142/142 145/145/145 144/144/144
f 145/145/145 125/125/125 118/118/118
f 145/145/145 146/146/146 144/144/144
f 145/145/145 118/118/118 147/147/147
f 145/145/145 147/147/147 146/146/146
f 148/148/148 147/147/147 118/118/118
f 149/149/149 146/146/146 147/147/147
f 148/148/148 149/149/149 147/147/147
f 150/150/150 151/151/151 152/152/152
f 13/13/13 152/152/152 151/151/151
f 13/13/13 151/151/151 153/153/153
f 13/13/13 153/153/153 9/9/9
f 153/153/153 151/151/151 154/154/154
f 153/153/153 155/155/155 9/9/9
f 19/19/19 9/9/9 155/155/155
f 153/153/153 156/156/156 155/155/155
f 153/153/153 154/154/154 156/156/156
f 156/156/156 19/19/19 155/155/155
f 156/156/156 154/154/154 157/157/157
f 158/158/158 157/157/157 154/154/154
f 158/158/158 154/154/154 159/159/159
f 156/156/156 157/157/157 160/160/160
f 156/156/156 160/160/160 19/19/19
f 160/160/160 157/157/157 161/161/161
f 160/160/160 162/162/162 19/19/19
f 23/23/23 19/19/19 162/162/162
f 163/163/163 23/23/23 162/162/162
f 160/160/160 164/164/164 162/162/162
f 164/164/164 163/163/163 162/162/162
f 160/160/160 161/161/161 164/164/164
f 164/164/164 165/165/165 163/163/163
f 164/164/164 166/166/166 165/165/165
f 164/164/164 161/161/161 166/166/166
f 167/167/167 166/166/166 161/161/161
f 167/167/167 161/161/161 168/168/168
f 169/169/169 170/170/170 171/171/171
f 169/169/169 171/171/171 172/172/172
f 173/173/173 172/172/172 171/171/171
f 173/173/173 174/174/174 172/172/172
f 175/175/175 174/174/174 173/173/173
f 175/175/175 176/176/176 174/174/174
f 177/177/177 178/178/178 179/179/179
f 177/177/177 180/180/180 178/178/178
f 178/178/178 180/180/180 181/181/181
f 182/182/182 181/181/181 180/180/180
f 182/182/182 180/180/180 183/183/183
f 181/181/181 184/184/184 178/178/178
f 184/184/184 185/185/185 178/178/178
f 182/182/182 186/186/186 181/181/181
f 181/181/181 186/186/186 184/184/184
f 184/184/184 186/186/186 187/187/187
f 182/182/182 187/187/187 186/186/186
f 188/188/188 185/185/185 184/184/184
f 184/184/184 187/187/187 188/188/188
f 185/185/185 188/188/188 189/189/189
f 185/185/185 189/189/189 190/190/190
f 190/190/190 189/189/189 191/191/191
f 190/190/190 191/191/191 192/192/192
f 191/191/191 193/193/193 192/192/192
f 189/189/189 194/194/194 191/191/191
f 191/191/191 194/194/194 193/193/193
f 195/195/195 192/192/192 193/193/193
f 196/196/196 192/192/192 195/195/195
f 196/196/196 195/195/195 197/197/197
f 193/193/193 198/198/198 195/195/195
f 199/199/199 193/193/193 194/194/194
f 193/193/193 199/199/199 198/198/198
f 189/189/189 200/200/200 194/194/194
f 199/199/199 194/194/194 200/200/200
f 201/201/201 198/198/198 199/199/199
f 201/201/201 202/202/202 198/198/198
f 201/201/201 203/203/203 202/202/202
f 204/204/204 202/202/202 203/203/203
f 204/204/204 203/203/203 205/205/205
f 206/206/206 204/204/204 205/205/205
f 207/207/207 206/206/206 205/205/205
f 207/207/207 205/205/205 208/208/208
f 209/209/209 207/207/207 208/208/208
f 210/210/210 205/205/205 203/203/203
f 210/210/210 208/208/208 205/205/205
f 211/211/211 210/210/210 203/203/203
f 211/211/211 203/203/203 201/201/201
f 212/212/212 208/208/208 210/210/210
f 211/211/211 201/201/201 213/213/213
f 199/199/199 213/213/213 201/201/201
f 213/213/213 214/214/214 211/211/211
f 215/215/215 211/211/211 214/214/214
f 212/212/212 216/216/216 208/208/208
f 209/209/209 208/208/208 216/216/216
f 216/216/216 212/212/212 217/217/217
f 218/218/218 209/209/209 216/216/216
f 216/216/216 217/217/217 218/218/218
f 219/219/219 209/209/209 218/218/218
f 220/220/220 219/219/219 218/218/218
f 218/218/218 217/217/217 221/221/221
f 220/220/220 218/218/218 221/221/221
f 221/221/221 217/217/217 211/211/211
f 199/199/199 222/222/222 213/213/213
f 199/199/199 200/200/200 222/222/222
f 223/223/223 220/220/220 221/221/221
f 223/223/223 224/224/224 220/220/220
f 221/221/221 225/225/225 223/223/223
f 225/225/225 224/224/224 223/223/223
f 221/221/221 211/211/211 225/225/225
f 225/225/225 226/226/226 224/224/224
f 211/211/211 226/226/226 225/225/225
f 211/211/211 227/227/227 226/226/226
f 228/228/228 227/227/227 211/211/211
f 228/228/228 211/211/211 229/229/229
f 229/229/229 211/211/211 215/215/215
f 215/215/215 228/228/228 229/229/229
f 215/215/215 230/230/230 228/228/228
f 231/231/231 230/230/230 215/215/215
f 231/231/231 215/215/215 232/232/232
f 232/232/232 233/233/233 231/231/231
f 183/183/183 233/233/233 232/232/232
f 215/215/215 214/214/214 232/232/232
f 183/183/183 232/232/232 214/214/214
f 183/183/183 214/214/214 182/182/182
f 213/213/213 182/182/182 214/214/214
f 213/213/213 222/222/222 182/182/182
f 222/222/222 187/187/187 182/182/182
f 222/222/222 200/200/200 187/187/187
f 187/187/187 200/200/200 234/234/234
f 187/187/187 234/234/234 235/235/235
f 188/188/188 187/187/187 235/235/235
f 188/188/188 235/235/235 236/236/236
f 236/236/236 235/235/235 234/234/234
f 189/189/189 188/188/188 236/236/236
f 237/237/237 234/234/234 200/200/200
f 237/237/237 200/200/200 189/189/189
f 236/236/236 234/234/234 237/237/237
f 189/189/189 236/236/236 237/237/237
f 238/238/238 239/239/239 240/240/240
f 238/238/238 240/240/240 241/241/241
f 242/242/242 238/238/238 241/241/241
f 242/242/242 243/243/243 238/238/238
f 243/243/243 244/244/244 238/238/238
f 241/241/241 245/245/245 242/242/242
f 241/241/241 246/246/246 245/245/245
f 242/242/242 247/247/247 243/243/243
f 243/243/243 248/248/248 244/244/244
f 243/243/243 247/247/247 248/248/248
f 248/248/248 249/249/249 244/244/244
f 248/248/248 247/247/247 249/249/249
f 250/250/250 244/244/244 249/249/249
f 250/250/250 251/251/251 244/244/244
f 252/252/252 251/251/251 250/250/250
f 246/246/246 253/253/253 252/252/252
f 249/249/249 247/247/247 254/254/254
f 242/242/242 254/254/254 247/247/247
f 249/249/249 254/254/254 250/250/250
f 246/246/246 252/252/252 255/255/255
f 255/255/255 245/245/245 246/246/246
f 255/255/255 252/252/252 250/250/250
f 242/242/242 256/256/256 254/254/254
f 242/242/242 245/245/245 256/256/256
f 250/250/250 254/254/254 256/256/256
f 245/245/245 255/255/255 257/257/257
f 255/255/255 250/250/250 257/257/257
f 250/250/250 256/256/256 257/257/257
f 245/245/245 257/257/257 256/256/256
f 258/258/258 259/259/259 260/260/260
f 258/258/258 260/260/260 261/261/261
f 261/261/261 260/260/260 262/262/262
f 261/261/261 262/262/262 263/263/263
f 261/261/261 264/264/264 258/258/258
f 264/264/264 261/261/261 263/263/263
f 265/265/265 258/258/258 264/264/264
f 264/264/264 263/263/263 266/266/266
f 265/265/265 264/264/264 267/267/267
f 266/266/266 267/267/267 264/264/264
f 267/267/267 268/268/268 265/265/265
f 268/268/268 269/269/269 265/265/265
f 270/270/270 266/266/266 263/263/263
f 270/270/270 263/263/263 271/271/271
f 266/266/266 272/272/272 267/267/267
f 267/267/267 272/272/272 268/268/268
f 266/266/266 273/273/273 272/272/272
f 266/266/266 270/270/270 273/273/273
f 268/268/268 272/272/272 273/273/273
f 274/274/274 269/269/269 268/268/268
f 268/268/268 273/273/273 274/274/274
f 274/274/274 273/273/273 270/270/270
f 274/274/274 270/270/270 271/271/271
f 274/274/274 275/275/275 269/269/269
f 271/271/271 275/275/275 274/274/274
f 276/276/276 277/277/277 278/278/278
f 276/276/276 279/279/279 277/277/277
f 280/280/280 279/279/279 276/276/276
f 279/279/279 281/281/281 277/277/277
f 280/280/280 282/282/282 279/279/279
f 283/283/283 282/282/282 280/280/280
f 279/279/279 284/284/284 281/281/281
f 282/282/282 284/284/284 279/279/279
f 284/284/284 285/285/285 281/281/281
f 283/283/283 286/286/286 282/282/282
f 287/287/287 286/286/286 283/283/283
f 282/282/282 288/288/288 284/284/284
f 286/286/286 288/288/288 282/282/282
f 284/284/284 289/289/289 285/285/285
f 288/288/288 289/289/289 284/284/284
f 289/289/289 290/290/290 285/285/285
f 289/289/289 291/291/291 290/290/290
f 292/292/292 291/291/291 289/289/289
f 288/288/288 292/292/292 289/289/289
f 292/292/292 293/293/293 291/291/291
f 287/287/287 294/294/294 286/286/286
f 295/295/295 294/294/294 287/287/287
f 286/286/286 296/296/296 288/288/288
f 296/296/296 292/292/292 288/288/288
f 294/294/294 296/296/296 286/286/286
f 297/297/297 293/293/293 292/292/292
f 296/296/296 297/297/297 292/292/292
f 297/297/297 298/298/298 293/293/293
f 295/295/295 299/299/299 294/294/294
f 300/300/300 299/299/299 295/295/295
f 294/294/294 301/301/301 296/296/296
f 301/301/301 297/297/297 296/296/296
f 299/299/299 301/301/301 294/294/294
f 302/302/302 298/298/298 297/297/297
f 301/301/301 302/302/302 297/297/297
f 302/302/302 303/303/303 298/298/298
f 300/300/300 304/304/304 299/299/299
f 305/305/305 304/304/304 300/300/300
f 299/299/299 306/306/306 301/301/301
f 306/306/306 302/302/302 301/301/301
f 304/304/304 306/306/306 299/299/299
f 307/307/307 303/303/303 302/302/302
f 306/306/306 307/307/307 302/302/302
f 307/307/307 308/308/308 303/303/303
f 305/305/305 309/309/309 304/304/304
f 310/310/310 309/309/309 305/305/305
f 304/304/304 311/311/311 306/306/306
f 311/311/311 307/307/307 306/306/306
f 309/309/309 311/311/311 304/304/304
f 312/312/312 308/308/308 307/307/307
f 311/311/311 312/312/312 307/307/307
f 312/312/312 313/313/313 308/308/308
f 310/310/310 314/314/314 309/309/309
f 315/315/315 314/314/314 310/310/310
f 309/309/309 316/316/316 311/311/311
f 316/316/316 312/312/312 311/311/311
f 314/314/314 316/316/316 309/309/309
f 317/317/317 313/313/313 312/312/312
f 316/316/316 317/317/317 312/312/312
f 317/317/317 318/318/318 313/313/313
f 315/315/315 319/319/319 314/314/314
f 320/320/320 319/319/319 315/315/315
f 314/314/314 321/321/321 316/316/316
f 321/321/321 317/317/317 316/316/316
f 319/319/319 321/321/321 314/314/314
f 322/322/322 318/318/318 317/317/317
f 321/321/321 322/322/322 317/317/317
f 322/322/322 323/323/323 318/318/318
f 320/320/320 324/324/324 319/319/319
f 325/325/325 324/324/324 320/320/320
f 319/319/319 326/326/326 321/321/321
f 326/326/326 322/322/322 321/321/321
f 324/324/324 326/326/326 319/319/319
f 327/327/327 323/323/323 322/322/322
f 326/326/326 327/327/327 322/322/322
f 327/327/327 328/328/328 323/323/323
f 325/325/325 329/329/329 324/324/324
f 330/330/330 329/329/329 325/325/325
f 324/324/324 331/331/331 326/326/326
f 331/331/331 327/327/327 326/326/326
f 329/329/329 331/331/331 324/324/324
f 332/332/332 328/328/328 327/327/327
f 331/331/331 332/332/332 327/327/327
f 332/332/332 333/333/333 328/328/328
f 330/330/330 334/334/334 329/329/329
f 335/335/335 334/334/334 330/330/330
f 329/329/329 336/336/336 331/331/331
f 336/336/336 332/332/332 331/331/331
f 334/334/334 336/336/336 329/329/329
f 337/337/337 333/333/333 332/332/332
f 336/336/336 337/337/337 332/332/332
f 337/337/337 338/338/338 333/333/333
f 335/335/335 339/339/339 334/334/334
f 340/340/340 339/339/339 335/335/335
f 334/334/334 341/341/341 336/336/336
f 341/341/341 337/337/337 336/336/336
f 339/339/339 341/341/341 334/334/334
f 342/342/342 338/338/338 337/337/337
f 341/341/341 342/342/342 337/337/337
f 342/342/342 343/343/343 338/338/338
f 340/340/340 344/344/344 339/339/339
f 345/345/345 344/344/344 340/340/340
f 339/339/339 346/346/346 341/341/341
f 346/346/346 342/342/342 341/341/341
f 344/344/344 346/346/346 339/339/339
f 347/347/347 343/343/343 342/342/342
f 346/346/346 347/347/347 342/342/342
f 347/347/347 348/348/348 343/343/343
f 345/345/345 349/349/349 344/344/344
f 350/350/350 349/349/349 345/345/345
f 344/344/344 351/351/351 346/346/346
f 351/351/351 347/347/347 346/346/346
f 349/349/349 351/351/351 344/344/344
f 352/352/352 348/348/348 347/347/347
f 351/351/351 352/352/352 347/347/347
f 352/352/352 353/353/353 348/348/348
f 350/350/350 354/354/354 349/349/349
f 355/355/355 354/354/354 350/350/350
f 349/349/349 356/356/356 351/351/351
f 356/356/356 352/352/352 351/351/351
f 354/354/354 356/356/356 349/349/349
f 357/357/357 353/353/353 352/352/352
f 356/356/356 357/357/357 352/352/352
f 357/357/357 358/358/358 353/353/353
f 355/355/355 359/359/359 354/354/354
f 360/360/360 359/359/359 355/355/355
f 360/360/360 361/361/361 359/359/359
f 354/354/354 362/362/362 356/356/356
f 362/362/362 357/357/357 356/356/356
f 359/359/359 362/362/362 354/354/354
f 363/363/363 358/358/358 357/357/357
f 362/362/362 363/363/363 357/357/357
f 363/363/363 364/364/364 358/358/358
f 361/361/361 365/365/365 359/359/359
f 359/359/359 365/365/365 362/362/362
f 365/365/365 363/363/363 362/362/362
f 361/361/361 366/366/366 365/365/365
f 367/367/367 364/364/364 363/363/363
f 365/365/365 367/367/367 363/363/363
f 366/366/366 367/367/367 365/365/365
f 367/367/367 368/368/368 364/364/364
f 366/366/366 369/369/369 367/367/367
f 369/369/369 368/368/368 367/367/367
f 369/369/369 370/370/370 368/368/368
f 371/371/371 372/372/372 373/373/373
f 371/371/371 374/374/374 372/372/372
f 375/375/375 374/374/374 371/371/371
f 374/374/374 376/376/376 372/372/372
f 375/375/375 377/377/377 374/374/374
f 378/378/378 377/377/377 375/375/375
f 374/374/374 379/379/379 376/376/376
f 377/377/377 379/379/379 374/374/374
f 379/379/379 380/380/380 376/376/376
f 378/378/378 381/381/381 377/377/377
f 382/382/382 381/381/381 378/378/378
f 377/377/377 383/383/383 379/379/379
f 381/381/381 383/383/383 377/377/377
f 379/379/379 384/384/384 380/380/380
f 383/383/383 384/384/384 379/379/379
f 384/384/384 385/385/385 380/380/380
f 384/384/384 386/386/386 385/385/385
f 387/387/387 386/386/386 384/384/384
f 383/383/383 387/387/387 384/384/384
f 387/387/387 388/388/388 386/386/386
f 382/382/382 389/389/389 381/381/381
f 390/390/390 389/389/389 382/382/382
f 381/381/381 391/391/391 383/383/383
f 391/391/391 387/387/387 383/383/383
f 389/389/389 391/391/391 381/381/381
f 392/392/392 388/388/388 387/387/387
f 391/391/391 392/392/392 387/387/387
f 392/392/392 393/393/393 388/388/388
f 390/390/390 394/394/394 389/389/389
f 395/395/395 394/394/394 390/390/390
f 389/389/389 396/396/396 391/391/391
f 396/396/396 392/392/392 391/391/391
f 394/394/394 396/396/396 389/389/389
f 397/397/397 393/393/393 392/392/392
f 396/396/396 397/397/397 392/392/392
f 397/397/397 398/398/398 393/393/393
f 395/395/395 399/399/399 394/394/394
f 400/400/400 399/399/399 395/395/395
f 394/394/394 401/401/401 396/396/396
f 401/401/401 397/397/397 396/396/396
f 399/399/399 401/401/401 394/394/394
f 402/402/402 398/398/398 397/397/397
f 401/401/401 402/402/402 397/397/397
f 402/402/402 403/403/403 398/398/398
f 400/400/400 404/404/404 399/399/399
f 405/405/405 404/404/404 400/400/400
f 399/399/399 406/406/406 401/401/401
f 406/406/406 402/402/402 401/401/401
f 404/404/404 406/406/406 399/399/399
f 407/407/407 403/403/403 402/402/402
f 406/406/406 407/407/407 402/402/402
f 407/407/407 408/408/408 403/403/403
f 405/405/405 409/409/409 404/404/404
f 410/410/410 409/409/409 405/405/405
f 404/404/404 411/411/411 406/406/406
f 411/411/411 407/407/407 406/406/406
f 409/409/409 411/411/411 404/404/404
f 412/412/412 408/408/408 407/407/407
f 411/411/411 412/412/412 407/407/407
f 412/412/412 413/413/413 408/408/408
f 410/410/410 414/414/414 409/409/409
f 415/415/415 414/414/414 410/410/410
f 409/409/409 416/416/416 411/411/411
f 416/416/416 412/412/412 411/411/411
f 414/414/414 416/416/416 409/409/409
f 417/417/417 413/413/413 412/412/412
f 416/416/416 417/417/417 412/412/412
f 417/417/417 418/418/418 413/413/413
f 415/415/415 419/419/419 414/414/414
f 420/420/420 419/419/419 415/415/415
f 414/414/414 421/421/421 416/416/416
f 421/421/421 417/417/417 416/416/416
f 419/419/419 421/421/421 414/414/414
f 422/422/422 418/418/418 417/417/417
f 421/421/421 422/422/422 417/417/417
f 422/422/422 423/423/423 418/418/418
f 420/420/420 424/424/424 419/419/419
f 425/425/425 424/424/424 420/420/420
f 419/419/419 426/426/426 421/421/421
f 426/426/426 422/422/422 421/421/421
f 424/424/424 426/426/426 419/419/419
f 427/427/427 423/423/423 422/422/422
f 426/426/426 427/427/427 422/422/422
f 427/427/427 428/428/428 423/423/423
f 425/425/425 429/429/429 424/424/424
f 430/430/430 429/429/429 425/425/425
f 424/424/424 431/431/431 426/426/426
f 431/431/431 427/427/427 426/426/426
f 429/429/429 431/431/431 424/424/424
f 432/432/432 428/428/428 427/427/427
f 431/431/431 432/432/432 427/427/427
f 432/432/432 433/433/433 428/428/428
f 430/430/430 434/434/434 429/429/429
f 435/435/435 434/434/434 430/430/430
f 429/429/429 436/436/436 431/431/431
f 436/436/436 432/432/432 431/431/431
f 434/434/434 436/436/436 429/429/429
f 437/437/437 433/433/433 432/432/432
f 436/436/436 437/437/437 432/432/432
f 437/437/437 438/438/438 433/433/433
f 435/435/435 439/439/439 434/434/434
f 440/440/440 439/439/439 435/435/435
f 434/434/434 441/441/441 436/436/436
f 441/441/441 437/437/437 436/436/436
f 439/439/439 441/441/441 434/434/434
f 442/442/442 438/438/438 437/437/437
f 441/441/441 442/442/442 437/437/437
f 442/442/442 443/443/443 438/438/438
f 440/440/440 444/444/444 439/439/439
f 445/445/445 444/444/444 440/440/440
f 439/439/439 446/446/446 441/441/441
f 446/446/446 442/442/442 441/441/441
f 444/444/444 446/446/446 439/439/439
f 447/447/447 443/443/443 442/442/442
f 446/446/446 447/447/447 442/442/442
f 447/447/447 448/448/448 443/443/443
f 445/445/445 449/449/449 444/444/444
f 450/450/450 449/449/449 445/445/445
f 444/444/444 451/451/451 446/446/446
f 451/451/451 447/447/447 446/446/446
f 449/449/449 451/451/451 444/444/444
f 452/452/452 448/448/448 447/447/447
f 451/451/451 452/452/452 447/447/447
f 452/452/452 453/453/453 448/448/448
f 450/450/450 454/454/454 449/449/449
f 455/455/455 454/454/454 450/450/450
f 455/455/455 456/456/456 454/454/454
f 449/449/449 457/457/457 451/451/451
f 457/457/457 452/452/452 451/451/451
f 454/454/454 457/457/457 449/449/449
f 458/458/458 453/453/453 452/452/452
f 457/457/457 458/458/458 452/452/452
f 458/458/458 459/459/459 453/453/453
f 456/456/456 460/460/460 454/454/454
f 454/454/454 460/460/460 457/457/457
f 460/460/460 458/458/458 457/457/457
f 456/456/456 461/461/461 460/460/460
f 462/462/462 459/459/459 458/458/458
f 460/460/460 462/462/462 458/458/458
f 461/461/461 462/462/462 460/460/460
f 462/462/462 463/463/463 459/459/459
f 461/461/461 464/464/464 462/462/462
f 464/464/464 463/463/463 462/462/462
f 464/464/464 465/465/465 463/463/463
