v -0.05242384 2.021656 0.510727
v -0.04924414 2.02144 0.5890515
v -0.05242383 2.021656 0.5890515
v -0.04924415 2.02144 0.510727
v -0.04611979 2.022069 0.5890515
v -0.0461198 2.022069 0.510727
v -0.04309964 2.023087 0.5890515
v -0.04309965 2.023087 0.510727
v -0.04045374 2.024863 0.5890515
v -0.04045375 2.024863 0.510727
v -0.03805292 2.026959 0.5890515
v -0.03805293 2.026959 0.510727
v -0.03628828 2.029613 0.5890515
v -0.03628829 2.029613 0.510727
v -0.03487229 2.032468 0.5890515
v -0.0348723 2.032468 0.510727
v -0.03425756 2.035595 0.5890515
v -0.03425758 2.035595 0.510727
v -0.03404197 2.038775 0.5890515
v -0.03404199 2.038775 0.510727
v -0.03467075 2.041899 0.5890515
v -0.03467077 2.041899 0.510727
v -0.03568839 2.04492 0.5890515
v -0.0356884 2.04492 0.510727
v -0.03746494 2.047565 0.5890515
v -0.03746495 2.047565 0.510727
v -0.03956087 2.049966 0.5890515
v -0.03956089 2.049966 0.510727
v -0.04221473 2.051731 0.5890515
v -0.04221474 2.051731 0.510727
v -0.04506988 2.053147 0.5890515
v -0.04506989 2.053147 0.510727
v -0.04819702 2.053762 0.5890515
v -0.04819704 2.053762 0.510727
v -0.05137672 2.053977 0.5890515
v -0.05137673 2.053977 0.510727
v -0.05450106 2.053349 0.5890515
v -0.05450108 2.053349 0.510727
v -0.05752121 2.052331 0.5890515
v -0.05752123 2.052331 0.510727
v -0.06016711 2.050554 0.5890515
v -0.06016713 2.050555 0.510727
v -0.06256793 2.048458 0.5890515
v -0.06256795 2.048459 0.510727
v -0.06433257 2.045805 0.5890515
v -0.06433259 2.045805 0.510727
v -0.06574856 2.042949 0.5890515
v -0.06574858 2.042949 0.510727
v -0.06636329 2.039822 0.5890515
v -0.0663633 2.039822 0.510727
v -0.06657887 2.036643 0.5890515
v -0.06657889 2.036643 0.510727
v -0.0659501 2.033518 0.5890515
v -0.06595012 2.033518 0.510727
v -0.06493246 2.030498 0.5890515
v -0.06493247 2.030498 0.510727
v -0.06315592 2.027852 0.5890515
v -0.06315593 2.027852 0.510727
v -0.06105997 2.025451 0.5890515
v -0.06105999 2.025451 0.510727
v -0.05840612 2.023687 0.5890515
v -0.05840613 2.023687 0.510727
v -0.05555097 2.022271 0.5890515
v -0.05555099 2.022271 0.510727
v -0.05242383 2.021656 0.5890515
v -0.05242384 2.021656 0.510727
v -0.04908651 2.019035 0.5107244
v -0.05242384 2.021656 0.510727
v -0.05273629 2.019283 0.5107244
v -0.04924415 2.02144 0.510727
v -0.0461198 2.022069 0.510727
v -0.04550025 2.019757 0.5107244
v -0.04203359 2.020925 0.5107244
v -0.04309965 2.023087 0.510727
v -0.04045375 2.024863 0.510727
v -0.03899652 2.022964 0.5107244
v -0.03624076 2.02537 0.5107244
v -0.03805293 2.026959 0.510727
v -0.03628829 2.029613 0.510727
v -0.03421523 2.028416 0.5107244
v -0.0325899 2.031693 0.5107244
v -0.0348723 2.032468 0.510727
v -0.03425758 2.035595 0.510727
v -0.03188429 2.035283 0.5107244
v -0.03163683 2.038933 0.5107244
v -0.03404199 2.038775 0.510727
v -0.03467077 2.041899 0.510727
v -0.03235856 2.042519 0.5107244
v -0.03352666 2.045986 0.5107244
v -0.0356884 2.04492 0.510727
v -0.03746495 2.047565 0.510727
v -0.03556585 2.049023 0.5107244
v -0.03797165 2.051779 0.5107244
v -0.03956089 2.049966 0.510727
v -0.04221474 2.051731 0.510727
v -0.04101786 2.053804 0.5107244
v -0.04429512 2.055429 0.5107244
v -0.04506989 2.053147 0.510727
v -0.04819704 2.053762 0.510727
v -0.04788459 2.056135 0.5107244
v -0.05153437 2.056382 0.5107244
v -0.05137673 2.053977 0.510727
v -0.05450108 2.053349 0.510727
v -0.05512063 2.055661 0.5107244
v -0.05858728 2.054493 0.5107244
v -0.05752123 2.052331 0.510727
v -0.06016713 2.050555 0.510727
v -0.06162436 2.052454 0.5107244
v -0.06438012 2.050048 0.5107244
v -0.06256795 2.048459 0.510727
v -0.06433259 2.045805 0.510727
v -0.06640565 2.047001 0.5107244
v -0.06803098 2.043724 0.5107244
v -0.06574858 2.042949 0.510727
v -0.0663633 2.039822 0.510727
v -0.0687366 2.040135 0.5107244
v -0.06898405 2.036485 0.5107244
v -0.06657889 2.036643 0.510727
v -0.06595012 2.033518 0.510727
v -0.06826232 2.032899 0.5107244
v -0.06709422 2.029432 0.5107244
v -0.06493247 2.030498 0.510727
v -0.06315593 2.027852 0.510727
v -0.06505504 2.026395 0.5107244
v -0.06264923 2.023639 0.5107244
v -0.06105999 2.025451 0.510727
v -0.05840613 2.023687 0.510727
v -0.05960302 2.021614 0.5107244
v -0.05632576 2.019988 0.5107244
v -0.05555099 2.022271 0.510727
v -0.05242384 2.021656 0.510727
v -0.05273629 2.019283 0.5107244
v -0.0527363 2.019283 0.5074298
v -0.04908651 2.019035 0.5107244
v -0.05273629 2.019283 0.5107244
v -0.04908651 2.019035 0.5074298
v -0.04550025 2.019757 0.5107244
v -0.04550026 2.019757 0.5074298
v -0.04203359 2.020925 0.5107244
v -0.04203359 2.020925 0.5074298
v -0.03899652 2.022964 0.5107244
v -0.03899652 2.022964 0.5074298
v -0.03624076 2.02537 0.5107244
v -0.03624076 2.02537 0.5074298
v -0.03421523 2.028416 0.5107244
v -0.03421523 2.028416 0.5074298
v -0.0325899 2.031693 0.5107244
v -0.0325899 2.031693 0.5074298
v -0.03188429 2.035283 0.5107244
v -0.03188429 2.035283 0.5074298
v -0.03163683 2.038933 0.5107244
v -0.03163683 2.038933 0.5074298
v -0.03235856 2.042519 0.5107244
v -0.03235856 2.042519 0.5074298
v -0.03352666 2.045986 0.5107244
v -0.03352666 2.045986 0.5074298
v -0.03556585 2.049023 0.5107244
v -0.03556585 2.049023 0.5074298
v -0.03797165 2.051779 0.5107244
v -0.03797165 2.051779 0.5074298
v -0.04101786 2.053804 0.5107244
v -0.04101786 2.053804 0.5074298
v -0.04429512 2.055429 0.5107244
v -0.04429512 2.055429 0.5074298
v -0.04788459 2.056135 0.5107244
v -0.04788459 2.056135 0.5074298
v -0.05153437 2.056382 0.5107244
v -0.05153437 2.056383 0.5074298
v -0.05512063 2.055661 0.5107244
v -0.05512063 2.055661 0.5074298
v -0.05858728 2.054493 0.5107244
v -0.05858729 2.054493 0.5074298
v -0.06162436 2.052454 0.5107244
v -0.06162436 2.052454 0.5074298
v -0.06438012 2.050048 0.5107244
v -0.06438013 2.050048 0.5074298
v -0.06640565 2.047001 0.5107244
v -0.06640565 2.047001 0.5074298
v -0.06803098 2.043724 0.5107244
v -0.06803098 2.043724 0.5074298
v -0.0687366 2.040135 0.5107244
v -0.0687366 2.040135 0.5074298
v -0.06898405 2.036485 0.5107244
v -0.06898405 2.036485 0.5074298
v -0.06826232 2.032899 0.5107244
v -0.06826232 2.032899 0.5074298
v -0.06709422 2.029432 0.5107244
v -0.06709423 2.029432 0.5074298
v -0.06505504 2.026395 0.5107244
v -0.06505504 2.026395 0.5074298
v -0.06264923 2.023639 0.5107244
v -0.06264923 2.023639 0.5074298
v -0.05960302 2.021614 0.5107244
v -0.05960302 2.021614 0.5074298
v -0.05632576 2.019988 0.5107244
v -0.05632576 2.019988 0.5074298
v -0.05273629 2.019283 0.5107244
v -0.0527363 2.019283 0.5074298
v -0.006263129 2.052668 0.510727
v -0.009124625 2.051265 0.5890515
v -0.006263137 2.052668 0.5890515
v -0.009124615 2.051265 0.510727
v -0.011516 2.049158 0.5890515
v -0.01151599 2.049158 0.510727
v -0.01362271 2.046767 0.5890515
v -0.0136227 2.046767 0.510727
v -0.01502586 2.043905 0.5890515
v -0.01502584 2.043905 0.510727
v -0.01605706 2.04089 0.5890515
v -0.01605704 2.04089 0.510727
v -0.01625835 2.037709 0.5890515
v -0.01625834 2.037709 0.510727
v -0.01605706 2.034528 0.5890515
v -0.01605704 2.034528 0.510727
v -0.01502585 2.031513 0.5890515
v -0.01502584 2.031513 0.510727
v -0.01362271 2.028651 0.5890515
v -0.0136227 2.028651 0.510727
v -0.01151601 2.02626 0.5890515
v -0.011516 2.02626 0.510727
v -0.009124625 2.024153 0.5890515
v -0.009124612 2.024153 0.510727
v -0.006263142 2.02275 0.5890515
v -0.006263129 2.02275 0.510727
v -0.0032476 2.021719 0.5890515
v -0.003247585 2.021719 0.510727
v -6.696701E-05 2.021518 0.5890515
v -6.695986E-05 2.021518 0.510727
v 0.003113656 2.021719 0.5890515
v 0.00311367 2.021719 0.510727
v 0.006129212 2.02275 0.5890515
v 0.006129219 2.02275 0.510727
v 0.008990688 2.024153 0.5890515
v 0.008990698 2.024153 0.510727
v 0.01138206 2.02626 0.5890515
v 0.01138208 2.02626 0.510727
v 0.01348877 2.028651 0.5890515
v 0.01348879 2.028651 0.510727
v 0.01489192 2.031513 0.5890515
v 0.01489193 2.031513 0.510727
v 0.01592312 2.034528 0.5890515
v 0.01592314 2.034528 0.510727
v 0.01612441 2.037709 0.5890515
v 0.01612443 2.037709 0.510727
v 0.01592312 2.04089 0.5890515
v 0.01592313 2.04089 0.510727
v 0.01489192 2.043905 0.5890515
v 0.01489193 2.043905 0.510727
v 0.01348877 2.046767 0.5890515
v 0.01348879 2.046767 0.510727
v 0.01138206 2.049158 0.5890515
v 0.01138208 2.049158 0.510727
v 0.008990688 2.051265 0.5890515
v 0.008990698 2.051265 0.510727
v 0.006129205 2.052668 0.5890515
v 0.006129212 2.052668 0.510727
v 0.003113661 2.053699 0.5890515
v 0.003113675 2.053699 0.510727
v -6.696939E-05 2.0539 0.5890515
v -6.695509E-05 2.0539 0.510727
v -0.003247592 2.053699 0.5890515
v -0.003247585 2.053699 0.510727
v -0.006263137 2.052668 0.5890515
v -0.006263129 2.052668 0.510727
v -0.01046371 2.053269 0.5107244
v -0.006263129 2.052668 0.510727
v -0.007179184 2.054879 0.5107244
v -0.009124615 2.051265 0.510727
v -0.01151599 2.049158 0.510727
v -0.01320864 2.05085 0.5107244
v -0.0156268 2.048105 0.5107244
v -0.0136227 2.046767 0.510727
v -0.01502584 2.043905 0.510727
v -0.01723739 2.044821 0.5107244
v -0.01842105 2.04136 0.5107244
v -0.01605704 2.04089 0.510727
v -0.01625834 2.037709 0.510727
v -0.01865211 2.037709 0.5107244
v -0.01842105 2.034058 0.5107244
v -0.01605704 2.034528 0.510727
v -0.01502584 2.031513 0.510727
v -0.01723739 2.030596 0.5107244
v -0.01562681 2.027312 0.5107244
v -0.0136227 2.028651 0.510727
v -0.011516 2.02626 0.510727
v -0.01320864 2.024567 0.5107244
v -0.01046372 2.022149 0.5107244
v -0.009124612 2.024153 0.510727
v -0.006263129 2.02275 0.510727
v -0.007179184 2.020538 0.5107244
v -0.003717813 2.019355 0.5107244
v -0.003247585 2.021719 0.510727
v -6.695986E-05 2.021518 0.510727
v -6.695986E-05 2.019124 0.5107244
v 0.003583901 2.019355 0.5107244
v 0.00311367 2.021719 0.510727
v 0.006129219 2.02275 0.510727
v 0.007045278 2.020538 0.5107244
v 0.0103298 2.022149 0.5107244
v 0.008990698 2.024153 0.510727
v 0.01138208 2.02626 0.510727
v 0.01307473 2.024567 0.5107244
v 0.0154929 2.027312 0.5107244
v 0.01348879 2.028651 0.510727
v 0.01489193 2.031513 0.510727
v 0.01710349 2.030596 0.5107244
v 0.01828714 2.034058 0.5107244
v 0.01592314 2.034528 0.510727
v 0.01612443 2.037709 0.510727
v 0.01851819 2.037709 0.5107244
v 0.01828714 2.04136 0.5107244
v 0.01592313 2.04089 0.510727
v 0.01489193 2.043905 0.510727
v 0.01710348 2.044821 0.5107244
v 0.0154929 2.048105 0.5107244
v 0.01348879 2.046767 0.510727
v 0.01138208 2.049158 0.510727
v 0.01307473 2.05085 0.5107244
v 0.0103298 2.053269 0.5107244
v 0.008990698 2.051265 0.510727
v 0.006129212 2.052668 0.510727
v 0.007045274 2.054879 0.5107244
v 0.003583903 2.056063 0.5107244
v 0.003113675 2.053699 0.510727
v -6.695509E-05 2.0539 0.510727
v -6.695509E-05 2.056294 0.5107244
v -0.003717813 2.056063 0.5107244
v -0.003247585 2.053699 0.510727
v -0.006263129 2.052668 0.510727
v -0.007179184 2.054879 0.5107244
v -0.007179182 2.054879 0.5074298
v -0.01046371 2.053269 0.5107244
v -0.007179184 2.054879 0.5107244
v -0.01046371 2.053269 0.5074298
v -0.01320864 2.05085 0.5107244
v -0.01320864 2.050851 0.5074298
v -0.0156268 2.048105 0.5107244
v -0.0156268 2.048106 0.5074298
v -0.01723739 2.044821 0.5107244
v -0.01723739 2.044821 0.5074298
v -0.01842105 2.04136 0.5107244
v -0.01842105 2.04136 0.5074298
v -0.01865211 2.037709 0.5107244
v -0.0186521 2.037709 0.5074298
v -0.01842105 2.034058 0.5107244
v -0.01842105 2.034058 0.5074298
v -0.01723739 2.030596 0.5107244
v -0.01723739 2.030597 0.5074298
v -0.01562681 2.027312 0.5107244
v -0.01562681 2.027312 0.5074298
v -0.01320864 2.024567 0.5107244
v -0.01320864 2.024567 0.5074298
v -0.01046372 2.022149 0.5107244
v -0.01046372 2.022149 0.5074298
v -0.007179184 2.020538 0.5107244
v -0.007179182 2.020538 0.5074298
v -0.003717813 2.019355 0.5107244
v -0.003717809 2.019355 0.5074298
v -6.695986E-05 2.019124 0.5107244
v -6.695271E-05 2.019124 0.5074298
v 0.003583901 2.019355 0.5107244
v 0.003583901 2.019355 0.5074298
v 0.007045278 2.020538 0.5107244
v 0.007045278 2.020538 0.5074298
v 0.0103298 2.022149 0.5107244
v 0.0103298 2.022149 0.5074298
v 0.01307473 2.024567 0.5107244
v 0.01307473 2.024567 0.5074298
v 0.0154929 2.027312 0.5107244
v 0.0154929 2.027312 0.5074298
v 0.01710349 2.030596 0.5107244
v 0.01710349 2.030597 0.5074298
v 0.01828714 2.034058 0.5107244
v 0.01828714 2.034058 0.5074298
v 0.01851819 2.037709 0.5107244
v 0.0185182 2.037709 0.5074298
v 0.01828714 2.04136 0.5107244
v 0.01828714 2.04136 0.5074298
v 0.01710348 2.044821 0.5107244
v 0.01710349 2.044821 0.5074298
v 0.0154929 2.048105 0.5107244
v 0.01549289 2.048106 0.5074298
v 0.01307473 2.05085 0.5107244
v 0.01307473 2.050851 0.5074298
v 0.0103298 2.053269 0.5107244
v 0.0103298 2.053269 0.5074298
v 0.007045274 2.054879 0.5107244
v 0.007045274 2.054879 0.5074298
v 0.003583903 2.056063 0.5107244
v 0.003583903 2.056063 0.5074298
v -6.695509E-05 2.056294 0.5107244
v -6.695271E-05 2.056294 0.5074298
v -0.003717813 2.056063 0.5107244
v -0.003717806 2.056063 0.5074298
v -0.007179184 2.054879 0.5107244
v -0.007179182 2.054879 0.5074298
v -0.03885945 2.040777 0.5890515
v -0.03404197 2.038775 0.5890515
v -0.03467075 2.041899 0.5890515
v -0.03568839 2.04492 0.5890515
v -0.03988237 2.042851 0.5890515
v -0.03870819 2.038469 0.5890515
v -0.04090529 2.044926 0.5890515
v -0.03746494 2.047565 0.5890515
v -0.03956087 2.049966 0.5890515
v -0.03855693 2.036161 0.5890515
v -0.03425756 2.035595 0.5890515
v -0.03487229 2.032468 0.5890515
v -0.03930034 2.033972 0.5890515
v -0.04516788 2.027281 0.5890515
v -0.06073848 2.032566 0.5890515
v -0.05545297 2.048137 0.5890515
v -0.0613205 2.041446 0.5890515
v -0.04264412 2.046451 0.5890515
v -0.04004376 2.031781 0.5890515
v -0.03628828 2.029613 0.5890515
v -0.03805292 2.026959 0.5890515
v -0.04156869 2.030042 0.5890515
v -0.04309361 2.028304 0.5890515
v -0.04045374 2.024863 0.5890515
v -0.04309964 2.023087 0.5890515
v -0.04438296 2.047976 0.5890515
v -0.04221473 2.051731 0.5890515
v -0.04506988 2.053147 0.5890515
v -0.046573 2.048719 0.5890515
v -0.04876304 2.049462 0.5890515
v -0.04819702 2.053762 0.5890515
v -0.05137672 2.053977 0.5890515
v -0.05107088 2.049311 0.5890515
v -0.0533787 2.04916 0.5890515
v -0.05450106 2.053349 0.5890515
v -0.05752121 2.052331 0.5890515
v -0.05752724 2.047114 0.5890515
v -0.06016711 2.050554 0.5890515
v -0.06256793 2.048458 0.5890515
v -0.05905216 2.045375 0.5890515
v -0.06057709 2.043636 0.5890515
v -0.06433257 2.045805 0.5890515
v -0.06574856 2.042949 0.5890515
v -0.06206392 2.039256 0.5890515
v -0.06636329 2.039822 0.5890515
v -0.06657887 2.036643 0.5890515
v -0.06191266 2.036948 0.5890515
v -0.0617614 2.034641 0.5890515
v -0.0659501 2.033518 0.5890515
v -0.06493246 2.030498 0.5890515
v -0.05971557 2.030492 0.5890515
v -0.06315592 2.027852 0.5890515
v -0.06105997 2.025451 0.5890515
v -0.05797673 2.028967 0.5890515
v -0.05404785 2.026699 0.5890515
v -0.05623789 2.027442 0.5890515
v -0.05840612 2.023687 0.5890515
v -0.05555097 2.022271 0.5890515
v -0.0518578 2.025955 0.5890515
v -0.05242383 2.021656 0.5890515
v -0.04924414 2.02144 0.5890515
v -0.04954998 2.026107 0.5890515
v -0.04724215 2.026258 0.5890515
v -0.04611979 2.022069 0.5890515
v -0.05743479 2.025369 0.5074298
v -0.05632576 2.019988 0.5074298
v -0.05960302 2.021614 0.5074298
v -0.06264923 2.023639 0.5074298
v -0.05952474 2.027202 0.5074298
v -0.05480253 2.024476 0.5074298
v -0.06161469 2.029035 0.5074298
v -0.06505504 2.026395 0.5074298
v -0.06709423 2.029432 0.5074298
v -0.05217027 2.023582 0.5074298
v -0.0527363 2.019283 0.5074298
v -0.04908651 2.019035 0.5074298
v -0.04939644 2.023764 0.5074298
v -0.03980356 2.028495 0.5074298
v -0.04109614 2.048216 0.5074298
v -0.06081733 2.046923 0.5074298
v -0.05122444 2.051654 0.5074298
v -0.06284415 2.031528 0.5074298
v -0.04662262 2.023946 0.5074298
v -0.04550026 2.019757 0.5074298
v -0.04203359 2.020925 0.5074298
v -0.04412951 2.025175 0.5074298
v -0.0416364 2.026405 0.5074298
v -0.03899652 2.022964 0.5074298
v -0.03624076 2.02537 0.5074298
v -0.06407361 2.034021 0.5074298
v -0.06826232 2.032899 0.5074298
v -0.06898405 2.036485 0.5074298
v -0.06425542 2.036795 0.5074298
v -0.06443723 2.039569 0.5074298
v -0.0687366 2.040135 0.5074298
v -0.06803098 2.043724 0.5074298
v -0.0635437 2.042201 0.5074298
v -0.06265017 2.044833 0.5074298
v -0.06640565 2.047001 0.5074298
v -0.06438013 2.050048 0.5074298
v -0.05898449 2.049013 0.5074298
v -0.06162436 2.052454 0.5074298
v -0.05858729 2.054493 0.5074298
v -0.05649138 2.050243 0.5074298
v -0.05399827 2.051472 0.5074298
v -0.05512063 2.055661 0.5074298
v -0.05153437 2.056383 0.5074298
v -0.04845061 2.051836 0.5074298
v -0.04788459 2.056135 0.5074298
v -0.04429512 2.055429 0.5074298
v -0.04581835 2.050942 0.5074298
v -0.04318609 2.050049 0.5074298
v -0.04101786 2.053804 0.5074298
v -0.03797165 2.051779 0.5074298
v -0.0390062 2.046383 0.5074298
v -0.03556585 2.049023 0.5074298
v -0.03352666 2.045986 0.5074298
v -0.03777673 2.04389 0.5074298
v -0.03636546 2.038623 0.5074298
v -0.03654727 2.041397 0.5074298
v -0.03235856 2.042519 0.5074298
v -0.03163683 2.038933 0.5074298
v -0.03618366 2.035849 0.5074298
v -0.03188429 2.035283 0.5074298
v -0.0325899 2.031693 0.5074298
v -0.03707719 2.033217 0.5074298
v -0.03797072 2.030585 0.5074298
v -0.03421523 2.028416 0.5074298
v -0.008449666 2.029326 0.5890515
v -0.01362271 2.028651 0.5890515
v -0.01151601 2.02626 0.5890515
v -0.009124625 2.024153 0.5890515
v -0.006526656 2.028041 0.5890515
v -0.009734576 2.031249 0.5890515
v -0.004603648 2.026756 0.5890515
v -0.006263142 2.02275 0.5890515
v -0.0032476 2.021719 0.5890515
v -0.01101949 2.033172 0.5890515
v -0.01502585 2.031513 0.5890515
v -0.01605706 2.034528 0.5890515
v -0.01147068 2.03544 0.5890515
v -0.009734573 2.044168 0.5890515
v 0.006392717 2.047376 0.5890515
v 0.009600635 2.031249 0.5890515
v 0.01133675 2.039977 0.5890515
v -0.002335312 2.026305 0.5890515
v -0.01192189 2.037709 0.5890515
v -0.01625835 2.037709 0.5890515
v -0.01605706 2.04089 0.5890515
v -0.01147068 2.039977 0.5890515
v -0.01101949 2.042246 0.5890515
v -0.01502586 2.043905 0.5890515
v -0.01362271 2.046767 0.5890515
v -6.696939E-05 2.025854 0.5890515
v -6.696701E-05 2.021518 0.5890515
v 0.003113656 2.021719 0.5890515
v 0.002201373 2.026305 0.5890515
v 0.004469709 2.026756 0.5890515
v 0.006129212 2.02275 0.5890515
v 0.008990688 2.024153 0.5890515
v 0.006392717 2.028041 0.5890515
v 0.008315727 2.029326 0.5890515
v 0.01138206 2.02626 0.5890515
v 0.01348877 2.028651 0.5890515
v 0.01088555 2.033172 0.5890515
v 0.01489192 2.031513 0.5890515
v 0.01592312 2.034528 0.5890515
v 0.01133676 2.03544 0.5890515
v 0.01178795 2.037709 0.5890515
v 0.01612441 2.037709 0.5890515
v 0.01592312 2.04089 0.5890515
v 0.01088555 2.042246 0.5890515
v 0.01489192 2.043905 0.5890515
v 0.01348877 2.046767 0.5890515
v 0.009600639 2.044168 0.5890515
v 0.008315727 2.046092 0.5890515
v 0.01138206 2.049158 0.5890515
v 0.008990688 2.051265 0.5890515
v 0.004469709 2.048661 0.5890515
v 0.006129205 2.052668 0.5890515
v 0.003113661 2.053699 0.5890515
v 0.002201371 2.049113 0.5890515
v -0.00233531 2.049113 0.5890515
v -6.696701E-05 2.049564 0.5890515
v -6.696939E-05 2.0539 0.5890515
v -0.003247592 2.053699 0.5890515
v -0.004603648 2.048661 0.5890515
v -0.006263137 2.052668 0.5890515
v -0.009124625 2.051265 0.5890515
v -0.006526654 2.047376 0.5890515
v -0.008449659 2.046092 0.5890515
v -0.011516 2.049158 0.5890515
v -6.695509E-05 2.051958 0.5074298
v -0.003717806 2.056063 0.5074298
v -6.695271E-05 2.056294 0.5074298
v 0.003583903 2.056063 0.5074298
v 0.002659414 2.051415 0.5074298
v -0.002793322 2.051415 0.5074298
v 0.005385776 2.050873 0.5074298
v 0.007045274 2.054879 0.5074298
v 0.0103298 2.053269 0.5074298
v -0.005519688 2.050873 0.5074298
v -0.007179182 2.054879 0.5074298
v -0.01046371 2.053269 0.5074298
v -0.007830994 2.049329 0.5074298
v -0.01377333 2.040435 0.5074298
v -0.002793322 2.024003 0.5074298
v 0.01363943 2.034982 0.5074298
v 0.007697081 2.026089 0.5074298
v 0.007697081 2.049329 0.5074298
v -0.0101423 2.047784 0.5074298
v -0.01320864 2.050851 0.5074298
v -0.0156268 2.048106 0.5074298
v -0.01168666 2.045473 0.5074298
v -0.01323102 2.043162 0.5074298
v -0.01723739 2.044821 0.5074298
v -0.01842105 2.04136 0.5074298
v 0.01000839 2.047784 0.5074298
v 0.01307473 2.050851 0.5074298
v 0.01549289 2.048106 0.5074298
v 0.01155275 2.045473 0.5074298
v 0.01309711 2.043162 0.5074298
v 0.01710349 2.044821 0.5074298
v 0.01828714 2.04136 0.5074298
v 0.01363943 2.040435 0.5074298
v 0.01418173 2.037709 0.5074298
v 0.0185182 2.037709 0.5074298
v 0.01828714 2.034058 0.5074298
v 0.01309711 2.032256 0.5074298
v 0.01710349 2.030597 0.5074298
v 0.0154929 2.027312 0.5074298
v 0.01155275 2.029945 0.5074298
v 0.01000839 2.027634 0.5074298
v 0.01307473 2.024567 0.5074298
v 0.0103298 2.022149 0.5074298
v 0.00538578 2.024545 0.5074298
v 0.007045278 2.020538 0.5074298
v 0.003583901 2.019355 0.5074298
v 0.002659414 2.024003 0.5074298
v -6.695509E-05 2.02346 0.5074298
v -6.695271E-05 2.019124 0.5074298
v -0.003717809 2.019355 0.5074298
v -0.005519688 2.024545 0.5074298
v -0.007179182 2.020538 0.5074298
v -0.01046372 2.022149 0.5074298
v -0.007830994 2.026089 0.5074298
v -0.01168666 2.029945 0.5074298
v -0.0101423 2.027634 0.5074298
v -0.01320864 2.024567 0.5074298
v -0.01562681 2.027312 0.5074298
v -0.01323102 2.032256 0.5074298
v -0.01723739 2.030597 0.5074298
v -0.01842105 2.034058 0.5074298
v -0.01377333 2.034982 0.5074298
v -0.01431564 2.037709 0.5074298
v -0.0186521 2.037709 0.5074298
vt 0.9894292 0.0847488
vt 0.9689971 0.9663055
vt 0.9894292 0.9663055
vt 0.9689971 0.0847488
vt 0.9485651 0.9663055
vt 0.948565 0.0847488
vt 0.9280061 0.9663055
vt 0.9280061 0.0847488
vt 0.9074471 0.9663055
vt 0.907447 0.0847488
vt 0.8869903 0.9663056
vt 0.8869902 0.08474882
vt 0.8665335 0.9663056
vt 0.8665333 0.08474883
vt 0.8459744 0.9663055
vt 0.8459743 0.08474879
vt 0.8254155 0.9663055
vt 0.8254154 0.08474874
vt 0.8048896 0.9663055
vt 0.8048894 0.08474874
vt 0.7843636 0.9663054
vt 0.7843635 0.08474874
vt 0.7638049 0.9663055
vt 0.7638048 0.08474875
vt 0.7432462 0.9663055
vt 0.743246 0.08474877
vt 0.7226085 0.9663055
vt 0.7226083 0.0847488
vt 0.7019708 0.9663055
vt 0.7019707 0.08474883
vt 0.6814129 0.9663055
vt 0.6814128 0.08474883
vt 0.6608551 0.9663055
vt 0.6608549 0.08474883
vt 0.6403019 0.9663056
vt 0.6403018 0.0847488
vt 0.6197489 0.9663056
vt 0.6197487 0.08474877
vt 0.5991921 0.9663056
vt 0.599192 0.0847488
vt 0.5786355 0.9663056
vt 0.5786353 0.08474883
vt 0.558055 0.9663056
vt 0.5580549 0.08474885
vt 0.5374746 0.9663055
vt 0.5374745 0.08474886
vt 0.5169162 0.9663056
vt 0.516916 0.08474889
vt 0.4963576 0.9663056
vt 0.4963575 0.08474892
vt 0.4758823 0.9663056
vt 0.4758822 0.08474889
vt 0.4554069 0.9663056
vt 0.4554068 0.08474886
vt 0.434848 0.9663056
vt 0.434848 0.08474886
vt 0.4142891 0.9663055
vt 0.4142891 0.08474886
vt 0.3937265 0.9663055
vt 0.3937264 0.08474886
vt 0.3731638 0.9663055
vt 0.3731638 0.08474886
vt 0.3526084 0.9663055
vt 0.3526083 0.08474886
vt 0.3320529 0.9663055
vt 0.3320527 0.08474886
vt 0.9689912 0.05523296
vt 0.9894292 0.0847488
vt 0.9894044 0.05523296
vt 0.9689971 0.0847488
vt 0.948565 0.0847488
vt 0.9485778 0.05523296
vt 0.9280062 0.05523296
vt 0.9280061 0.0847488
vt 0.907447 0.0847488
vt 0.9074346 0.05523296
vt 0.8869904 0.05523301
vt 0.8869902 0.08474882
vt 0.8665333 0.08474883
vt 0.8665462 0.05523305
vt 0.8459745 0.05523302
vt 0.8459743 0.08474879
vt 0.8254154 0.08474874
vt 0.8254029 0.05523299
vt 0.8048897 0.05523294
vt 0.8048894 0.08474874
vt 0.7843635 0.08474874
vt 0.7843765 0.05523289
vt 0.7638052 0.05523289
vt 0.7638048 0.08474875
vt 0.743246 0.08474877
vt 0.7432337 0.05523289
vt 0.7226089 0.05523297
vt 0.7226083 0.0847488
vt 0.7019707 0.08474883
vt 0.701984 0.05523305
vt 0.6814134 0.05523305
vt 0.6814128 0.08474883
vt 0.6608549 0.08474883
vt 0.6608429 0.05523305
vt 0.6403027 0.05523302
vt 0.6403018 0.0847488
vt 0.6197487 0.08474877
vt 0.6197624 0.05523299
vt 0.599193 0.05523304
vt 0.599192 0.0847488
vt 0.5786353 0.08474883
vt 0.5786237 0.05523308
vt 0.5580556 0.05523308
vt 0.5580549 0.08474885
vt 0.5374745 0.08474886
vt 0.5374876 0.05523308
vt 0.5169165 0.05523308
vt 0.516916 0.08474889
vt 0.4963575 0.08474892
vt 0.4963453 0.05523308
vt 0.4758825 0.05523308
vt 0.4758822 0.08474889
vt 0.4554068 0.08474886
vt 0.4554198 0.05523308
vt 0.4348482 0.05523308
vt 0.434848 0.08474886
vt 0.4142891 0.08474886
vt 0.4142767 0.05523308
vt 0.3937271 0.05523302
vt 0.3937264 0.08474886
vt 0.3731638 0.08474886
vt 0.3731775 0.05523296
vt 0.3526095 0.05523299
vt 0.3526083 0.08474886
vt 0.3320527 0.08474886
vt 0.3320414 0.05523302
vt 0.9894044 0.02365432
vt 0.9689912 0.05523296
vt 0.9894044 0.05523296
vt 0.9689912 0.02365432
vt 0.9485778 0.05523296
vt 0.9485778 0.02365432
vt 0.9280062 0.05523296
vt 0.9280062 0.02365432
vt 0.9074346 0.05523296
vt 0.9074346 0.02365432
vt 0.8869904 0.05523301
vt 0.8869904 0.02365432
vt 0.8665462 0.05523305
vt 0.8665462 0.02365432
vt 0.8459745 0.05523302
vt 0.8459746 0.02365432
vt 0.8254029 0.05523299
vt 0.8254029 0.02365432
vt 0.8048897 0.05523294
vt 0.8048897 0.02365434
vt 0.7843765 0.05523289
vt 0.7843765 0.02365435
vt 0.7638052 0.05523289
vt 0.7638051 0.02365435
vt 0.7432337 0.05523289
vt 0.7432337 0.02365435
vt 0.7226089 0.05523297
vt 0.7226088 0.02365435
vt 0.701984 0.05523305
vt 0.701984 0.02365435
vt 0.6814134 0.05523305
vt 0.6814134 0.02365438
vt 0.6608429 0.05523305
vt 0.6608429 0.02365442
vt 0.6403027 0.05523302
vt 0.6403026 0.02365438
vt 0.6197624 0.05523299
vt 0.6197623 0.02365435
vt 0.599193 0.05523304
vt 0.599193 0.0236544
vt 0.5786237 0.05523308
vt 0.5786237 0.02365445
vt 0.5580556 0.05523308
vt 0.5580556 0.02365445
vt 0.5374876 0.05523308
vt 0.5374876 0.02365445
vt 0.5169165 0.05523308
vt 0.5169165 0.02365445
vt 0.4963453 0.05523308
vt 0.4963453 0.02365445
vt 0.4758825 0.05523308
vt 0.4758826 0.02365445
vt 0.4554198 0.05523308
vt 0.4554198 0.02365445
vt 0.4348482 0.05523308
vt 0.4348482 0.02365445
vt 0.4142767 0.05523308
vt 0.4142767 0.02365445
vt 0.3937271 0.05523302
vt 0.3937271 0.02365441
vt 0.3731775 0.05523296
vt 0.3731776 0.02365438
vt 0.3526095 0.05523299
vt 0.3526095 0.02365441
vt 0.3320414 0.05523302
vt 0.3320414 0.02365445
vt 0.9894292 0.0847488
vt 0.9689971 0.9663055
vt 0.9894292 0.9663055
vt 0.9689971 0.0847488
vt 0.9485651 0.9663055
vt 0.948565 0.0847488
vt 0.9280061 0.9663055
vt 0.9280061 0.0847488
vt 0.9074471 0.9663055
vt 0.907447 0.0847488
vt 0.8869903 0.9663056
vt 0.8869902 0.08474882
vt 0.8665335 0.9663056
vt 0.8665333 0.08474883
vt 0.8459744 0.9663055
vt 0.8459743 0.08474879
vt 0.8254155 0.9663055
vt 0.8254154 0.08474874
vt 0.8048896 0.9663055
vt 0.8048894 0.08474874
vt 0.7843636 0.9663054
vt 0.7843635 0.08474874
vt 0.7638049 0.9663055
vt 0.7638048 0.08474875
vt 0.7432462 0.9663055
vt 0.743246 0.08474877
vt 0.7226085 0.9663055
vt 0.7226083 0.0847488
vt 0.7019708 0.9663055
vt 0.7019707 0.08474883
vt 0.6814129 0.9663055
vt 0.6814128 0.08474883
vt 0.6608551 0.9663055
vt 0.6608549 0.08474883
vt 0.6403019 0.9663056
vt 0.6403018 0.0847488
vt 0.6197489 0.9663056
vt 0.6197487 0.08474877
vt 0.5991921 0.9663056
vt 0.599192 0.0847488
vt 0.5786355 0.9663056
vt 0.5786353 0.08474883
vt 0.558055 0.9663056
vt 0.5580549 0.08474885
vt 0.5374746 0.9663055
vt 0.5374745 0.08474886
vt 0.5169162 0.9663056
vt 0.516916 0.08474889
vt 0.4963576 0.9663056
vt 0.4963575 0.08474892
vt 0.4758823 0.9663056
vt 0.4758822 0.08474889
vt 0.4554069 0.9663056
vt 0.4554068 0.08474886
vt 0.434848 0.9663056
vt 0.434848 0.08474886
vt 0.4142891 0.9663055
vt 0.4142891 0.08474886
vt 0.3937265 0.9663055
vt 0.3937264 0.08474886
vt 0.3731638 0.9663055
vt 0.3731638 0.08474886
vt 0.3526084 0.9663055
vt 0.3526083 0.08474886
vt 0.3320529 0.9663055
vt 0.3320527 0.08474886
vt 0.9689912 0.05523296
vt 0.9894292 0.0847488
vt 0.9894044 0.05523296
vt 0.9689971 0.0847488
vt 0.948565 0.0847488
vt 0.9485778 0.05523296
vt 0.9280062 0.05523296
vt 0.9280061 0.0847488
vt 0.907447 0.0847488
vt 0.9074346 0.05523296
vt 0.8869904 0.05523301
vt 0.8869902 0.08474882
vt 0.8665333 0.08474883
vt 0.8665462 0.05523305
vt 0.8459745 0.05523302
vt 0.8459743 0.08474879
vt 0.8254154 0.08474874
vt 0.8254029 0.05523299
vt 0.8048897 0.05523294
vt 0.8048894 0.08474874
vt 0.7843635 0.08474874
vt 0.7843765 0.05523289
vt 0.7638052 0.05523289
vt 0.7638048 0.08474875
vt 0.743246 0.08474877
vt 0.7432337 0.05523289
vt 0.7226089 0.05523297
vt 0.7226083 0.0847488
vt 0.7019707 0.08474883
vt 0.701984 0.05523305
vt 0.6814134 0.05523305
vt 0.6814128 0.08474883
vt 0.6608549 0.08474883
vt 0.6608429 0.05523305
vt 0.6403027 0.05523302
vt 0.6403018 0.0847488
vt 0.6197487 0.08474877
vt 0.6197624 0.05523299
vt 0.599193 0.05523304
vt 0.599192 0.0847488
vt 0.5786353 0.08474883
vt 0.5786237 0.05523308
vt 0.5580556 0.05523308
vt 0.5580549 0.08474885
vt 0.5374745 0.08474886
vt 0.5374876 0.05523308
vt 0.5169165 0.05523308
vt 0.516916 0.08474889
vt 0.4963575 0.08474892
vt 0.4963453 0.05523308
vt 0.4758825 0.05523308
vt 0.4758822 0.08474889
vt 0.4554068 0.08474886
vt 0.4554198 0.05523308
vt 0.4348482 0.05523308
vt 0.434848 0.08474886
vt 0.4142891 0.08474886
vt 0.4142767 0.05523308
vt 0.3937271 0.05523302
vt 0.3937264 0.08474886
vt 0.3731638 0.08474886
vt 0.3731775 0.05523296
vt 0.3526095 0.05523299
vt 0.3526083 0.08474886
vt 0.3320527 0.08474886
vt 0.3320414 0.05523302
vt 0.9894044 0.02365432
vt 0.9689912 0.05523296
vt 0.9894044 0.05523296
vt 0.9689912 0.02365432
vt 0.9485778 0.05523296
vt 0.9485778 0.02365432
vt 0.9280062 0.05523296
vt 0.9280062 0.02365432
vt 0.9074346 0.05523296
vt 0.9074346 0.02365432
vt 0.8869904 0.05523301
vt 0.8869904 0.02365432
vt 0.8665462 0.05523305
vt 0.8665462 0.02365432
vt 0.8459745 0.05523302
vt 0.8459746 0.02365432
vt 0.8254029 0.05523299
vt 0.8254029 0.02365432
vt 0.8048897 0.05523294
vt 0.8048897 0.02365434
vt 0.7843765 0.05523289
vt 0.7843765 0.02365435
vt 0.7638052 0.05523289
vt 0.7638051 0.02365435
vt 0.7432337 0.05523289
vt 0.7432337 0.02365435
vt 0.7226089 0.05523297
vt 0.7226088 0.02365435
vt 0.701984 0.05523305
vt 0.701984 0.02365435
vt 0.6814134 0.05523305
vt 0.6814134 0.02365438
vt 0.6608429 0.05523305
vt 0.6608429 0.02365442
vt 0.6403027 0.05523302
vt 0.6403026 0.02365438
vt 0.6197624 0.05523299
vt 0.6197623 0.02365435
vt 0.599193 0.05523304
vt 0.599193 0.0236544
vt 0.5786237 0.05523308
vt 0.5786237 0.02365445
vt 0.5580556 0.05523308
vt 0.5580556 0.02365445
vt 0.5374876 0.05523308
vt 0.5374876 0.02365445
vt 0.5169165 0.05523308
vt 0.5169165 0.02365445
vt 0.4963453 0.05523308
vt 0.4963453 0.02365445
vt 0.4758825 0.05523308
vt 0.4758826 0.02365445
vt 0.4554198 0.05523308
vt 0.4554198 0.02365445
vt 0.4348482 0.05523308
vt 0.4348482 0.02365445
vt 0.4142767 0.05523308
vt 0.4142767 0.02365445
vt 0.3937271 0.05523302
vt 0.3937271 0.02365441
vt 0.3731775 0.05523296
vt 0.3731776 0.02365438
vt 0.3526095 0.05523299
vt 0.3526095 0.02365441
vt 0.3320414 0.05523302
vt 0.3320414 0.02365445
vt 0.2474986 0.7091532
vt 0.2986115 0.7024841
vt 0.2777959 0.6788558
vt 0.2541676 0.6580402
vt 0.2284981 0.6964574
vt 0.2601943 0.7281536
vt 0.2094976 0.6837617
vt 0.2258944 0.6441763
vt 0.1960989 0.6339873
vt 0.27289 0.7471541
vt 0.3124754 0.7307574
vt 0.3226643 0.7605528
vt 0.2773481 0.7695668
vt 0.2601943 0.855805
vt 0.1008467 0.8875012
vt 0.06915051 0.7281536
vt 0.05199665 0.814392
vt 0.187085 0.6793035
vt 0.2818063 0.7919793
vt 0.3246532 0.7919793
vt 0.3226643 0.8234059
vt 0.2773482 0.814392
vt 0.27289 0.8368046
vt 0.3124754 0.8532013
vt 0.2986115 0.8814746
vt 0.1646724 0.6748454
vt 0.1646724 0.6319984
vt 0.1332458 0.6339873
vt 0.1422598 0.6793035
vt 0.1198472 0.6837617
vt 0.1034504 0.6441763
vt 0.07517716 0.6580402
vt 0.1008467 0.6964574
vt 0.08184622 0.7091531
vt 0.05154888 0.6788558
vt 0.0307333 0.7024841
vt 0.0564548 0.7471541
vt 0.0168694 0.7307574
vt 0.006680457 0.7605528
vt 0.05199665 0.7695667
vt 0.04753849 0.7919793
vt 0.004691557 0.7919793
vt 0.006680457 0.8234059
vt 0.0564548 0.8368046
vt 0.0168694 0.8532013
vt 0.03073329 0.8814746
vt 0.0691505 0.855805
vt 0.08184621 0.8748055
vt 0.05154885 0.9051029
vt 0.07517716 0.9259185
vt 0.1198472 0.900197
vt 0.1034504 0.9397824
vt 0.1332458 0.9499713
vt 0.1422598 0.9046551
vt 0.187085 0.9046551
vt 0.1646724 0.9091132
vt 0.1646724 0.9519602
vt 0.1960989 0.9499713
vt 0.2094976 0.900197
vt 0.2258944 0.9397824
vt 0.2541676 0.9259185
vt 0.2284981 0.8875012
vt 0.2474985 0.8748055
vt 0.2777959 0.9051029
vt 0.1668305 0.4660448
vt 0.1364761 0.5001783
vt 0.1668305 0.5020994
vt 0.1971848 0.5001783
vt 0.1894983 0.4615358
vt 0.1441627 0.4615358
vt 0.2121662 0.4570269
vt 0.2259637 0.4903371
vt 0.2532723 0.4769462
vt 0.1214948 0.4570269
vt 0.1076973 0.4903371
vt 0.08038865 0.4769462
vt 0.1022779 0.4441866
vt 0.05287148 0.3702447
vt 0.1441626 0.2336177
vt 0.2807894 0.3249089
vt 0.231383 0.250967
vt 0.231383 0.4441866
vt 0.08306102 0.4313463
vt 0.0575665 0.4568408
vt 0.03746111 0.4340186
vt 0.07022071 0.4121294
vt 0.05738039 0.3929125
vt 0.0240702 0.4067101
vt 0.01422891 0.3779312
vt 0.2505999 0.4313463
vt 0.2760944 0.4568408
vt 0.2961998 0.4340186
vt 0.2634402 0.4121294
vt 0.2762805 0.3929125
vt 0.3095907 0.4067101
vt 0.319432 0.3779311
vt 0.2807894 0.3702447
vt 0.2852983 0.3475768
vt 0.321353 0.3475768
vt 0.319432 0.3172224
vt 0.2762805 0.3022411
vt 0.3095907 0.2884436
vt 0.2961998 0.261135
vt 0.2634402 0.2830242
vt 0.2505999 0.2638073
vt 0.2760944 0.2383128
vt 0.2532723 0.2182074
vt 0.2121662 0.2381267
vt 0.2259637 0.2048165
vt 0.1971848 0.1949752
vt 0.1894983 0.2336177
vt 0.1668305 0.2291088
vt 0.1668305 0.1930541
vt 0.1364761 0.1949752
vt 0.1214948 0.2381267
vt 0.1076972 0.2048165
vt 0.08038862 0.2182074
vt 0.1022779 0.250967
vt 0.07022071 0.2830242
vt 0.08306099 0.2638073
vt 0.05756648 0.2383128
vt 0.03746111 0.261135
vt 0.05738039 0.3022411
vt 0.0240702 0.2884436
vt 0.01422891 0.3172225
vt 0.05287148 0.3249089
vt 0.04836255 0.3475768
vt 0.01230788 0.3475768
vt 0.2474986 0.7091532
vt 0.2986115 0.7024841
vt 0.2777959 0.6788558
vt 0.2541676 0.6580402
vt 0.2284981 0.6964574
vt 0.2601943 0.7281536
vt 0.2094976 0.6837617
vt 0.2258944 0.6441763
vt 0.1960989 0.6339873
vt 0.27289 0.7471541
vt 0.3124754 0.7307574
vt 0.3226643 0.7605528
vt 0.2773481 0.7695668
vt 0.2601943 0.855805
vt 0.1008467 0.8875012
vt 0.06915051 0.7281536
vt 0.05199665 0.814392
vt 0.187085 0.6793035
vt 0.2818063 0.7919793
vt 0.3246532 0.7919793
vt 0.3226643 0.8234059
vt 0.2773482 0.814392
vt 0.27289 0.8368046
vt 0.3124754 0.8532013
vt 0.2986115 0.8814746
vt 0.1646724 0.6748454
vt 0.1646724 0.6319984
vt 0.1332458 0.6339873
vt 0.1422598 0.6793035
vt 0.1198472 0.6837617
vt 0.1034504 0.6441763
vt 0.07517716 0.6580402
vt 0.1008467 0.6964574
vt 0.08184622 0.7091531
vt 0.05154888 0.6788558
vt 0.0307333 0.7024841
vt 0.0564548 0.7471541
vt 0.0168694 0.7307574
vt 0.006680457 0.7605528
vt 0.05199665 0.7695667
vt 0.04753849 0.7919793
vt 0.004691557 0.7919793
vt 0.006680457 0.8234059
vt 0.0564548 0.8368046
vt 0.0168694 0.8532013
vt 0.03073329 0.8814746
vt 0.0691505 0.855805
vt 0.08184621 0.8748055
vt 0.05154885 0.9051029
vt 0.07517716 0.9259185
vt 0.1198472 0.900197
vt 0.1034504 0.9397824
vt 0.1332458 0.9499713
vt 0.1422598 0.9046551
vt 0.187085 0.9046551
vt 0.1646724 0.9091132
vt 0.1646724 0.9519602
vt 0.1960989 0.9499713
vt 0.2094976 0.900197
vt 0.2258944 0.9397824
vt 0.2541676 0.9259185
vt 0.2284981 0.8875012
vt 0.2474985 0.8748055
vt 0.2777959 0.9051029
vt 0.1668305 0.4660448
vt 0.1364761 0.5001783
vt 0.1668305 0.5020994
vt 0.1971848 0.5001783
vt 0.1894983 0.4615358
vt 0.1441627 0.4615358
vt 0.2121662 0.4570269
vt 0.2259637 0.4903371
vt 0.2532723 0.4769462
vt 0.1214948 0.4570269
vt 0.1076973 0.4903371
vt 0.08038865 0.4769462
vt 0.1022779 0.4441866
vt 0.05287148 0.3702447
vt 0.1441626 0.2336177
vt 0.2807894 0.3249089
vt 0.231383 0.250967
vt 0.231383 0.4441866
vt 0.08306102 0.4313463
vt 0.0575665 0.4568408
vt 0.03746111 0.4340186
vt 0.07022071 0.4121294
vt 0.05738039 0.3929125
vt 0.0240702 0.4067101
vt 0.01422891 0.3779312
vt 0.2505999 0.4313463
vt 0.2760944 0.4568408
vt 0.2961998 0.4340186
vt 0.2634402 0.4121294
vt 0.2762805 0.3929125
vt 0.3095907 0.4067101
vt 0.319432 0.3779311
vt 0.2807894 0.3702447
vt 0.2852983 0.3475768
vt 0.321353 0.3475768
vt 0.319432 0.3172224
vt 0.2762805 0.3022411
vt 0.3095907 0.2884436
vt 0.2961998 0.261135
vt 0.2634402 0.2830242
vt 0.2505999 0.2638073
vt 0.2760944 0.2383128
vt 0.2532723 0.2182074
vt 0.2121662 0.2381267
vt 0.2259637 0.2048165
vt 0.1971848 0.1949752
vt 0.1894983 0.2336177
vt 0.1668305 0.2291088
vt 0.1668305 0.1930541
vt 0.1364761 0.1949752
vt 0.1214948 0.2381267
vt 0.1076972 0.2048165
vt 0.08038862 0.2182074
vt 0.1022779 0.250967
vt 0.07022071 0.2830242
vt 0.08306099 0.2638073
vt 0.05756648 0.2383128
vt 0.03746111 0.261135
vt 0.05738039 0.3022411
vt 0.0240702 0.2884436
vt 0.01422891 0.3172225
vt 0.05287148 0.3249089
vt 0.04836255 0.3475768
vt 0.01230788 0.3475768
vn -0.1305259 -0.9914449 0
vn 0.06540316 -0.9978589 0
vn -0.1305263 -0.9914449 0
vn 0.06540303 -0.9978589 0
vn 0.2588189 -0.9659258 0
vn 0.2588188 -0.9659258 0
vn 0.4422886 -0.8968728 0
vn 0.4422888 -0.8968727 0
vn 0.6087613 -0.7933534 -1.162244E-07
vn 0.6087613 -0.7933534 -1.138735E-07
vn 0.7518399 -0.6593458 -1.453891E-07
vn 0.7518397 -0.659346 -1.385976E-07
vn 0.8660255 -0.4999998 -1.634464E-07
vn 0.8660253 -0.5000002 -1.456782E-07
vn 0.9469301 -0.3214396 -1.642158E-07
vn 0.9469302 -0.3214393 -1.757929E-07
vn 0.9914448 -0.1305267 -1.888937E-07
vn 0.9914449 -0.1305264 -2.001344E-07
vn 0.9978589 0.06540289 -2.045728E-07
vn 0.9978589 0.06540261 -2.029961E-07
vn 0.9659258 0.2588189 -2.004043E-07
vn 0.9659258 0.2588188 -2.013836E-07
vn 0.8968727 0.4422888 -1.906178E-07
vn 0.8968729 0.4422883 -1.765221E-07
vn 0.7933533 0.6087614 -1.612318E-07
vn 0.7933537 0.608761 -1.377857E-07
vn 0.659346 0.7518397 -1.156512E-07
vn 0.6593461 0.7518396 -1.139039E-07
vn 0.5 0.8660254 0
vn 0.4999998 0.8660256 -1.042032E-07
vn 0.3214391 0.9469302 0
vn 0.3214393 0.9469302 0
vn 0.130526 0.9914449 0
vn 0.1305261 0.9914449 0
vn -0.06540301 0.9978589 0
vn -0.06540247 0.9978589 0
vn -0.258819 0.9659258 0
vn -0.2588186 0.9659259 0
vn -0.4422889 0.8968727 0
vn -0.4422886 0.8968728 0
vn -0.6087615 0.7933533 1.245372E-07
vn -0.6087613 0.7933536 1.372359E-07
vn -0.7518397 0.6593459 1.701819E-07
vn -0.7518396 0.6593461 1.727211E-07
vn -0.8660254 0.5 1.990785E-07
vn -0.8660254 0.5 1.994086E-07
vn -0.9469302 0.3214394 2.18344E-07
vn -0.9469302 0.3214394 2.117174E-07
vn -0.9914449 0.1305263 2.221773E-07
vn -0.9914449 0.1305261 2.109148E-07
vn -0.9978589 -0.06540275 2.143862E-07
vn -0.9978589 -0.0654028 2.06146E-07
vn -0.9659259 -0.2588187 2.026602E-07
vn -0.9659258 -0.2588191 1.829042E-07
vn -0.8968728 -0.4422887 1.747719E-07
vn -0.8968726 -0.4422889 1.631196E-07
vn -0.7933532 -0.6087616 1.4895E-07
vn -0.7933535 -0.6087613 1.631961E-07
vn -0.6593457 -0.7518399 1.459219E-07
vn -0.6593459 -0.7518397 1.471223E-07
vn -0.5000002 -0.8660253 1.226108E-07
vn -0.5000001 -0.8660253 1.165979E-07
vn -0.3214396 -0.9469301 0
vn -0.3214397 -0.9469301 0
vn -0.1305263 -0.9914449 0
vn -0.1305259 -0.9914449 0
vn 7.081699E-05 -0.001080458 0.9999994
vn -0.0001423079 -0.001080937 0.9999994
vn -0.000142308 -0.001080937 0.9999994
vn 7.081698E-05 -0.001080458 0.9999994
vn 0.0002823654 -0.001052456 0.9999994
vn 0.000282181 -0.001053115 0.9999994
vn 0.0004784111 -0.0009688953 0.9999994
vn 0.0004786208 -0.000968146 0.9999994
vn 0.0006620042 -0.000862741 0.9999994
vn 0.0006620044 -0.0008627411 0.9999994
vn 0.0008119812 -0.0007120888 0.9999994
vn 0.0008119811 -0.0007120885 0.9999994
vn 0.0009417695 -0.0005437308 0.9999994
vn 0.0009417697 -0.0005437307 0.9999994
vn 0.001022678 -0.0003471525 0.9999994
vn 0.001022679 -0.0003471525 0.9999994
vn 0.001078158 -0.0001419425 0.9999994
vn 0.001078158 -0.0001419425 0.9999994
vn 0.001078293 7.013097E-05 0.9999994
vn 0.00107775 6.957471E-05 0.9999994
vn 0.001052636 0.0002816917 0.9999994
vn 0.001053114 0.0002821808 0.9999994
vn 0.0009711122 0.0004788992 0.9999994
vn 0.0009711126 0.0004788992 0.9999994
vn 0.0008649647 0.0006637101 0.9999994
vn 0.0008649643 0.0006637099 0.9999994
vn 0.000713924 0.000814074 0.9999994
vn 0.0007139243 0.0008140742 0.9999994
vn 0.0005451317 0.0009441961 0.9999994
vn 0.0005451319 0.0009441958 0.9999994
vn 0.0003480464 0.001025312 0.9999994
vn 0.0003480463 0.001025312 0.9999994
vn 0.0001423076 0.001080936 0.9999994
vn 0.0001423075 0.001080936 0.9999994
vn -7.033216E-05 0.001079984 0.9999994
vn -7.081616E-05 0.001080457 0.9999994
vn -0.0002808097 0.001051721 0.9999994
vn -0.0002805681 0.001050645 0.9999994
vn -0.0004781572 0.0009708335 0.9999994
vn -0.0004779474 0.0009715823 0.9999994
vn -0.0006637114 0.0008649654 0.9999994
vn -0.0006637115 0.0008649653 0.9999994
vn -0.0008140753 0.0007139251 0.9999994
vn -0.0008140753 0.0007139251 0.9999994
vn -0.0009441977 0.000545133 0.9999994
vn -0.000944198 0.0005451333 0.9999994
vn -0.001025314 0.0003480473 0.9999994
vn -0.001025314 0.0003480471 0.9999994
vn -0.001080937 0.000142308 0.9999994
vn -0.001080937 0.000142308 0.9999994
vn -0.001079845 -7.132041E-05 0.9999994
vn -0.001080389 -7.187636E-05 0.9999994
vn -0.001051223 -0.0002826719 0.9999994
vn -0.00105017 -0.0002823434 0.9999994
vn -0.0009704602 -0.0004790824 0.9999994
vn -0.0009711124 -0.0004789001 0.9999994
vn -0.0008649644 -0.0006637104 0.9999994
vn -0.000864964 -0.0006637101 0.9999994
vn -0.0007139238 -0.0008140743 0.9999994
vn -0.0007139241 -0.0008140745 0.9999994
vn -0.0005451321 -0.0009441967 0.9999994
vn -0.0005451321 -0.0009441964 0.9999994
vn -0.0003480473 -0.001025314 0.9999994
vn -0.0003480473 -0.001025314 0.9999994
vn -0.0001423079 -0.001080937 0.9999994
vn -0.000142308 -0.001080937 0.9999994
vn -0.1305266 -0.9914449 2.914468E-07
vn 0.06540324 -0.9978589 3.486028E-07
vn -0.1305262 -0.9914449 0
vn 0.06540296 -0.9978589 5.933123E-07
vn 0.2588187 -0.9659259 7.50355E-07
vn 0.2588187 -0.9659259 6.495451E-07
vn 0.4422886 -0.8968728 0
vn 0.4422887 -0.8968728 -1.917578E-07
vn 0.6087613 -0.7933535 -1.881395E-07
vn 0.6087614 -0.7933534 -3.172359E-07
vn 0.7518399 -0.6593457 -7.699546E-07
vn 0.7518399 -0.6593457 -8.003504E-07
vn 0.8660255 -0.4999999 -5.729801E-07
vn 0.8660254 -0.5 -4.408905E-07
vn 0.9469302 -0.3214396 -4.820788E-07
vn 0.9469302 -0.3214396 -4.705183E-07
vn 0.9914449 -0.1305266 -4.82997E-07
vn 0.9914449 -0.1305266 -4.715159E-07
vn 0.9978589 0.06540285 -5.246546E-07
vn 0.9978589 0.06540269 -3.953166E-07
vn 0.9659258 0.2588188 -1.284497E-07
vn 0.9659258 0.2588187 0
vn 0.8968728 0.4422885 0
vn 0.8968729 0.4422884 0
vn 0.7933536 0.6087612 0
vn 0.7933535 0.6087613 -1.388154E-07
vn 0.659346 0.7518397 0
vn 0.6593457 0.7518399 0
vn 0.5000002 0.8660253 1.533842E-07
vn 0.5 0.8660254 0
vn 0.3214393 0.9469302 0
vn 0.3214391 0.9469302 -1.636435E-07
vn 0.1305259 0.9914449 0
vn 0.1305259 0.9914449 0
vn -0.06540313 0.9978589 0
vn -0.06540299 0.9978589 0
vn -0.258819 0.9659258 0
vn -0.2588189 0.9659258 1.08326E-07
vn -0.4422889 0.8968727 2.155989E-07
vn -0.4422889 0.8968726 2.585776E-07
vn -0.6087615 0.7933533 4.316972E-07
vn -0.6087614 0.7933533 6.776884E-07
vn -0.7518397 0.6593459 1.246121E-06
vn -0.7518396 0.659346 1.477126E-06
vn -0.8660253 0.5000002 1.560612E-06
vn -0.8660254 0.5 1.311026E-06
vn -0.9469302 0.3214396 7.501137E-07
vn -0.9469302 0.3214393 4.473972E-07
vn -0.9914449 0.1305261 4.395091E-07
vn -0.9914449 0.130526 4.090921E-07
vn -0.9978589 -0.06540301 5.372488E-07
vn -0.9978589 -0.06540299 6.52904E-07
vn -0.9659258 -0.2588187 9.714872E-07
vn -0.9659258 -0.2588188 1.034806E-06
vn -0.8968729 -0.4422884 8.484505E-07
vn -0.8968728 -0.4422885 7.010881E-07
vn -0.7933533 -0.6087614 3.477687E-07
vn -0.7933533 -0.6087614 2.489342E-07
vn -0.6593456 -0.7518401 1.44291E-07
vn -0.6593456 -0.7518401 0
vn -0.5 -0.8660254 -1.367765E-07
vn -0.5 -0.8660254 -1.59896E-07
vn -0.3214395 -0.9469302 -2.632424E-07
vn -0.3214399 -0.9469301 0
vn -0.1305262 -0.9914449 0
vn -0.1305266 -0.9914449 2.914468E-07
vn -0.3826835 0.9238794 0
vn -0.5555701 0.8314697 0
vn -0.3826836 0.9238794 0
vn -0.5555702 0.8314696 0
vn -0.7071066 0.7071069 0
vn -0.7071069 0.7071066 0
vn -0.8314694 0.5555707 0
vn -0.8314696 0.5555702 0
vn -0.9238795 0.3826833 -1.16007E-07
vn -0.9238795 0.3826834 -1.124867E-07
vn -0.9807854 0.1950897 -1.437301E-07
vn -0.9807853 0.1950907 -1.044617E-07
vn -1 0 -1.280379E-07
vn -1 0 -1.267177E-07
vn -0.9807854 -0.1950903 -1.475686E-07
vn -0.9807853 -0.1950907 -1.689984E-07
vn -0.9238795 -0.3826833 -1.794582E-07
vn -0.9238795 -0.3826833 -1.807485E-07
vn -0.8314698 -0.55557 -1.866651E-07
vn -0.8314699 -0.5555698 -1.8513E-07
vn -0.7071068 -0.7071068 -1.815863E-07
vn -0.7071068 -0.7071066 -1.767318E-07
vn -0.5555704 -0.8314695 -1.663447E-07
vn -0.5555702 -0.8314697 -1.843873E-07
vn -0.3826837 -0.9238794 -1.676949E-07
vn -0.3826841 -0.9238793 -1.548617E-07
vn -0.1950904 -0.9807853 -1.305381E-07
vn -0.1950907 -0.9807853 -1.252775E-07
vn 3.851156E-07 -1 0
vn 2.067415E-07 -1 0
vn 0.1950904 -0.9807853 0
vn 0.1950908 -0.9807853 0
vn 0.3826838 -0.9238794 0
vn 0.382684 -0.9238793 0
vn 0.5555705 -0.8314695 0
vn 0.5555696 -0.8314701 0
vn 0.707107 -0.7071065 0
vn 0.7071061 -0.7071075 0
vn 0.8314697 -0.5555702 1.225949E-07
vn 0.8314696 -0.5555702 1.163859E-07
vn 0.9238794 -0.3826837 1.54834E-07
vn 0.9238793 -0.3826839 1.602364E-07
vn 0.9807854 -0.1950901 1.920914E-07
vn 0.9807851 -0.1950913 2.353245E-07
vn 1 0 2.569733E-07
vn 1 9.600412E-07 2.159134E-07
vn 0.9807853 0.1950903 2.302565E-07
vn 0.9807851 0.1950911 1.923175E-07
vn 0.9238793 0.3826839 2.040631E-07
vn 0.9238797 0.3826829 2.449785E-07
vn 0.8314695 0.5555704 2.472553E-07
vn 0.8314697 0.5555702 2.534643E-07
vn 0.7071071 0.7071064 2.433598E-07
vn 0.7071061 0.7071075 1.765167E-07
vn 0.5555704 0.8314695 1.72337E-07
vn 0.5555699 0.8314699 1.460646E-07
vn 0.3826835 0.9238795 1.421025E-07
vn 0.3826847 0.9238789 1.946784E-07
vn 0.1950902 0.9807854 1.789577E-07
vn 0.1950907 0.9807853 1.909423E-07
vn 3.870464E-07 1 1.597768E-07
vn -7.319126E-07 1 1.102668E-07
vn -0.1950905 0.9807853 0
vn -0.1950904 0.9807853 0
vn -0.3826836 0.9238794 0
vn -0.3826835 0.9238794 0
vn -0.0006015585 0.0009002963 0.9999994
vn -0.0004172262 0.001007273 0.9999994
vn -0.0004172261 0.001007273 0.9999994
vn -0.0006015589 0.0009002962 0.9999994
vn -0.0007707645 0.0007702713 0.9999994
vn -0.0007709342 0.0007709343 0.9999994
vn -0.0008987647 0.0005998831 0.9999994
vn -0.000898572 0.0005991293 0.9999994
vn -0.001004684 0.000416154 0.9999994
vn -0.001004684 0.0004161542 0.9999994
vn -0.001059241 0.0002106964 0.9999994
vn -0.00105924 0.0002106964 0.9999994
vn -0.001087462 0 0.9999994
vn -0.001087463 0 0.9999994
vn -0.001059241 -0.0002106963 0.9999994
vn -0.001059241 -0.0002106966 0.9999994
vn -0.001004683 -0.0004161533 0.9999994
vn -0.001004683 -0.0004161534 0.9999994
vn -0.0008987641 -0.000599882 0.9999994
vn -0.000898571 -0.0005991281 0.9999994
vn -0.000770764 -0.0007702705 0.9999994
vn -0.0007709342 -0.000770934 0.9999994
vn -0.0006015581 -0.000900295 0.9999994
vn -0.0006015574 -0.000900295 0.9999994
vn -0.0004172263 -0.001007272 0.9999994
vn -0.000417226 -0.001007272 0.9999994
vn -0.0002112391 -0.001061971 0.9999994
vn -0.0002112395 -0.001061971 0.9999994
vn 0 -0.001090263 0.9999994
vn 0 -0.001090263 0.9999994
vn 0.000211239 -0.001061969 0.9999994
vn 0.0002112395 -0.00106197 0.9999994
vn 0.0004172256 -0.00100727 0.9999994
vn 0.0004172254 -0.00100727 0.9999994
vn 0.0006009007 -0.000900126 0.9999994
vn 0.0006015563 -0.0009002947 0.9999994
vn 0.0007690474 -0.0007704115 0.9999994
vn 0.0007683004 -0.0007696005 0.9999994
vn 0.0008995119 -0.0006016871 0.9999994
vn 0.0008997049 -0.0006024403 0.9999994
vn 0.001007272 -0.000417226 0.9999994
vn 0.001007272 -0.0004172256 0.9999994
vn 0.001061972 -0.0002112396 0.9999994
vn 0.001061972 -0.0002112405 0.9999994
vn 0.001090266 0 0.9999994
vn 0.001090267 0 0.9999994
vn 0.001061973 0.0002112401 0.9999994
vn 0.001061972 0.0002112405 0.9999994
vn 0.001007275 0.0004172259 0.9999994
vn 0.001007275 0.000417226 0.9999994
vn 0.0008995133 0.0006016878 0.9999994
vn 0.0008997059 0.0006024414 0.9999994
vn 0.0007690481 0.0007704117 0.9999994
vn 0.000768302 0.0007696009 0.9999994
vn 0.0006009008 0.0009001258 0.9999994
vn 0.000601556 0.0009002934 0.9999994
vn 0.000417226 0.001007271 0.9999994
vn 0.0004172254 0.001007271 0.9999994
vn 0.0002112392 0.001061972 0.9999994
vn 0.0002112398 0.001061973 0.9999994
vn 0 0.001090266 0.9999994
vn 0 0.001090266 0.9999994
vn -0.0002112392 0.001061972 0.9999994
vn -0.0002112397 0.001061972 0.9999994
vn -0.0004172262 0.001007273 0.9999994
vn -0.0004172261 0.001007273 0.9999994
vn -0.3826831 0.9238797 5.469199E-07
vn -0.5555702 0.8314696 5.698302E-07
vn -0.3826833 0.9238795 3.613625E-07
vn -0.5555704 0.8314695 6.320645E-07
vn -0.7071066 0.7071068 8.340335E-07
vn -0.7071066 0.7071068 8.212706E-07
vn -0.8314695 0.5555705 5.034962E-07
vn -0.8314695 0.5555704 1.826181E-07
vn -0.9238794 0.3826837 -5.05884E-07
vn -0.9238795 0.3826835 -7.843844E-07
vn -0.9807853 0.1950903 -9.59843E-07
vn -0.9807853 0.1950903 -9.872723E-07
vn -1 0 -1.029472E-06
vn -1 0 -1.003155E-06
vn -0.9807854 -0.1950902 -9.641111E-07
vn -0.9807853 -0.1950903 -1.045933E-06
vn -0.9238795 -0.3826835 -1.234035E-06
vn -0.9238795 -0.3826833 -1.064146E-06
vn -0.8314697 -0.5555702 -5.50867E-07
vn -0.8314699 -0.5555699 -2.03601E-07
vn -0.7071069 -0.7071066 0
vn -0.707107 -0.7071065 0
vn -0.5555707 -0.8314693 0
vn -0.5555707 -0.8314693 0
vn -0.3826837 -0.9238794 0
vn -0.3826835 -0.9238794 0
vn -0.1950904 -0.9807853 0
vn -0.19509 -0.9807854 -2.137814E-07
vn -1.223814E-07 -1 0
vn 1.853544E-07 -1 -1.488845E-07
vn 0.1950902 -0.9807854 -3.494003E-07
vn 0.1950903 -0.9807854 -3.858934E-07
vn 0.3826838 -0.9238794 -1.12642E-07
vn 0.3826839 -0.9238793 -1.068873E-07
vn 0.5555705 -0.8314695 -3.156718E-07
vn 0.5555707 -0.8314694 -4.232982E-07
vn 0.7071065 -0.7071071 -3.599858E-07
vn 0.7071065 -0.7071071 -3.599858E-07
vn 0.8314697 -0.5555701 -2.828388E-07
vn 0.8314697 -0.5555701 -2.300637E-07
vn 0.9238795 -0.3826833 0
vn 0.9238795 -0.3826833 0
vn 0.9807854 -0.1950899 0
vn 0.9807854 -0.1950902 3.86772E-07
vn 1 4.07542E-07 1.553633E-06
vn 1 0 2.051425E-06
vn 0.9807853 0.1950906 2.180755E-06
vn 0.9807853 0.1950907 2.273469E-06
vn 0.9238799 0.3826826 2.583627E-06
vn 0.9238795 0.3826834 1.648329E-06
vn 0.8314695 0.5555704 -3.910153E-07
vn 0.8314691 0.555571 -9.713355E-07
vn 0.7071073 0.7071062 2.839685E-07
vn 0.7071073 0.7071062 5.413165E-07
vn 0.5555705 0.8314695 1.798894E-07
vn 0.5555702 0.8314696 0
vn 0.3826834 0.9238795 0
vn 0.3826834 0.9238795 0
vn 0.1950896 0.9807854 0
vn 0.1950897 0.9807854 1.347719E-07
vn -1.651555E-07 1 3.752502E-07
vn 0 1 4.940586E-07
vn -0.1950902 0.9807854 1.171775E-07
vn -0.1950895 0.9807854 2.930288E-07
vn -0.3826833 0.9238795 3.613625E-07
vn -0.3826831 0.9238797 5.469199E-07
vn 0 0 1
vn 0 0 1
vn 0 0 1
vn 0 0 1
vn 0 0 1
vn 0 0 1
vn 0 0 1
vn 0 0 1
vn 0 0 1
vn 0 0 1
vn 0 0 1
vn 0 0 1
vn 0 0 1
vn 6.504304E-07 3.207565E-07 1
vn 6.415132E-07 -1.30086E-06 1
vn -6.5043E-07 -3.207569E-07 1
vn 0 0 1
vn 0 0 1
vn 0 0 1
vn 0 0 1
vn 0 0 1
vn 0 0 1
vn 4.183676E-07 3.210247E-07 1
vn 4.183676E-07 3.210247E-07 1
vn 4.183676E-07 3.210248E-07 1
vn 0 0 1
vn 0 0 1
vn -5.228293E-07 0 1
vn -6.867327E-07 2.331143E-07 1
vn -5.228294E-07 0 1
vn -5.228293E-07 0 1
vn 1.018745E-06 2.729719E-07 1
vn 1.447336E-06 0 1
vn 1.018745E-06 2.729719E-07 1
vn 1.018745E-06 2.729719E-07 1
vn -4.183677E-07 -3.210249E-07 1
vn -4.183677E-07 -3.210249E-07 1
vn -4.183677E-07 -3.210249E-07 1
vn 0 0 1
vn 0 0 1
vn 0 0 1
vn 0 0 1
vn 0 0 1
vn 0 0 1
vn 0 0 1
vn -1.364858E-07 5.093726E-07 1
vn 0 7.236676E-07 1
vn -1.364858E-07 5.093726E-07 1
vn -1.364858E-07 5.093726E-07 1
vn 6.420495E-07 -8.36735E-07 1
vn 6.420495E-07 -8.367351E-07 1
vn 6.420495E-07 -8.367351E-07 1
vn -4.566908E-07 2.636706E-07 1
vn -5.452496E-07 4.781713E-07 1
vn 0 0 1
vn -4.566908E-07 2.636706E-07 1
vn -4.566908E-07 2.636706E-07 1
vn 0 0 1
vn 0 0 1
vn 0 0 1
vn 0 0 1
vn 0 0 1
vn 0 0 1
vn 0 0 1
vn 0 0 -1
vn 0 0 -1
vn 0 0 -1
vn 0 0 -1
vn 0 0 -1
vn 0 0 -1
vn 0 0 -1
vn 0 0 -1
vn -4.756254E-07 1.77506E-06 -1
vn -1.821956E-06 2.398656E-07 -1
vn -1.821956E-06 2.398656E-07 -1
vn -1.821956E-06 2.398656E-07 -1
vn -2.408367E-06 -1.578523E-07 -1
vn 0 0 -1
vn 1.814592E-06 -1.591355E-06 -1
vn 0 0 -1
vn 0 0 -1
vn -1.067479E-06 2.164634E-06 -1
vn 0 0 -1
vn 0 0 -1
vn 0 0 -1
vn 0 0 -1
vn 0 0 -1
vn 0 0 -1
vn 0 0 -1
vn -4.756254E-07 1.775061E-06 -1
vn -4.756253E-07 1.77506E-06 -1
vn 0 0 -1
vn 0 0 -1
vn 0 0 -1
vn 0 0 -1
vn 0 0 -1
vn 0 0 -1
vn 0 0 -1
vn 0 0 -1
vn 0 0 -1
vn 0 0 -1
vn 0 0 -1
vn 0 0 -1
vn 0 0 -1
vn 0 0 -1
vn 0 0 -1
vn 0 0 -1
vn 0 0 -1
vn 0 0 -1
vn 0 0 -1
vn 0 0 -1
vn 0 0 -1
vn 0 0 -1
vn 1.118707E-06 -1.457928E-06 -1
vn 1.118707E-06 -1.457928E-06 -1
vn 1.118707E-06 -1.457928E-06 -1
vn 0 0 -1
vn 0 0 -1
vn 0 0 -1
vn 0 0 -1
vn 0 0 -1
vn 0 0 -1
vn 0 0 -1
vn 0 0 -1
vn 0 0 -1
vn 0 0 -1
vn 0 0 -1
vn 0 0 -1
vn 0 0 1
vn 0 0 1
vn 0 0 1
vn 0 0 1
vn 0 0 1
vn 0 0 1
vn 0 0 1
vn 0 0 1
vn 0 0 1
vn 0 0 1
vn 0 0 1
vn 0 0 1
vn 0 0 1
vn -4.029107E-07 -6.029986E-07 1
vn -1.205996E-06 8.058209E-07 1
vn 4.029104E-07 6.029982E-07 1
vn 0 0 1
vn 0 0 1
vn 0 0 1
vn 0 0 1
vn 0 0 1
vn 0 0 1
vn -2.018045E-07 -4.871994E-07 1
vn -2.018045E-07 -4.871994E-07 1
vn -2.018045E-07 -4.871994E-07 1
vn 0 0 1
vn 0 0 1
vn 4.87198E-07 2.018052E-07 1
vn 7.112867E-07 1.414833E-07 1
vn 4.871979E-07 2.018052E-07 1
vn 4.87198E-07 2.018052E-07 1
vn -7.457735E-07 -7.457731E-07 1
vn -1.205996E-06 -8.058216E-07 1
vn -7.457735E-07 -7.457731E-07 1
vn -7.457735E-07 -7.457731E-07 1
vn 2.018044E-07 4.871994E-07 1
vn 2.018044E-07 4.871994E-07 1
vn 2.018044E-07 4.871994E-07 1
vn 0 0 1
vn 0 0 1
vn 0 0 1
vn 0 0 1
vn 0 0 1
vn 0 0 1
vn 0 0 1
vn 3.728867E-07 -3.728864E-07 1
vn 4.029112E-07 -6.029987E-07 1
vn 3.728867E-07 -3.728864E-07 1
vn 3.728867E-07 -3.728863E-07 1
vn -9.743987E-07 4.036098E-07 1
vn -9.743987E-07 4.036098E-07 1
vn -9.743987E-07 4.036098E-07 1
vn 5.273405E-07 0 1
vn 7.112865E-07 -1.414844E-07 1
vn 0 0 1
vn 5.273404E-07 0 1
vn 5.273404E-07 0 1
vn 0 0 1
vn 0 0 1
vn 0 0 1
vn 0 0 1
vn 0 0 1
vn 0 0 1
vn 0 0 1
vn 0 0 -1
vn 0 0 -1
vn 0 0 -1
vn 0 0 -1
vn 0 0 -1
vn 0 0 -1
vn 0 0 -1
vn 0 0 -1
vn 1.299433E-06 -1.299433E-06 -1
vn 1.697792E-06 7.032484E-07 -1
vn 1.697792E-06 7.032484E-07 -1
vn 1.697792E-06 7.032484E-07 -1
vn 2.00678E-06 1.340887E-06 -1
vn 0 0 -1
vn -2.367161E-06 4.708567E-07 -1
vn 0 0 -1
vn 0 0 -1
vn 2.006775E-06 -1.340886E-06 -1
vn 0 0 -1
vn 0 0 -1
vn 0 0 -1
vn 0 0 -1
vn 0 0 -1
vn 0 0 -1
vn 0 0 -1
vn 1.299433E-06 -1.299433E-06 -1
vn 1.299433E-06 -1.299433E-06 -1
vn 0 0 -1
vn 0 0 -1
vn 0 0 -1
vn 0 0 -1
vn 0 0 -1
vn 0 0 -1
vn 0 0 -1
vn 0 0 -1
vn 0 0 -1
vn 0 0 -1
vn 0 0 -1
vn 0 0 -1
vn 0 0 -1
vn 0 0 -1
vn 0 0 -1
vn 0 0 -1
vn 0 0 -1
vn 0 0 -1
vn 0 0 -1
vn 0 0 -1
vn 0 0 -1
vn 0 0 -1
vn -1.697793E-06 7.032488E-07 -1
vn -1.697793E-06 7.032488E-07 -1
vn -1.697793E-06 7.032488E-07 -1
vn 0 0 -1
vn 0 0 -1
vn 0 0 -1
vn 0 0 -1
vn 0 0 -1
vn 0 0 -1
vn 0 0 -1
vn 0 0 -1
vn 0 0 -1
vn 0 0 -1
vn 0 0 -1
vn 0 0 -1
f 1/1/1 2/2/2 3/3/3
f 2/2/2 1/1/1 4/4/4
f 4/4/4 5/5/5 2/2/2
f 5/5/5 4/4/4 6/6/6
f 6/6/6 7/7/7 5/5/5
f 7/7/7 6/6/6 8/8/8
f 8/8/8 9/9/9 7/7/7
f 9/9/9 8/8/8 10/10/10
f 10/10/10 11/11/11 9/9/9
f 11/11/11 10/10/10 12/12/12
f 12/12/12 13/13/13 11/11/11
f 13/13/13 12/12/12 14/14/14
f 14/14/14 15/15/15 13/13/13
f 15/15/15 14/14/14 16/16/16
f 16/16/16 17/17/17 15/15/15
f 17/17/17 16/16/16 18/18/18
f 18/18/18 19/19/19 17/17/17
f 19/19/19 18/18/18 20/20/20
f 20/20/20 21/21/21 19/19/19
f 21/21/21 20/20/20 22/22/22
f 22/22/22 23/23/23 21/21/21
f 23/23/23 22/22/22 24/24/24
f 24/24/24 25/25/25 23/23/23
f 25/25/25 24/24/24 26/26/26
f 26/26/26 27/27/27 25/25/25
f 27/27/27 26/26/26 28/28/28
f 28/28/28 29/29/29 27/27/27
f 29/29/29 28/28/28 30/30/30
f 30/30/30 31/31/31 29/29/29
f 31/31/31 30/30/30 32/32/32
f 32/32/32 33/33/33 31/31/31
f 33/33/33 32/32/32 34/34/34
f 34/34/34 35/35/35 33/33/33
f 35/35/35 34/34/34 36/36/36
f 36/36/36 37/37/37 35/35/35
f 37/37/37 36/36/36 38/38/38
f 38/38/38 39/39/39 37/37/37
f 39/39/39 38/38/38 40/40/40
f 40/40/40 41/41/41 39/39/39
f 41/41/41 40/40/40 42/42/42
f 42/42/42 43/43/43 41/41/41
f 43/43/43 42/42/42 44/44/44
f 44/44/44 45/45/45 43/43/43
f 45/45/45 44/44/44 46/46/46
f 46/46/46 47/47/47 45/45/45
f 47/47/47 46/46/46 48/48/48
f 48/48/48 49/49/49 47/47/47
f 49/49/49 48/48/48 50/50/50
f 50/50/50 51/51/51 49/49/49
f 51/51/51 50/50/50 52/52/52
f 52/52/52 53/53/53 51/51/51
f 53/53/53 52/52/52 54/54/54
f 54/54/54 55/55/55 53/53/53
f 55/55/55 54/54/54 56/56/56
f 56/56/56 57/57/57 55/55/55
f 57/57/57 56/56/56 58/58/58
f 58/58/58 59/59/59 57/57/57
f 59/59/59 58/58/58 60/60/60
f 60/60/60 61/61/61 59/59/59
f 61/61/61 60/60/60 62/62/62
f 62/62/62 63/63/63 61/61/61
f 63/63/63 62/62/62 64/64/64
f 64/64/64 65/65/65 63/63/63
f 65/65/65 64/64/64 66/66/66
f 67/67/67 68/68/68 69/69/69
f 68/68/68 67/67/67 70/70/70
f 67/67/67 71/71/71 70/70/70
f 71/71/71 67/67/67 72/72/72
f 73/73/73 71/71/71 72/72/72
f 71/71/71 73/73/73 74/74/74
f 73/73/73 75/75/75 74/74/74
f 75/75/75 73/73/73 76/76/76
f 77/77/77 75/75/75 76/76/76
f 75/75/75 77/77/77 78/78/78
f 77/77/77 79/79/79 78/78/78
f 79/79/79 77/77/77 80/80/80
f 81/81/81 79/79/79 80/80/80
f 79/79/79 81/81/81 82/82/82
f 81/81/81 83/83/83 82/82/82
f 83/83/83 81/81/81 84/84/84
f 85/85/85 83/83/83 84/84/84
f 83/83/83 85/85/85 86/86/86
f 85/85/85 87/87/87 86/86/86
f 87/87/87 85/85/85 88/88/88
f 89/89/89 87/87/87 88/88/88
f 87/87/87 89/89/89 90/90/90
f 89/89/89 91/91/91 90/90/90
f 91/91/91 89/89/89 92/92/92
f 93/93/93 91/91/91 92/92/92
f 91/91/91 93/93/93 94/94/94
f 93/93/93 95/95/95 94/94/94
f 95/95/95 93/93/93 96/96/96
f 97/97/97 95/95/95 96/96/96
f 95/95/95 97/97/97 98/98/98
f 97/97/97 99/99/99 98/98/98
f 99/99/99 97/97/97 100/100/100
f 101/101/101 99/99/99 100/100/100
f 99/99/99 101/101/101 102/102/102
f 101/101/101 103/103/103 102/102/102
f 103/103/103 101/101/101 104/104/104
f 105/105/105 103/103/103 104/104/104
f 103/103/103 105/105/105 106/106/106
f 105/105/105 107/107/107 106/106/106
f 107/107/107 105/105/105 108/108/108
f 109/109/109 107/107/107 108/108/108
f 107/107/107 109/109/109 110/110/110
f 109/109/109 111/111/111 110/110/110
f 111/111/111 109/109/109 112/112/112
f 113/113/113 111/111/111 112/112/112
f 111/111/111 113/113/113 114/114/114
f 113/113/113 115/115/115 114/114/114
f 115/115/115 113/113/113 116/116/116
f 117/117/117 115/115/115 116/116/116
f 115/115/115 117/117/117 118/118/118
f 117/117/117 119/119/119 118/118/118
f 119/119/119 117/117/117 120/120/120
f 121/121/121 119/119/119 120/120/120
f 119/119/119 121/121/121 122/122/122
f 121/121/121 123/123/123 122/122/122
f 123/123/123 121/121/121 124/124/124
f 125/125/125 123/123/123 124/124/124
f 123/123/123 125/125/125 126/126/126
f 125/125/125 127/127/127 126/126/126
f 127/127/127 125/125/125 128/128/128
f 129/129/129 127/127/127 128/128/128
f 127/127/127 129/129/129 130/130/130
f 129/129/129 131/131/131 130/130/130
f 131/131/131 129/129/129 132/132/132
f 133/133/133 134/134/134 135/135/135
f 134/134/134 133/133/133 136/136/136
f 136/136/136 137/137/137 134/134/134
f 137/137/137 136/136/136 138/138/138
f 138/138/138 139/139/139 137/137/137
f 139/139/139 138/138/138 140/140/140
f 140/140/140 141/141/141 139/139/139
f 141/141/141 140/140/140 142/142/142
f 142/142/142 143/143/143 141/141/141
f 143/143/143 142/142/142 144/144/144
f 144/144/144 145/145/145 143/143/143
f 145/145/145 144/144/144 146/146/146
f 146/146/146 147/147/147 145/145/145
f 147/147/147 146/146/146 148/148/148
f 148/148/148 149/149/149 147/147/147
f 149/149/149 148/148/148 150/150/150
f 150/150/150 151/151/151 149/149/149
f 151/151/151 150/150/150 152/152/152
f 152/152/152 153/153/153 151/151/151
f 153/153/153 152/152/152 154/154/154
f 154/154/154 155/155/155 153/153/153
f 155/155/155 154/154/154 156/156/156
f 156/156/156 157/157/157 155/155/155
f 157/157/157 156/156/156 158/158/158
f 158/158/158 159/159/159 157/157/157
f 159/159/159 158/158/158 160/160/160
f 160/160/160 161/161/161 159/159/159
f 161/161/161 160/160/160 162/162/162
f 162/162/162 163/163/163 161/161/161
f 163/163/163 162/162/162 164/164/164
f 164/164/164 165/165/165 163/163/163
f 165/165/165 164/164/164 166/166/166
f 166/166/166 167/167/167 165/165/165
f 167/167/167 166/166/166 168/168/168
f 168/168/168 169/169/169 167/167/167
f 169/169/169 168/168/168 170/170/170
f 170/170/170 171/171/171 169/169/169
f 171/171/171 170/170/170 172/172/172
f 172/172/172 173/173/173 171/171/171
f 173/173/173 172/172/172 174/174/174
f 174/174/174 175/175/175 173/173/173
f 175/175/175 174/174/174 176/176/176
f 176/176/176 177/177/177 175/175/175
f 177/177/177 176/176/176 178/178/178
f 178/178/178 179/179/179 177/177/177
f 179/179/179 178/178/178 180/180/180
f 180/180/180 181/181/181 179/179/179
f 181/181/181 180/180/180 182/182/182
f 182/182/182 183/183/183 181/181/181
f 183/183/183 182/182/182 184/184/184
f 184/184/184 185/185/185 183/183/183
f 185/185/185 184/184/184 186/186/186
f 186/186/186 187/187/187 185/185/185
f 187/187/187 186/186/186 188/188/188
f 188/188/188 189/189/189 187/187/187
f 189/189/189 188/188/188 190/190/190
f 190/190/190 191/191/191 189/189/189
f 191/191/191 190/190/190 192/192/192
f 192/192/192 193/193/193 191/191/191
f 193/193/193 192/192/192 194/194/194
f 194/194/194 195/195/195 193/193/193
f 195/195/195 194/194/194 196/196/196
f 196/196/196 197/197/197 195/195/195
f 197/197/197 196/196/196 198/198/198
f 199/199/199 200/200/200 201/201/201
f 200/200/200 199/199/199 202/202/202
f 202/202/202 203/203/203 200/200/200
f 203/203/203 202/202/202 204/204/204
f 204/204/204 205/205/205 203/203/203
f 205/205/205 204/204/204 206/206/206
f 206/206/206 207/207/207 205/205/205
f 207/207/207 206/206/206 208/208/208
f 208/208/208 209/209/209 207/207/207
f 209/209/209 208/208/208 210/210/210
f 210/210/210 211/211/211 209/209/209
f 211/211/211 210/210/210 212/212/212
f 212/212/212 213/213/213 211/211/211
f 213/213/213 212/212/212 214/214/214
f 214/214/214 215/215/215 213/213/213
f 215/215/215 214/214/214 216/216/216
f 216/216/216 217/217/217 215/215/215
f 217/217/217 216/216/216 218/218/218
f 218/218/218 219/219/219 217/217/217
f 219/219/219 218/218/218 220/220/220
f 220/220/220 221/221/221 219/219/219
f 221/221/221 220/220/220 222/222/222
f 222/222/222 223/223/223 221/221/221
f 223/223/223 222/222/222 224/224/224
f 224/224/224 225/225/225 223/223/223
f 225/225/225 224/224/224 226/226/226
f 226/226/226 227/227/227 225/225/225
f 227/227/227 226/226/226 228/228/228
f 228/228/228 229/229/229 227/227/227
f 229/229/229 228/228/228 230/230/230
f 230/230/230 231/231/231 229/229/229
f 231/231/231 230/230/230 232/232/232
f 232/232/232 233/233/233 231/231/231
f 233/233/233 232/232/232 234/234/234
f 234/234/234 235/235/235 233/233/233
f 235/235/235 234/234/234 236/236/236
f 236/236/236 237/237/237 235/235/235
f 237/237/237 236/236/236 238/238/238
f 238/238/238 239/239/239 237/237/237
f 239/239/239 238/238/238 240/240/240
f 240/240/240 241/241/241 239/239/239
f 241/241/241 240/240/240 242/242/242
f 242/242/242 243/243/243 241/241/241
f 243/243/243 242/242/242 244/244/244
f 244/244/244 245/245/245 243/243/243
f 245/245/245 244/244/244 246/246/246
f 246/246/246 247/247/247 245/245/245
f 247/247/247 246/246/246 248/248/248
f 248/248/248 249/249/249 247/247/247
f 249/249/249 248/248/248 250/250/250
f 250/250/250 251/251/251 249/249/249
f 251/251/251 250/250/250 252/252/252
f 252/252/252 253/253/253 251/251/251
f 253/253/253 252/252/252 254/254/254
f 254/254/254 255/255/255 253/253/253
f 255/255/255 254/254/254 256/256/256
f 256/256/256 257/257/257 255/255/255
f 257/257/257 256/256/256 258/258/258
f 258/258/258 259/259/259 257/257/257
f 259/259/259 258/258/258 260/260/260
f 260/260/260 261/261/261 259/259/259
f 261/261/261 260/260/260 262/262/262
f 262/262/262 263/263/263 261/261/261
f 263/263/263 262/262/262 264/264/264
f 265/265/265 266/266/266 267/267/267
f 266/266/266 265/265/265 268/268/268
f 265/265/265 269/269/269 268/268/268
f 269/269/269 265/265/265 270/270/270
f 271/271/271 269/269/269 270/270/270
f 269/269/269 271/271/271 272/272/272
f 271/271/271 273/273/273 272/272/272
f 273/273/273 271/271/271 274/274/274
f 275/275/275 273/273/273 274/274/274
f 273/273/273 275/275/275 276/276/276
f 275/275/275 277/277/277 276/276/276
f 277/277/277 275/275/275 278/278/278
f 279/279/279 277/277/277 278/278/278
f 277/277/277 279/279/279 280/280/280
f 279/279/279 281/281/281 280/280/280
f 281/281/281 279/279/279 282/282/282
f 283/283/283 281/281/281 282/282/282
f 281/281/281 283/283/283 284/284/284
f 283/283/283 285/285/285 284/284/284
f 285/285/285 283/283/283 286/286/286
f 287/287/287 285/285/285 286/286/286
f 285/285/285 287/287/287 288/288/288
f 287/287/287 289/289/289 288/288/288
f 289/289/289 287/287/287 290/290/290
f 291/291/291 289/289/289 290/290/290
f 289/289/289 291/291/291 292/292/292
f 291/291/291 293/293/293 292/292/292
f 293/293/293 291/291/291 294/294/294
f 295/295/295 293/293/293 294/294/294
f 293/293/293 295/295/295 296/296/296
f 295/295/295 297/297/297 296/296/296
f 297/297/297 295/295/295 298/298/298
f 299/299/299 297/297/297 298/298/298
f 297/297/297 299/299/299 300/300/300
f 299/299/299 301/301/301 300/300/300
f 301/301/301 299/299/299 302/302/302
f 303/303/303 301/301/301 302/302/302
f 301/301/301 303/303/303 304/304/304
f 303/303/303 305/305/305 304/304/304
f 305/305/305 303/303/303 306/306/306
f 307/307/307 305/305/305 306/306/306
f 305/305/305 307/307/307 308/308/308
f 307/307/307 309/309/309 308/308/308
f 309/309/309 307/307/307 310/310/310
f 311/311/311 309/309/309 310/310/310
f 309/309/309 311/311/311 312/312/312
f 311/311/311 313/313/313 312/312/312
f 313/313/313 311/311/311 314/314/314
f 315/315/315 313/313/313 314/314/314
f 313/313/313 315/315/315 316/316/316
f 315/315/315 317/317/317 316/316/316
f 317/317/317 315/315/315 318/318/318
f 319/319/319 317/317/317 318/318/318
f 317/317/317 319/319/319 320/320/320
f 319/319/319 321/321/321 320/320/320
f 321/321/321 319/319/319 322/322/322
f 323/323/323 321/321/321 322/322/322
f 321/321/321 323/323/323 324/324/324
f 323/323/323 325/325/325 324/324/324
f 325/325/325 323/323/323 326/326/326
f 327/327/327 325/325/325 326/326/326
f 325/325/325 327/327/327 328/328/328
f 327/327/327 329/329/329 328/328/328
f 329/329/329 327/327/327 330/330/330
f 331/331/331 332/332/332 333/333/333
f 332/332/332 331/331/331 334/334/334
f 334/334/334 335/335/335 332/332/332
f 335/335/335 334/334/334 336/336/336
f 336/336/336 337/337/337 335/335/335
f 337/337/337 336/336/336 338/338/338
f 338/338/338 339/339/339 337/337/337
f 339/339/339 338/338/338 340/340/340
f 340/340/340 341/341/341 339/339/339
f 341/341/341 340/340/340 342/342/342
f 342/342/342 343/343/343 341/341/341
f 343/343/343 342/342/342 344/344/344
f 344/344/344 345/345/345 343/343/343
f 345/345/345 344/344/344 346/346/346
f 346/346/346 347/347/347 345/345/345
f 347/347/347 346/346/346 348/348/348
f 348/348/348 349/349/349 347/347/347
f 349/349/349 348/348/348 350/350/350
f 350/350/350 351/351/351 349/349/349
f 351/351/351 350/350/350 352/352/352
f 352/352/352 353/353/353 351/351/351
f 353/353/353 352/352/352 354/354/354
f 354/354/354 355/355/355 353/353/353
f 355/355/355 354/354/354 356/356/356
f 356/356/356 357/357/357 355/355/355
f 357/357/357 356/356/356 358/358/358
f 358/358/358 359/359/359 357/357/357
f 359/359/359 358/358/358 360/360/360
f 360/360/360 361/361/361 359/359/359
f 361/361/361 360/360/360 362/362/362
f 362/362/362 363/363/363 361/361/361
f 363/363/363 362/362/362 364/364/364
f 364/364/364 365/365/365 363/363/363
f 365/365/365 364/364/364 366/366/366
f 366/366/366 367/367/367 365/365/365
f 367/367/367 366/366/366 368/368/368
f 368/368/368 369/369/369 367/367/367
f 369/369/369 368/368/368 370/370/370
f 370/370/370 371/371/371 369/369/369
f 371/371/371 370/370/370 372/372/372
f 372/372/372 373/373/373 371/371/371
f 373/373/373 372/372/372 374/374/374
f 374/374/374 375/375/375 373/373/373
f 375/375/375 374/374/374 376/376/376
f 376/376/376 377/377/377 375/375/375
f 377/377/377 376/376/376 378/378/378
f 378/378/378 379/379/379 377/377/377
f 379/379/379 378/378/378 380/380/380
f 380/380/380 381/381/381 379/379/379
f 381/381/381 380/380/380 382/382/382
f 382/382/382 383/383/383 381/381/381
f 383/383/383 382/382/382 384/384/384
f 384/384/384 385/385/385 383/383/383
f 385/385/385 384/384/384 386/386/386
f 386/386/386 387/387/387 385/385/385
f 387/387/387 386/386/386 388/388/388
f 388/388/388 389/389/389 387/387/387
f 389/389/389 388/388/388 390/390/390
f 390/390/390 391/391/391 389/389/389
f 391/391/391 390/390/390 392/392/392
f 392/392/392 393/393/393 391/391/391
f 393/393/393 392/392/392 394/394/394
f 394/394/394 395/395/395 393/393/393
f 395/395/395 394/394/394 396/396/396
f 397/397/397 398/398/398 399/399/399
f 400/400/400 397/397/397 399/399/399
f 397/397/397 400/400/400 401/401/401
f 401/401/401 402/402/402 397/397/397
f 398/398/398 397/397/397 402/402/402
f 400/400/400 403/403/403 401/401/401
f 403/403/403 400/400/400 404/404/404
f 405/405/405 403/403/403 404/404/404
f 406/406/406 398/398/398 402/402/402
f 398/398/398 406/406/406 407/407/407
f 406/406/406 408/408/408 407/407/407
f 402/402/402 409/409/409 406/406/406
f 408/408/408 406/406/406 409/409/409
f 401/401/401 409/409/409 402/402/402
f 401/401/401 410/410/410 409/409/409
f 401/401/401 411/411/411 410/410/410
f 401/401/401 412/412/412 411/411/411
f 411/411/411 412/412/412 413/413/413
f 403/403/403 405/405/405 414/414/414
f 414/414/414 401/401/401 403/403/403
f 415/415/415 408/408/408 409/409/409
f 408/408/408 415/415/415 416/416/416
f 415/415/415 417/417/417 416/416/416
f 409/409/409 418/418/418 415/415/415
f 417/417/417 415/415/415 418/418/418
f 409/409/409 410/410/410 418/418/418
f 419/419/419 417/417/417 418/418/418
f 418/418/418 410/410/410 419/419/419
f 417/417/417 419/419/419 420/420/420
f 419/419/419 421/421/421 420/420/420
f 421/421/421 419/419/419 410/410/410
f 405/405/405 422/422/422 414/414/414
f 422/422/422 405/405/405 423/423/423
f 424/424/424 422/422/422 423/423/423
f 414/414/414 422/422/422 425/425/425
f 422/422/422 424/424/424 425/425/425
f 414/414/414 425/425/425 401/401/401
f 401/401/401 425/425/425 412/412/412
f 424/424/424 426/426/426 425/425/425
f 426/426/426 424/424/424 427/427/427
f 428/428/428 426/426/426 427/427/427
f 429/429/429 425/425/425 426/426/426
f 426/426/426 428/428/428 429/429/429
f 412/412/412 425/425/425 429/429/429
f 428/428/428 430/430/430 429/429/429
f 412/412/412 429/429/429 430/430/430
f 430/430/430 428/428/428 431/431/431
f 432/432/432 430/430/430 431/431/431
f 430/430/430 432/432/432 412/412/412
f 432/432/432 433/433/433 412/412/412
f 433/433/433 432/432/432 434/434/434
f 435/435/435 433/433/433 434/434/434
f 436/436/436 412/412/412 433/433/433
f 433/433/433 435/435/435 436/436/436
f 413/413/413 412/412/412 436/436/436
f 435/435/435 437/437/437 436/436/436
f 413/413/413 436/436/436 437/437/437
f 437/437/437 435/435/435 438/438/438
f 439/439/439 437/437/437 438/438/438
f 437/437/437 439/439/439 413/413/413
f 439/439/439 440/440/440 413/413/413
f 440/440/440 439/439/439 441/441/441
f 442/442/442 440/440/440 441/441/441
f 443/443/443 413/413/413 440/440/440
f 440/440/440 442/442/442 443/443/443
f 411/411/411 413/413/413 443/443/443
f 442/442/442 444/444/444 443/443/443
f 411/411/411 443/443/443 444/444/444
f 444/444/444 442/442/442 445/445/445
f 446/446/446 444/444/444 445/445/445
f 444/444/444 446/446/446 411/411/411
f 446/446/446 447/447/447 411/411/411
f 447/447/447 446/446/446 448/448/448
f 449/449/449 447/447/447 448/448/448
f 450/450/450 411/411/411 447/447/447
f 447/447/447 449/449/449 450/450/450
f 451/451/451 411/411/411 450/450/450
f 410/410/410 411/411/411 451/451/451
f 449/449/449 452/452/452 450/450/450
f 451/451/451 450/450/450 452/452/452
f 452/452/452 449/449/449 453/453/453
f 454/454/454 452/452/452 453/453/453
f 452/452/452 454/454/454 451/451/451
f 454/454/454 455/455/455 451/451/451
f 455/455/455 454/454/454 456/456/456
f 457/457/457 455/455/455 456/456/456
f 458/458/458 451/451/451 455/455/455
f 410/410/410 451/451/451 458/458/458
f 455/455/455 457/457/457 458/458/458
f 410/410/410 458/458/458 459/459/459
f 457/457/457 459/459/459 458/458/458
f 459/459/459 421/421/421 410/410/410
f 459/459/459 457/457/457 460/460/460
f 421/421/421 459/459/459 460/460/460
f 461/461/461 462/462/462 463/463/463
f 464/464/464 461/461/461 463/463/463
f 461/461/461 464/464/464 465/465/465
f 465/465/465 466/466/466 461/461/461
f 462/462/462 461/461/461 466/466/466
f 464/464/464 467/467/467 465/465/465
f 467/467/467 464/464/464 468/468/468
f 469/469/469 467/467/467 468/468/468
f 470/470/470 462/462/462 466/466/466
f 462/462/462 470/470/470 471/471/471
f 470/470/470 472/472/472 471/471/471
f 466/466/466 473/473/473 470/470/470
f 472/472/472 470/470/470 473/473/473
f 465/465/465 473/473/473 466/466/466
f 465/465/465 474/474/474 473/473/473
f 465/465/465 475/475/475 474/474/474
f 465/465/465 476/476/476 475/475/475
f 475/475/475 476/476/476 477/477/477
f 467/467/467 469/469/469 478/478/478
f 478/478/478 465/465/465 467/467/467
f 479/479/479 472/472/472 473/473/473
f 472/472/472 479/479/479 480/480/480
f 479/479/479 481/481/481 480/480/480
f 473/473/473 482/482/482 479/479/479
f 481/481/481 479/479/479 482/482/482
f 473/473/473 474/474/474 482/482/482
f 483/483/483 481/481/481 482/482/482
f 482/482/482 474/474/474 483/483/483
f 481/481/481 483/483/483 484/484/484
f 483/483/483 485/485/485 484/484/484
f 485/485/485 483/483/483 474/474/474
f 469/469/469 486/486/486 478/478/478
f 486/486/486 469/469/469 487/487/487
f 488/488/488 486/486/486 487/487/487
f 478/478/478 486/486/486 489/489/489
f 486/486/486 488/488/488 489/489/489
f 478/478/478 489/489/489 465/465/465
f 465/465/465 489/489/489 476/476/476
f 488/488/488 490/490/490 489/489/489
f 490/490/490 488/488/488 491/491/491
f 492/492/492 490/490/490 491/491/491
f 493/493/493 489/489/489 490/490/490
f 490/490/490 492/492/492 493/493/493
f 476/476/476 489/489/489 493/493/493
f 492/492/492 494/494/494 493/493/493
f 476/476/476 493/493/493 494/494/494
f 494/494/494 492/492/492 495/495/495
f 496/496/496 494/494/494 495/495/495
f 494/494/494 496/496/496 476/476/476
f 496/496/496 497/497/497 476/476/476
f 497/497/497 496/496/496 498/498/498
f 499/499/499 497/497/497 498/498/498
f 500/500/500 476/476/476 497/497/497
f 497/497/497 499/499/499 500/500/500
f 477/477/477 476/476/476 500/500/500
f 499/499/499 501/501/501 500/500/500
f 477/477/477 500/500/500 501/501/501
f 501/501/501 499/499/499 502/502/502
f 503/503/503 501/501/501 502/502/502
f 501/501/501 503/503/503 477/477/477
f 503/503/503 504/504/504 477/477/477
f 504/504/504 503/503/503 505/505/505
f 506/506/506 504/504/504 505/505/505
f 507/507/507 477/477/477 504/504/504
f 504/504/504 506/506/506 507/507/507
f 475/475/475 477/477/477 507/507/507
f 506/506/506 508/508/508 507/507/507
f 475/475/475 507/507/507 508/508/508
f 508/508/508 506/506/506 509/509/509
f 510/510/510 508/508/508 509/509/509
f 508/508/508 510/510/510 475/475/475
f 510/510/510 511/511/511 475/475/475
f 511/511/511 510/510/510 512/512/512
f 513/513/513 511/511/511 512/512/512
f 514/514/514 475/475/475 511/511/511
f 511/511/511 513/513/513 514/514/514
f 515/515/515 475/475/475 514/514/514
f 474/474/474 475/475/475 515/515/515
f 513/513/513 516/516/516 514/514/514
f 515/515/515 514/514/514 516/516/516
f 516/516/516 513/513/513 517/517/517
f 518/518/518 516/516/516 517/517/517
f 516/516/516 518/518/518 515/515/515
f 518/518/518 519/519/519 515/515/515
f 519/519/519 518/518/518 520/520/520
f 521/521/521 519/519/519 520/520/520
f 522/522/522 515/515/515 519/519/519
f 474/474/474 515/515/515 522/522/522
f 519/519/519 521/521/521 522/522/522
f 474/474/474 522/522/522 523/523/523
f 521/521/521 523/523/523 522/522/522
f 523/523/523 485/485/485 474/474/474
f 523/523/523 521/521/521 524/524/524
f 485/485/485 523/523/523 524/524/524
f 525/525/525 526/526/526 527/527/527
f 528/528/528 525/525/525 527/527/527
f 525/525/525 528/528/528 529/529/529
f 529/529/529 530/530/530 525/525/525
f 526/526/526 525/525/525 530/530/530
f 528/528/528 531/531/531 529/529/529
f 531/531/531 528/528/528 532/532/532
f 533/533/533 531/531/531 532/532/532
f 534/534/534 526/526/526 530/530/530
f 526/526/526 534/534/534 535/535/535
f 534/534/534 536/536/536 535/535/535
f 530/530/530 537/537/537 534/534/534
f 536/536/536 534/534/534 537/537/537
f 529/529/529 537/537/537 530/530/530
f 529/529/529 538/538/538 537/537/537
f 529/529/529 539/539/539 538/538/538
f 529/529/529 540/540/540 539/539/539
f 539/539/539 540/540/540 541/541/541
f 531/531/531 533/533/533 542/542/542
f 542/542/542 529/529/529 531/531/531
f 543/543/543 536/536/536 537/537/537
f 536/536/536 543/543/543 544/544/544
f 543/543/543 545/545/545 544/544/544
f 537/537/537 546/546/546 543/543/543
f 545/545/545 543/543/543 546/546/546
f 537/537/537 538/538/538 546/546/546
f 547/547/547 545/545/545 546/546/546
f 546/546/546 538/538/538 547/547/547
f 545/545/545 547/547/547 548/548/548
f 547/547/547 549/549/549 548/548/548
f 549/549/549 547/547/547 538/538/538
f 533/533/533 550/550/550 542/542/542
f 550/550/550 533/533/533 551/551/551
f 552/552/552 550/550/550 551/551/551
f 542/542/542 550/550/550 553/553/553
f 550/550/550 552/552/552 553/553/553
f 542/542/542 553/553/553 529/529/529
f 529/529/529 553/553/553 540/540/540
f 552/552/552 554/554/554 553/553/553
f 554/554/554 552/552/552 555/555/555
f 556/556/556 554/554/554 555/555/555
f 557/557/557 553/553/553 554/554/554
f 554/554/554 556/556/556 557/557/557
f 540/540/540 553/553/553 557/557/557
f 556/556/556 558/558/558 557/557/557
f 540/540/540 557/557/557 558/558/558
f 558/558/558 556/556/556 559/559/559
f 560/560/560 558/558/558 559/559/559
f 558/558/558 560/560/560 540/540/540
f 560/560/560 561/561/561 540/540/540
f 561/561/561 560/560/560 562/562/562
f 563/563/563 561/561/561 562/562/562
f 564/564/564 540/540/540 561/561/561
f 561/561/561 563/563/563 564/564/564
f 541/541/541 540/540/540 564/564/564
f 563/563/563 565/565/565 564/564/564
f 541/541/541 564/564/564 565/565/565
f 565/565/565 563/563/563 566/566/566
f 567/567/567 565/565/565 566/566/566
f 565/565/565 567/567/567 541/541/541
f 567/567/567 568/568/568 541/541/541
f 568/568/568 567/567/567 569/569/569
f 570/570/570 568/568/568 569/569/569
f 571/571/571 541/541/541 568/568/568
f 568/568/568 570/570/570 571/571/571
f 539/539/539 541/541/541 571/571/571
f 570/570/570 572/572/572 571/571/571
f 539/539/539 571/571/571 572/572/572
f 572/572/572 570/570/570 573/573/573
f 574/574/574 572/572/572 573/573/573
f 572/572/572 574/574/574 539/539/539
f 574/574/574 575/575/575 539/539/539
f 575/575/575 574/574/574 576/576/576
f 577/577/577 575/575/575 576/576/576
f 578/578/578 539/539/539 575/575/575
f 575/575/575 577/577/577 578/578/578
f 579/579/579 539/539/539 578/578/578
f 538/538/538 539/539/539 579/579/579
f 577/577/577 580/580/580 578/578/578
f 579/579/579 578/578/578 580/580/580
f 580/580/580 577/577/577 581/581/581
f 582/582/582 580/580/580 581/581/581
f 580/580/580 582/582/582 579/579/579
f 582/582/582 583/583/583 579/579/579
f 583/583/583 582/582/582 584/584/584
f 585/585/585 583/583/583 584/584/584
f 586/586/586 579/579/579 583/583/583
f 538/538/538 579/579/579 586/586/586
f 583/583/583 585/585/585 586/586/586
f 538/538/538 586/586/586 587/587/587
f 585/585/585 587/587/587 586/586/586
f 587/587/587 549/549/549 538/538/538
f 587/587/587 585/585/585 588/588/588
f 549/549/549 587/587/587 588/588/588
f 589/589/589 590/590/590 591/591/591
f 592/592/592 589/589/589 591/591/591
f 589/589/589 592/592/592 593/593/593
f 593/593/593 594/594/594 589/589/589
f 590/590/590 589/589/589 594/594/594
f 592/592/592 595/595/595 593/593/593
f 595/595/595 592/592/592 596/596/596
f 597/597/597 595/595/595 596/596/596
f 598/598/598 590/590/590 594/594/594
f 590/590/590 598/598/598 599/599/599
f 598/598/598 600/600/600 599/599/599
f 594/594/594 601/601/601 598/598/598
f 600/600/600 598/598/598 601/601/601
f 593/593/593 601/601/601 594/594/594
f 593/593/593 602/602/602 601/601/601
f 593/593/593 603/603/603 602/602/602
f 593/593/593 604/604/604 603/603/603
f 603/603/603 604/604/604 605/605/605
f 595/595/595 597/597/597 606/606/606
f 606/606/606 593/593/593 595/595/595
f 607/607/607 600/600/600 601/601/601
f 600/600/600 607/607/607 608/608/608
f 607/607/607 609/609/609 608/608/608
f 601/601/601 610/610/610 607/607/607
f 609/609/609 607/607/607 610/610/610
f 601/601/601 602/602/602 610/610/610
f 611/611/611 609/609/609 610/610/610
f 610/610/610 602/602/602 611/611/611
f 609/609/609 611/611/611 612/612/612
f 611/611/611 613/613/613 612/612/612
f 613/613/613 611/611/611 602/602/602
f 597/597/597 614/614/614 606/606/606
f 614/614/614 597/597/597 615/615/615
f 616/616/616 614/614/614 615/615/615
f 606/606/606 614/614/614 617/617/617
f 614/614/614 616/616/616 617/617/617
f 606/606/606 617/617/617 593/593/593
f 593/593/593 617/617/617 604/604/604
f 616/616/616 618/618/618 617/617/617
f 618/618/618 616/616/616 619/619/619
f 620/620/620 618/618/618 619/619/619
f 621/621/621 617/617/617 618/618/618
f 618/618/618 620/620/620 621/621/621
f 604/604/604 617/617/617 621/621/621
f 620/620/620 622/622/622 621/621/621
f 604/604/604 621/621/621 622/622/622
f 622/622/622 620/620/620 623/623/623
f 624/624/624 622/622/622 623/623/623
f 622/622/622 624/624/624 604/604/604
f 624/624/624 625/625/625 604/604/604
f 625/625/625 624/624/624 626/626/626
f 627/627/627 625/625/625 626/626/626
f 628/628/628 604/604/604 625/625/625
f 625/625/625 627/627/627 628/628/628
f 605/605/605 604/604/604 628/628/628
f 627/627/627 629/629/629 628/628/628
f 605/605/605 628/628/628 629/629/629
f 629/629/629 627/627/627 630/630/630
f 631/631/631 629/629/629 630/630/630
f 629/629/629 631/631/631 605/605/605
f 631/631/631 632/632/632 605/605/605
f 632/632/632 631/631/631 633/633/633
f 634/634/634 632/632/632 633/633/633
f 635/635/635 605/605/605 632/632/632
f 632/632/632 634/634/634 635/635/635
f 603/603/603 605/605/605 635/635/635
f 634/634/634 636/636/636 635/635/635
f 603/603/603 635/635/635 636/636/636
f 636/636/636 634/634/634 637/637/637
f 638/638/638 636/636/636 637/637/637
f 636/636/636 638/638/638 603/603/603
f 638/638/638 639/639/639 603/603/603
f 639/639/639 638/638/638 640/640/640
f 641/641/641 639/639/639 640/640/640
f 642/642/642 603/603/603 639/639/639
f 639/639/639 641/641/641 642/642/642
f 643/643/643 603/603/603 642/642/642
f 602/602/602 603/603/603 643/643/643
f 641/641/641 644/644/644 642/642/642
f 643/643/643 642/642/642 644/644/644
f 644/644/644 641/641/641 645/645/645
f 646/646/646 644/644/644 645/645/645
f 644/644/644 646/646/646 643/643/643
f 646/646/646 647/647/647 643/643/643
f 647/647/647 646/646/646 648/648/648
f 649/649/649 647/647/647 648/648/648
f 650/650/650 643/643/643 647/647/647
f 602/602/602 643/643/643 650/650/650
f 647/647/647 649/649/649 650/650/650
f 602/602/602 650/650/650 651/651/651
f 649/649/649 651/651/651 650/650/650
f 651/651/651 613/613/613 602/602/602
f 651/651/651 649/649/649 652/652/652
f 613/613/613 651/651/651 652/652/652
