v 9.288788E-06 -0.09720377 -0.4499561
v 4.358291E-06 -0.1088994 -0.4709019
v -0.02285906 -0.1048959 -0.4739258
v 0.02284314 -0.09554955 -0.4513197
v 0.02287642 -0.1048975 -0.4739473
v -0.04109642 -0.08992732 -0.4575892
v -0.02282148 -0.09554614 -0.451287
v 0.03891813 -0.09911904 -0.4795363
v -0.0571338 -0.07632238 -0.4716457
v -0.03888761 -0.09911717 -0.4795035
v 0.05563609 -0.08731118 -0.4945702
v 0.04112967 -0.08993208 -0.4576424
v -0.06766963 -0.05898938 -0.4916819
v -0.05557605 -0.08731073 -0.4945367
v 0.06697631 -0.06991148 -0.5120973
v 0.05719611 -0.07632571 -0.4717036
v -0.07972445 -0.03716503 -0.5083625
v -0.0668739 -0.06991228 -0.5120725
v 0.07938326 -0.04707093 -0.5270954
v 0.06777313 -0.05899015 -0.4917265
v -0.09399153 -0.0135266 -0.5221297
v -0.07824214 -0.0470716 -0.5270689
v 0.09453359 -0.02290015 -0.541584
v 0.08109728 -0.03716544 -0.5084202
v -1.66893E-06 0.02640852 -0.4000854
v 1.096725E-06 0.001716957 -0.3995531
v -0.01981202 0.001429768 -0.4034633
v -0.02085837 0.02727266 -0.4049869
v -0.02112498 0.05358484 -0.4080667
v -2.994537E-06 0.05274306 -0.4034496
v 0.02086211 0.02727089 -0.4050563
v 0.01982031 0.001427717 -0.4035284
v 0.02112444 0.05358339 -0.408136
v -0.04063186 0.05517202 -0.4184602
v 0.03991998 0.02693672 -0.4137237
v -0.08047915 -0.02216056 -0.4843565
v 0.09370385 -0.0008730316 -0.4987504
v 0.0955317 -0.01353324 -0.5221714
v -0.03990354 0.02693981 -0.4136044
v 0.04013668 0.002817707 -0.4128793
v -0.06940459 -0.04201717 -0.4689341
v 0.08153383 -0.02216282 -0.4844572
v -0.05760928 -0.0582993 -0.4532898
v 0.06950121 -0.0420202 -0.469011
v -0.04274628 -0.06912969 -0.4373217
v 0.05767448 -0.05830448 -0.4533734
v -0.05659555 -0.03711739 -0.4364115
v 0.04315608 -0.047747 -0.4245422
v 0.0566525 -0.0371231 -0.4365231
v -0.04150051 -0.02492143 -0.4164933
v -0.04011464 0.002821407 -0.4127617
v -0.02365604 -0.07418817 -0.4280977
v 0.02144031 -0.02665965 -0.4065216
v 0.04278631 -0.06913611 -0.4374008
v -0.0228559 -0.05101439 -0.4143279
v -0.04311816 -0.04774097 -0.4244425
v 0.0236841 -0.07419255 -0.4281471
v 0.04153136 -0.02492627 -0.4166045
v 6.790161E-06 -0.02670125 -0.404012
v -0.0214235 -0.02665687 -0.4064566
v 1.291275E-05 -0.07476489 -0.4258027
v 1.139641E-05 -0.05182788 -0.4123533
v 0.02288092 -0.05101809 -0.4143878
v -0.05619619 0.04784504 -0.4300675
v 0.05567549 0.02428429 -0.4239476
v 0.04078202 0.05314178 -0.4181782
v -0.05686076 0.02372501 -0.4246972
v 0.0534833 0.004076843 -0.4214084
v -0.05432859 -0.01679933 -0.4265715
v -0.05344853 0.004081201 -0.4212679
v -0.09206467 -0.0008654117 -0.498654
v -0.08248435 0.01596643 -0.4748333
v -0.06773997 -0.02573397 -0.4523279
v 0.07655739 -0.005138321 -0.4629514
v 0.08348005 0.01596087 -0.4749634
v 0.0678231 -0.02573816 -0.4524324
v -0.07641772 -0.005135431 -0.4628495
v -0.07493371 0.02706384 -0.4551325
v -0.06619795 -0.009001903 -0.4416927
v 0.07113961 0.006382637 -0.4466851
v 0.07501823 0.02706098 -0.4552505
v 0.05437441 -0.01680439 -0.4266998
v -0.06837083 0.03878963 -0.4435448
v -0.06615308 0.01696701 -0.4341312
v -0.07106355 0.006386261 -0.4465584
v -0.0615882 0.004736814 -0.4293271
v 0.06620514 0.01696302 -0.4342781
v 0.05609973 0.04668726 -0.4304058
v 0.06163573 0.00473237 -0.4294716
v 0.06777566 0.03824506 -0.4435461
v 0.06626745 -0.009006253 -0.4418179
v -0.04060841 0.07106817 -0.427514
v -0.01839612 0.07549961 -0.421207
v -0.0561153 0.06433332 -0.4368991
v 0.0413081 0.07411306 -0.4279239
v -0.07006284 0.05226309 -0.4498387
v 0.0572798 0.06619459 -0.436212
v 1.411438E-06 0.07811079 -0.4188591
v 0.02168466 0.07819986 -0.4216473
v -0.01781636 0.07677887 -0.4265043
v 4.415512E-06 0.07908863 -0.4252082
v 9.965896E-06 0.08411331 -0.4388078
v -0.03955528 0.0723846 -0.4332798
v 0.01970522 0.07904465 -0.42715
v -0.05296662 0.06526001 -0.4414305
v 0.03921131 0.07358804 -0.434327
v -0.06663939 0.05227696 -0.4531119
v 0.07080512 0.05296585 -0.4496222
v 0.05304284 0.06530039 -0.4411269
v -0.01774375 0.08159273 -0.4387605
v 0.01776571 0.08159201 -0.4387988
v 0.03615117 0.0800691 -0.4413444
v -0.1007573 0.01554961 -0.5328731
v -0.09476523 0.02356085 -0.5102914
v 0.09380645 0.02319385 -0.5105597
v -0.1033436 0.007741489 -0.5521764
v 0.1017373 0.01554138 -0.5328946
v 0.08429553 0.03565989 -0.4849449
v -0.08296153 0.03567126 -0.4848274
v -0.0739499 0.04796039 -0.4646593
v 0.07712594 0.0438873 -0.4643616
v 0.06879139 0.05666526 -0.4521756
v -0.09397922 0.03331986 -0.5380964
v -0.08776175 0.04041094 -0.5146475
v 0.08860899 0.03942095 -0.5146353
v -0.09631553 0.0246609 -0.5569642
v 0.1037632 0.007195272 -0.553374
v 0.09654206 0.03328732 -0.538112
v -0.07719544 0.05220462 -0.5428705
v 0.0790403 0.04331981 -0.5623924
v 0.09718677 0.02429847 -0.5583512
v -0.07447846 0.0572495 -0.5207775
v 0.08180123 0.05213753 -0.5428687
v -0.06671102 0.06535818 -0.4729553
v -0.06280253 0.0637363 -0.4594847
v 0.07403888 0.04795786 -0.4647589
v 0.06268107 0.06288887 -0.4600307
v -0.07087012 0.06209404 -0.4960776
v -0.07942786 0.04648783 -0.48802
v -0.07703499 0.04388993 -0.4642573
v 0.08093016 0.04647277 -0.4881302
v 0.06679897 0.0653557 -0.4730326
v 0.07265091 0.06207245 -0.4961627
v 0.07829593 0.05719554 -0.5208248
v -0.050526 0.07294846 -0.4506941
v 1.37043E-05 0.09513643 -0.4559027
v -0.02573346 0.08994154 -0.4563149
v -0.03539528 0.07760902 -0.4409602
v 0.02650076 0.09148594 -0.45529
v 0.05101852 0.07315273 -0.4509154
v 2.447128E-05 0.09962681 -0.4776033
v -0.02972493 0.09216465 -0.4758635
v 0.02978338 0.09216314 -0.4758968
v 0.05397697 0.07916646 -0.4758415
v 3.858566E-05 0.1038412 -0.5006528
v -0.03145665 0.09511478 -0.50095
v -0.05390039 0.07916887 -0.4757818
v 0.03155155 0.09511318 -0.5009692
v 0.05478244 0.07997076 -0.4987005
v 6.079674E-05 0.1003337 -0.520498
v -0.03065519 0.09208763 -0.5217284
v -0.0543291 0.07997688 -0.4986607
v 0.03079597 0.09208649 -0.521738
v 0.05607786 0.07589964 -0.5219832
v 9.490013E-05 0.08980783 -0.5421479
v -0.02883941 0.08385754 -0.5434824
v -0.05408303 0.07592514 -0.5219606
v 0.02911879 0.08385655 -0.5434853
v 0.05740117 0.07064142 -0.5441285
v -0.001201096 0.08186323 -0.5642637
v -0.030005 0.07695901 -0.5635624
v -0.05460237 0.07067657 -0.5441314
v -0.07598843 0.04350567 -0.5616207
v 0.03028866 0.0769589 -0.5635628
v 0.05606292 0.06177358 -0.5645077
v -0.02854557 0.06967693 -0.5769934
v -0.05369393 0.06179924 -0.5645192
v 0.05392545 0.05544458 -0.5766591
v 0.000147562 0.07586847 -0.5752064
v 0.02885135 0.06967703 -0.5769934
v -0.02499625 0.06411533 -0.5762071
v 0.0001511383 0.06970291 -0.5757264
v 0.02530384 0.06411539 -0.5762071
v -0.05232206 0.05545865 -0.5766668
v 0.07541178 0.0381593 -0.5739409
v -0.07183375 0.03820184 -0.5739617
v 0.0946466 0.01999798 -0.5688434
v -0.09220492 0.0200248 -0.5688549
v 0.101337 0.004839506 -0.5623101
v -0.09108939 0.003506565 -0.5631017
v -0.08223981 0.0178784 -0.5668308
v 0.08460694 0.01785293 -0.5668207
v -0.09203528 -0.02461814 -0.547631
v -0.09960891 0.00485445 -0.5623136
v -0.08343264 -0.02016587 -0.5500103
v 0.09377331 -0.0246253 -0.5476405
v 0.09285215 0.003490868 -0.5630973
v -0.07831738 -0.05055422 -0.5335496
v -0.09282105 -0.02289323 -0.5415685
v -0.07042733 -0.04699039 -0.5346021
v 0.07922323 -0.0505531 -0.533568
v 0.08518423 -0.02017558 -0.5500156
v -0.06840634 -0.07423221 -0.5170879
v -0.06012639 -0.06993331 -0.5193909
v 0.06850351 -0.0742311 -0.5171095
v 0.07144633 -0.04699077 -0.5346178
v -0.05768023 -0.09434514 -0.5000395
v -0.05055418 -0.08849874 -0.5039137
v 0.05772909 -0.09434501 -0.5000697
v 0.06023325 -0.06993233 -0.5194083
v -0.04069248 -0.106096 -0.4854877
v -0.03786732 -0.0988038 -0.491072
v 0.04071184 -0.1060973 -0.4855179
v 0.05061664 -0.08849842 -0.5039375
v 0.02324816 -0.1123251 -0.4799859
v -0.02178727 -0.1041134 -0.4844676
v 0.03790358 -0.09880441 -0.4910968
v -0.02324333 -0.1123239 -0.4799667
v 5.645752E-06 -0.1093945 -0.4813515
v 6.737709E-05 -0.1172405 -0.476201
v 0.02181034 -0.1041141 -0.484484
v 0.06726906 0.03513042 -0.5727924
v 0.04693896 0.05137875 -0.5755442
v -0.04537494 0.05139122 -0.575551
v -0.06389029 0.03516802 -0.5728104
v -0.01781636 0.07677887 -0.4265043
v 4.415512E-06 0.07908863 -0.4252082
v -0.01781636 0.07677887 -0.4265043
v 4.415512E-06 0.07908863 -0.4252082
v -0.01781636 0.07677887 -0.4265043
v 0.01970522 0.07904465 -0.42715
v -0.03955528 0.0723846 -0.4332798
v -0.01781636 0.07677887 -0.4265043
v 4.415512E-06 0.07908863 -0.4252082
v 0.01970522 0.07904465 -0.42715
v 4.415512E-06 0.07908863 -0.4252082
v 9.965896E-06 0.08411331 -0.4388078
v 0.01970522 0.07904465 -0.42715
v 0.03921131 0.07358804 -0.434327
v -0.06663939 0.05227696 -0.4531119
v 0.06879139 0.05666526 -0.4521756
v -0.05296662 0.06526001 -0.4414305
v 0.05304284 0.06530039 -0.4411269
v 1.37043E-05 0.09513643 -0.4559027
v 2.447128E-05 0.09962681 -0.4776033
v 3.858566E-05 0.1038412 -0.5006528
v 6.079674E-05 0.1003337 -0.520498
v 9.490013E-05 0.08980783 -0.5421479
v -0.001201096 0.08186323 -0.5642637
v 0.000147562 0.07586847 -0.5752064
v 0.0001511383 0.06970291 -0.5757264
vt 0.5003 0.2035
vt 0.4998 0.1335
vt 0.5318 0.1322
vt 0.4723 0.2065
vt 0.4679 0.1349
vt 0.5524 0.2023
vt 0.5284 0.2044
vt 0.4436 0.1352
vt 0.5827 0.195
vt 0.5565 0.1305
vt 0.4116 0.124
vt 0.4483 0.2062
vt 0.6185 0.1752
vt 0.5888 0.1157
vt 0.3782 0.1091
vt 0.4182 0.2018
vt 0.6588 0.1694
vt 0.6224 0.0975
vt 0.3402 0.107
vt 0.3826 0.1852
vt 0.701 0.1722
vt 0.6612 0.0929
vt 0.2989 0.1069
vt 0.3431 0.1818
vt 0.5029 0.6541
vt 0.5025 0.5543
vt 0.5345 0.5466
vt 0.5416 0.6512
vt 0.547 0.773
vt 0.5031 0.7722
vt 0.4643 0.6526
vt 0.4704 0.5484
vt 0.4596 0.7728
vt 0.5931 0.7671
vt 0.4274 0.6369
vt 0.6554 0.2751
vt 0.3064 0.2904
vt 0.3018 0.1861
vt 0.5788 0.6334
vt 0.4356 0.5384
vt 0.6166 0.2728
vt 0.3474 0.2855
vt 0.5834 0.2741
vt 0.3858 0.2806
vt 0.554 0.2839
vt 0.4188 0.2798
vt 0.5843 0.3611
vt 0.4453 0.3598
vt 0.419 0.3662
vt 0.5617 0.4335
vt 0.5692 0.5342
vt 0.5288 0.2901
vt 0.4721 0.4474
vt 0.448 0.2875
vt 0.5299 0.3657
vt 0.5576 0.3563
vt 0.4731 0.292
vt 0.4419 0.4368
vt 0.5019 0.4513
vt 0.5316 0.4459
vt 0.501 0.2934
vt 0.5014 0.3683
vt 0.473 0.3675
vt 0.632 0.7047
vt 0.3959 0.6042
vt 0.415 0.7574
vt 0.612 0.5935
vt 0.4112 0.526
vt 0.587 0.4401
vt 0.5934 0.5212
vt 0.6972 0.2785
vt 0.6933 0.409
vt 0.615 0.3557
vt 0.353 0.3938
vt 0.3113 0.4192
vt 0.3883 0.3626
vt 0.6506 0.3846
vt 0.6784 0.5253
vt 0.6175 0.431
vt 0.364 0.4775
vt 0.3271 0.5328
vt 0.4169 0.4443
vt 0.6649 0.6214
vt 0.629 0.5427
vt 0.6403 0.4699
vt 0.6104 0.5066
vt 0.3758 0.5487
vt 0.3754 0.7035
vt 0.3941 0.5125
vt 0.3421 0.6265
vt 0.3866 0.4378
vt 0.6074 0.8584
vt 0.5507 0.9019
vt 0.6516 0.7945
vt 0.3994 0.8704
vt 0.6933 0.6811
vt 0.3576 0.8072
vt 0.5028 0.9149
vt 0.4487 0.909
vt 0.555 0.9365
vt 0.5034 0.9564
vt 0.9645 0.8604
vt 0.6179 0.8902
vt 0.4471 0.9477
vt 0.6637 0.8225
vt 0.3871 0.9086
vt 0.7081 0.695
vt 0.3132 0.6943
vt 0.3423 0.8375
vt 0.9153 0.859
vt 0.0915 0.8729
vt 0.1416 0.8513
vt 0.7499 0.1898
vt 0.7428 0.291
vt 0.261 0.302
vt 0.7528 0.1088
vt 0.2539 0.2031
vt 0.2685 0.4406
vt 0.7365 0.4299
vt 0.736 0.5936
vt 0.2834 0.5752
vt 0.302 0.7176
vt 0.7823 0.2019
vt 0.7751 0.3095
vt 0.2304 0.3198
vt 0.782 0.1192
vt 0.2508 0.1193
vt 0.2224 0.215
vt 0.8226 0.2143
vt 0.1806 0.1406
vt 0.2216 0.129
vt 0.8148 0.3154
vt 0.1831 0.2282
vt 0.7931 0.5819
vt 0.7867 0.6714
vt 0.2692 0.6004
vt 0.2212 0.6817
vt 0.8036 0.4411
vt 0.7604 0.4463
vt 0.7225 0.5674
vt 0.2445 0.4556
vt 0.2121 0.5919
vt 0.2022 0.4524
vt 0.191 0.3274
vt 0.8248 0.7521
vt 0.9669 0.742
vt 0.9033 0.7328
vt 0.8649 0.8351
vt 0.1022 0.7489
vt 0.1812 0.7656
vt 0.9686 0.6108
vt 0.901 0.6102
vt 0.1049 0.6208
vt 0.167 0.6005
vt 0.9727 0.4806
vt 0.908 0.4694
vt 0.8393 0.5889
vt 0.0981 0.4805
vt 0.1528 0.4728
vt 0.9717 0.3737
vt 0.9139 0.3627
vt 0.8532 0.4607
vt 0.0927 0.374
vt 0.1437 0.3532
vt 0.9665 0.2582
vt 0.917 0.2532
vt 0.8626 0.3407
vt 0.0897 0.2653
vt 0.1374 0.2493
vt 0.9605 0.1522
vt 0.9161 0.1609
vt 0.8691 0.2358
vt 0.8242 0.1287
vt 0.0907 0.1736
vt 0.1356 0.1562
vt 0.916 0.1009
vt 0.8712 0.1419
vt 0.1354 0.1014
vt 0.9577 0.0995
vt 0.0912 0.1126
vt 0.9154 0.0702
vt 0.9536 0.0792
vt 0.0924 0.081
vt 0.8718 0.0866
vt 0.179 0.0902
vt 0.8273 0.0736
vt 0.2206 0.0878
vt 0.7843 0.0708
vt 0.248 0.0867
vt 0.7562 0.0439
vt 0.7865 0.0378
vt 0.2185 0.0563
vt 0.7056 0.0686
vt 0.7559 0.0701
vt 0.7109 0.0367
vt 0.2969 0.0849
vt 0.248 0.0614
vt 0.6619 0.0662
vt 0.7036 0.0912
vt 0.6631 0.0368
vt 0.3394 0.081
vt 0.2916 0.0539
vt 0.6221 0.0749
vt 0.6226 0.0431
vt 0.3782 0.0871
vt 0.338 0.0525
vt 0.5884 0.0888
vt 0.5882 0.058
vt 0.4115 0.0975
vt 0.3774 0.0562
vt 0.558 0.102
vt 0.5599 0.0725
vt 0.4416 0.1073
vt 0.4114 0.0675
vt 0.4673 0.1065
vt 0.533 0.075
vt 0.4393 0.0789
vt 0.5319 0.1035
vt 0.4994 0.0795
vt 0.4995 0.1061
vt 0.4659 0.0784
vt 0.1769 0.061
vt 0.134 0.0701
vt 0.8735 0.0549
vt 0.8295 0.0436
vt 0.555 0.9365
vt 0.5034 0.9564
vt 0.9114 0.9516
vt 0.9672 0.9601
vt 0.555 0.9365
vt 0.4471 0.9477
vt 0.8453 0.8917
vt 0.9114 0.9516
vt 0.0369 0.9704
vt 0.0985 0.9605
vt 0.0369 0.9704
vt 0.0416 0.8703
vt 0.0985 0.9605
vt 0.1596 0.9028
vt 0.7481 0.6996
vt 0.2524 0.727
vt 0.8004 0.817
vt 0.2055 0.8341
vt 0.0388 0.7511
vt 0.0374 0.62
vt 0.0339 0.4902
vt 0.0352 0.3843
vt 0.0406 0.2705
vt 0.0421 0.1654
vt 0.0476 0.1133
vt 0.0524 0.0815
vn 0.000361761 -0.8263019 0.5632273
vn 0.0003855459 -0.7654423 0.6435044
vn -0.3146759 -0.7406466 0.5936511
vn 0.2776992 -0.8033935 0.5267277
vn 0.315096 -0.7403686 0.5937752
vn -0.6044742 -0.6798853 0.4151711
vn -0.2772378 -0.8035703 0.5267011
vn 0.6043577 -0.6183508 0.5023885
vn -0.8391777 -0.4731995 0.2680729
vn -0.604695 -0.6179839 0.5024341
vn 0.8448567 -0.3831338 0.3733975
vn 0.6042775 -0.6799146 0.4154093
vn -0.9105412 -0.3696394 0.1851529
vn -0.8454972 -0.3820525 0.3730555
vn 0.9160746 -0.3022957 0.2634853
vn 0.8386216 -0.4738211 0.2687146
vn -0.9039739 -0.3854574 0.1850778
vn -0.9223507 -0.2858914 0.2598755
vn 0.9002802 -0.3943039 0.1844451
vn 0.9029795 -0.383292 0.1942041
vn -0.9403759 -0.2839924 0.1871938
vn -0.9105973 -0.3712598 0.1816002
vn 0.9298136 -0.3606044 0.07356051
vn 0.8940318 -0.4025033 0.1967191
vn 0.001541529 0.07835131 0.9969246
vn 0.001530039 -0.04573273 0.9989525
vn -0.3059987 -0.03490548 0.9513918
vn -0.3211382 0.07829133 0.9437906
vn -0.3015205 0.3206829 0.897913
vn -0.007536885 0.3243138 0.9459195
vn 0.3225529 0.0775509 0.9433692
vn 0.3083058 -0.03470794 0.950654
vn 0.3022951 0.2924217 0.9072526
vn -0.5139725 0.283752 0.8095165
vn 0.5029247 0.08889476 0.8597467
vn -0.9161811 -0.276555 0.2900509
vn 0.9477884 -0.1066844 0.3005256
vn 0.9446486 -0.2679476 0.189323
vn -0.500748 0.08867268 0.8610392
vn 0.5028202 -0.03168153 0.8638102
vn -0.9064297 -0.304744 0.2924317
vn 0.9060157 -0.2862194 0.3117917
vn -0.8424365 -0.3640026 0.3972441
vn 0.9001927 -0.3112914 0.30455
vn -0.6341013 -0.4939492 0.59492
vn 0.8419415 -0.3641753 0.3981344
vn -0.8094593 -0.2624224 0.5252714
vn 0.6181451 -0.3240047 0.7161826
vn 0.8089688 -0.2621429 0.5261659
vn -0.5589215 -0.1698691 0.8116349
vn -0.5025357 -0.03144995 0.8639842
vn -0.2808257 -0.6025494 0.7470416
vn 0.2933991 -0.1964508 0.9355875
vn 0.6341223 -0.4936168 0.5951734
vn -0.2870458 -0.38901 0.8753719
vn -0.6178844 -0.3246082 0.7161344
vn 0.2818806 -0.602136 0.7469776
vn 0.5595472 -0.1692849 0.8113258
vn 0.001408701 -0.2187771 0.9757739
vn -0.2913297 -0.1968717 0.9361455
vn 0.0007514212 -0.6276983 0.7784563
vn 0.001135462 -0.4102978 0.9119508
vn 0.2886725 -0.3884783 0.875073
vn -0.7005618 0.2233068 0.6777515
vn 0.6637381 0.1000014 0.74125
vn 0.517316 0.2406146 0.8212727
vn -0.6636739 0.09326467 0.742185
vn 0.6645758 -0.0627386 0.7445824
vn -0.7404796 -0.17864 0.6479025
vn -0.6664442 -0.06491869 0.7427231
vn -0.9462526 -0.1263389 0.2977321
vn -0.9387982 -0.001321791 0.3444652
vn -0.8854895 -0.2186256 0.4100136
vn 0.9075891 -0.1489974 0.3925326
vn 0.9338102 0.006401321 0.3577114
vn 0.8820853 -0.2191528 0.4170105
vn -0.9166001 -0.1458959 0.3722347
vn -0.9308878 0.04167212 0.3629206
vn -0.8510466 -0.1700116 0.4968057
vn 0.9047066 -0.07334385 0.4196743
vn 0.9219293 0.03900274 0.3853894
vn 0.7401169 -0.1780733 0.6484727
vn -0.8523102 0.1306795 0.5064486
vn -0.8317896 0.01994799 0.5547324
vn -0.9087183 -0.076636 0.4103145
vn -0.7945219 -0.1059307 0.5979245
vn 0.8289709 0.03031492 0.5584696
vn 0.6949231 0.1831154 0.695378
vn 0.7928185 -0.1024137 0.6007913
vn 0.846719 0.1055744 0.5214604
vn 0.8501849 -0.1695822 0.498425
vn -0.4644786 0.7487202 0.4729458
vn -0.2508089 0.7994155 0.545921
vn -0.6810236 0.6704139 0.2945374
vn 0.4829749 0.7889481 0.3798634
vn -0.8003005 0.5729204 0.1768651
vn 0.6935802 0.6570661 0.2953146
vn -0.04615741 0.8252432 0.5628882
vn 0.2210362 0.8284488 0.5146023
vn -0.2038581 0.9386977 0.2780079
vn -0.04849088 0.9688774 0.2427453
vn -0.02645948 0.9033266 0.4281366
vn -0.3840224 0.8906089 0.2436032
vn 0.1463115 0.9709179 0.1895036
vn -0.5865632 0.8013231 0.117579
vn 0.3759536 0.9197705 0.1126098
vn -0.6986004 0.711347 0.07709028
vn 0.8575321 0.4433296 0.2609549
vn 0.5612184 0.8253217 0.06227264
vn -0.2367544 0.8754936 0.4212578
vn 0.2055281 0.8890408 0.4091023
vn 0.4129766 0.815937 0.404595
vn -0.9873318 0.1145559 0.1097859
vn -0.9525111 0.2069711 0.2233507
vn 0.9524242 0.1990135 0.230828
vn -0.9923593 0.01065399 -0.1229204
vn 0.986438 0.1058432 0.1254478
vn 0.9352438 0.2507899 0.2498467
vn -0.934531 0.2564499 0.2467495
vn -0.8120636 0.5694256 0.1276996
vn 0.9256673 0.2917783 0.2408433
vn 0.7283142 0.6813814 0.07264895
vn -0.8521491 0.5203725 -0.05526784
vn -0.8565078 0.5077613 0.09258973
vn 0.8835807 0.4467722 0.140285
vn -0.8237709 0.4783743 -0.3042359
vn 0.9948081 0.009698195 -0.1013055
vn 0.8853847 0.4642842 -0.02310971
vn -0.6958174 0.6913087 -0.1947569
vn 0.6563796 0.6404685 -0.3987053
vn 0.8479165 0.4434895 -0.2904387
vn -0.7398429 0.6715664 -0.04038655
vn 0.7107232 0.6782895 -0.1865363
vn -0.7867757 0.5871211 0.1904543
vn -0.7578451 0.5695975 0.3181657
vn 0.8494738 0.5107636 0.1323434
vn 0.7321162 0.6411886 0.2299634
vn -0.7863706 0.6165511 0.03854636
vn -0.8705565 0.4729269 0.1359096
vn -0.9012293 0.3852279 0.1984572
vn 0.880312 0.4455567 0.1628799
vn 0.7765769 0.6059888 0.172354
vn 0.7819012 0.6184536 0.07839444
vn 0.7514328 0.6598026 0.003028285
vn -0.5784726 0.7419627 0.3389111
vn -0.0192159 0.9352283 0.3535234
vn -0.313214 0.8848913 0.344767
vn -0.3995832 0.8268833 0.3957236
vn 0.3034355 0.8923275 0.3341832
vn 0.5800691 0.7509775 0.3155199
vn -0.007176944 0.9874994 0.157459
vn -0.3690447 0.9143989 0.1663751
vn 0.3697552 0.9177172 0.1451764
vn 0.6185126 0.7694039 0.1595616
vn -2.504199E-05 0.9999936 -0.003592973
vn -0.4016421 0.9156607 -0.01577961
vn -0.6110798 0.7751316 0.1604759
vn 0.3959178 0.9182311 -0.01003304
vn 0.6144621 0.7889442 -0.001813019
vn -0.0001094168 0.9580097 -0.2867358
vn -0.3823252 0.8905355 -0.2465237
vn -0.6327398 0.7739581 -0.02508509
vn 0.3699616 0.8974538 -0.2402189
vn 0.5798615 0.8031316 -0.1368953
vn -0.002191865 0.9307283 -0.3657049
vn -0.334695 0.8827268 -0.3298072
vn -0.6059946 0.7799715 -0.1562531
vn 0.3164131 0.8883796 -0.3326626
vn 0.5306146 0.8022535 -0.2735642
vn -0.003459217 0.912894 -0.4081822
vn -0.3191677 0.8584991 -0.4013866
vn -0.5592625 0.7842806 -0.268569
vn -0.6527822 0.6514145 -0.3866971
vn 0.3003304 0.8633415 -0.4055156
vn 0.5135807 0.7521267 -0.4129653
vn -0.1559513 0.4447832 -0.8819563
vn -0.5419362 0.7411851 -0.3961692
vn 0.2854801 0.3352882 -0.8978212
vn -0.001543736 0.5002674 -0.8658695
vn 0.1471226 0.448581 -0.8815498
vn 0.05136002 -0.07070412 -0.9961743
vn 0 -0.009347027 -0.9999564
vn -0.05024946 -0.07177151 -0.9961546
vn -0.3025683 0.3319107 -0.8934695
vn 0.3729709 0.2163895 -0.9022573
vn -0.3706426 0.2160809 -0.9032902
vn 0.5014787 0.0511095 -0.863659
vn -0.4719946 0.05218306 -0.8800557
vn 0.6236194 -0.279599 -0.7300159
vn -0.03718548 -0.4054436 -0.9133635
vn 0.03126699 -0.3438071 -0.9385195
vn -0.03135805 -0.3420244 -0.9391678
vn -0.5968183 -0.5572115 -0.5773417
vn -0.5942327 -0.2841697 -0.7524194
vn -0.01506015 -0.4751725 -0.8797637
vn 0.6036688 -0.5586501 -0.5687653
vn 0.03721428 -0.4052532 -0.9134467
vn -0.6242489 -0.6146962 -0.4821431
vn -0.9281823 -0.3659774 0.06736691
vn 0.06520434 -0.5026067 -0.8620527
vn 0.6122902 -0.6280687 -0.4802398
vn 0.01513951 -0.4745225 -0.8801132
vn -0.6854578 -0.6239498 -0.3752788
vn 0.08732329 -0.5744578 -0.8138629
vn 0.6779435 -0.6333207 -0.3732257
vn -0.06498057 -0.5009736 -0.8630196
vn -0.6134984 -0.7609729 -0.211045
vn 0.1351952 -0.6382943 -0.7578276
vn 0.612678 -0.7616192 -0.2110969
vn -0.08727717 -0.5732129 -0.8147452
vn -0.3946899 -0.9137042 -0.09676954
vn 0.1424481 -0.613571 -0.7766846
vn 0.3941191 -0.9139101 -0.09715207
vn -0.1355164 -0.6378018 -0.7581848
vn 0.2403179 -0.9680798 -0.07119621
vn 0.05870669 -0.5399178 -0.839668
vn -0.1429343 -0.61308 -0.7769831
vn -0.2402152 -0.9681036 -0.07121918
vn -0.0003695409 -0.5160749 -0.8565435
vn 0.0001667416 -0.9983019 -0.05825321
vn -0.05937745 -0.5397032 -0.8397588
vn -0.0534825 -0.2859039 -0.9567646
vn -0.05064116 -0.1747276 -0.9833137
vn 0.0528916 -0.1722866 -0.9836258
vn 0.05456125 -0.2862492 -0.9566005
vn -0.2038581 0.9386977 0.2780079
vn -0.04849088 0.9688774 0.2427453
vn -0.2038581 0.9386977 0.2780079
vn -0.04849088 0.9688774 0.2427453
vn -0.2038581 0.9386977 0.2780079
vn 0.1463115 0.9709179 0.1895036
vn -0.3840224 0.8906089 0.2436032
vn -0.2038581 0.9386977 0.2780079
vn -0.04849088 0.9688774 0.2427453
vn 0.1463115 0.9709179 0.1895036
vn -0.04849088 0.9688774 0.2427453
vn -0.02645948 0.9033266 0.4281366
vn 0.1463115 0.9709179 0.1895036
vn 0.3759536 0.9197705 0.1126098
vn -0.6986004 0.711347 0.07709028
vn 0.7283142 0.6813814 0.07264895
vn -0.5865632 0.8013231 0.117579
vn 0.5612184 0.8253217 0.06227264
vn -0.0192159 0.9352283 0.3535234
vn -0.007176944 0.9874994 0.157459
vn -2.504199E-05 0.9999936 -0.003592973
vn -0.0001094168 0.9580097 -0.2867358
vn -0.002191865 0.9307283 -0.3657049
vn -0.003459217 0.912894 -0.4081822
vn -0.001543736 0.5002674 -0.8658695
vn 0 -0.009347027 -0.9999564
f 227/227/227 99/99/99 104/104/104
f 101/101/101 98/98/98 99/99/99
f 98/98/98 101/101/101 100/100/100
f 30/30/30 99/99/99 98/98/98
f 29/29/29 30/30/30 98/98/98
f 29/29/29 98/98/98 93/93/93
f 98/98/98 226/226/226 93/93/93
f 30/30/30 33/33/33 99/99/99
f 33/33/33 95/95/95 99/99/99
f 231/231/231 99/99/99 95/95/95
f 231/231/231 95/95/95 106/106/106
f 106/106/106 95/95/95 97/97/97
f 106/106/106 97/97/97 109/109/109
f 109/109/109 97/97/97 108/108/108
f 109/109/109 108/108/108 122/122/122
f 122/122/122 108/108/108 121/121/121
f 122/122/122 121/121/121 136/136/136
f 97/97/97 90/90/90 108/108/108
f 90/90/90 121/121/121 108/108/108
f 95/95/95 88/88/88 97/97/97
f 97/97/97 88/88/88 90/90/90
f 33/33/33 66/66/66 95/95/95
f 95/95/95 66/66/66 88/88/88
f 66/66/66 65/65/65 88/88/88
f 88/88/88 87/87/87 90/90/90
f 88/88/88 65/65/65 87/87/87
f 33/33/33 35/35/35 66/66/66
f 66/66/66 35/35/35 65/65/65
f 90/90/90 81/81/81 121/121/121
f 80/80/80 81/81/81 90/90/90
f 80/80/80 90/90/90 87/87/87
f 75/75/75 121/121/121 81/81/81
f 75/75/75 81/81/81 80/80/80
f 136/136/136 121/121/121 118/118/118
f 75/75/75 118/118/118 121/121/121
f 65/65/65 89/89/89 87/87/87
f 65/65/65 68/68/68 89/89/89
f 35/35/35 68/68/68 65/65/65
f 91/91/91 87/87/87 89/89/89
f 91/91/91 80/80/80 87/87/87
f 68/68/68 91/91/91 89/89/89
f 33/33/33 31/31/31 35/35/35
f 35/35/35 40/40/40 68/68/68
f 31/31/31 40/40/40 35/35/35
f 33/33/33 25/25/25 31/31/31
f 33/33/33 30/30/30 25/25/25
f 30/30/30 28/28/28 25/25/25
f 30/30/30 29/29/29 28/28/28
f 76/76/76 80/80/80 91/91/91
f 68/68/68 82/82/82 91/91/91
f 82/82/82 76/76/76 91/91/91
f 68/68/68 58/58/58 82/82/82
f 68/68/68 40/40/40 58/58/58
f 76/76/76 74/74/74 80/80/80
f 75/75/75 80/80/80 74/74/74
f 58/58/58 49/49/49 82/82/82
f 82/82/82 49/49/49 76/76/76
f 37/37/37 75/75/75 74/74/74
f 37/37/37 118/118/118 75/75/75
f 40/40/40 53/53/53 58/58/58
f 58/58/58 48/48/48 49/49/49
f 48/48/48 58/58/58 53/53/53
f 46/46/46 76/76/76 49/49/49
f 46/46/46 49/49/49 48/48/48
f 44/44/44 74/74/74 76/76/76
f 46/46/46 44/44/44 76/76/76
f 37/37/37 74/74/74 42/42/42
f 44/44/44 42/42/42 74/74/74
f 40/40/40 32/32/32 53/53/53
f 31/31/31 32/32/32 40/40/40
f 26/26/26 32/32/32 31/31/31
f 26/26/26 31/31/31 25/25/25
f 32/32/32 59/59/59 53/53/53
f 32/32/32 26/26/26 59/59/59
f 27/27/27 26/26/26 25/25/25
f 27/27/27 25/25/25 28/28/28
f 26/26/26 60/60/60 59/59/59
f 26/26/26 27/27/27 60/60/60
f 59/59/59 60/60/60 55/55/55
f 53/53/53 59/59/59 62/62/62
f 59/59/59 55/55/55 62/62/62
f 27/27/27 50/50/50 60/60/60
f 50/50/50 55/55/55 60/60/60
f 53/53/53 62/62/62 63/63/63
f 48/48/48 53/53/53 63/63/63
f 57/57/57 63/63/63 62/62/62
f 57/57/57 48/48/48 63/63/63
f 55/55/55 61/61/61 62/62/62
f 57/57/57 62/62/62 61/61/61
f 57/57/57 54/54/54 48/48/48
f 46/46/46 48/48/48 54/54/54
f 27/27/27 28/28/28 39/39/39
f 27/27/27 51/51/51 50/50/50
f 27/27/27 39/39/39 51/51/51
f 28/28/28 34/34/34 39/39/39
f 28/28/28 29/29/29 34/34/34
f 29/29/29 92/92/92 34/34/34
f 29/29/29 93/93/93 92/92/92
f 93/93/93 103/103/103 92/92/92
f 93/93/93 230/230/230 103/103/103
f 92/92/92 103/103/103 105/105/105
f 92/92/92 105/105/105 94/94/94
f 34/34/34 92/92/92 94/94/94
f 94/94/94 105/105/105 107/107/107
f 39/39/39 34/34/34 64/64/64
f 34/34/34 94/94/94 64/64/64
f 94/94/94 107/107/107 96/96/96
f 64/64/64 94/94/94 96/96/96
f 96/96/96 107/107/107 120/120/120
f 39/39/39 64/64/64 67/67/67
f 51/51/51 39/39/39 67/67/67
f 64/64/64 96/96/96 83/83/83
f 67/67/67 64/64/64 83/83/83
f 78/78/78 83/83/83 96/96/96
f 67/67/67 83/83/83 84/84/84
f 78/78/78 84/84/84 83/83/83
f 51/51/51 67/67/67 70/70/70
f 70/70/70 67/67/67 84/84/84
f 51/51/51 70/70/70 69/69/69
f 51/51/51 69/69/69 50/50/50
f 70/70/70 84/84/84 86/86/86
f 69/69/69 70/70/70 86/86/86
f 85/85/85 86/86/86 84/84/84
f 78/78/78 85/85/85 84/84/84
f 85/85/85 79/79/79 86/86/86
f 69/69/69 86/86/86 79/79/79
f 56/56/56 50/50/50 69/69/69
f 50/50/50 56/56/56 55/55/55
f 56/56/56 69/69/69 47/47/47
f 47/47/47 69/69/69 79/79/79
f 77/77/77 79/79/79 85/85/85
f 78/78/78 77/77/77 85/85/85
f 45/45/45 55/55/55 56/56/56
f 47/47/47 45/45/45 56/56/56
f 77/77/77 73/73/73 79/79/79
f 47/47/47 79/79/79 73/73/73
f 45/45/45 52/52/52 55/55/55
f 55/55/55 52/52/52 61/61/61
f 36/36/36 73/73/73 77/77/77
f 41/41/41 47/47/47 73/73/73
f 36/36/36 41/41/41 73/73/73
f 78/78/78 72/72/72 77/77/77
f 72/72/72 36/36/36 77/77/77
f 47/47/47 43/43/43 45/45/45
f 41/41/41 43/43/43 47/47/47
f 6/6/6 52/52/52 45/45/45
f 7/7/7 61/61/61 52/52/52
f 6/6/6 7/7/7 52/52/52
f 9/9/9 45/45/45 43/43/43
f 9/9/9 6/6/6 45/45/45
f 13/13/13 43/43/43 41/41/41
f 13/13/13 9/9/9 43/43/43
f 7/7/7 1/1/1 61/61/61
f 1/1/1 57/57/57 61/61/61
f 3/3/3 7/7/7 6/6/6
f 3/3/3 1/1/1 7/7/7
f 10/10/10 6/6/6 9/9/9
f 3/3/3 6/6/6 10/10/10
f 1/1/1 4/4/4 57/57/57
f 4/4/4 54/54/54 57/57/57
f 10/10/10 9/9/9 14/14/14
f 14/14/14 9/9/9 13/13/13
f 17/17/17 13/13/13 41/41/41
f 17/17/17 41/41/41 36/36/36
f 3/3/3 2/2/2 1/1/1
f 2/2/2 4/4/4 1/1/1
f 3/3/3 10/10/10 211/211/211
f 14/14/14 211/211/211 10/10/10
f 14/14/14 13/13/13 18/18/18
f 18/18/18 13/13/13 17/17/17
f 4/4/4 12/12/12 54/54/54
f 12/12/12 46/46/46 54/54/54
f 2/2/2 3/3/3 218/218/218
f 3/3/3 211/211/211 218/218/218
f 18/18/18 207/207/207 14/14/14
f 14/14/14 207/207/207 211/211/211
f 12/12/12 16/16/16 46/46/46
f 16/16/16 44/44/44 46/46/46
f 16/16/16 20/20/20 44/44/44
f 20/20/20 42/42/42 44/44/44
f 20/20/20 24/24/24 42/42/42
f 24/24/24 37/37/37 42/42/42
f 211/211/211 216/216/216 218/218/218
f 211/211/211 212/212/212 216/216/216
f 207/207/207 212/212/212 211/211/211
f 218/218/218 216/216/216 219/219/219
f 207/207/207 208/208/208 212/212/212
f 218/218/218 219/219/219 220/220/220
f 221/221/221 220/220/220 219/219/219
f 2/2/2 218/218/218 220/220/220
f 203/203/203 208/208/208 207/207/207
f 18/18/18 203/203/203 207/207/207
f 203/203/203 204/204/204 208/208/208
f 221/221/221 215/215/215 220/220/220
f 215/215/215 2/2/2 220/220/220
f 217/217/217 215/215/215 221/221/221
f 22/22/22 203/203/203 18/18/18
f 18/18/18 17/17/17 22/22/22
f 198/198/198 204/204/204 203/203/203
f 22/22/22 198/198/198 203/203/203
f 198/198/198 200/200/200 204/204/204
f 22/22/22 17/17/17 21/21/21
f 21/21/21 17/17/17 36/36/36
f 199/199/199 198/198/198 22/22/22
f 22/22/22 21/21/21 199/199/199
f 193/193/193 200/200/200 198/198/198
f 199/199/199 193/193/193 198/198/198
f 193/193/193 195/195/195 200/200/200
f 116/116/116 193/193/193 199/199/199
f 21/21/21 116/116/116 199/199/199
f 194/194/194 195/195/195 193/193/193
f 116/116/116 194/194/194 193/193/193
f 194/194/194 190/190/190 195/195/195
f 188/188/188 190/190/190 194/194/194
f 116/116/116 188/188/188 194/194/194
f 188/188/188 191/191/191 190/190/190
f 188/188/188 225/225/225 191/191/191
f 21/21/21 36/36/36 71/71/71
f 72/72/72 71/71/71 36/36/36
f 21/21/21 113/113/113 116/116/116
f 71/71/71 113/113/113 21/21/21
f 116/116/116 126/126/126 188/188/188
f 113/113/113 126/126/126 116/116/116
f 188/188/188 186/186/186 225/225/225
f 126/126/126 186/186/186 188/188/188
f 186/186/186 224/224/224 225/225/225
f 114/114/114 71/71/71 72/72/72
f 71/71/71 114/114/114 113/113/113
f 186/186/186 184/184/184 224/224/224
f 184/184/184 181/181/181 224/224/224
f 113/113/113 123/123/123 126/126/126
f 114/114/114 123/123/123 113/113/113
f 114/114/114 72/72/72 119/119/119
f 119/119/119 72/72/72 78/78/78
f 126/126/126 173/173/173 186/186/186
f 173/173/173 184/184/184 186/186/186
f 114/114/114 124/124/124 123/123/123
f 124/124/124 114/114/114 119/119/119
f 119/119/119 78/78/78 140/140/140
f 78/78/78 96/96/96 140/140/140
f 96/96/96 120/120/120 140/140/140
f 140/140/140 139/139/139 119/119/119
f 124/124/124 119/119/119 139/139/139
f 140/140/140 120/120/120 139/139/139
f 126/126/126 123/123/123 129/129/129
f 126/126/126 129/129/129 173/173/173
f 123/123/123 124/124/124 132/132/132
f 132/132/132 124/124/124 139/139/139
f 123/123/123 132/132/132 129/129/129
f 120/120/120 138/138/138 139/139/139
f 132/132/132 139/139/139 138/138/138
f 120/120/120 134/134/134 138/138/138
f 240/240/240 134/134/134 120/120/120
f 173/173/173 129/129/129 172/172/172
f 129/129/129 132/132/132 167/167/167
f 129/129/129 167/167/167 172/172/172
f 132/132/132 138/138/138 162/162/162
f 132/132/132 162/162/162 167/167/167
f 138/138/138 134/134/134 157/157/157
f 138/138/138 157/157/157 162/162/162
f 134/134/134 145/145/145 157/157/157
f 240/240/240 242/242/242 145/145/145
f 232/232/232 145/145/145 242/242/242
f 240/240/240 135/135/135 134/134/134
f 240/240/240 145/145/145 135/135/135
f 134/134/134 135/135/135 145/145/145
f 173/173/173 172/172/172 177/177/177
f 173/173/173 177/177/177 184/184/184
f 177/177/177 176/176/176 184/184/184
f 184/184/184 176/176/176 181/181/181
f 172/172/172 171/171/171 177/177/177
f 177/177/177 171/171/171 176/176/176
f 181/181/181 176/176/176 179/179/179
f 171/171/171 179/179/179 176/176/176
f 181/181/181 179/179/179 182/182/182
f 171/171/171 170/170/170 179/179/179
f 172/172/172 166/166/166 171/171/171
f 166/166/166 170/170/170 171/171/171
f 167/167/167 166/166/166 172/172/172
f 166/166/166 165/165/165 170/170/170
f 167/167/167 161/161/161 166/166/166
f 161/161/161 165/165/165 166/166/166
f 162/162/162 161/161/161 167/167/167
f 161/161/161 160/160/160 165/165/165
f 162/162/162 156/156/156 161/161/161
f 156/156/156 160/160/160 161/161/161
f 157/157/157 156/156/156 162/162/162
f 156/156/156 155/155/155 160/160/160
f 157/157/157 152/152/152 156/156/156
f 152/152/152 155/155/155 156/156/156
f 152/152/152 151/151/151 155/155/155
f 145/145/145 152/152/152 157/157/157
f 147/147/147 151/151/151 152/152/152
f 145/145/145 147/147/147 152/152/152
f 147/147/147 146/146/146 151/151/151
f 148/148/148 147/147/147 145/145/145
f 232/232/232 148/148/148 145/145/145
f 110/110/110 146/146/146 147/147/147
f 148/148/148 110/110/110 147/147/147
f 232/232/232 110/110/110 148/148/148
f 232/232/232 233/233/233 110/110/110
f 110/110/110 102/102/102 146/146/146
f 228/228/228 102/102/102 110/110/110
f 228/228/228 229/229/229 102/102/102
f 234/234/234 235/235/235 111/111/111
f 235/235/235 112/112/112 111/111/111
f 112/112/112 149/149/149 111/111/111
f 237/237/237 111/111/111 149/149/149
f 236/236/236 111/111/111 237/237/237
f 237/237/237 149/149/149 244/244/244
f 244/244/244 149/149/149 153/153/153
f 244/244/244 153/153/153 245/245/245
f 245/245/245 153/153/153 158/158/158
f 245/245/245 158/158/158 246/246/246
f 246/246/246 158/158/158 163/163/163
f 246/246/246 163/163/163 247/247/247
f 247/247/247 163/163/163 168/168/168
f 247/247/247 168/168/168 248/248/248
f 248/248/248 168/168/168 174/174/174
f 248/248/248 174/174/174 249/249/249
f 249/249/249 174/174/174 180/180/180
f 249/249/249 180/180/180 250/250/250
f 180/180/180 251/251/251 250/250/250
f 180/180/180 183/183/183 251/251/251
f 180/180/180 223/223/223 183/183/183
f 180/180/180 178/178/178 223/223/223
f 174/174/174 178/178/178 180/180/180
f 178/178/178 222/222/222 223/223/223
f 168/168/168 175/175/175 174/174/174
f 174/174/174 175/175/175 178/178/178
f 178/178/178 185/185/185 222/222/222
f 175/175/175 185/185/185 178/178/178
f 185/185/185 192/192/192 222/222/222
f 163/163/163 169/169/169 168/168/168
f 168/168/168 169/169/169 175/175/175
f 163/163/163 164/164/164 169/169/169
f 158/158/158 164/164/164 163/163/163
f 158/158/158 159/159/159 164/164/164
f 153/153/153 159/159/159 158/158/158
f 153/153/153 154/154/154 159/159/159
f 149/149/149 154/154/154 153/153/153
f 149/149/149 150/150/150 154/154/154
f 112/112/112 150/150/150 149/149/149
f 175/175/175 130/130/130 185/185/185
f 185/185/185 187/187/187 192/192/192
f 130/130/130 187/187/187 185/185/185
f 133/133/133 175/175/175 169/169/169
f 133/133/133 130/130/130 175/175/175
f 144/144/144 169/169/169 164/164/164
f 144/144/144 133/133/133 169/169/169
f 143/143/143 164/164/164 159/159/159
f 143/143/143 144/144/144 164/164/164
f 142/142/142 159/159/159 154/154/154
f 142/142/142 143/143/143 159/159/159
f 137/137/137 154/154/154 150/150/150
f 137/137/137 142/142/142 154/154/154
f 192/192/192 187/187/187 189/189/189
f 192/192/192 189/189/189 197/197/197
f 130/130/130 131/131/131 187/187/187
f 131/131/131 189/189/189 187/187/187
f 128/128/128 130/130/130 133/133/133
f 128/128/128 131/131/131 130/130/130
f 125/125/125 133/133/133 144/144/144
f 125/125/125 144/144/144 143/143/143
f 125/125/125 128/128/128 133/133/133
f 142/142/142 141/141/141 143/143/143
f 125/125/125 143/143/143 141/141/141
f 128/128/128 127/127/127 131/131/131
f 131/131/131 127/127/127 189/189/189
f 197/197/197 189/189/189 196/196/196
f 197/197/197 196/196/196 202/202/202
f 125/125/125 117/117/117 128/128/128
f 128/128/128 117/117/117 127/127/127
f 189/189/189 127/127/127 23/23/23
f 189/189/189 23/23/23 196/196/196
f 117/117/117 23/23/23 127/127/127
f 202/202/202 196/196/196 201/201/201
f 202/202/202 201/201/201 206/206/206
f 125/125/125 115/115/115 117/117/117
f 115/115/115 125/125/125 141/141/141
f 142/142/142 136/136/136 141/141/141
f 137/137/137 136/136/136 142/142/142
f 136/136/136 118/118/118 141/141/141
f 115/115/115 141/141/141 118/118/118
f 137/137/137 241/241/241 136/136/136
f 243/243/243 241/241/241 137/137/137
f 243/243/243 137/137/137 150/150/150
f 112/112/112 243/243/243 150/150/150
f 112/112/112 239/239/239 243/243/243
f 238/238/238 239/239/239 112/112/112
f 37/37/37 115/115/115 118/118/118
f 115/115/115 38/38/38 117/117/117
f 115/115/115 37/37/37 38/38/38
f 117/117/117 38/38/38 23/23/23
f 24/24/24 38/38/38 37/37/37
f 24/24/24 23/23/23 38/38/38
f 24/24/24 19/19/19 23/23/23
f 196/196/196 23/23/23 19/19/19
f 20/20/20 19/19/19 24/24/24
f 196/196/196 19/19/19 201/201/201
f 20/20/20 15/15/15 19/19/19
f 201/201/201 19/19/19 15/15/15
f 16/16/16 15/15/15 20/20/20
f 201/201/201 15/15/15 205/205/205
f 206/206/206 201/201/201 205/205/205
f 206/206/206 205/205/205 210/210/210
f 16/16/16 11/11/11 15/15/15
f 205/205/205 15/15/15 11/11/11
f 12/12/12 11/11/11 16/16/16
f 210/210/210 205/205/205 209/209/209
f 205/205/205 11/11/11 209/209/209
f 210/210/210 209/209/209 214/214/214
f 12/12/12 8/8/8 11/11/11
f 209/209/209 11/11/11 8/8/8
f 4/4/4 8/8/8 12/12/12
f 214/214/214 209/209/209 213/213/213
f 209/209/209 8/8/8 213/213/213
f 214/214/214 213/213/213 217/217/217
f 217/217/217 213/213/213 215/215/215
f 8/8/8 215/215/215 213/213/213
f 4/4/4 5/5/5 8/8/8
f 8/8/8 5/5/5 215/215/215
f 2/2/2 5/5/5 4/4/4
f 215/215/215 5/5/5 2/2/2
