{
"E2": "Z;L;Alpha3",
"F2": "X;Semicolon;Alpha4",
"G2": "C;BackQuote;Alpha5",
"A2": "V;Q;Alpha6",
"B2": "B;W;Alpha7",
"C3": "N;E;Alpha8",
"D3": "M;R;Alpha9",
"E3": "Comma;T;Alpha0",
"F3": "Period;Y;Minus",
"G3": "Slash;U;Equals",
"A3": "A;I",
"B3": "S;O",
"C4": "D;P",
"D4": "F;LeftBracket",
"E4": "G;RightBracket",
"F4": "H;Backslash",
"G4": "J;Alpha1",
"A4": "K;Alpha2",
}
